{
    "namespace" : "P_DropDownList_Diary",
    "language"  : "he",
    "locale"    : "IL",
    "direction" : "rtl",
    "resources" : {
        "DISPLAY_NAME"                      : "DropDownList מבחן",
        "DropDownList_Q1_TITLE"                        : "<strong>שאלה :1</strong>",
        "DropDownList_Q1_TEXT"                  : "<strong>TC17382 - יש רשימה נמוכה ממחיר מקסימאלי המוצג שורות (לא גלילה)</strong>",
        "CLICK_TO_MAKE_SELECTION": "פיק אופציה מן הנפתחת.",

        "DropDownList_Q2_TITLE"                        : "<strong>שאלה 2:</strong>",
        "DropDownList_Q2_TEXT"                  : "<strong>יש רשימת תוכן המשתנה באופן דינמי בהתבסס על פונקציה - TC17384</strong>",

        "DropDownList_Q3_TITLE"                        : "<strong>שאלה 3:</strong>",
        "DropDownList_Q3_TEXT"                  : "<strong>אין שורות מקסימום רשימה מוגדרת, יותר אפשרויות מאשר ברירת המחדל (צריך לגלול) - TC14718</strong>",

        "DropDownList_Q4_TITLE"                        : "<strong>שאלה 4:</strong>",
        "DropDownList_Q4_TEXT"                  : "<strong>יש רשימת שורות מקסימום להגדיר, פריטים יותר מהמחיר המקסימאלי (צריך לגלול) - TC14717</strong>",

        "DropDownList_Q5_TITLE"                        : "<strong>שאלה מס '5:</strong>",
        "DropDownList_Q5_TEXT"                  : "<strong>TC17383 - רשימה יש פריט רחב יותר מאשר באזור הרשימה, צריך לעטוף</strong>",

        "Value_1": "ערך 1",
        "Value_2": "ערך 2",
        "Value_3": "ערך 3",

        "Item_1_Long": "פריט 1 הוא ארוך למדי וקרוב לוודאי שצריך לעטוף מאז הוא ארוך למדי. אם אמיתי, הוא תשובה באמת ארוכה כי אין לו מה לחפש בתוך נפתח.",
        "Item_1": "פריט 1",
        "Item_2": "פריט 2",
        "Item_3": "פריט 3",
        "Item_4": "פריט 4",
        "Item_5": "פריט 5",
        "Item_6": "פריט 6",
        "Item_7": "פריט 7",
        "Item_8": "פריט 8",
        "Item_9": "פריט 9",
        "Item_10": "פריט 10",

        "Custom_1": "המותאם אישית 1",
        "Custom_2": "המותאם אישית 2",
        "Custom_3": "המותאם אישית 3",
        "Custom_4": "המותאם אישית 4",
        "Custom_5": "המותאם אישית 5",

        "SUMMARY_TITLE" : "<strong>סיכום שאלה:</strong>",
        "SUMMARY_QUESTION" : "{{{ getQuestionnaireAnswers }}}"
    }
}
