
{
	"namespace": "STUDY",
	"language": "en",
	"locale": "AU",
	"direction": "ltr",
	"dateConfigs": {
		"headerFormat": "%A, %B %-d, %Y",
		"dateFormat": "%d-%b-%Y",
        "timeOutput": "%k:%M",
        "timeFormat": 24,
		"durationFormat": "%Dd %DA, %Dl:%DM:%DS",
		"durationOrder": [
			"d",
			"h",
			"i",
			"s"
		],
		"dateFieldOrder": [
			"m",
			"d",
			"y"
		],
		"timeFieldOrder": [
			"h",
			"i",
			"a"
		],
		"slideFieldOrder": [
			"y",
			"m",
			"d"
		],
		"dayOfWeek": "%A",
		"indicatorFormat": "%d %b %Y",
		"calStartDay": 0,
		"useArabicIndic": false
	},
	"resources": {
        "EN-US": "English (United States)",
        "JA-JP": "Japanese (Japan)",
        "ZH-US" : "Simplified Chinese (United States)",
        "ES-US" : "Spanish (United States)",
        "EN-AU" : "English (Australia)",
        "EN-CA" : "English (Canada)",
        "CS-CZ" : "Czech (Czech Republic)",
        "EN-GB" : "English (United Kingdom)",
        "TR-TR" : "Turkish (Turkey)",
        "STUDY_DATE_TIME_FORMAT": "DD-MMM-YYYY HH:mm",
        "STUDY_DATE_FORMAT": "DD-MMM-YYYY",
        "STUDY_TIME_FORMAT": "HH:mm",
        "SPACE"             : " ",
        "MEDLOOP_0100_TITLE"    : "Medication Information",
        "MEDLOOP_0100_MED_FORMAT"    : "<span>{MEDAMT1N}</span> <span>{MEDFRM2L}</span> - <span>{SBJALS1C}</span>",
        "MEDLOOP_0100_TIME_FORMAT"    : "Time: <span>{MEDTKN1S}</span>",
        "DEFAULT_MED_FORMAT"    : "<span>{SBJALS1C}</span> <span>({MEDFRM1L})</span>",
        "MEDLOOP_0100_ADD"      : "Add a New Dose/Time",
        "MEDLOOP_0100_EDIT"     : "Edit This Dose/Time",
        "MEDLOOP_0100_Q_DELETE" : "Delete This Dose/Time",
        "OTHER_MEDICATION"      : "Other Medication",
        "NO_MEDS"               : "No Medications",
        "MEDLOOP_0100_ADD_EDIT": "You can edit or delete a dose that is not greyed out by tapping on it",
        "MEDLOOP_0700_Q_TEXT"    : "Please select the pain medication you took/used (select only one medication at a time):",
        "MEDLOOP_0800_Q_TEXT"    : "Enter the date and time you took/used the following pain medication<br><br><b>{{{ selectedMedNameForm }}}</b>",
        "MEDLOOP_0900_Q_TEXT"    : "{{{ selectedMedNameForm }}}<br>{{{ selectedMedDate }}}<br><br>This dose is less than 15 minutes apart from a dose you already reported:<br><br>{{{ conflictedMedNameForm }}}<br>{{{ conflictedMedDate }}}<br><br>What do you want to do?",
        "MEDLOOP_0900_A1"       : "Change the date/time for this dose ",
        "MEDLOOP_0900_A2"       : "Delete this dose, it’s a duplicate ",
        "MEDLOOP_0900_A3"       : "Keep this dose, it’s correct",
        "MEDLOOP_0910_Q_TEXT"    : "Please confirm that you want to delete what you have entered.",
        "MEDLOOP_0910_A1"       : "Yes, complete the deletion",
        "MEDLOOP_0910_A2"       : "No, go back to the previous screen",
        "MEDLOOP_1000_Q_TEXT"   : "Please write down the name of the medication and how much of it you took on a piece of paper outside of your Diary.<br><br>Contact your study doctor to inform them of this information as soon as possible.",
        "MEDLOOP_1100_Q_TEXT"   : "How many dosage units ({{{ selectedMEDFRM2L }}}) of the following pain medication did you take/use?<br><br><strong>{{{ selectedMedNameForm }}}</strong>",
        "MEDLOOP_1100_FORM"     : "{{{ selectedMEDFRM2L }}}",
        "MEDLOOP_1100_OK"       : "OK",
        "MEDLOOP_1200_Q_TEXT"   : "What do you want to do next?",
        "MEDLOOP_1200_A1"       : "Enter a new dose for: {{{ selectedMedNameForm }}}",
        "MEDLOOP_1200_A2"       : "Select a new medication",
        "MEDLOOP_1200_A3"       : "Return to the review screen",
        "MEDLOOP_1300_Q_TEXT"   : "You have reached the maximum number of medication doses that can be recorded within a single diary.<br><br>If you need to record additional medication doses, please complete an additional {{{ getQuestionnaireName }}}.",
        "MEDLOOP_1400_Q_TEXT"   : "Do you really want to delete this Medication Dose/Time?<br><br>{{{ selectedMedNameForm }}}<br>{{{ selectedMedDate }}}",
        "MEDLOOP_1400_A1"       : "No",
        "MEDLOOP_1400_A2"       : "Yes",

        "MEDUNT1L1"               : "ug",
        "MEDUNT1L2"               : "mg",
        "MEDUNT1L3"               : "g",
        "MEDUNT1L4"               : "ug/mL",
        "MEDUNT1L5"               : "mg/mL",
        "MEDUNT1L6"               : "g/mL",
        "MEDUNT1L7"               : "ug/5 mL",
        "MEDUNT1L8"               : "mg/5 mL",
        "MEDUNT1L9"               : "g/5 mL",
        "MEDUNT1L10"              : "ug/15 mL",
        "MEDUNT1L11"              : "mg/15 mL",
        "MEDUNT1L12"              : "g/15 mL",
        "MEDUNT1L13"              : "IU",

        "MEDRTE1L1"               : "Oral",
        "MEDRTE1L2"               : "Nasal",
        "MEDRTE1L3"               : "Optic",
        "MEDRTE1L4"               : "Aura",
        "MEDRTE1L5"               : "Transdermal",
        "MEDRTE1L6"               : "Rectal",
        "MEDRTE1L7"               : "Injectable (IM)",
        "MEDRTE1L8"               : "Injectable (IV)",
        "MEDRTE1L9"               : "Injectable (SC)",
        "MEDRTE1L10"              : "Injectable",

        "MEDFRM1L1"               : "pill",
        "MEDFRM1L2"               : "powder",
        "MEDFRM1L3"               : "liquid",
        "MEDFRM1L4"               : "inhaler",
        "MEDFRM1L5"               : "film",
        "MEDFRM1L6"               : "spray",
        "MEDFRM1L7"               : "ointment",
        "MEDFRM1L8"               : "patch",
        "MEDFRM1L9"               : "suppository",
        "MEDFRM1L10"              : "injection",
		"MEDFRM1L11"              : "drop",

        "MEDFRM2L1"               : "pill(s)",
        "MEDFRM2L2"               : "packet(s)",
        "MEDFRM2L3"               : "mLs",
        "MEDFRM2L4"               : "5 mLs - teaspoon(s)",
        "MEDFRM2L5"               : "15 mLs - tablespoon(s)",
        "MEDFRM2L6"               : "drop(s)",
        "MEDFRM2L7"               : "film(s)",
        "MEDFRM2L8"               : "spray(s)",
        "MEDFRM2L9"               : "ug",
        "MEDFRM2L10"              : "mg",
        "MEDFRM2L11"              : "g",
        "MEDFRM2L12"              : "fingertip(s)",
        "MEDFRM2L13"              : "patch(s)",
        "MEDFRM2L14"              : "suppository(s)",
        "MEDFRM2L15"              : "puff(s)",

        "BPI_SF_ALERT_HEADER": " ",
        "BPI_SF_ALERT": "<b>Please Note:</b> If you are having any symptoms, health issues or other concerns, please be sure to discuss these with your doctor or nurse. The answers you provide to the questions are for research purposes only and are not being routinely shared with the members of your healthcare team. Please note however, that you are always free to share any and all information with your doctor including information about the answers you will provide in this questionnaire that may help address your safety concerns.",

        "NEXT_ASSESSMENT_INDICATOR": "{{{ NEXT_ASSESSMENT_INDICATOR }}}<br/>Next Assessments Available",
        "BPID_UPCOMING": "BPI-SF Due<br/>Today at {{{ BPID_TIME }}}",
        "BPID_DUE_NOW": "BPI-SF Due<br/>NOW",
        "ASSESSMENT_NOW_INDICATOR": "Assessment(s)<br/>Available NOW",
        "MED_QTY_INPUT_ERR_HEADER": " ",
        "MED_QTY_INPUT_ERR_1_T0_99": "The value you have entered is out of range. Please enter a value between 1 - 99",
        "MED_QTY_INPUT_ERR_1_T0_9": "The value you have entered is out of range. Please enter a value between 1 - 9",
        "DAILY_ALARM_FOR_ASSESSMENTS": "Daily Alarm for Assessments"
	}
}
