{
    "namespace": "CORE",
    "language": "ru",
    "locale": "RU",
    "localized": "Русский (Россия)",
    "direction": "ltr",
    "resources": {
        "ACTIVE": "Активен",
        "ACTIVATE_USER": "Активировать пользователя",
        "ADD_PATIENT": "Добавить нового пациента",
        "ADD_USER": "Добавить пользователя",
        "AFFIDAVIT": "Выберите «ОК» и «Далее», когда будете готовы сохранить ответы.",
        "AFFIDAVIT_HELP": "Благодарим Вас! Вы предоставили все необходимые ответы. Чтобы проверить и изменить ответы, выберите «Назад».",
        "ALL_QUESTIONNAIRES_COMPLETED": "Все формы заполнены",
        "APP_NAME": "ERT",
        "APPLICATION_HEADER": "{{{ appHeader }}}",
        "APP_NAME_LBL": "Название приложения",
        "APP_VERSION": "Версия приложения",
        "ASSIGNED_TO": "Назначено",
        "AVAILABLE": "Доступен",
        "BACK": "Назад",
        "BACK_OUT_CONFIRM": "Выполнить выход? Ответы для этой формы будут потеряны.",
        "BLUETOOTH_REG_REFRESH_BUTTON": "Обновить список",
        "CANCEL": "Отмена",
        "CHECK_FOR_UPDATES": "Проверить обновления",
        "CHOOSE_A_SITE": "Назначить данное устройство определенному учреждению.",
        "COMPLETED": "Заполнено",
        "CONFIRM_PASSWORD": "Подтвердите пароль:",
        "CONFIRM_TEMP_PASS": "Подтвердите временный пароль:",
        "CONTINUE": "Продолжить",
        "COUNTRY": "Страна",
        "CUSTOM_ENVIRONMENT": "Настраиваемая среда",
        "DEACTIVATE_PATIENT": "Деактивировать пациента",
        "DEACTIVATE_USER": "Деактивировать пользователя",
        "DEACTIVATED": "Деактивирован",
        "DEVICE_ID": "ИД устройства",
        "DEVICE_REGISTRATION_FAILURE": "Не удалось зарегистрировать устройство.",
        "DEVICE_UUIID": "УУИД устройства",
        "BATTERY_LEVEL": "Уровень заряда батареи",
        "DEVICE_INFO": "Информация об устройстве",
        "EDIT_MY_INFO": "Изменить информацию обо мне",
        "EDIT_PATIENT": "Изменить пациента",
        "EDIT_SERVICE_URL": "Изменить URL-адрес службы",
        "EDIT_SERVICE_URL_SUCCESS": "URL-адрес службы был обновлен.",
        "EDIT_USER": "Изменить пользователя",
        "EMAIL": "Адрес эл. почты",
        "ENTER_PATIENT_INFO": "Ввести информацию о пациенте",
        "ENTER_UNLOCK_CODE": "Введите код разблокирования",
        "ENTER_USER_INFO": "Ввести информацию о новом пользователе учреждения",
        "ENVIRONMENT": "Среда",
        "FIRST_NAME": "Имя",
        "FORGOT_PASSWORD": "Забыли пароль?",
        "FORM": "Форма",
        "FORM_GATEWAY": "Шлюз формы",
        "FORM_NAME": "Имя формы",
        "FULL_NAME": "Полное имя:",
        "GO_TO_VISITS": "Посещения пациента",
        "HAND_DEVICE_SITE_TITLE": "Передача устройства пользователю учреждения",
        "HAND_DEVICE_SITE_BODY": "Передайте устройство пользователю учреждения.",
        "HELP": "Справка",
        "HOME": "Главная",
        "IN_PROGRESS": "Выполняется",
        "INITIALS": "Инициалы",
        "INVALID_URL": "Введите действительный URL-адрес.",
        "INVALID_PERMISSION": "Недопустимое разрешение.",
        "INVALID_PASSWORD": "Недействительный пароль.",
        "LANGUAGE": "Язык:",
        "LAST_LOGIN": "Последний вход",
        "LAST_NAME": "Фамилия",
        "LAST_REFRESH_TIME": "Время последнего обновления",
        "LOCATION": "Расположение",
        "LOGIN": "Вход",
        "LOGIN_SCREEN": "Вход",
        "LOGOUT": "Выход",
        "MANAGE_USERS": "Управление пользователями учреждения",
        "MARK_AS_COMPLETED": "Отметить как заполненное",
        "SITE_SIGNATURE": "Подпись: ",
        "SITE_REPORT_AFF": "Я ввел(а), проверил(а) и таким образом подтверждаю предыдущие данные.<br /><br /><strong>Подпись:</strong> {{{ getActiveUserName }}}",
        "PATIENT_REPORT_AFF": "Я ввел(а), проверил(а) и таким образом подтверждаю предыдущие данные.<br /><br /><strong>Инициалы:</strong> {{{ getActiveUserName }}}",
        "CLEAR_SIGNATURE": "Очистить подпись",
        "MENU": "Меню",
        "MODE": "Режим",
        "NAME": "Имя",
        "NEW_USER": "Добавить новый дневник пользователя",
        "NEW_USER_CREATED": "Пользователь учреждения создан.",
        "NEXT": "Далее",
        "NO_RESULTS_FOUND": "Результатов не найдено.",
        "NOT_AVAILABLE": "Недоступно",
        "OK": "ОК",
        "ORDER": "Порядок",
        "PASSWORD": "Пароль:",
        "PATIENT": "Пациент",
        "PATIENT_ID": "ИД пациента:",
        "PENDING_TRANSMISSIONS": "Незавершенные передачи",
        "PLEASE_WAIT": "Подождите",
        "PLEASE_CONFIRM": "Подтвердите",
        "REPORTS_AND_FORMS": "Отчеты и формы",
        "REPORTS_COMPLETED_MESSAGE": "Вы заполнили все необходимые формы. Верните устройство соответствующему сотруднику учреждения.",
        "REQUIRED_ANSWER": "Введите запрашиваемую информацию.",
        "RESET_PIN": "Сброс PIN-кода пациента",
        "RESET_USER_PASSWORD": "Сброс пароля пользователя",
        "ROLES": "Функция:",
        "SAVE": "Сохранить",
        "SEARCH": "Поиск",
        "SECURITY_QUESTION_0": "Девичья фамилия Вашей матери?",
        "SECURITY_QUESTION_1": "В каком городе Вы родились?",
        "SECURITY_QUESTION_2": "Кличка Вашего первого питомца?",
        "SECURITY_QUESTION_3": "Ваш любимый вид спорта?",
        "SECURITY_QUESTION_4": "В каком году Вы окончили высшее учебное заведение?",
        "SECURITY_QUESTION_5": "Отчество Вашего старшего ребенка?",
        "SECURITY_QUESTION_6": "Имя Вашего любимого друга детства?",
        "SECURITY_QUESTION_7": "Фамилия Вашего учителя в третьем классе?",
        "SECURITY_QUESTION_8": "В каком городе или населенном пункте было место Вашей первой работы?",
        "SECRET_ANSWER": "Ответ на контрольный вопрос:",
        "SECRET_QUESTION": "Контрольный вопрос:",
        "SECRET_QUESTION_HELP_TEXT": "Из списка ниже выберите контрольный вопрос. Ответ используется для входа, если забудете пароль.",
        "SECRET_QUESTION_ANSWER": "Контрольный вопрос и ответ",
        "SELECT_LANGUAGE": "Выберите предпочитаемый язык для учреждения.",
        "SELECT_SITE_NUMBER": "Выберите номер учреждения",
        "SERVICE_URL": "URL-адрес службы",
        "SETTINGS": "Настройки",
        "SETUP_COMPLETE": "Настройка завершена",
        "SETUP_COMPLETE_DESC": "Теперь устройство настроено и готово к отправке.  Нажмите ОК, затем выключите устройство на следующем экране.",
        "SETUP_SITE_USER": "Настройка пользователя учреждения",
        "SETUP_SITE_USER_LEGEND": "Настройте пользователя учреждения для данного устройства.",
        "SITE": "Учреждение",
        "SITE_ASSESSMENTS": "Оценка учреждения",
        "SIGNATURE_DATA_LIMIT_EXCEEDED": "В поле подписи невозможно воспроизвести Вашу подпись в точности так, как она пишется. Вместо подписи введите свои инициалы.",
        "SITE_NUMBER": "Номер учреждения",
        "SITE_ROLE": "Пользователь учреждения",
        "SITE_SELECTION": "Выбор учреждения",
        "SKIP_FORM": "Пропустить форму",
        "SKIP_QUESTION": "Пропустить ответы на этом экране?",
        "SKIP_TO_VISIT": "Перейти к посещению",
        "SKIP_VISIT": "Пропустить посещение",
        "SKIPPED" : "Пропущено",
        "START_FORM": "Запустить форму",
        "START_VISIT": "Начать посещение",
        "STATUS": "Состояние",
        "STATUS_DATE": "Дата состояния",
        "STUDY": "Исследование",
        "STUDYWORKS_LOGIN": "Вход в StudyWorks",
        "SUBJECT_ID": "ИД пациента",
        "SUBJECT_ROLE": "Пациент",
        "SUBMIT": "Отправить",
        "SUPPORT_TOOLS": "Средства поддержки",
        "SYNC": "Синхронизация",
        "SYNC_USERS": "Синхронизация пользователей",
        "SYNC_TO_DEVICE": "Синхронизация исследования на устройстве",
        "TEMPORARY_PASSWORD_MESSAGE": "Введите временный пароль для нового пользователя. Пользователя попросят создать новый пароль после входа в систему.",
        "TEMP_PASSWORD": "Временный пароль: ",
        "UNABLE_TO_GET_SITE_LIST": "Не удалось получить список учреждений",
        "UNLOCK_CODE": "Код разблокирования",
        "UNLOCK_CODE_HELP": "Код разблокирования для ERT Tablet можно получить в StudyWorks из списка SmartReport кодов разблокирования ERT. За дополнительной помощью обращайтесь в центр поддержки ERT.",
        "USER": "Пользователь",
        "USER_ALREADY_EXISTS": "Пользователь уже существует",
        "SUBJECT_ALREADY_EXISTS": "Пациент с ИД {{{ getPatientIDForDuplicate }}} уже существует",
        "USER_ROLE": "Роль пользователя",
        "USERNAME": "Имя пользователя",
        "USER_NAME": "Имя пользователя:",
        "VISIT": "Посещение",
        "VISIT_COMPLETED_MESSAGE": "Для данного посещения нет других форм.  Данное посещение теперь завершено.",
        "VISITS": "Посещения",
        "VISITS_SKIPPED": "Пропущенные посещения:",
        "VISIT_NAME": "Название посещения",
        "WELCOME": "Добро пожаловать",
        "AF-ZA": "Африкаанс",
        "AR-EG": "Арабский",
        "BE-BY": "Белорусский",
        "BG-BG": "Болгарский",
        "BN-IN": "Бенгальский",
        "BS-BA": "Боснийский",
        "CA-ES": "Каталонский",
        "CS-CZ": "Чешский",
        "DA-DK": "Датский",
        "DE-DE": "Немецкий (Германия)",
        "DE-AT": "Немецкий (Австрия)",
        "EL-GR": "Греческий",
        "EN-GB": "Английский (Великобритания)",
        "EN-US": "Английский (США)",
        "ES-ES": "Испанский (Испания)",
        "ES-US": "Испанский (США)",
        "ES-PY": "Испанский (универсальный)",
        "ET-EE": "Эстонский",
        "FI-FI": "Финский",
        "FR-CA": "Французский (Канада)",
        "FR-FR": "Французский (Франция)",
        "GD-IE": "Гэльский",
        "GU-IN": "Гуджарати",
        "HE-IL": "Иврит",
        "HI-IN": "Хинди",
        "HR-HR": "Хорватский",
        "HU-HU": "Венгерский",
        "IT-IT": "Итальянский",
        "JA-JP": "Японский",
        "KA-GE": "Грузинский",
        "KN-IN": "Каннада",
        "KO-KR": "Корейский",
        "LV-LV": "Латышский",
        "LT-LT": "Литовский",
        "ML-IN": "Малайялам",
        "MR-IN": "Маратхи",
        "MS-MY": "Малайский",
        "NB-NO": "Норвежский",
        "NL-BE": "Нидерландский (Бельгия)",
        "NL-NL": "Нидерландский (Нидерланды)",
        "PA-IN": "Пенджаби",
        "PL-PL": "Польский",
        "PT-BR": "Португальский (Бразилия)",
        "PT-PT": "Португальский (Португалия)",
        "RO-RO": "Румынский",
        "RU-RU": "Русский",
        "SL-SL": "Словенский",
        "SK-SK": "Словацкий",
        "SR-RS": "Сербский (латиница)",
        "SR-SP": "Сербский (кириллица)",
        "ST-ZA": "Сото",
        "SV-SE": "Шведский",
        "TA-IN": "Тамильский",
        "TE-IN": "Телугу",
        "TH-TH": "Тайский",
        "TL-PH": "Тагальский",
        "TN-ZA": "Тсвана",
        "TR-TR": "Турецкий",
        "UK-UA": "Украинский",
        "UR-IN": "Урду",
        "VI-VN": "Вьетнамский",
        "XH-ZA": "Кхоса",
        "ZH-CN": "Китайский (Китай)",
        "ZH-TW": "Китайский (Тайвань)",
        "ZU-ZU": "Зулу",
        "HAND_DEVICE_SUBJECT_BODY": "Следующую форму должен заполнить {{{ patientOrRole }}}. Выполните выход, затем передайте устройство пациенту {{{ patientOrRole }}}.",
        "HAND_DEVICE_SUBJECT_TITLE": "Запуск формы {{{ formTitle }}}",
        "SKIP_VISIT_TITLE": "Пропустить посещение(я)?",
        "SKIP_VISIT_TEXT": "Если продолжить, следующие посещения будут пропущены:<br/> {{{ skippedVisits }}} Продолжить и пропустить эти посещения сейчас?",
        "YES":"Да",
        "NO":"Нет",
        "TIME_LBL": "Время:",
        "SET_TIME": "Установить время",
        "DATE_LBL": "Дата:",
        "CREATE_PERMANENT_PASSWORD_TITLE": "Создать пароль",
        "USER_ID": "ИД пользователя:",
        "PHASE": "Этап",
        "LAST_VISIT": "Последнее завершенное посещение",
        "CONNECTION_REQUIRED": "Требуется подключение к Интернету.",
        "RETRY": "Повторить попытку",
        "UPDATE_FAILURE": "Обновление не завершено",
        "UPDATE_SUCCESS": "Обновление выполнено успешно",
        "CANCEL_PERMANENT_PASSWORD_TITLE": "Отменить создание пароля?",
        "CANCEL_PERMANENT_PASSWORD_TEXT": "Если отменить сейчас, пароль не будет создан. Пароль необходим, чтобы начать использование ERT. Произвести отмену?",
        "ACCOUNT_CONFIGURED_TITLE": "Настройка учетной записи завершена",
        "ACCOUNT_CONFIGURED_TEXT": "Вы завершили настройку своей учетной записи, теперь можно продолжать использование системы eCOA.",
        "LOGGED_IN_AS": "Вход выполнил(а)",
        "EDIT_PATIENT_AFFIDAVIT_HEADER": "<p class='question-title-large'>Подпись</p><br />",
        "EDIT_PATIENT_AFF": "Подписываясь ниже, я таким образом заявляю, что обладаю полномочиями на изменение данного пациента.<br /><br />ИД пациента: {{{ getPatientIdNumber }}}<br /><br /><strong>Подпись:</strong> {{{ getActiveUserName }}}",
        "PASSWORD_MISMATCH": "Подтвержденный пароль не совпадает с первоначально введенным паролем",
        "FIRST_USER_AFFIDAVIT": "Подписываясь ниже, я таким образом заявляю, что являюсь ведущим исследователем или доверенным лицом по созданию учетных записей в этой системе.<br /><br /><strong>Подпись:</strong> {{{ getFirstUsername }}}",
		"INCOMPLETE": "Неполный",
        "INVALID_ENTRY": "Недопустимые данные",
        "PLEASE_ANSWER_SQ": "Ответьте на контрольный вопрос:",
        "FORGOT_SECRET_ANSWER": "Забыли ответ на контрольный вопрос?",
        "CONTACT_STUDY_COORDINATOR": "Обратитесь к координатору исследования",
        "ENTER_NEW_PASSWORD": "Новый пароль:",
        "CONTACT_UNLOCK_CODE": "Код разблокирования на сегодняшний день можно получить у координатора исследования:",
        "CURRENT_DATE": "{{{ currentDate }}}",
        "TEMPORARY_UNLOCK_CODE": "Введите код разблокирования, предоставленный координатором исследования.",
        "RESET_SECRET_QUESTION": "Сбросить контрольный вопрос",
        "SECRET_QUESTION_CHANGE_SUCCESS": "Пароль и контрольный вопрос успешно обновлены.",
        "RESET_PASSWORD": "Сбросить пароль",
        "ANSWER_ATTEMPT_EXCEEDED": "Неправильный ответ введен слишком много раз, или нажата ссылка «Забыли ответ на контрольный вопрос?».",
        "PASSWORD_ATTEMPT_EXCEEDED": "Неправильный пароль введен слишком много раз, или нажата ссылка «Забыли пароль?».",
        "PASSWORD_CHANGE_SUCCESS": "Пароль успешно обновлен.",
        "CHANGE_PASSWORD": "Сменить пароль",
        "CHANGE_SECRET_QUESTION": "Изменить контрольный вопрос",
        "SYNC_COMPLETE": "Синхронизация завершена",
        "INCORRECT_ANSWER": "Неправильный ответ",
        "INCORRECT_UNLOCK_CODE": "Неправильный код разблокирования",
        "PASSWORD_INVALID": "Неправильный пароль",
        "SUBJECT": "Пациент",
        "PATIENT_ADDED": "Пациент добавлен",
        "TIME_ZONE": "Часовой пояс:",
        "ACTIVATE_USER_CANCEL_CONFIRM": "Отменить активацию?",
        "ACTIVATE_USER_CANCEL_BODY": "Если отменить сейчас, пользователь учреждения не будет активирован. Произвести отмену?",
        "ACTIVATE_USER_AFF": "Подписываясь ниже, я таким образом заявляю, что обладаю полномочиями на активацию данного пользователя учреждения.",
        "ACTIVATE_USER_CONFIRM_INFORMATION": "Подтвердите, что информация, приведенная ниже, относится к пользователю учреждения, которого Вы собираетесь активировать.",
        "DEACTIVATE_USER_CANCEL_CONFIRM": "Отменить деактивацию?",
        "DEACTIVATE_USER_CANCEL_BODY": "Если отменить сейчас, пользователь учреждения не будет деактивирован. Произвести отмену?",
        "DEACTIVATE_USER_AFF": "Подписываясь ниже, я таким образом заявляю, что обладаю полномочиями на деактивацию данного пользователя учреждения.",
        "DEACTIVATE_USER_SIG": "<strong>Пользователь для деактивации:</strong> <br />{{{ getSelectedUsername }}}<br /><br /><strong>Подпись:</strong> {{{ getActiveUserName }}}",
        "DEACTIVATE_USER_CONFIRM_INFORMATION": "Подтвердите, что информация, приведенная ниже, относится к пользователю учреждения, которого Вы собираетесь деактивировать.",
        "DIARY_TIMEOUT": "Форма закрыта по тайм-ауту.",
        "EDIT_PATIENT_QUESTION_1_MAIN_TITLE": "<div class='question-title-large'>Идентификация пациента </div><div>Диапазон ИД для данного учреждения:<br /><strong> {{{ patientIDRange }}}</strong></div><div class='edit-patient-id'>ИД пациента:<br /><strong>{{{ getPatientIdNumber }}} ({{{getPatientInitials}}})</strong</div><br /><br />",
        "EDIT_PATIENT_QUESTION_1": "ИД пациента:",
        "EDIT_PATIENT_QUESTION_1_EMPTY": "Введите ИД пациента.",
        "EDIT_PATIENT_QUESTION_1_EMPTY_HEADER": "ИД пациента",
        "EDIT_PATIENT_QUESTION_1_RANGE": "Введенный ИД пациента находится вне допустимого диапазона ИД: 0100–0600.  Введите действительный ИД пациента.",
        "EDIT_PATIENT_QUESTION_1_RANGE_HEADER": "ИД пациента вне диапазона",
        "EDIT_PATIENT_QUESTION_1_UNIQUE": "Пациент уже существует.  Введите другой ИД пациента.",
        "EDIT_PATIENT_QUESTION_1_UNIQUE_HEADER": "Повторяющийся ИД пациента",
        "EDIT_PATIENT_QUESTION_2": "Инициалы пациента:",
        "EDIT_PATIENT_QUESTION_2_EMPTY": "Введите инициалы пациента, минимум 2 символа.",
        "EDIT_PATIENT_QUESTION_2_EMPTY_HEADER": "Инициалы пациента",
        "EDIT_PATIENT_QUESTION_3_TITLE": "<div class='question-title-large'>Выберите язык</div><div>ИД пациента:<br /><strong>{{{ getPatientIdNumber }}} ({{{getPatientInitials}}})</strong</div><br /><br />",
        "EDIT_PATIENT_QUESTION_3": "Выберите язык для пациента",
        "EDIT_PATIENT_QUESTION_4_TITLE": "<div class='question-title-large'>Изменить причину</div><br /><br />",
        "EDIT_PATIENT_QUESTION_4": "Выберите причину для изменения пациента",
        "EDIT_PATIENT_CANCEL_CONFIRM": "Отменить изменения пациента?",
        "EDIT_PATIENT_CANCEL_BODY": "Если отменить сейчас, настройки пациента не будут обновлены.  Произвести отмену?",
        "EDIT_PATIENT_NO_CHANGES_CONFIRM": "Изменения пациента не выполнены",
        "EDIT_PATIENT_NO_CHANGES_BODY": "Изменения данного пациента не выполнены. Все равно выйти?",
        "EDIT_PATIENT_REASON_0": "Исправление ошибки врачом",
        "EDIT_REASON": "Изменить причину:",
        "EDIT_USER_AFF": "Подписываясь ниже, я таким образом заявляю, что обладаю полномочиями на изменение данного пользователя учреждения. <br /><br /><strong>Подпись:</strong> {{{ getActiveUserName }}}",
        "EDIT_USER_CANCEL_CONFIRM": "Отменить изменение пользователя?",
        "EDIT_USER_CANCEL_BODY": "Если отменить сейчас, изменения пользователя учреждения выполнены не будут. Произвести отмену?",
        "EDIT_USER_NO_CHANGES_HEADER": "Изменения пользователя учреждения не выполнены",
        "EDIT_USER_NO_CHANGES_BODY": "Изменения данного пользователя учреждения не выполнены. Все равно выйти?",
        "ERROR_CODE": "Код ошибки:",
        "ERROR_TITLE": "Ошибка",
        "FIRST_SITE_USER": "Добавить первого пользователя учреждения",
        "NEW_PATIENT_QUESTION_1_MAIN_TITLE": "<div class='question-title-large'>Введите идентификационные данные пациента</div><div>Диапазон ИД для данного учреждения:<br /><strong> {{{ patientIDRange }}}</strong></div><div><strong>Учреждение: {{{ getSiteCode }}}</strong></div><div><strong>Пользователь: {{{ getUserName }}}</strong</div><br /><br />",
        "NEW_PATIENT_HELP_TEXT_1": "",
        "NEW_PATIENT_HELP_TEXT_2": "",
        "NEW_PATIENT_HELP_TEXT_3": "",
        "NEW_PATIENT_QUESTION_1_TITLE": "ИД пациента",
        "NEW_PATIENT_QUESTION_1": "ИД пациента:",
        "NEW_PATIENT_QUESTION_1_EMPTY": "Введите ИД пациента.",
        "NEW_PATIENT_QUESTION_1_EMPTY_HEADER": "ИД пациента",
        "NEW_PATIENT_QUESTION_1_RANGE": "Введенный ИД пациента находится вне допустимого диапазона ИД: {{{ patientIDRange }}}.  Введите действительный ИД пациента.",
        "NEW_PATIENT_QUESTION_1_RANGE_HEADER": "ИД пациента вне диапазона",
        "NEW_PATIENT_QUESTION_1_UNIQUE": "Пациент уже существует.  Введите другой ИД пациента.",
        "NEW_PATIENT_QUESTION_1_UNIQUE_HEADER": "Повторяющийся ИД пациента",
        "NEW_PATIENT_QUESTION_2": "Инициалы пациента:",
        "NEW_PATIENT_QUESTION_2_EMPTY": "Введите инициалы пациента, минимум 2 символа.",
        "NEW_PATIENT_QUESTION_2_EMPTY_HEADER": "Инициалы пациента",
        "NEW_PATIENT_QUESTION_3_TITLE": "<div class='question-title-large'>Выберите язык</div><div><strong>Учреждение: {{{ getSiteCode }}}</strong></div><div><strong>Пользователь: {{{ getUserName }}}</strong</div><div><strong>ИД пациента: {{{ getPatientID }}}</strong></div><br /><br />",
        "NEW_PATIENT_QUESTION_3": "Выберите язык для пациента",
        "NEW_PATIENT_CANCEL_CONFIRM": "Отменить добавление пациента?",
        "NEW_PATIENT_CANCEL_BODY": "Если отменить, пациент не будет зарегистрирован.  Произвести отмену?",
        "NEW_PATIENT_AFFIDAVIT_HEADER": "<div><strong>Учреждение: {{{ getSiteCode }}}</strong><br /><strong>Пользователь: {{{ getUserName }}}</strong><br /><strong>ИД пациента: {{{ getPatientID }}}</strong></div>",
        "PATIENT_INITIALS": "Инициалы пациента:",
        "PATIENT_DELETED": "Неизвестный пациент",
        "PATIENT_DELETED_MSG": "Не удается найти пациента.",
        "PATIENT_DELETED_SUBJECT_MSG": "Не удается найти пациента. Верните устройство соответствующему сотруднику учреждения.",
        "PLEASE_CONTACT": "Обратитесь в центр поддержки ERT.",
        "PLEASE_TRY_OR_CONTACT_SUPPORT": "Повторите попытку или обратитесь в центр поддержки ERT.",
        "REASON": "Причина:",
        "SET_TIMEZONE_MESSAGE": "Выберите свой часовой пояс:",
        "SKIP_VISITS": "Пропустить посещения",
        "SKIP_VISITS_QUESTION_1": "<div class='question-title-large'><strong>Причина</strong></div><br /><br /><div>Выберите причину пропуска посещений:</div>",
        "SKIP_VISITS_REASON_0": "Срок действия посещения истек",
        "SKIP_VISITS_REASON_1": "Административная ошибка учреждения",
        "SKIP_VISITS_REASON_2": "Пациент пропустил прием у врача.",
        "SKIP_VISITS_REASON_3": "Не относится к делу.",
        "SKIP_VISITS_REASON_4": "Посещение необязательно, не было выполнено.",
        "SKIP_VISITS_CANCEL_CONFIRM": "Отменить пропуск посещений?",
        "SKIP_VISITS_CANCEL_BODY": "Если отменить сейчас, посещения не будут пропущены. Произвести отмену?",
        "SKIPPED_VISITS": "{{{ skippedVisits }}}",
		"USER_EDITED": "Пользователь был обновлен.",
        "USER_TO_ACTIVATE": "<strong>Пользователь для активации:</strong> <br />{{{ getSelectedUsername }}}<br /><br /><strong>Подпись:</strong> {{{ getActiveUserName }}}",
        "TIME_CONFIRMATION_INSTRUCTIONS": "Необходимо подтвердить местное время на устройстве. Введите дату и время, используя надежный источник.",
        "TIME_ZONE_ERROR_HEADER": "Ошибка часового пояса",
        "TIME_ZONE_ERROR_MSG": "Ошибка при получении списка часовых поясов. За дополнительной помощью обращайтесь в центр поддержки ERT.",
        "TIME_ZONE_SET_ERROR_MSG": "Ошибка при установке часового пояса. За дополнительной помощью обращайтесь в центр поддержки ERT.",
        "TIME_ZONE_SET_CONFIRM": "Вы действительно хотите установить для часового пояса значение {{{selectedTimeZone}}}? <br/> Возможно, приложение придется перезапустить, чтобы применить изменение.",
        "TIME_ZONE_SET_CONFIRM_NOCHANGE": "Вы действительно хотите установить для часового пояса значение {{{selectedTimeZone}}}?",
        "TIME_ZONE_SET_HEADER": "Подтверждение установки часового пояса",
        "TRAINER": "Режим обучения",
        "TRAINER_EXIT": "Выход из режима обучения",
        "TRAINER_EXIT_NOTIFICATION": "Вы выполняете выход из режима обучения",
        "TRAINER_HEADER": "(Инструктор)",
		"VISIT_INACTIVE_HEADER": "Неактивное посещение.",
        "VISIT_INACTIVE_MESSAGE": "Это посещение больше не является активным.",
        "VISIT_INACTIVE_MESSAGE_SUBJECT": "Это посещение больше не является активным. Верните устройство соответствующему сотруднику учреждения.",
        "SITE_ADMINISTRATOR": "Администратор учреждения",
        "LOW_BATTERY": "Предупреждение. Низкий уровень заряда батареи. Подключите устройство к сети для подзарядки.",
        "CRITICAL_BATTERY": "Предупреждение. Крайне низкий уровень заряда батареи. Подключите устройство к сети для подзарядки. В противном случае оно выключится.",
        "TIME_CONFIRMATION_HEADER": "Подтвердить дату/время",
        "TIMESLIP_ERROR": "Неверные значения времени или даты на устройстве. Перейдите в местоположение, где возможно подключение к Интернету, и повторите попытку. Если проблемы остаются, обратитесь в центр обслуживания клиентов ERT.",
        "SUPPORT": "Центр поддержки клиентов",
        "SUPPORT_MESSAGE": "Пользователи в Соединенных Штатах Америки могут обратиться в Центр поддержки ERT по телефону 800-748-5669. Зарубежным пользователям необходимо выбрать ближайшую страну ниже:",
        "SUPPORT_DROPDOWN": "Выберите страну",
        "SUPPORT_NAME_ARGENTINA": "Аргентина",
        "SUPPORT_NUMBER_ARGENTINA": "<bdi>0800 444 0962</bdi>",
        "SUPPORT_NAME_ARMENIA": "Армения",
        "SUPPORT_NUMBER_ARMENIA": "<bdi>+1 617 681 6306</bdi>",
        "SUPPORT_NAME_AUSTRALIA": "Австралия",
        "SUPPORT_NUMBER_AUSTRALIA": "<bdi>1 800 800 051</bdi>",
        "SUPPORT_NAME_AUSTRIA": "Австрия",
        "SUPPORT_NUMBER_AUSTRIA": "<bdi>0800 100 405</bdi>",
        "SUPPORT_NAME_BELARUS": "Беларусь",
        "SUPPORT_NUMBER_BELARUS": "<bdi>8 820 0321 0036</bdi>",
        "SUPPORT_NAME_BELGIUM": "Бельгия",
        "SUPPORT_NUMBER_BELGIUM_1": "(на английском языке): <bdi>0800 58 016</bdi>",
        "SUPPORT_NUMBER_BELGIUM_2": "(на французском языке): <bdi>0800 71 076</bdi>",
        "SUPPORT_NUMBER_BELGIUM_3": "(на немецком языке): <bdi>0800 71 113</bdi>",
        "SUPPORT_NAME_BRAZIL": "Бразилия",
        "SUPPORT_NUMBER_BRAZIL": "<bdi>0800 891 5909</bdi>",
        "SUPPORT_NAME_BOSNIA": "Босния",
        "SUPPORT_NUMBER_BOSNIA": "<bdi>+1 617 681 6306</bdi>",
        "SUPPORT_NAME_BULGARIA": "Болгария",
        "SUPPORT_NUMBER_BULGARIA": "<bdi>00800 0010</bdi>, затем <bdi>866 245 4931</bdi>",
        "SUPPORT_NAME_CANADA": "Канада",
        "SUPPORT_NUMBER_CANADA": "<bdi>1 800 748 5669</bdi>",
        "SUPPORT_NAME_CHILE": "Чили",
        "SUPPORT_NUMBER_CHILE": "<bdi>123 0020 3408</bdi>",
        "SUPPORT_NAME_CHINA": "Китай",
        "SUPPORT_NUMBER_CHINA_1": "NetCom (Север): <bdi>1 0800 74 40 164</bdi>",
        "SUPPORT_NUMBER_CHINA_2": "Telecom (Юг): <bdi>1 0800 44 00 158</bdi>",
        "SUPPORT_NAME_COLOMBIA": "Колумбия",
        "SUPPORT_NUMBER_COLOMBIA": "<bdi>01 800 911 0010</bdi>, затем <bdi>866 310 3707</bdi>",
        "SUPPORT_NAME_COSTA_RICA": "Коста-Рика",
        "SUPPORT_NUMBER_COSTA_RICA": "<bdi>0800 013 1210</bdi>",
        "SUPPORT_NAME_CROATIA": "Хорватия",
        "SUPPORT_NUMBER_CROATIA": "<bdi>0800 222 953</bdi>",
        "SUPPORT_NAME_CZECH_REPUBLIC": "Чешская республика",
        "SUPPORT_NUMBER_CZECH_REPUBLIC": "<bdi>800 142 150</bdi>",
        "SUPPORT_NAME_DENMARK": "Дания",
        "SUPPORT_NUMBER_DENMARK": "<bdi>80 60 00 09</bdi>",
        "SUPPORT_NAME_EGYPT": "Египет",
        "SUPPORT_NUMBER_EGYPT": "<bdi>02 510 0200</bdi>, затем <bdi>866 310 3707</bdi>",
        "SUPPORT_NAME_EL_SALVADOR": "Эль-Сальвадор",
        "SUPPORT_NUMBER_EL_SALVADOR": "<bdi>+1 617 681 6306</bdi>",
        "SUPPORT_NAME_ESTONIA": "Эстония",
        "SUPPORT_NUMBER_ESTONIA": "<bdi>800 00 44 154</bdi>",
        "SUPPORT_NAME_FINLAND": "Финляндия",
        "SUPPORT_NUMBER_FINLAND": "<bdi>0800 11 6366</bdi>",
        "SUPPORT_NAME_FRANCE": "Франция",
        "SUPPORT_NUMBER_FRANCE": "<bdi>0800 10 19 79</bdi>",
        "SUPPORT_NAME_GERMANY": "Германия",
        "SUPPORT_NUMBER_GERMANY": "<bdi>0800 101 28 21</bdi>",
        "SUPPORT_NAME_GREECE": "Греция",
        "SUPPORT_NUMBER_GREECE": "<bdi>00 800 1311</bdi>, затем <bdi>866 310 3707</bdi>",
        "SUPPORT_NAME_GUATEMALA": "Гватемала",
        "SUPPORT_NUMBER_GUATEMALA": "<bdi>1 800 624 0079</bdi>",
        "SUPPORT_NAME_HONG_KONG": "Гонконг",
        "SUPPORT_NUMBER_HONG_KONG": "<bdi>3002 1665</bdi>",
        "SUPPORT_NAME_HUNGARY": "Венгрия",
        "SUPPORT_NUMBER_HUNGARY": "<bdi>06 800 14 571</bdi>",
        "SUPPORT_NAME_ICELAND": "Исландия",
        "SUPPORT_NUMBER_ICELAND": "<bdi>800 8544</bdi>",
        "SUPPORT_NAME_INDIA": "Индия",
        "SUPPORT_NUMBER_INDIA": "<bdi>000 800 440 1125</bdi>",
        "SUPPORT_NAME_INDONESIA": "Индонезия",
        "SUPPORT_NUMBER_INDONESIA": "<bdi>008 800 330 334</bdi>",
        "SUPPORT_NAME_IRELAND": "Ирландия",
        "SUPPORT_NUMBER_IRELAND": "<bdi>1 800 946 700</bdi>",
        "SUPPORT_NAME_ISRAEL": "Израиль",
        "SUPPORT_NUMBER_ISRAEL": "<bdi>1 809 470 062</bdi>",
        "SUPPORT_NAME_ITALY": "Италия",
        "SUPPORT_NUMBER_ITALY": "<bdi>800 90 56 37</bdi>",
        "SUPPORT_NAME_JAPAN": "Япония",
        "SUPPORT_NUMBER_JAPAN": "Сведения о бесплатном номере исследования см. в справочнике по исследованиям ePRO",
        "SUPPORT_NAME_LATVIA": "Латвия",
        "SUPPORT_NUMBER_LATVIA": "<bdi>8000 2151</bdi>",
        "SUPPORT_NAME_LEBANON": "Ливан",
        "SUPPORT_NUMBER_LEBANON": "<bdi>01-426-801</bdi>, затем <bdi>866 310 3707</bdi>",
        "SUPPORT_NAME_LITHUANIA": "Литва",
        "SUPPORT_NUMBER_LITHUANIA": "<bdi>8800 30207</bdi>",
        "SUPPORT_NAME_MALAYSIA": "Малайзия",
        "SUPPORT_NUMBER_MALAYSIA": "<bdi>1800 80 59 71</bdi>",
        "SUPPORT_NAME_MEXICO": "Мексика",
        "SUPPORT_NUMBER_MEXICO_1": "(на английском языке): <bdi>001 800 748 5669</bdi> ",
        "SUPPORT_NUMBER_MEXICO_2": "(на испанском языке): <bdi>001 855 631 6952</bdi>",
        "SUPPORT_NAME_MOLDOVA": "Молдова",
        "SUPPORT_NUMBER_MOLDOVA": "<bdi>617 681 6306</bdi>",
        "SUPPORT_NAME_NETHERLANDS": "Нидерланды",
        "SUPPORT_NUMBER_NETHERLANDS": "<bdi>0800 023 1389</bdi>",
        "SUPPORT_NAME_NEW_ZEALAND": "Новая Зеландия",
        "SUPPORT_NUMBER_NEW_ZEALAND": "<bdi>0800 110 178</bdi>",
        "SUPPORT_NAME_NORWAY": "Норвегия",
        "SUPPORT_NUMBER_NORWAY": "<bdi>800 62 051</bdi>",
        "SUPPORT_NAME_PAKISTAN": "Пакистан",
        "SUPPORT_NUMBER_PAKISTAN": "<bdi>00 800 0100</bdi>, затем <bdi>866 237 9767</bdi>",
        "SUPPORT_NAME_PANAMA": "Панама",
        "SUPPORT_NUMBER_PANAMA": "<bdi>001 800 201 3095</bdi>",
        "SUPPORT_NAME_PERU": "Перу",
        "SUPPORT_NUMBER_PERU": "<bdi>0800 5 0974</bdi>",
        "SUPPORT_NAME_PHILIPPINES": "Филиппины",
        "SUPPORT_NUMBER_PHILIPPINES": "<bdi>1 800 1116 0651</bdi>",
        "SUPPORT_NAME_POLAND": "Польша",
        "SUPPORT_NUMBER_POLAND": "<bdi>00800 331 1262</bdi>",
        "SUPPORT_NAME_PORTUGAL": "Португалия",
        "SUPPORT_NUMBER_PORTUGAL": "<bdi>800 206 172</bdi>",
        "SUPPORT_NAME_PUERTO_RICO": "Пуэрто-Рико (территория США)",
        "SUPPORT_NUMBER_PUERTO_RICO": "<bdi>1 800 748 5669</bdi>",
        "SUPPORT_NAME_ROMANIA": "Румыния",
        "SUPPORT_NUMBER_ROMANIA": "<bdi>0800 894492</bdi>",
        "SUPPORT_NAME_RUSSIA": "Россия",
        "SUPPORT_NUMBER_RUSSIA_1": "(Основной - бесплатный): <bdi>8 10 800 249 13011</bdi>",
        "SUPPORT_NUMBER_RUSSIA_2": "(В пределах Москвы): <bdi>363-2400</bdi>,<br> затем <bdi>866 310 3707</bdi>",
        "SUPPORT_NUMBER_RUSSIA_3": "(За пределами Москвы): <bdi>8^(495) 363-2400</bdi>,<br> затем <bdi>866 310 3707</bdi>",
        "SUPPORT_NUMBER_RUSSIA_4": "(В пределах Санкт-Петербурга): <bdi>363-2400</bdi>,<br> затем <bdi>866 310 3707</bdi>",
        "SUPPORT_NUMBER_RUSSIA_5": "(За пределами Санкт-Петербурга): <bdi>8^(495) 363-2400</bdi>,<br> затем <bdi>866 310 3707</bdi>",
        "SUPPORT_NAME_SAUDI_ARABIA": "Саудовская Аравия",
        "SUPPORT_NUMBER_SAUDI_ARABIA": "<bdi>+1 617 681 6306</bdi>",
        "SUPPORT_NAME_SERBIA": "Сербия",
        "SUPPORT_NUMBER_SERBIA": "<bdi>+1 617 973 1739</bdi>",
        "SUPPORT_NAME_SINGAPORE": "Сингапур",
        "SUPPORT_NUMBER_SINGAPORE": "<bdi>800 616 30 03</bdi>",
        "SUPPORT_NAME_SLOVAKIA": "Словакия",
        "SUPPORT_NUMBER_SLOVAKIA": "<bdi>0800 0044 65</bdi>",
        "SUPPORT_NAME_SLOVENIA": "Словения",
        "SUPPORT_NUMBER_SLOVENIA": "<bdi>+1 617 681 6306</bdi>",
        "SUPPORT_NAME_SOUTH_AFRICA": "Южно-Африканская Республика",
        "SUPPORT_NUMBER_SOUTH_AFRICA": "<bdi>0800 99 5853</bdi>",
        "SUPPORT_NAME_SOUTH_KOREA": "Южная Корея",
        "SUPPORT_NUMBER_SOUTH_KOREA": "<bdi>00308 33 00 08</bdi>",
        "SUPPORT_NAME_SPAIN": "Испания",
        "SUPPORT_NUMBER_SPAIN": "<bdi>900 90 2541</bdi>",
        "SUPPORT_NAME_SWEDEN": "Швеция",
        "SUPPORT_NUMBER_SWEDEN": "<bdi>020 120 99 69</bdi>",
        "SUPPORT_NAME_SWITZERLAND": "Швейцария",
        "SUPPORT_NUMBER_SWITZERLAND_1": "(на английском языке): <bdi>0800 199 325</bdi>",
        "SUPPORT_NUMBER_SWITZERLAND_2": "(на французском языке): <bdi>0800 891 183</bdi>",
        "SUPPORT_NUMBER_SWITZERLAND_3": "(на немецком языке): <bdi>0800 891 025</bdi>",
        "SUPPORT_NAME_TAIWAN": "Тайвань",
        "SUPPORT_NUMBER_TAIWAN": "<bdi>00801 33 33 42</bdi>",
        "SUPPORT_NAME_THAILAND": "Таиланд",
        "SUPPORT_NUMBER_THAILAND": "<bdi>1 800 33 140 353</bdi>",
        "SUPPORT_NAME_TUNISIA": "Тунис",
        "SUPPORT_NUMBER_TUNISIA": "<bdi>+1 617 681 6306</bdi>",
        "SUPPORT_NAME_TURKEY": "Турция",
        "SUPPORT_NUMBER_TURKEY": "<bdi>00 800 151 1335</bdi>",
        "SUPPORT_NAME_UKRAINE": "Украина",
        "SUPPORT_NUMBER_UKRAINE": "<bdi>0^00 11</bdi>, затем <bdi>866 245 4931</bdi>",
        "SUPPORT_NAME_UAE": "Объединенные Арабские Эмираты",
        "SUPPORT_NUMBER_UAE": "<bdi>8000-021</bdi>, затем <bdi>866 310 3707</bdi>",
        "SUPPORT_NAME_UK": "Великобритания",
        "SUPPORT_NUMBER_UK": "<bdi>0800 015 0408</bdi>",
        "SUPPORT_NAME_US": "Соединенные Штаты Америки",
        "SUPPORT_NUMBER_US_1": "(основной): <bdi>1 800 748 5669</bdi>",
        "SUPPORT_NUMBER_US_2": "(резервный): <bdi>1 877 748 5669</bdi>",
        "SUPPORT_NAME_VENEZUELA": "Венесуэла",
        "SUPPORT_NUMBER_VENEZUELA_1": "(на английском языке): <bdi>0 800 552 6288</bdi>,<br> затем <bdi>866 310 3707</bdi> ",
        "SUPPORT_NUMBER_VENEZUELA_2": "(на испанском языке): <bdi>0 800 100 3063</bdi> ",
        "ABOUT": "Описание",
        "CORE_PRODUCT_VERSION_LABEL": "Версия продукта:",
        "PROTOCOL": "Протокол:",
        "SPONSOR": "Заказчик:",
        "STORED_REPORTS": "Сохраненные формы:",
        "STUDY_VERSION": "Версия исследования: ",
        "STUDY_URL": "URL исследования:",
        "P_AFFIDAVIT_HEADER": "<div><strong>Учреждение: {{{ getSiteCode }}}</strong><br /><strong>ИД пациента: {{{ getPatientIdNumber }}}</strong></div>",
		"SET_TIMEZONE": "Установить часовой пояс",
		"DEVICE_SERIAL_NUMBER": "Серийный номер устройства",
		"NONEXISTENT_USER": "Попытка обновления несуществующего пользователя.",
		"SCREENING" : "Скрининг",
		"TREATMENT" : "Лечение",
		"RANDOMIZATION" : "Рандомизация",
		"FOLLOWUP" : "Последующее наблюдение",
		"TERMINATION" : "Завершение",
        "ACCEPT": "Принимаю",
        "DECLINE": "Отклоняю",
		"EULA": "ЛИЦЕНЗИЯ ДЛЯ КОНЕЧНОГО ПОЛЬЗОВАТЕЛЯ",
        "EULA_TEXT": "<p><strong><span class=\"text-underline\">ВАЖНО</span>. НЕ НАЖИМАЙТЕ КНОПКУ «ПРИНИМАЮ», ПОКА НЕ ПРОЧИТАЕТЕ ЭТО СОГЛАШЕНИЕ. НАЖАВ КНОПКУ «ПРИНИМАЮ», ВЫ ПРИНИМАЕТЕ ВСЕ УСЛОВИЯ ДАННОГО СОГЛАШЕНИЯ. ЕСЛИ ВЫ НЕ ПРИНИМАЕТЕ ВСЕ УСЛОВИЯ НАСТОЯЩЕГО СОГЛАШЕНИЯ (1), НЕ НАЖИМАЙТЕ КНОПКУ «ПРИНИМАЮ», (2) ПРЕРВИТЕ ПРОЦЕСС УСТАНОВКИ И ЛИЦЕНЗИРОВАНИЯ, НАЖАВ КНОПКУ «ОТКЛОНЯЮ».</strong></p><p>eResearchTechnology, Inc. («Лицензиар») предоставляет вам неисключительное, не подлежащее передаче другому лицу право на использование программного обеспечения eResearchTechnology, Inc., встроенного в данное устройство («Программное обеспечение»), в связи с вашим соглашением на участие в клиническом исследовании: <strong>{{{ clinicalTrial }}}</strong>. Программное обеспечение eResearchTechnology, Inc. защищено выданными патентами и патентами, находящимися на рассмотрении. Настоящее Соглашение не означает передачу вам каких-либо прав собственности на какую-либо часть Программного обеспечения (или любой его копии), а только подтверждает лицензию на использование Программного обеспечения в соответствии со всеми условиями Соглашения. Право собственности на Программное обеспечение и, соответственно, на все его части, а также все вытекающие из этого имущественные и интеллектуальные права собственности неотъемлемо и неизменно принадлежат Лицензиару.</p><p>Вы соглашаетесь, прямо или косвенно, что не будете (i) пытаться раскрыть технологию, деассемблировать или декомпилировать Программное обеспечение; (ii) копировать, распространять, производить, адаптировать, создавать его производные продукты, переводить, локализовать, переносить или иным образом изменять Программное обеспечение; или (iii) удалять или видоизменять какие-либо замечания по поводу авторского права, коммерческой тайны или юридической информации, содержащиеся в Программном обеспечении. ВЫ ПОДТВЕРЖДАЕТЕ И СОГЛАСНЫ, ЧТО ПРОГРАММНОЕ ОБЕСПЕЧЕНИЕ МОЖЕТ СОДЕРЖАТЬ КОД, КОТОРЫЙ ПРЕДОТВРАЩАЕТ НЕСАНКЦИОНИРОВАННОЕ ИСПОЛЬЗОВАНИЕ ПРОГРАММНОГО ОБЕСПЕЧЕНИЯ.</p><br><p>ЕСЛИ ВЫ СОГЛАСНЫ СО ВСЕМ ВЫШЕИЗЛОЖЕННЫМ, выберите <strong>Принимаю</strong>, нажав кнопку «Принимаю», что означает принятие вами условий лицензии.</p><p>ЕСЛИ ВЫ НЕ СОГЛАСНЫ СО ВСЕМ ВЫШЕИЗЛОЖЕННЫМ или не уполномочены на принятие, выберите <strong>Отклоняю</strong>; в этом случае дальнейший доступ к Программному обеспечению будет заблокирован. Если у вас нет соответствующих полномочий, вы можете принять условия в другое время.</p>",
        "VISIT_EXPIRED_HEADER": "Срок действия посещения истек.",
        "VISIT_EXPIRED_MESSAGE": "Это посещение больше недоступно из-за истекшего срока действия.",
        "VISIT_EXPIRED_MESSAGE_SUBJECT": "Это посещение больше недоступно из-за истекшего срока действия. Верните устройство соответствующему сотруднику учреждения.",
        "SQ-AL": "Албанский",
        "IMAGE_FOLDER": "{{{ imageFolder }}}",
		"MODAL_OK_TEXT": "ОК",
        "BROWSER_LOAD_ERROR": "Страница не найдена. Проверьте соединение с Интернетом и повторите попытку.",
		"NO_USER_OF_ROLE" : "Пользователь с этой ролью не найден.",
        "EDIT_PATIENT_REASON_1": "Исправление данных атрибута",
        "EDIT_PATIENT_REASON_2": "ИД изменения",
        "EDIT_PATIENT_REASON_3": "Выбран неправильный язык",
		"START_VISIT_OUTSIDE_WINDOW_MSG": "{{{ getVisitName }}} введен за пределами заданного периода времени: {{{ startDate }}} - {{{ endDate }}}",
		"START_VISIT_HARD_STOP_MSG" : "{{{ getVisitName }}} нельзя вводить за пределами заданного периода времени: {{{ startDate }}} - {{{ endDate }}}",
		"USER_NAME_INVALID_CHARACTERS" : "Не используйте специальные символы",
		"ERROR_PATIENT_SAVE" : "Ошибка при добавлении нового пациента",
		"PASSWORD_CHANGE_FAILED" : "Для сбора данных исследования активировано другое устройство. Смените пароль на данном устройстве.",
		"ERROR" : "Ошибка. Обратитесь в центр поддержки ERT.",
		"ERROR_AFTER_ACTIVATION_SUCCESSFUL" : "Произошла ошибка. Необходимо ввести код настройки и пароль.",
		"CONNECTION_TIMEOUT" : "Соединение закрыто по тайм-ауту.",
		"UPDATE_FAILED" : "Обновление ERT не завершено. Убедитесь, что данное устройство подключено к Интернету, и повторите попытку.",
        "QR_CODE_UNAVAILABLE": "Щелкните пациента для обновления QR.",
        "QR_MODAL_TITLE": "QR-код для: ",
        "TRANSMIT_FAILED_403_14": "Сбой одной или нескольких передач, так как создание пациента не завершено. Подождите и повторите попытку.",
        "CONSOLE_LOG": "Журнал консоли",
		"USER_SELECT_ROLE_VALIDATION": "Необходимо выбрать роль.",
        "USER_SELECT_LANGUAGE_VALIDATION": "Необходимо выбрать язык."
    },
    "dates": {
        "setDateButtonLabel": "Установить дату",
        "setTimeButtonLabel": "ОК",
        "setDurationButtonLabel": "Установить продолжительность",
        "calTodayButtonLabel": "Перейти к сегодняшней дате",
        "titleDateDialogLabel": "Установить дату",
        "titleTimeDialogLabel": "Установить время",
        "daysOfWeek": [
            "Воскресенье",
            "Понедельник",
            "Вторник",
            "Среда",
            "Четверг",
            "Пятница",
            "Суббота"
        ],
        "daysOfWeekShort": [
            "Вс",
            "Пн",
            "Вт",
            "Ср",
            "Чт",
            "Пт",
            "Сб"
        ],
        "monthsOfYear": [
            "Январь",
            "Февраль",
            "Март",
            "Апрель",
            "Май",
            "Июнь",
            "Июль",
            "Август",
            "Сентябрь",
            "Октябрь",
            "Ноябрь",
            "Декабрь"
        ],
        "monthsOfYearShort": [
            "Янв",
            "Фев",
            "Мар",
            "Апр",
            "Май",
            "Июн",
            "Июл",
            "Авг",
            "Сен",
            "Окт",
            "Ноя",
            "Дек"
        ],
        "durationLabel": [
            "Дн.",
            "Час.",
            "Мин.",
            "Сек."
        ],
        "durationDays": [
            "День",
            "Дн."
        ],
        "tooltip": "Выбрать дату",
        "nextMonth": "Следующий месяц",
        "prevMonth": "Предыдущий месяц",
        "clearButton": "Очистить",
        "meridiem": [
            "Д. П.",
            "П. П."
        ]
    }
}
