{
	"namespace": "EQ5D5L",
	"language": "en",
	"locale": "CA",
	"direction": "ltr",
	"resources": {
		"DISPLAY_NAME": "EQ-5D-5L",

        "EQ5D5L_EQ010_5L_Q0_TEXT": "On the following screens, please tap the statement that best describes your health TODAY.",
        "EQ5D5L_EQ010_5L_Q0_TITLE": "",

        "EQ5D5L_EQ020_5L_Q0_TEXT": "<b>Your mobility TODAY</b>",
        "EQ5D5L_EQ020_5L_Q0_TITLE": "",
        "EQ5D5L_EQ020_5L_Q0_W0_A0": "I have no problems in walking about",
        "EQ5D5L_EQ020_5L_Q0_W0_A1": "I have slight problems in walking about",
        "EQ5D5L_EQ020_5L_Q0_W0_A2": "I have moderate problems in walking about",
        "EQ5D5L_EQ020_5L_Q0_W0_A3": "I have severe problems in walking about",
        "EQ5D5L_EQ020_5L_Q0_W0_A4": "I am unable to walk about",

        "EQ5D5L_EQ030_5L_Q0_TEXT": "<b>Your self-care TODAY</b>",
        "EQ5D5L_EQ030_5L_Q0_TITLE": "",
        "EQ5D5L_EQ030_5L_Q0_W0_A0": "I have no problems washing or dressing myself",
        "EQ5D5L_EQ030_5L_Q0_W0_A1": "I have slight problems washing or dressing myself",
        "EQ5D5L_EQ030_5L_Q0_W0_A2": "I have moderate problems washing or dressing myself",
        "EQ5D5L_EQ030_5L_Q0_W0_A3": "I have severe problems washing or dressing myself",
        "EQ5D5L_EQ030_5L_Q0_W0_A4": "I am unable to wash or dress myself",

        "EQ5D5L_EQ040_5L_Q0_TEXT": "<b>Your usual activities TODAY</b><br><br><em>(e.g. work, study, housework, family or leisure activities)</em>",
        "EQ5D5L_EQ040_5L_Q0_TITLE": "",
        "EQ5D5L_EQ040_5L_Q0_W0_A0": "I have no problems doing my usual activities",
        "EQ5D5L_EQ040_5L_Q0_W0_A1": "I have slight problems doing my usual activities",
        "EQ5D5L_EQ040_5L_Q0_W0_A2": "I have moderate problems doing my usual activities",
        "EQ5D5L_EQ040_5L_Q0_W0_A3": "I have severe problems doing my usual activities",
        "EQ5D5L_EQ040_5L_Q0_W0_A4": "I am unable to do my usual activities",

        "EQ5D5L_EQ050_5L_Q0_TEXT": "<b>Your pain / discomfort TODAY</b>",
        "EQ5D5L_EQ050_5L_Q0_TITLE": "",
        "EQ5D5L_EQ050_5L_Q0_W0_A0": "I have no pain or discomfort",
        "EQ5D5L_EQ050_5L_Q0_W0_A1": "I have slight pain or discomfort",
        "EQ5D5L_EQ050_5L_Q0_W0_A2": "I have moderate pain or discomfort",
        "EQ5D5L_EQ050_5L_Q0_W0_A3": "I have severe pain or discomfort",
        "EQ5D5L_EQ050_5L_Q0_W0_A4": "I have extreme pain or discomfort",

        "EQ5D5L_EQ060_5L_Q0_TEXT": "<b>Your anxiety / depression TODAY</b>",
        "EQ5D5L_EQ060_5L_Q0_TITLE": "",
        "EQ5D5L_EQ060_5L_Q0_W0_A0": "I am not anxious or depressed",
        "EQ5D5L_EQ060_5L_Q0_W0_A1": "I am slightly anxious or depressed",
        "EQ5D5L_EQ060_5L_Q0_W0_A2": "I am moderately anxious or depressed",
        "EQ5D5L_EQ060_5L_Q0_W0_A3": "I am severely anxious or depressed",
        "EQ5D5L_EQ060_5L_Q0_W0_A4": "I am extremely anxious or depressed",

        "EQ5D5L_EQ070_5L_Q0_TEXT": "We would like to know how good or bad your health is TODAY.<br><br>On the next screen you will see a scale numbered 0 to 100.<br><br>100 means the <u>best</u> health you can imagine.<br><br>0 means the <u>worst</u> health you can imagine.",
        "EQ5D5L_EQ070_5L_Q0_TITLE": "",

        "EQ5D5L_EQ080_5L_Q0_TEXT": "<br><br><br><br><br>Please tap on the scale to indicate how your health is TODAY.",
        "EQ5D5L_EQ080_5L_Q0_TITLE": "",
        "EQ5D5L_EQ080_5L_Q0_W0_LEFT": "The worst health you can imagine",
        "EQ5D5L_EQ080_5L_Q0_W0_RIGHT": "The best health you can imagine",
        "EQ5D_ANSWER_LABEL_TEXT"      : "YOUR HEALTH TODAY",

        "EQ5D5L_EQ090_5L_Q0_TEXT": "© EuroQol Research Foundation. EQ-5D™ is a trade mark of the EuroQol Research Foundation.",
        "EQ5D5L_EQ090_5L_Q0_TITLE": ""

	}
}