{
    "namespace": "CORE",
    "language": "be",
    "locale": "BY",
    "localized": "Беларуская (Беларусь)",
    "direction": "ltr",
    "resources": {
        "ABOUT": "Звесткі",
        "ACTIVATED_ELSEWHERE": "Для збору дадзеных вашага даследавання была актывавана іншая прылада. Калі гэта было зроблена памылкова, звярніцеся да свайго каардынатара даследавання.",
        "ACTIVATION_CODE": "Код наладкі:",
        "AFFIDAVIT": "Націсніце ОК, затым Далей, калі будзеце гатовы захаваць адказы.",
        "AFFIDAVIT_HELP": "Дзякуй. Вы далі ўсе неабходныя адказы. Вы можаце праверыць і змяніць свае адказы, націснуўшы Назад.",
        "ANSWER_ATTEMPT_EXCEEDED": "Вы ўвялі няправільны адказ зашмат разоў, або націснулі на спасылку для выпадкаў страты кантрольнага адказу.",
        "APPLICATION_HEADER": "{{{ appHeader }}}",
        "BACK": "Назад",
        "BACK_OUT_CONFIRM": "Сапраўды выйсці? Адказы з гэтай формы будуць згублены.",
        "CANCEL": "Адмяніць",
        "CANCEL_UPDATE": "Адмяніць абнаўленне",
        "CHANGE_PASSWORD": "Змяніць пароль",
        "CHANGE_SECRET_QUESTION": "Змяніць кантрольнае пытанне",
        "CODE_ENTRY_NO_SERVER": "Сервер недаступны",
        "CONNECTION_REQUIRED": "Неабходна падлучэнне да Інтэрнэту.",
        "CONNECTION_TIMEOUT": "Падлучэнне пратэрмінавана.",
        "CONFIRM_PASSWORD": "Пацвердзіце пароль:",
        "CONTACT_STUDY_COORDINATOR": "Звярніцеся да каардынатара даследавання.",
        "CONTACT_UNLOCK_CODE": "Звярніцеся да свайго каардынатара даследавання, каб разблакаваць на сёння код:",
        "CORE_PRODUCT_VERSION_LABEL": "Версія прадукту:",
        "CURRENT_DATE": "{{{ currentDate }}}",
        "CURRENT_PASSWORD": "Бягучы пароль:",
        "DATE_LBL": "Дата:",
        "DEACTIVATED_LABEL": "Ваша карыстанне ERT для гэтага даследавання скончылася. Калі гэта няправільна, звярніцеся да свайго каардынатара даследавання.",
        "DEVICE_ACTIVATION": "Наладка",
        "DEVICE_NOT_SUPPORTED": "Гэта прылада не падтрымліваецца. Звярніцеся да свайго каардынатара даследавання па звесткі пра прылады, зацверджаныя для выкарыстання ў гэтым даследаванні.",
        "DEVICE_REACTIVATION": "Наладка прылады",
        "DIARY_TIMEOUT": "Гэта форма пратэрмінавана.",
        "DOWNLOAD_FAILED": "Спампоўка праграмы была прыпынена. Паўтарыце спробу, калі ў вас з'явіцца падлучэнне да Інтэрнэту, або звярніцеся ў Цэнтр падтрымкі ERT.",
        "DOWNLOAD_FAILURE": "Спампоўка прыпынена",
        "ENTER_NEW_PASSWORD": "Новы пароль:",
        "ERROR": "Памылка.  Звярніцеся ў Цэнтр падтрымкі ERT.",
        "ERROR_AFTER_ACTIVATION_SUCCESSFUL": "Адбылася памылка. Неабходна ўвесці код наладкі і пароль.",
        "ERROR_CODE": "Код памылкі:",
        "ERROR_TITLE": "Памылка",
        "FORGOT_PASSWORD": "Забыліся пароль?",
        "FORGOT_SECRET_ANSWER": "Забыліся кантрольны адказ?",
        "INCORRECT_ANSWER": "Няправільны адказ",
        "INCORRECT_UNLOCK_CODE": "Няправільны код разблакавання",
        "INSTALLING": "Усталяванне праграмы",
        "INVALID_CODE": "Няправільны код наладкі",
        "LOCAL_STORAGE_FAILURE": "Памылка мясцовага сховішча",
        "LOG_IN": "Уваход у сістэму",
        "LOG_LEVEL": "Узровень уваходжання:",
        "LOGOUT": "Выхад з сістэмы",
        "LOGOUT_CONFIRM": "Сапраўды выйсці з сістэмы?",
        "NEXT": "Далей",
        "NEXT_ACTION": " Час выканаць наступнае дзеянне ў ERT ",
        "NO_DIARIES_TITLE": "Няма справаздач для ўводу",
        "OK": "ОК",
        "PASSWORD": "Пароль:",
        "PASSWORD_ATTEMPT_EXCEEDED": "Вы ўвялі няправільны пароль зашмат разоў, або націснулі на спасылку для выпадкаў страты кантрольнага пароля.",
        "PASSWORD_CHANGE_FAILED": "Для збору дадзеных вашага даследавання была актывавана іншая прылада. Змяніце пароль на гэтай прыладзе.",
        "PASSWORD_CHANGE_SUCCESS": "Вы паспяхова абнавілі пароль.",
        "PASSWORD_INVALID": "Няправільны пароль",
        "PLEASE_ANSWER_SQ": "Адкажыце на сваё кантрольнае пытанне:",
        "PLEASE_CONFIRM": "Пацвердзіце",
        "PLEASE_CONTACT": "Звярніцеся ў Цэнтр падтрымкі ERT.",
        "PLEASE_TRY_OR_CONTACT_SUPPORT": "Паўтарыце зноў або звярніцеся ў Цэнтр даследавання ERT.",
        "PLEASE_WAIT": "Пачакайце…",
        "PORTRAIT_ONLY": "Трымайце прыладу вертыкальна.",
        "PRIVATE_BROWSING_ON": "Выключыце прыватны прагляд. Калі праблемы застануцца, звярніцеся да свайго каардынатара даследавання.",
        "PRIVACY_POLICY": "Палітыка канфідэнцыйнасці",
        "PRIVACY_POLICY_APPLICATION_UNAVAILABILITY": "Палітыка канфідэнцыйнасці ERT часова недаступна.",
        "PRIVACY_POLICY_ACTIVATION_UNAVAILABILITY": "Палітыка канфідэнцыйнасці ERT часова недаступна. Палітыка канфідэнцыйнасці ERT даступна на гэтай старонцы налад пасля актывацыі.",
        "PROTOCOL": "Пратакол:",
        "REQUIRED_ANSWER": "Дайце адказы",
        "RETRY": "Паўтарыце зноў",
        "RESET_PASSWORD": "Скінуць пароль",
        "RESET_SECRET_QUESTION": "Скінуць кантрольнае пытанне",
        "SECRET_ANSWER": "Кантрольны адказ:",
        "SECRET_QUESTION": "Кантрольнае пытанне:",
        "SECRET_QUESTION_CHANGE_FAILED": "Для збору дадзеных вашага даследавання была актывавана іншая прылада. Змяніце кантрольнае пытанне на гэтай прыладзе.",
        "SECRET_QUESTION_CHANGE_SUCCESS": "Вы паспяхова абнавілі пароль і кантрольнае пытанне.",
        "SETTINGS": "Налады",
        "SITE": "Даследчы цэнтр:",
        "SKIP_QUESTION": "Сапраўды скінуць адказы на гэтым экране?",
        "SPONSOR": "Спонсар:",
        "STORED_REPORTS": "Захаваныя формы:",
        "STUDY_VERSION": "Версія даследавання: ",
        "STUDY_URL": "URL-адрас даследавання:",
        "SUBJECT_ID": "Код пацыента:",
        "TEMPORARY_UNLOCK_CODE": "Увядзіце код разблакавання, выдадзены каардынатарам даследавання.",
        "TRANSMIT_REPORTS": "Абнавіць",
        "UPDATE_CACHED_DELETED": "Абнаўленне ERT не завершана. Каб карыстацца ERT, спатрэбіцца падлучэнне да Інтэрнэту. Звярніцеся ў свой Цэнтр падтрымкі ERT.",
        "UPDATE_FAILED": "Абнаўленне ERT не завершана. Пераканайцеся, што гэта прылада падлучана да Інтэрнэту, і паўтарыце зноў.",
        "UPDATE_FAILURE": "Абнаўленне не завершана",
        "UPDATE_SUCCESS": "Абнаўленне паспяхова праведзена",
        "WELCOME": "Вітаем",
        "ALARM_OFF_LBL": "Выкл.",
        "ALARM_TURN_OFF": "Выключыць",
        "SET_ALARMS": "Наладзіць папярэджанні",
        "SCHED_NO_DIARIES_AVAILABLE": "На гэты час не чакаецца ніводнай справаздачы",
        "TRAINER": "Рэжым навучання",
        "TRAINER_EXIT": "Выйсці з рэжыму навучання",
        "TRAINER_EXIT_NOTIFICATION": "Вы выходзіце з рэжыму навучання",
        "TRAINER_HEADER": "(Навучанне)",
        "ELPU_FAILURE": "Ваша карыстанне гэтай прыладай ERT скончылася, але адбылася памылка. Паўтарыце спробу.",
        "ELPU_ON_REPLACED_DEVICE": "Ваша карыстанне гэтай прыладай ERT скончылася. Выкарыстайце прыладу для замены.",
        "SECURITY_QUESTION_0": "Якое дзявочае прозвішча вашай маці?",
        "SECURITY_QUESTION_1": "У якім горадзе вы нарадзіліся?",
        "SECURITY_QUESTION_2": "Як клікалі вашага першага хатняга гадаванца?",
        "SECURITY_QUESTION_3": "Які ваш любімы від спорту?",
        "SECURITY_QUESTION_4": "У якім годзе вы скончылі навучанне?",
        "SECURITY_QUESTION_5": "Якое другое імя вашага старэйшага дзіцяці?",
        "SECURITY_QUESTION_6": "Як зваць вашага найлепшага сябра дзяцінства?",
        "SECURITY_QUESTION_7": "Якое прозвішча было ў вашага настаўніка трэцяга класа?",
        "SECURITY_QUESTION_8": "У якім горадзе вы атрымалі першае месца працы?",
        "SELECT_SITE_USER": "Выберыце імя карыстальніка даследчага цэнтра",
        "SITE_USER_NAME": "Імя карыстальніка даследчага цэнтра:",
        "ADD_SITE_USER": "Дадаць карыстальніка даследчага цэнтра",
        "INVALID_ENTRY": "Няправільныя дадзеныя",
        "HANDOFF_MESSAGE": "<strong>Пацыент павінен завяршыць наступную групу экранаў, каб наладзіць код доступу да формы.</strong>",
        "REVERSE_HANDOFF_CONFIRM": "Калі Вы націснеце «ОК», працэс актывацыі перазапусціцца. Вы напэўна хочаце перазапусціць актывацыю?",
        "SITE_GATEWAY_TITLE": "Шлюз даследчага цэнтра",
        "USER_ALREADY_EXISTS": "Карыстальнік ужо існуе",
        "SITE_SIGNATURE": "Подпіс: ",
        "SITE_REPORT_AFF": "Я ўвёў, пераправерыў і пацвярджаю папярэднюю інфармацыю.<br /><br /><strong>Подпіс:</strong>  {{{ getActiveUserName }}}",
        "PATIENT_REPORT_AFF": "Я ўвёў, пераправерыў і пацвярджаю папярэднюю інфармацыю.<br /><br /><strong>Ініцыялы:</strong> {{{ getActiveUserName }}}",
        "CLEAR_SIGNATURE": "Ачысціць подпіс",
        "STUDY_ALIAS": "{{{ studyAlias }}}",
        "SITE_ACTIVATED_ELSEWHERE": "Для збору дадзеных даследавання для пацыента была актывавана іншая прылада. Калі гэта было зроблена з-за памылкі, звярніцеся да каардынатара даследавання.",
        "SITE_DEACTIVATED_LABEL": "Пацыент скончыў карыстацца ERT для гэтага даследавання. Калі гэта няправільна, звярніцеся да каардынатара даследавання.",
        "SIGNATURE_DATA_LIMIT_EXCEEDED": "Немагчыма дакладна адлюстраваць подпіс у полі подпісу. Пастаўце свае ініцыялы замест подпісу.",
        "PAIRED": "Злучана",
        "BLUETOOTH_REG_TITLE": "Злучэнне прылады eSense",
        "BLUETOOTH_REG_REFRESH_BUTTON": "Абнавіць спіс",
        "BLUETOOTH_PAIR_DEVICE": "Злучыць выбраную прыладу",
        "BLUETOOTH_PAIRING_FAILED": "Не атрымалася ўсталяваць злучэнне з выбранай прыладай. Паспрабуйце яшчэ раз.",
        "BLUETOOTH_PAIRING_SUCCESS": "Злучэнне з выбранай прыладай усталявана.",
        "BLUETOOTH_REG_NO_DEVICES_FOUND": "Прылады не былі знойдзены. Пераканайцеся, што прылада знаходзіцца побач з ERT і ў рэжыме перадачы.",
        "SYNC_FAILED": "Сінхранізацыя з серверам не ўдалася.",
        "DIARY_REQUIRES_E_SENSE_SUPPORT": "eSense не падтрымліваецца. Гэта форма патрабуе падтрымкi eSense.",
        "ERROR_E_SENSE_ENABLE": "Не атрымалася запусціць eSense.",
        "E_SENSE_NOT_PAIRED": "Адсутнічае злучэнне прылады eSense. Для гэтай формы патрабуецца злучаная прылада eSense.",
        "BLUETOOTH_SYNC_FAILURE_TOP": "ERT не мог камунікаваць з прыладай {{{ eSenseDeviceName }}}.",
        "BLUETOOTH_SYNC_FAILURE_MIDDLE": "Пераканайцеся, што прылада {{{ eSenseDeviceName }}} з нумарам {{{ eSenseSerialNumber }}} знаходзіцца побач з ERT і ў рэжыме перадачы.",
        "PLUGIN_MISSING": "Не атрымалася загрузіць патрэбны модуль.",
        "WRAPPER_VERSION": "Версія абалонкі:",
        "SUPPORT": "Падтрымка кліентаў",
        "SUPPORT_MESSAGE": "Карыстальнікі са Злучаных Штатаў могуць звярнуцца ў Цэнтр падтрымкі ERT па нумары 800-748-5669. Міжнародныя карыстальнікі павінны выбраць найбліжэйшую з пералічаных ніжэй краін.",
        "SUPPORT_DROPDOWN": "Выберыце краіну",
        "SUPPORT_NAME_ARGENTINA": "Аргенціна",
        "SUPPORT_NUMBER_ARGENTINA": "<bdi>0800 444 0962</bdi>",
        "SUPPORT_NAME_ARMENIA": "Арменія",
        "SUPPORT_NUMBER_ARMENIA": "<bdi>+1 617 681 6306</bdi>",
        "SUPPORT_NAME_AUSTRALIA": "Аўстралія",
        "SUPPORT_NUMBER_AUSTRALIA": "<bdi>1 800 800 051</bdi>",
        "SUPPORT_NAME_AUSTRIA": "Аўстрыя",
        "SUPPORT_NUMBER_AUSTRIA": "<bdi>0800 100 405</bdi>",
        "SUPPORT_NAME_BELARUS": "Беларусь",
        "SUPPORT_NUMBER_BELARUS": "<bdi>8 820 0321 0036</bdi>",
        "SUPPORT_NAME_BELGIUM": "Бельгія",
        "SUPPORT_NUMBER_BELGIUM_1": "(англійская): <bdi>0800 58 016</bdi>",
        "SUPPORT_NUMBER_BELGIUM_2": "(французская): <bdi>0800 71 076</bdi>",
        "SUPPORT_NUMBER_BELGIUM_3": "(нямецкая): <bdi>0800 71 113</bdi>",
        "SUPPORT_NAME_BRAZIL": "Бразілія",
        "SUPPORT_NUMBER_BRAZIL": "<bdi>0800 891 5909</bdi>",
        "SUPPORT_NAME_BOSNIA": "Боснія",
        "SUPPORT_NUMBER_BOSNIA": "<bdi>+1 617 681 6306</bdi>",
        "SUPPORT_NAME_BULGARIA": "Балгарыя",
        "SUPPORT_NUMBER_BULGARIA": "<bdi>00800 0010</bdi>, пасля <bdi>866 245 4931</bdi>",
        "SUPPORT_NAME_CANADA": "Канада",
        "SUPPORT_NUMBER_CANADA": "<bdi>1 800 748 5669</bdi>",
        "SUPPORT_NAME_CHILE": "Чылі",
        "SUPPORT_NUMBER_CHILE": "<bdi>123 0020 3408</bdi>",
        "SUPPORT_NAME_CHINA": "Кітай",
        "SUPPORT_NUMBER_CHINA_1": "NetCom (поўнач): <bdi>1 0800 74 40 164</bdi>",
        "SUPPORT_NUMBER_CHINA_2": "Telecom (поўдзень): <bdi>1 0800 44 00 158</bdi>",
        "SUPPORT_NAME_COLOMBIA": "Калумбія",
        "SUPPORT_NUMBER_COLOMBIA": "<bdi>01 800 911 0010</bdi>, пасля <bdi>866 310 3707</bdi>",
        "SUPPORT_NAME_COSTA_RICA": "Коста-Рыка",
        "SUPPORT_NUMBER_COSTA_RICA": "<bdi>0800 013 1210</bdi>",
        "SUPPORT_NAME_CROATIA": "Харватыя",
        "SUPPORT_NUMBER_CROATIA": "<bdi>0800 222 953</bdi>",
        "SUPPORT_NAME_CZECH_REPUBLIC": "Чэхія",
        "SUPPORT_NUMBER_CZECH_REPUBLIC": "<bdi>800 142 150</bdi>",
        "SUPPORT_NAME_DENMARK": "Данія",
        "SUPPORT_NUMBER_DENMARK": "<bdi>80 60 00 09</bdi>",
        "SUPPORT_NAME_EGYPT": "Егіпет",
        "SUPPORT_NUMBER_EGYPT": "<bdi>02 510 0200</bdi>, пасля <bdi>866 310 3707</bdi>",
        "SUPPORT_NAME_EL_SALVADOR": "Эль-Сальвадор",
        "SUPPORT_NUMBER_EL_SALVADOR": "<bdi>+1 617 681 6306</bdi>",
        "SUPPORT_NAME_ESTONIA": "Эстонія",
        "SUPPORT_NUMBER_ESTONIA": "<bdi>800 00 44 154</bdi>",
        "SUPPORT_NAME_FINLAND": "Фінляндыя",
        "SUPPORT_NUMBER_FINLAND": "<bdi>0800 11 6366</bdi>",
        "SUPPORT_NAME_FRANCE": "Францыя",
        "SUPPORT_NUMBER_FRANCE": "<bdi>0800 10 19 79</bdi>",
        "SUPPORT_NAME_GERMANY": "Германія",
        "SUPPORT_NUMBER_GERMANY": "<bdi>0800 101 28 21</bdi>",
        "SUPPORT_NAME_GREECE": "Грэцыя",
        "SUPPORT_NUMBER_GREECE": "<bdi>00 800 1311</bdi>, пасля <bdi>866 310 3707</bdi>",
        "SUPPORT_NAME_GUATEMALA": "Гватэмала",
        "SUPPORT_NUMBER_GUATEMALA": "<bdi>1 800 624 0079</bdi>",
        "SUPPORT_NAME_HONG_KONG": "Ганконг",
        "SUPPORT_NUMBER_HONG_KONG": "<bdi>3002 1665</bdi>",
        "SUPPORT_NAME_HUNGARY": "Венгрыя",
        "SUPPORT_NUMBER_HUNGARY": "<bdi>06 800 14 571</bdi>",
        "SUPPORT_NAME_ICELAND": "Ісландыя",
        "SUPPORT_NUMBER_ICELAND": "<bdi>800 8544</bdi>",
        "SUPPORT_NAME_INDIA": "Індыя",
        "SUPPORT_NUMBER_INDIA": "<bdi>000 800 440 1125</bdi>",
        "SUPPORT_NAME_INDONESIA": "Інданезія",
        "SUPPORT_NUMBER_INDONESIA": "<bdi>008 800 330 334</bdi>",
        "SUPPORT_NAME_IRELAND": "Ірландыя",
        "SUPPORT_NUMBER_IRELAND": "<bdi>1 800 946 700</bdi>",
        "SUPPORT_NAME_ISRAEL": "Ізраіль",
        "SUPPORT_NUMBER_ISRAEL": "<bdi>1 809 470 062</bdi>",
        "SUPPORT_NAME_ITALY": "Італія",
        "SUPPORT_NUMBER_ITALY": "<bdi>800 90 56 37</bdi>",
        "SUPPORT_NAME_JAPAN": "Японія",
        "SUPPORT_NUMBER_JAPAN": "Азнаёмцеся з тэлефонам гарачай лініі даследавання ў даведніку даследавання ePRO.",
        "SUPPORT_NAME_LATVIA": "Латвія",
        "SUPPORT_NUMBER_LATVIA": "<bdi>8000 2151</bdi>",
        "SUPPORT_NAME_LEBANON": "Ліван",
        "SUPPORT_NUMBER_LEBANON": "<bdi>01-426-801</bdi>, пасля <bdi>866 310 3707</bdi>",
        "SUPPORT_NAME_LITHUANIA": "Літва",
        "SUPPORT_NUMBER_LITHUANIA": "<bdi>8800 30207</bdi>",
        "SUPPORT_NAME_MALAYSIA": "Малайзія",
        "SUPPORT_NUMBER_MALAYSIA": "<bdi>1800 80 59 71</bdi>",
        "SUPPORT_NAME_MEXICO": "Мексіка",
        "SUPPORT_NUMBER_MEXICO_1": "(англійская): <bdi>001 800 748 5669</bdi> ",
        "SUPPORT_NUMBER_MEXICO_2": "(іспанская): <bdi>001 855 631 6952</bdi>",
        "SUPPORT_NAME_MOLDOVA": "Малдова",
        "SUPPORT_NUMBER_MOLDOVA": "<bdi>617 681 6306</bdi>",
        "SUPPORT_NAME_NETHERLANDS": "Нідэрланды",
        "SUPPORT_NUMBER_NETHERLANDS": "<bdi>0800 023 1389</bdi>",
        "SUPPORT_NAME_NEW_ZEALAND": "Новая Зеландыя",
        "SUPPORT_NUMBER_NEW_ZEALAND": "<bdi>0800 110 178</bdi>",
        "SUPPORT_NAME_NORWAY": "Нарвегія",
        "SUPPORT_NUMBER_NORWAY": "<bdi>800 62 051</bdi>",
        "SUPPORT_NAME_PAKISTAN": "Пакістан",
        "SUPPORT_NUMBER_PAKISTAN": "<bdi>00 800 0100</bdi>, пасля <bdi>866 237 9767</bdi>",
        "SUPPORT_NAME_PANAMA": "Панама",
        "SUPPORT_NUMBER_PANAMA": "<bdi>001 800 201 3095</bdi>",
        "SUPPORT_NAME_PERU": "Перу",
        "SUPPORT_NUMBER_PERU": "<bdi>0800 5 0974</bdi>",
        "SUPPORT_NAME_PHILIPPINES": "Філіпіны",
        "SUPPORT_NUMBER_PHILIPPINES": "<bdi>1 800 1116 0651</bdi>",
        "SUPPORT_NAME_POLAND": "Польшча",
        "SUPPORT_NUMBER_POLAND": "<bdi>00800 331 1262</bdi>",
        "SUPPORT_NAME_PORTUGAL": "Партугалія",
        "SUPPORT_NUMBER_PORTUGAL": "<bdi>800 206 172</bdi>",
        "SUPPORT_NAME_PUERTO_RICO": "Пуэрта-Рыка (тэрыторыя ЗША)",
        "SUPPORT_NUMBER_PUERTO_RICO": "<bdi>1 800 748 5669</bdi>",
        "SUPPORT_NAME_ROMANIA": "Румынія",
        "SUPPORT_NUMBER_ROMANIA": "<bdi>0800 894492</bdi>",
        "SUPPORT_NAME_RUSSIA": "Расія",
        "SUPPORT_NUMBER_RUSSIA_1": "(першасная гарачая лінія): <bdi>8 10 800 249 13011</bdi>",
        "SUPPORT_NUMBER_RUSSIA_2": "(у межах Масквы): <bdi>363-2400</bdi>, <br> пасля <bdi>866 310 3707</bdi>",
        "SUPPORT_NUMBER_RUSSIA_3": "(па-за межамі Масквы): <bdi>8^(495) 363-2400</bdi>, <br> пасля <bdi>866 310 3707</bdi>",
        "SUPPORT_NUMBER_RUSSIA_4": "(у межах Санкт-Пецярбургу): <bdi>363-2400</bdi>, <br> пасля <bdi>866 310 3707</bdi>",
        "SUPPORT_NUMBER_RUSSIA_5": "(па-за межамі Санкт-Пецярбургу): <bdi>8^(495) 363-2400</bdi>, <br> пасля <bdi>866 310 3707</bdi>",
        "SUPPORT_NAME_SAUDI_ARABIA": "Саудаўская Аравія",
        "SUPPORT_NUMBER_SAUDI_ARABIA": "<bdi>+1 617 681 6306</bdi>",
        "SUPPORT_NAME_SERBIA": "Сербія",
        "SUPPORT_NUMBER_SERBIA": "<bdi>+1 617 973 1739</bdi>",
        "SUPPORT_NAME_SINGAPORE": "Сінгапур",
        "SUPPORT_NUMBER_SINGAPORE": "<bdi>800 616 30 03</bdi>",
        "SUPPORT_NAME_SLOVAKIA": "Славакія",
        "SUPPORT_NUMBER_SLOVAKIA": "<bdi>0800 0044 65</bdi>",
        "SUPPORT_NAME_SLOVENIA": "Славенія",
        "SUPPORT_NUMBER_SLOVENIA": "<bdi>+1 617 681 6306</bdi>",
        "SUPPORT_NAME_SOUTH_AFRICA": "Паўднёвая Афрыка",
        "SUPPORT_NUMBER_SOUTH_AFRICA": "<bdi>0800 99 5853</bdi>",
        "SUPPORT_NAME_SOUTH_KOREA": "Паўднёвая Карэя",
        "SUPPORT_NUMBER_SOUTH_KOREA": "<bdi>00308 33 00 08</bdi>",
        "SUPPORT_NAME_SPAIN": "Іспанія",
        "SUPPORT_NUMBER_SPAIN": "<bdi>900 90 2541</bdi>",
        "SUPPORT_NAME_SWEDEN": "Швецыя",
        "SUPPORT_NUMBER_SWEDEN": "<bdi>020 120 99 69</bdi>",
        "SUPPORT_NAME_SWITZERLAND": "Швейцарыя",
        "SUPPORT_NUMBER_SWITZERLAND_1": "(англійская): <bdi>0800 199 325</bdi>",
        "SUPPORT_NUMBER_SWITZERLAND_2": "(французская): <bdi>0800 891 183</bdi>",
        "SUPPORT_NUMBER_SWITZERLAND_3": "(нямецкая): <bdi>0800 891 025</bdi>",
        "SUPPORT_NAME_TAIWAN": "Тайвань",
        "SUPPORT_NUMBER_TAIWAN": "<bdi>00801 33 33 42</bdi>",
        "SUPPORT_NAME_THAILAND": "Тайланд",
        "SUPPORT_NUMBER_THAILAND": "<bdi>1 800 33 140 353</bdi>",
        "SUPPORT_NAME_TUNISIA": "Туніс",
        "SUPPORT_NUMBER_TUNISIA": "<bdi>+1 617 681 6306</bdi>",
        "SUPPORT_NAME_TURKEY": "Турцыя",
        "SUPPORT_NUMBER_TURKEY": "<bdi>00 800 151 1335</bdi>",
        "SUPPORT_NAME_UKRAINE": "Украіна",
        "SUPPORT_NUMBER_UKRAINE": "<bdi>0^00 11</bdi>, пасля <bdi>866 245 4931</bdi>",
        "SUPPORT_NAME_UAE": "Аб’яднаныя Арабскія Эміраты",
        "SUPPORT_NUMBER_UAE": "<bdi>8000-021</bdi>, пасля <bdi>866 310 3707</bdi>",
        "SUPPORT_NAME_UK": "Вялікабрытанія",
        "SUPPORT_NUMBER_UK": "<bdi>0800 015 0408</bdi>",
        "SUPPORT_NAME_US": "Злучаныя Штаты Амерыкі",
        "SUPPORT_NUMBER_US_1": "(асноўны): <bdi>1 800 748 5669</bdi>",
        "SUPPORT_NUMBER_US_2": "(рэзервовы): <bdi>1 877 748 5669</bdi>",
        "SUPPORT_NAME_VENEZUELA": "Венесуэла",
        "SUPPORT_NUMBER_VENEZUELA_1": "(англійская): <bdi>0 800 552 6288</bdi>, <br> пасля <bdi>866 310 3707</bdi> ",
        "SUPPORT_NUMBER_VENEZUELA_2": "(іспанская): <bdi>0 800 100 3063</bdi> ",
        "USER_NAME": "Імя карыстальніка:",
        "SUBJECT_ROLE": "Код пацыента: {{{ getParticipantCode }}}",
        "SITE_ROLE": "Карыстальнік даследчага цэнтра",
        "TEMPORARY_PASSWORD_MESSAGE": "Дайце часовы пароль для новага карыстальніка. Пасля ўваходу ў сістэму карыстальнік павінен будзе стварыць новы пароль.",
        "SHARED_PASSWORD_MESSAGE": "Пароль для новага карыстальніка павінен быць узяты са Study Works.",
        "TEMP_PASSWORD": "Часовы пароль: ",
        "ROLES": "Роля:",
        "LANGUAGE": "Мова:",
        "FULL_NAME": "Поўнае імя:",
        "CONFIRM_TEMP_PASS": "Пацвердзіце часовы пароль:",
        "PASSWORD_MISMATCH": "Пацвярджэнне пароля не супадае з паролем",
        "PASSWORD_INVALID_CHARACTERS": "Выкарыстоўвайце толькі лічбы",
        "USER_NAME_INVALID_CHARACTERS": "Не выкарыстоўвайце спецыяльныя сімвалы",
        "USER_NAME_MORE_THAN_25": "Выкарыстоўвайце не больш за 25 сімвалаў",
        "PRIVACY_POLICY_VERSION_LABEL": "Версія: ",
        "PRIVACY_POLICY_VERSION": "1.6.0",
        "PRIVACY_POLICY_LAST_UPDATED_LABEL": "Дата апошняга абнаўлення: ",
        "PRIVACY_POLICY_LAST_UPDATED": "21 студзеня 2014 г.",
        "PRIVACY_POLICY_TEXT_LABEL": "Звесткі пра канфідэнцыйнасць: ",
        "PRIVACY_POLICY_TEXT": "ERT пастаўляе праграмнае забеспячэнне, якое вы збіраецеся ўсталяваць. ERT працуе з вашым цэнтрам клінічных даследаванняў, каб гарантаваць, што ніхто не даведаецца, хто вы, без дазволу вашага цэнтра. Вы маеце права вывучаць свае справаздачы, усталяваўшы прагляд праз цэнтр.",
        "SUBJECT_REPORT_AFF": "Я заяўляю, што адказаў на ўсе пытанні настолькі добра, наколькі магу.",
        "SUBJECT_INITIALS_LABEL": "Ініцыялы пацыента:",
        "SUBJECT": "Пацыент",
        "SET_TIMEZONE": "Наладзіць часавы пояс",
        "SET_TIMEZONE_MESSAGE": "Выберыце свой часавы пояс:",
        "SET_TIMEZONE_BUTTON": "Наладзіць",
        "TIME_ZONE_CONFIRM_HEADER": "Пацвярджэнне змянення часавага пояса",
        "TIME_ZONE_CONFIRM": "Сапраўды змяніць часавы пояс? Праграма перагрузіцца, каб пачало прымяняцца змяненне.",
        "TIME_ZONE_EUROPE_KALININGRAD": "Еўропа/Калінінград",
        "TIME_ZONE_EUROPE_MOSCOW": "Еўропа/Масква",
        "TIME_ZONE_ASIA_KARACHI": "Азія/Карачы",
        "TIME_ZONE_ASIA_YEKATERINBURG": "Азія/Екацярынбург",
        "TIME_ZONE_ASIA_NOVOSIBIRSK": "Азія/Новасібірск",
        "TIME_ZONE_ASIA_KRASNOYARSK": "Азія/Краснаярск",
        "TIME_ZONE_ASIA_IRKUTSK": "Азія/Іркуцк",
        "TIME_ZONE_ASIA_YAKUTSK": "Азія/Якуцк",
        "TIME_ZONE_ASIA_VLADIVOSTOK": "Азія/Уладзівасток",
        "TIME_ZONE_ASIA_KAMCHATKA": "Азія/Камчатка",
        "AF-ZA": "Афрыкаанс",
        "AR-EG": "Арабская",
        "BE-BY": "Беларуская",
        "BG-BG": "Балгарская",
        "BN-IN": "Бенгалі",
        "BS-BA": "Баснійская",
        "CA-ES": "Каталанская",
        "CS-CZ": "Чэшская",
        "DA-DK": "Дацкая",
        "DE-DE": "Нямецкая (Германія)",
        "DE-AT": "Нямецкая (Аўстрыя)",
        "EL-GR": "Грэчаская",
        "EN-GB": "Англійская (Вялікабрытанія)",
        "EN-US": "Англійская (ЗША)",
        "ES-ES": "Іспанская (Іспанія)",
        "ES-US": "Іспанская (ЗША)",
        "ES-PY": "Іспанская (універсальная)",
        "ET-EE": "Эстонская",
        "FI-FI": "Фінская",
        "FR-CA": "Французская (Канада)",
        "FR-FR": "Французская (Францыя)",
        "GD-IE": "Гэльская",
        "GU-IN": "Гуджараці",
        "HE-IL": "Іўрыт",
        "HI-IN": "Хіндзі",
        "HR-HR": "Харвацкая",
        "HU-HU": "Венгерская",
        "IT-IT": "Італьянская",
        "JA-JP": "Японская",
        "KA-GE": "Грузінская",
        "KN-IN": "Канада (мова)",
        "KO-KR": "Карэйская",
        "LV-LV": "Латышская",
        "LT-LT": "Літоўская",
        "ML-IN": "Малаялам",
        "MR-IN": "Маратхі",
        "MS-MY": "Малайская",
        "NB-NO": "Нарвежская",
        "NL-BE": "Нідэрландская (Бельгія)",
        "NL-NL": "Нідэрландская (Нідэрланды)",
        "PA-IN": "Панджабі",
        "PL-PL": "Польская",
        "PT-BR": "Партугальская (Бразілія)",
        "PT-PT": "Партугальская (Партугалія)",
        "RO-RO": "Румынская",
        "RU-RU": "Руская",
        "SL-SL": "Славенская",
        "SK-SK": "Славацкая",
        "SR-RS": "Сербская (лацініца)",
        "SR-SP": "Сербская (кірыліца)",
        "ST-ZA": "Сота",
        "SV-SE": "Шведская",
        "TA-IN": "Тамільская",
        "TE-IN": "Тэлугу",
        "TH-TH": "Тайская",
        "TL-PH": "Тагалог",
        "TN-ZA": "Тсвана",
        "TR-TR": "Турэцкая",
        "UK-UA": "Украінская",
        "UR-IN": "Урду",
        "VI-VN": "В'етнамская",
        "XH-ZA": "Коса",
        "ZH-CN": "Кітайская (Кітай)",
        "ZH-TW": "Кітайская (Тайвань)",
        "ZU-ZU": "Зулу",
        "NO_RESULTS_FOUND": "Не знойдзена вынікаў.",
        "USER": "Карыстальнік",
        "SYNC": "Сінхранізацыя",
        "TIME_LBL": "Час:",
        "SET_TIME": "Наладзіць час",
		"NEW_USER": "Дадаць дзённік новага карыстальніка",
        "NEW_USER_CREATED": "Створаны новы карыстальнік.",
        "TIME_ZONE_SET_CONFIRM": "Сапраўды наладзіць наступны часавы пояс: <bdi>{{{ selectedTimeZone }}}</bdi>? <br/> Праграма можа перагрузіцца, каб пачало прымяняцца змяненне.",
        "TIME_ZONE_SET_CONFIRM_NOCHANGE": "Сапраўды наладзіць наступны часавы пояс: <bdi>{{{ selectedTimeZone }}}</bdi>?",
        "TIME_ZONE_SET_HEADER": "Пацвярджэнне наладкі часавага пояса",
        "TIME_ZONE_ERROR_HEADER": "Памылка часавага пояса",
        "TIME_ZONE_ERROR_MSG": "Адбылася памылка падчас атрымання спісу часавага пояса. Звярніцеся ў Цэнтр падтрымкі ERT па дадатковую дапамогу.",
        "TIME_ZONE_SET_ERROR_MSG": "Адбылася памылка падчас наладкі часавага пояса. Звярніцеся ў Цэнтр падтрымкі ERT па дадатковую дапамогу.",
        "TIME_CONFIRMATION_INSTRUCTIONS": "Неабходна пацвердзіць мясцовы час для прылады. Увядзіце дату і час з надзейнай крыніцы.",
        "LOW_BATTERY": "Папярэджанне: Акумулятар мае нізкі зарад. Пастаўце прыладу на падзарадку.",
        "CRITICAL_BATTERY": "Папярэджанне: Акумулятар амаль цалкам разраджаны. Пастаўце прыладу на падзарадку, інакш яна выключыцца.",
        "SITE_ADMINISTRATOR": "Адміністратар даследчага цэнтра",
        "TIME_CONFIRMATION_HEADER": "Пацвердзіць дату/час",
        "TIMESLIP_ERROR": "На вашай прыладзе няправільныя час ці дата. Перайдзіце ў месца з падлучэннем да Інтэрнэту і паўтарыце спробу. Калі праблема не знікне, звярніцеся ў Службу падтрымкі ERT.",
        "P_AFFIDAVIT_HEADER": "<div><strong>Даследчы цэнтр: {{{ getSiteCodeForSubject }}}</strong><br /><strong>Ідэнтыфікатар пацыента: {{{ getParticipantCodeForSubject }}}</strong></div>",
        "RESTART_NOTIFICATION_HEADER": "Неабходны перазапуск",
        "RESTART_NOTIFICATION_MSG": "Часавы пояс зменены. Праграма перазапусціцца праз {{{ timeZoneChangeRestartCountdown }}}.",
        "RESTART_NOW": "Перазапусціць зараз",
        "SECONDS": "сек",
        "MINUTES": "хвіліны",
        "SELECT_LANGUAGE": "Выберыце пажаданую мову для суб'екта.",
        "ACCEPT": "Я прымаю",
        "DECLINE": "Я адхіляю",
        "EULA": "КАРЫСТАЛЬНІЦКАЕ ПАГАДНЕННЕ",
        "EULA_TEXT": "<p><strong><span class=\"text-underline\">ВАЖНА</span>:  НЕ НАЦІСКАЙЦЕ НА КНОПКУ ПРЫНЯЦЦЯ, ПАКУЛЬ НЕ ПРАЧЫТАЕЦЕ ГЭТА ПАГАДНЕННЕ.  НАЦІСКАЮЧЫ НА КНОПКУ ПРЫНЯЦЦЯ, ВЫ ПРЫМАЕЦЕ ЎСЕ ЎМОВЫ ГЭТАГА ПАГАДНЕННЯ.  КАЛІ ВЫ НЕ ПРЫМАЕЦЕ ЎСЕ ЎМОВЫ ГЭТАГА ПАГАДНЕННЯ, (1) НЕ НАЦІСКАЙЦЕ НА КНОПКУ \"Я ПРЫМАЮ\", (2) СПЫНІЦЕ ЎСТАНОЎКУ І ПРАЦЭС ЛІЦЭНЗАВАННЯ, НАЦІСНУЎШЫ НА КНОПКУ \"Я АДХІЛЯЮ\".</strong></p><p>eResearchTechnology, Inc. (\"Ліцэнзіяр\") дае вам невыключнае, непадлеглае перадачы права на выкарыстанне праграмнага забеспячэння eResearchTechnology, Inc., убудаванага ў гэту прыладу (\"Праграмнае забеспячэнне\"), у сувязі з вашым удзелам у пагадненні аб правядзенні клінічнага даследавання: <strong>{{{ clinicalTrial }}}</strong>.  Праграмнае забеспячэнне eResearchTechnology, Inc. абаронена выдадзенымі патэнтамі, а таксама патэнтамі, якія чакаюць выдання.  Гэта Пагадненне не дае вам права ўласнасці на Праграмнае забеспячэнне (і яго копій), а дае ліцэнзію на выкарыстанне Праграмнага забеспячэння ў адпаведнасці з усімі ўмовамі гэтага Пагаднення.  Права ўласнасці на Праграмнае забеспячэнне і ўсе яго кампаненты, усе маёмасныя правы і правы інтэлектуальнай уласнасці заўсёды належаць Ліцэнзіяру.</p><p>Вы пагаджаецеся не рабіць наступнага, прама або ўскосна: (i) ажыццяўляць адваротнае праектаванне, выконваць дэкампіляцыю або дэманціраваць Праграмнае забеспячэнне; (ii) капіраваць, распаўсюджваць, вырабляць, адаптаваць, перакладаць, лакалізаваць, пераносіць і іншым чынам змяняць Праграмнае забеспячэнне, а таксама ствараць яго вытворныя элементы; (iii) выдаляць ці змяняць аўтарскія правы, аб'екты камерцыйнай тайны і іншыя прававыя агаворкі, якія змяшчаюцца ў Праграмным забеспячэнні.  ВЫ ПАЦВЯРДЖАЕЦЕ СВАЮ ЗГОДУ З ТЫМ, ШТО ПРАГРАМНАЕ ЗАБЕСПЯЧЭННЕ МОЖА ЗМЯШЧАЦЬ КОД, ЯКІ ПРАДУХІЛЯЕ НЕСАНКЦЫЯНАВАНАЕ ВЫКАРЫСТАННЕ ПРАГРАМНАГА ЗАБЕСПЯЧЭННЯ.</p><br><p>КАЛІ ВЫ ПАГАДЖАЕЦЕСЯ З УСІМ ВЫШЭЙПЕРАЛІЧАНЫМ, выберыце – <strong>Я прымаю</strong> –Націскаючы на \"Я прымаю\", вы прымаеце ўмовы ліцэнзійнага пагаднення.</p><p>КАЛІ ВЫ НЕ ПАГАДЖАЕЦЕСЯ З УСІМ ВЫШЭЙПЕРАЛІЧАНЫМ або не маеце паўнамоцтва даваць такую згоду, выберыце – <strong>Я адхіляю</strong> –, і ў гэтым выпадку доступ да Праграмнага забеспячэння будзе заблакаваны.  Калі ў вас будуць паўнамоцтвы, вы можаце прыняць умовы ў наступны раз.</p>",
        "HAND_DEVICE_SITE_TITLE": "Перадаць прыладу карыстальніку даследчага цэнтра",
        "HAND_DEVICE_SITE_BODY": "Перадайце прыладу карыстальніку даследчага цэнтра.",
        "SQ-AL": "Албанская",
        "IMAGE_FOLDER": "{{{ imageFolder }}}",
        "MODAL_OK_TEXT": "ОК",
        "BROWSER_LOAD_ERROR": "Старонка не знойдзена. Праверце падлучэнне да інтэрнэту і паспрабуйце яшчэ раз.",
		"NONEXISTENT_USER" : "Карыстальнік не знойдзены.",
		"NO_USER_OF_ROLE" : "Карыстальнік з гэтай роллю не знойдзены.",
		"START_VISIT_OUTSIDE_WINDOW_MSG": "Увесці {{{ getVisitName }}} па-за межамі разлічанага інтэрвалу часу: {{{ startDate }}} - {{{ endDate }}}",
		"START_VISIT_HARD_STOP_MSG" : "Вы не можаце ўвесці {{{ getVisitName }}} па-за межамі разлічанага інтэрвалу часу: {{{ startDate }}} - {{{ endDate }}}",
		"YES" : "Так",
		"NO" : "НЕ"
    },
    "dates": {
        "setDateButtonLabel": "ОК",
        "setTimeButtonLabel": "ОК",
        "setDurationButtonLabel": "Наладзіць працягласць",
        "calTodayButtonLabel": "Перайсці да сённяшняга дня",
        "titleDateDialogLabel": "Наладзіць дату",
        "titleTimeDialogLabel": "Наладзіць час",
        "daysOfWeek": [
            "Нядзеля",
            "Панядзелак",
            "Аўторак",
            "Серада",
            "Чацвер",
            "Пятніца",
            "Субота"
        ],
        "daysOfWeekShort": [
            "Нд",
            "Пн",
            "Аў",
            "Ср",
            "Чц",
            "Пт",
            "Сб"
        ],
        "monthsOfYear": [
            "Студзень",
            "Люты",
            "Сакавік",
            "Красавік",
            "Май",
            "Чэрвень",
            "Ліпень",
            "Жнівень",
            "Верасень",
            "Кастрычнік",
            "Лістапад",
            "Снежань"
        ],
        "monthsOfYearShort": [
            "Сту",
            "Лют",
            "Сак",
            "Кра",
            "Май",
            "Чэр",
            "Ліп",
            "Жні",
            "Вер",
            "Кас",
            "Ліс",
            "Сне"
        ],
        "durationLabel": [
            "Дні",
            "Гадзіны",
            "Хвіліны",
            "Сек"
        ],
        "durationDays": [
            "Дзень",
            "Дні"
        ],
        "tooltip": "Адкрыць сродак выбару даты",
        "nextMonth": "Наступны месяц",
        "prevMonth": "Папярэдні месяц",
        "clearButton": "Ачысціць",
        "meridiem": [
            "да паўдня",
            "пасля паўдня"
        ]
    }
}
