{
    "namespace": "DiaryMed",
    "language": "es",
    "locale": "ES",
    "direction": "ltr",
    "resources": {
        "DISPLAY_NAME": "Diario de analgésicos",
        "MED020_Q_TEXT": "¿Ha tomado algún medicamento para el dolor en las últimas 24 horas?",
        "MED020_Q_TITLE": "",
        "MED040_Q_TEXT": "Indicó que ha tomado/usado medicamentos para el dolor en las últimas 24 horas, pero no ha registrado ninguna dosis.<br/>¿Qué desea hacer?",
        "MEDINS_040_Q_TEXT": "<div>En las siguientes pantallas se le pedirá que registre las dosis de medicamento para el dolor que haya tomado y las veces que las tomó.</div><div>&nbsp;</div><div>Introduzca cada dosis/hora del medicamento para el dolor UNA SOLA VEZ.</div><div><b>&nbsp;</b></div><div>Todas las dosis de medicamento para el dolor que ha registrado en las últimas 24 horas se muestran en la Información sobre los medicamentos de la pantalla de revisión.</div>",
        "MEDINS_040_Q_TITLE": "",
        "MEDINS_050_Q_TEXT": "<div>Podrá revisar y confirmar lo que introdujo mostrando la Información sobre los medicamentos de la pantalla de revisión cuando se le pregunte qué desea hacer a continuación.</div><div>&nbsp;</div><div>Desde la pantalla de revisión puede resaltar cualquier dosis que haya registrado en este diario, y a continuación puede cambiarla o eliminarla.</div><div>Las dosis registradas en diarios anteriores están en gris y no se pueden cambiar ni eliminar.</div><div>&nbsp;</div><div>Cuando termine de introducir los medicamentos para el dolor, vaya a la pantalla de revisión y toque el botón «Siguiente» para ir a la pantalla de confirmación.</div>",
        "MEDINS_050_Q_TITLE": "",

        "MEDLOOP_1150_Q_TEXT": "<div>¿Por qué ha tomado el siguiente medicamento para el dolor?</div><div>&nbsp;</div><div><b>{{{ selectedMedNameForm }}}</b></div>",
        "MEDLOOP_1150_TITLE": "",

        "MED040_15_Q1_TEXT": "<div>Indicó que ha tomado/usado&nbsp;medicamentos para el dolor&nbsp;en las últimas 24 horas, pero no ha registrado ninguna dosis.</div><div>&nbsp;</div><div>¿Qué desea hacer?</div>",
        "MED040_15_Q1_TITLE": "",
        "MED020_A1": "Sí",
        "MED020_A2": "No",

        "MEDLOOP_1150_A1": "<div>Dolor relacionado con la enfermedad</div>",
        "MEDLOOP_1150_A2": "Otro dolor ",

        "MED040_A1": "Registrar una dosis del medicamento ",
        "MED040_A2": "He cometido un error, no he tomado ningún medicamento en las últimas 24 horas"
    }
}
