{
	"namespace": "EQ5D5L",
	"language": "es",
	"locale": "ES",
	"direction": "ltr",
	"resources": {
		"DISPLAY_NAME": "EQ-5D-5L",

        "EQ5D5L_EQ010_5L_Q0_TEXT": "En las pantallas siguientes, toque la afirmación que mejor describa su salud HOY.",
        "EQ5D5L_EQ010_5L_Q0_TITLE": "",

        "EQ5D5L_EQ020_5L_Q0_TEXT": "<b>Su movilidad HOY</b>",
        "EQ5D5L_EQ020_5L_Q0_TITLE": "",
        "EQ5D5L_EQ020_5L_Q0_W0_A0": "No tengo problemas para caminar",
        "EQ5D5L_EQ020_5L_Q0_W0_A1": "Tengo problemas leves para caminar",
        "EQ5D5L_EQ020_5L_Q0_W0_A2": "Tengo problemas moderados para caminar",
        "EQ5D5L_EQ020_5L_Q0_W0_A3": "Tengo problemas graves para caminar",
        "EQ5D5L_EQ020_5L_Q0_W0_A4": "No puedo caminar",

        "EQ5D5L_EQ030_5L_Q0_TEXT": "<b>Su auto-cuidado HOY</b>",
        "EQ5D5L_EQ030_5L_Q0_TITLE": "",
        "EQ5D5L_EQ030_5L_Q0_W0_A0": "No tengo problemas para lavarme o vestirme",
        "EQ5D5L_EQ030_5L_Q0_W0_A1": "Tengo problemas leves para lavarme o vestirme",
        "EQ5D5L_EQ030_5L_Q0_W0_A2": "Tengo problemas moderados para lavarme o vestirme",
        "EQ5D5L_EQ030_5L_Q0_W0_A3": "Tengo problemas graves para lavarme o vestirme",
        "EQ5D5L_EQ030_5L_Q0_W0_A4": "No puedo lavarme o vestirme",

        "EQ5D5L_EQ040_5L_Q0_TEXT": "<b>Sus actividades cotidianas de HOY</b><br><br><em><span style='font-size: 12px'>(Ej.: trabajar, estudiar, hacer las tareas domésticas, actividades familiares o actividades durante el tiempo libre)</span></em>",
        "EQ5D5L_EQ040_5L_Q0_TITLE": "",
        "EQ5D5L_EQ040_5L_Q0_W0_A0": "No tengo problemas para realizar mis actividades cotidianas",
        "EQ5D5L_EQ040_5L_Q0_W0_A1": "Tengo problemas leves para realizar mis actividades cotidianas",
        "EQ5D5L_EQ040_5L_Q0_W0_A2": "Tengo problemas moderados para realizar mis actividades cotidianas",
        "EQ5D5L_EQ040_5L_Q0_W0_A3": "Tengo problemas graves para realizar mis actividades cotidianas",
        "EQ5D5L_EQ040_5L_Q0_W0_A4": "No puedo realizar mis actividades cotidianas",

        "EQ5D5L_EQ050_5L_Q0_TEXT": "<b>Su dolor / malestar HOY</b>",
        "EQ5D5L_EQ050_5L_Q0_TITLE": "",
        "EQ5D5L_EQ050_5L_Q0_W0_A0": "No tengo dolor ni malestar",
        "EQ5D5L_EQ050_5L_Q0_W0_A1": "Tengo dolor o malestar leve",
        "EQ5D5L_EQ050_5L_Q0_W0_A2": "Tengo dolor o malestar moderado",
        "EQ5D5L_EQ050_5L_Q0_W0_A3": "Tengo dolor o malestar fuerte",
        "EQ5D5L_EQ050_5L_Q0_W0_A4": "Tengo dolor o malestar extremo",

        "EQ5D5L_EQ060_5L_Q0_TEXT": "<b>Su ansiedad / depresión HOY</b>",
        "EQ5D5L_EQ060_5L_Q0_TITLE": "",
        "EQ5D5L_EQ060_5L_Q0_W0_A0": "No estoy ansioso ni deprimido",
        "EQ5D5L_EQ060_5L_Q0_W0_A1": "Estoy levemente ansioso o deprimido",
        "EQ5D5L_EQ060_5L_Q0_W0_A2": "Estoy moderadamente ansioso o deprimido",
        "EQ5D5L_EQ060_5L_Q0_W0_A3": "Estoy muy ansioso o deprimido",
        "EQ5D5L_EQ060_5L_Q0_W0_A4": "Estoy extremadamente ansioso o deprimido",

        "EQ5D5L_EQ070_5L_Q0_TEXT": "Nos gustaría conocer lo buena o mala que es su salud HOY.<br><br>En la pantalla siguiente verá una escala numerada del 0 al 100.<br><br>100 representa la <u>mejor</u> salud que usted se pueda imaginar.<br><br>0 representa la <u>peor</u> salud que usted se pueda imaginar.",
        "EQ5D5L_EQ070_5L_Q0_TITLE": "",

        "EQ5D5L_EQ080_5L_Q0_TEXT": "<br><br><br><br><br>Toque en la escala para indicar cuál es su estado de salud HOY.",
        "EQ5D5L_EQ080_5L_Q0_TITLE": "",
        "EQ5D5L_EQ080_5L_Q0_W0_LEFT": "La peor salud que usted se pueda imaginar",
        "EQ5D5L_EQ080_5L_Q0_W0_RIGHT": "La mejor salud que usted se pueda imaginar",
        "EQ5D_ANSWER_LABEL_TEXT"      : "SU SALUD HOY",

        "EQ5D5L_EQ090_5L_Q0_TEXT": "© EuroQol Research Foundation. EQ-5D™ is a trade mark of the EuroQol Research Foundation.",
        "EQ5D5L_EQ090_5L_Q0_TITLE": ""

	}
}
