{
    "namespace": "CORE",
    "language": "ru",
    "locale": "US",
    "localized": "Русский (Россия)",
    "direction": "ltr",
    "resources": {
        "ABOUT": "Описание",
        "ACTIVATED_ELSEWHERE": "Для сбора данных исследования активировано другое устройство. Если Вы полагаете, что это сделано по ошибке, обратитесь к координатору исследования.",
        "ACTIVATION_CODE": "Код настройки:",
        "AFFIDAVIT": "Выберите «ОК» и «Далее», когда будете готовы сохранить ответы.",
        "AFFIDAVIT_HELP": "Благодарим вас! Вы предоставили все необходимые ответы. Чтобы проверить и изменить ответы, выберите «Назад».",
        "ANSWER_ATTEMPT_EXCEEDED": "Неправильный ответ введен слишком много раз, или нажата ссылка «Забыли ответ на контрольный вопрос».",
        "APPLICATION_HEADER": "{{{ appHeader }}}",
        "BACK": "Назад",
        "BACK_OUT_CONFIRM": "Выполнить выход? Ответы для этой формы будут потеряны.",
        "CANCEL": "Отмена",
        "CANCEL_UPDATE": "Отменить обновление",
        "CHANGE_PASSWORD": "Сменить пароль",
        "CHANGE_SECRET_QUESTION": "Изменить контрольный вопрос",
        "CODE_ENTRY_NO_SERVER": "Сервер недоступен",
        "CONNECTION_REQUIRED": "Требуется подключение к Интернету.",
        "CONNECTION_TIMEOUT": "Соединение закрыто по тайм-ауту.",
        "CONFIRM_PASSWORD": "Подтвердите пароль:",
        "CONTACT_STUDY_COORDINATOR": "Обратитесь к координатору исследования",
        "CONTACT_UNLOCK_CODE": "Код разблокирования на сегодняшний день можно получить у координатора исследования:",
        "CORE_PRODUCT_VERSION_LABEL": "Версия продукта:",
        "CURRENT_DATE": "{{{ currentDate }}}",
        "CURRENT_PASSWORD": "Текущий пароль:",
        "DATE_LBL": "Дата:",
        "DEACTIVATED_LABEL": "Использование ERT для данного исследования завершено. Если это неправильно, обратитесь к координатору исследования.",
        "DEVICE_ACTIVATION": "Настройка",
        "DEVICE_NOT_SUPPORTED": "Это устройство не поддерживается. Информацию об устройствах, рекомендованных для использования в этом исследовании, можно узнать у координатора исследования.",
        "DEVICE_REACTIVATION": "Настройка устройства",
        "DIARY_TIMEOUT": "Форма закрыта по тайм-ауту.",
        "DOWNLOAD_FAILED": "Загрузка приложения прервана. Повторите попытку после подключения к Интернету или обратитесь в центр поддержки ERT.",
        "DOWNLOAD_FAILURE": "Загрузка прервана",
        "ENTER_NEW_PASSWORD": "Новый пароль:",
        "ERROR": "Ошибка.  Обратитесь в центр поддержки ERT.",
        "ERROR_AFTER_ACTIVATION_SUCCESSFUL": "Ошибка. Необходимо ввести код настройки и пароль.",
        "ERROR_CODE": "Код ошибки:",
        "ERROR_TITLE": "Ошибка",
        "FORGOT_PASSWORD": "Забыли пароль?",
        "FORGOT_SECRET_ANSWER": "Забыли контрольный вопрос?",
        "INCORRECT_ANSWER": "Неправильный ответ",
        "INCORRECT_UNLOCK_CODE": "Неправильный код разблокирования",
        "INSTALLING": "Установка приложения",
        "INVALID_CODE": "Недопустимый код настройки",
        "LOCAL_STORAGE_FAILURE": "Сбой сохранения на локальном носителе",
        "LOG_IN": "Вход",
        "LOG_LEVEL": "Уровень журнала:",
        "LOGOUT": "Выход",
        "LOGOUT_CONFIRM": "Выполнить выход?",
        "NEXT": "Далее",
        "NEXT_ACTION": " Необходимо вып-ть след. в ERT ",
        "NO_DIARIES_TITLE": "Нет отчетов для ввода",
        "OK": "ОК",
        "PASSWORD": "Пароль:",
        "PASSWORD_ATTEMPT_EXCEEDED": "Неправильный пароль введен слишком много раз, или нажата ссылка «Забыли контрольный вопрос».",
        "PASSWORD_CHANGE_FAILED": "Для сбора данных исследования активировано другое устройство. Смените пароль на данном устройстве.",
        "PASSWORD_CHANGE_SUCCESS": "Пароль успешно обновлен.",
        "PASSWORD_INVALID": "Неправильный пароль",
        "PLEASE_ANSWER_SQ": "Ответьте на контрольный вопрос:",
        "PLEASE_CONFIRM": "Подтвердите",
        "PLEASE_CONTACT": "Обратитесь в центр поддержки ERT.",
        "PLEASE_TRY_OR_CONTACT_SUPPORT": "Повторите попытку или обратитесь в центр поддержки ERT.",
        "PLEASE_WAIT": "Подождите...",
        "PORTRAIT_ONLY": "Держите устройство вертикально.",
        "PRIVATE_BROWSING_ON": "Отключите просмотр конфиденциальной информации. Если проблемы возникают по-прежнему, обратитесь к координатору исследования.",
        "PRIVACY_POLICY": "Политика конфиденциальности",
        "PRIVACY_POLICY_APPLICATION_UNAVAILABILITY": "Политика конфиденциальности ERT временно недоступна.",
        "PRIVACY_POLICY_ACTIVATION_UNAVAILABILITY": "Политика конфиденциальности ERT временно недоступна. Политика конфиденциальности ERT доступна со страницы настроек после активации.",
        "PROTOCOL": "Протокол:",
        "REQUIRED_ANSWER": "Ответьте, пожалуйста",
        "RETRY": "Повторить попытку",
        "RESET_PASSWORD": "Сбросить пароль",
        "RESET_SECRET_QUESTION": "Сбросить контрольный вопрос",
        "SECRET_ANSWER": "Ответ на контрольный вопрос:",
        "SECRET_QUESTION": "Контрольный вопрос:",
        "SECRET_QUESTION_CHANGE_FAILED": "Для сбора данных исследования активировано другое устройство. Смените контрольный вопрос на данном устройстве.",
        "SECRET_QUESTION_CHANGE_SUCCESS": "Пароль и контрольный вопрос успешно обновлены.",
        "SETTINGS": "Настройки",
        "SITE": "Учреждение:",
        "SKIP_QUESTION": "Пропустить ответы на этом экране?",
        "SPONSOR": "Заказчик:",
        "STORED_REPORTS": "Сохраненные формы:",
        "STUDY_VERSION": "Версия исследования: ",
        "STUDY_URL": "URL исследования:",
        "SUBJECT_ID": "Код пациента:",
        "TEMPORARY_UNLOCK_CODE": "Введите код разблокирования, предоставленный координатором исследования.",
        "TRANSMIT_REPORTS": "Обновить",
        "UPDATE_CACHED_DELETED": "Обновление ERT не завершено. Для использования приложения ERT необходимо подключение к Интернету. Обратитесь в местный центр поддержки ERT.",
        "UPDATE_FAILED": "Обновление ERT не завершено. Убедитесь, что данное устройство подключено к Интернету, и повторите попытку.",
        "UPDATE_FAILURE": "Обновление не завершено",
        "UPDATE_SUCCESS": "Обновление выполнено успешно",
        "WELCOME": "Добро пожаловать",
        "ALARM_OFF_LBL": "Выкл.",
        "ALARM_TURN_OFF": "Выключить",
        "SET_ALARMS": "Установить оповещения",
        "SCHED_NO_DIARIES_AVAILABLE": "В данное время отчеты отсутствуют",
        "TRAINER": "Режим обучения",
        "TRAINER_EXIT": "Выход из режима обучения",
        "TRAINER_EXIT_NOTIFICATION": "Вы выполняете выход из режима обучения",
        "TRAINER_HEADER": "(Инструктор)",
        "ELPU_FAILURE": "Ваше использование этого устройства ERT завершено, однако произошла ошибка. Пожалуйста, повторите попытку.",
        "ELPU_ON_REPLACED_DEVICE": "Ваше использование этого устройства ERT завершено. Используйте другое устройство.",
        "SECURITY_QUESTION_0": "Девичья фамилия Вашей матери?",
        "SECURITY_QUESTION_1": "К каком городе Вы родились?",
        "SECURITY_QUESTION_2": "Кличка Вашего первого питомца?",
        "SECURITY_QUESTION_3": "Ваш любимый вид спорта?",
        "SECURITY_QUESTION_4": "В каком году Вы окончили высшее учебное заведение?",
        "SECURITY_QUESTION_5": "Отчество Вашего старшего ребенка?",
        "SECURITY_QUESTION_6": "Имя Вашего любимого друга детства?",
        "SECURITY_QUESTION_7": "Фамилия Вашего учителя третьего класса?",
        "SECURITY_QUESTION_8": "В каком городе или населенном пункте было место Вашей первой работы?",
        "SELECT_SITE_USER": "Выберите имя пользователя учреждения",
        "SITE_USER_NAME": "Имя пользователя учреждения:",
        "ADD_SITE_USER": "Добавьте пользователя учреждения",
        "INVALID_ENTRY": "Недопустимые данные",
        "HANDOFF_MESSAGE": "<strong>Для установки кода доступа к форме пациент должен пройти следующий набор экранов.</strong>",
        "REVERSE_HANDOFF_CONFIRM": "При выборе ОК процесс активации будет перезапущен. Перезапустить активацию?",
        "SITE_GATEWAY_TITLE": "Шлюз учреждения",
        "USER_ALREADY_EXISTS": "Пользователь уже существует",
        "SITE_SIGNATURE": "Подпись: ",
        "SITE_REPORT_AFF": "Я ввел(а), проверил(а) и таким образом подтверждаю предыдущие данные.<br /><br /><strong>Подпись:</strong> {{{ getActiveUserName }}}",
        "PATIENT_REPORT_AFF": "Я ввел(а), проверил(а) и таким образом подтверждаю предыдущие данные.<br /><br /><strong>Инициалы:</strong> {{{ getActiveUserName }}}",
        "CLEAR_SIGNATURE": "Очистить подпись",
        "STUDY_ALIAS": "{{{ studyAlias }}}",
        "SITE_ACTIVATED_ELSEWHERE": "Для сбора данных исследования пациента активировано другое устройство. Если Вы полагаете, что это сделано по ошибке, обратитесь к координатору исследования.",
        "SITE_DEACTIVATED_LABEL": "Использование пациентом ERT для данного исследования завершено. Если это неправильно, обратитесь к координатору исследования.",
        "SIGNATURE_DATA_LIMIT_EXCEEDED": "В поле подписи невозможно воспроизвести Вашу подпись в точности так, как она пишется. Вместо подписи введите свои инициалы.",
        "PAIRED": "Сопряжено",
        "BLUETOOTH_REG_TITLE": "Сопряжение устр-ва eSense",
        "BLUETOOTH_REG_REFRESH_BUTTON": "Обновить список",
        "BLUETOOTH_PAIR_DEVICE": "Сопряжение с выбранным устройством",
        "BLUETOOTH_PAIRING_FAILED": "Сопряжение с выбранным устройством неуспешно. Повторите попытку.",
        "BLUETOOTH_PAIRING_SUCCESS": "Сопряжение с выбранным устройством успешно.",
        "BLUETOOTH_REG_NO_DEVICES_FOUND": "Устройства отсутствуют. Убедитесь, что устройство расположено рядом с ERT и находится в режиме передачи.",
        "SYNC_FAILED": "Сбой синхронизации с сервером.",
        "DIARY_REQUIRES_E_SENSE_SUPPORT": "Устройство eSense не поддерживается. Для данной формы требуется поддержка eSense.",
        "ERROR_E_SENSE_ENABLE": "Невозможно включить eSense.",
        "E_SENSE_NOT_PAIRED": "Сопряженное устройство eSense отсутствует. Для данной формы требуется сопряженное устройство eSense.",
        "BLUETOOTH_SYNC_FAILURE_TOP": "Журналу ERT не удается связаться с устройством {{{ eSenseDeviceName }}}.",
        "BLUETOOTH_SYNC_FAILURE_MIDDLE": "Убедитесь, что устройство {{{ eSenseDeviceName }}} под номером {{{ eSenseSerialNumber }}} расположено рядом с ERT и переключено в режим передачи.",
        "PLUGIN_MISSING": "Невозможно загрузить требуемый подключаемый модуль.",
        "WRAPPER_VERSION": "Версия оболочки:",
        "SUPPORT": "Центр поддержки клиентов",
        "SUPPORT_MESSAGE": "Пользователи в Соединенных Штатах Америки могут обратиться в Центр поддержки ERT по телефону 800-748-5669. Зарубежным пользователям необходимо выбрать ближайшую страну ниже:",
        "SUPPORT_DROPDOWN": "Выберите страну",
        "SUPPORT_NAME_ARGENTINA": "Аргентина",
        "SUPPORT_NUMBER_ARGENTINA": "<bdi>0800 444 0962</bdi>",
        "SUPPORT_NAME_ARMENIA": "Армения",
        "SUPPORT_NUMBER_ARMENIA": "<bdi>+1 617 681 6306</bdi>",
        "SUPPORT_NAME_AUSTRALIA": "Австралия",
        "SUPPORT_NUMBER_AUSTRALIA": "<bdi>1 800 800 051</bdi>",
        "SUPPORT_NAME_AUSTRIA": "Австрия",
        "SUPPORT_NUMBER_AUSTRIA": "<bdi>0800 100 405</bdi>",
        "SUPPORT_NAME_BELARUS": "Беларусь",
        "SUPPORT_NUMBER_BELARUS": "<bdi>8 820 0321 0036</bdi>",
        "SUPPORT_NAME_BELGIUM": "Бельгия",
        "SUPPORT_NUMBER_BELGIUM_1": "(на английском языке): <bdi>0800 58 016</bdi>",
        "SUPPORT_NUMBER_BELGIUM_2": "(на французском языке): <bdi>0800 71 076</bdi>",
        "SUPPORT_NUMBER_BELGIUM_3": "(на немецком языке): <bdi>0800 71 113</bdi>",
        "SUPPORT_NAME_BRAZIL": "Бразилия",
        "SUPPORT_NUMBER_BRAZIL": "<bdi>0800 891 5909</bdi>",
        "SUPPORT_NAME_BOSNIA": "Босния",
        "SUPPORT_NUMBER_BOSNIA": "<bdi>+1 617 681 6306</bdi>",
        "SUPPORT_NAME_BULGARIA": "Болгария",
        "SUPPORT_NUMBER_BULGARIA": "<bdi>00800 0010</bdi>, затем <bdi>866 245 4931</bdi>",
        "SUPPORT_NAME_CANADA": "Канада",
        "SUPPORT_NUMBER_CANADA": "<bdi>1 800 748 5669</bdi>",
        "SUPPORT_NAME_CHILE": "Чили",
        "SUPPORT_NUMBER_CHILE": "<bdi>123 0020 3408</bdi>",
        "SUPPORT_NAME_CHINA": "Китай",
        "SUPPORT_NUMBER_CHINA_1": "NetCom (Север): <bdi>1 0800 74 40 164</bdi>",
        "SUPPORT_NUMBER_CHINA_2": "Telecom (Юг): <bdi>1 0800 44 00 158</bdi>",
        "SUPPORT_NAME_COLOMBIA": "Колумбия",
        "SUPPORT_NUMBER_COLOMBIA": "<bdi>01 800 911 0010</bdi>, затем <bdi>866 310 3707</bdi>",
        "SUPPORT_NAME_COSTA_RICA": "Коста-Рика",
        "SUPPORT_NUMBER_COSTA_RICA": "<bdi>0800 013 1210</bdi>",
        "SUPPORT_NAME_CROATIA": "Хорватия",
        "SUPPORT_NUMBER_CROATIA": "<bdi>0800 222 953</bdi>",
        "SUPPORT_NAME_CZECH_REPUBLIC": "Чешская республика",
        "SUPPORT_NUMBER_CZECH_REPUBLIC": "<bdi>800 142 150</bdi>",
        "SUPPORT_NAME_DENMARK": "Дания",
        "SUPPORT_NUMBER_DENMARK": "<bdi>80 60 00 09</bdi>",
        "SUPPORT_NAME_EGYPT": "Египет",
        "SUPPORT_NUMBER_EGYPT": "<bdi>02 510 0200</bdi>, затем <bdi>866 310 3707</bdi>",
        "SUPPORT_NAME_EL_SALVADOR": "Эль-Сальвадор",
        "SUPPORT_NUMBER_EL_SALVADOR": "<bdi>+1 617 681 6306</bdi>",
        "SUPPORT_NAME_ESTONIA": "Эстония",
        "SUPPORT_NUMBER_ESTONIA": "<bdi>800 00 44 154</bdi>",
        "SUPPORT_NAME_FINLAND": "Финляндия",
        "SUPPORT_NUMBER_FINLAND": "<bdi>0800 11 6366</bdi>",
        "SUPPORT_NAME_FRANCE": "Франция",
        "SUPPORT_NUMBER_FRANCE": "<bdi>0800 10 19 79</bdi>",
        "SUPPORT_NAME_GERMANY": "Германия",
        "SUPPORT_NUMBER_GERMANY": "<bdi>0800 101 28 21</bdi>",
        "SUPPORT_NAME_GREECE": "Греция",
        "SUPPORT_NUMBER_GREECE": "<bdi>00 800 1311</bdi>, затем <bdi>866 310 3707</bdi>",
        "SUPPORT_NAME_GUATEMALA": "Гватемала",
        "SUPPORT_NUMBER_GUATEMALA": "<bdi>1 800 624 0079</bdi>",
        "SUPPORT_NAME_HONG_KONG": "Гонконг",
        "SUPPORT_NUMBER_HONG_KONG": "<bdi>3002 1665</bdi>",
        "SUPPORT_NAME_HUNGARY": "Венгрия",
        "SUPPORT_NUMBER_HUNGARY": "<bdi>06 800 14 571</bdi>",
        "SUPPORT_NAME_ICELAND": "Исландия",
        "SUPPORT_NUMBER_ICELAND": "<bdi>800 8544</bdi>",
        "SUPPORT_NAME_INDIA": "Индия",
        "SUPPORT_NUMBER_INDIA": "<bdi>000 800 440 1125</bdi>",
        "SUPPORT_NAME_INDONESIA": "Индонезия",
        "SUPPORT_NUMBER_INDONESIA": "<bdi>008 800 330 334</bdi>",
        "SUPPORT_NAME_IRELAND": "Ирландия",
        "SUPPORT_NUMBER_IRELAND": "<bdi>1 800 946 700</bdi>",
        "SUPPORT_NAME_ISRAEL": "Израиль",
        "SUPPORT_NUMBER_ISRAEL": "<bdi>1 809 470 062</bdi>",
        "SUPPORT_NAME_ITALY": "Италия",
        "SUPPORT_NUMBER_ITALY": "<bdi>800 90 56 37</bdi>",
        "SUPPORT_NAME_JAPAN": "Япония",
        "SUPPORT_NUMBER_JAPAN": "Сведения о бесплатном номере исследования см. в справочнике по исследованиям ePRO",
        "SUPPORT_NAME_LATVIA": "Латвия",
        "SUPPORT_NUMBER_LATVIA": "<bdi>8000 2151</bdi>",
        "SUPPORT_NAME_LEBANON": "Ливан",
        "SUPPORT_NUMBER_LEBANON": "<bdi>01-426-801</bdi>, затем <bdi>866 310 3707</bdi>",
        "SUPPORT_NAME_LITHUANIA": "Литва",
        "SUPPORT_NUMBER_LITHUANIA": "<bdi>8800 30207</bdi>",
        "SUPPORT_NAME_MALAYSIA": "Малайзия",
        "SUPPORT_NUMBER_MALAYSIA": "<bdi>1800 80 59 71</bdi>",
        "SUPPORT_NAME_MEXICO": "Мексика",
        "SUPPORT_NUMBER_MEXICO_1": "(на английском языке): <bdi>001 800 748 5669</bdi> ",
        "SUPPORT_NUMBER_MEXICO_2": "(на испанском языке): <bdi>001 855 631 6952</bdi>",
        "SUPPORT_NAME_MOLDOVA": "Молдова",
        "SUPPORT_NUMBER_MOLDOVA": "<bdi>617 681 6306</bdi>",
        "SUPPORT_NAME_NETHERLANDS": "Нидерланды",
        "SUPPORT_NUMBER_NETHERLANDS": "<bdi>0800 023 1389</bdi>",
        "SUPPORT_NAME_NEW_ZEALAND": "Новая Зеландия",
        "SUPPORT_NUMBER_NEW_ZEALAND": "<bdi>0800 110 178</bdi>",
        "SUPPORT_NAME_NORWAY": "Норвегия",
        "SUPPORT_NUMBER_NORWAY": "<bdi>800 62 051</bdi>",
        "SUPPORT_NAME_PAKISTAN": "Пакистан",
        "SUPPORT_NUMBER_PAKISTAN": "<bdi>00 800 0100</bdi>, затем <bdi>866 237 9767</bdi>",
        "SUPPORT_NAME_PANAMA": "Панама",
        "SUPPORT_NUMBER_PANAMA": "<bdi>001 800 201 3095</bdi>",
        "SUPPORT_NAME_PERU": "Перу",
        "SUPPORT_NUMBER_PERU": "<bdi>0800 5 0974</bdi>",
        "SUPPORT_NAME_PHILIPPINES": "Филиппины",
        "SUPPORT_NUMBER_PHILIPPINES": "<bdi>1 800 1116 0651</bdi>",
        "SUPPORT_NAME_POLAND": "Польша",
        "SUPPORT_NUMBER_POLAND": "<bdi>00800 331 1262</bdi>",
        "SUPPORT_NAME_PORTUGAL": "Португалия",
        "SUPPORT_NUMBER_PORTUGAL": "<bdi>800 206 172</bdi>",
        "SUPPORT_NAME_PUERTO_RICO": "Пуэрто-Рико (территория США)",
        "SUPPORT_NUMBER_PUERTO_RICO": "<bdi>1 800 748 5669</bdi>",
        "SUPPORT_NAME_ROMANIA": "Румыния",
        "SUPPORT_NUMBER_ROMANIA": "<bdi>0800 894492</bdi>",
        "SUPPORT_NAME_RUSSIA": "Россия",
        "SUPPORT_NUMBER_RUSSIA_1": "(Основной - бесплатный): <bdi>8 10 800 249 13011</bdi>",
        "SUPPORT_NUMBER_RUSSIA_2": "(В пределах Москвы): <bdi>363-2400</bdi>,<br> затем <bdi>866 310 3707</bdi>",
        "SUPPORT_NUMBER_RUSSIA_3": "(За пределами Москвы): <bdi>8^(495) 363-2400</bdi>,<br> затем <bdi>866 310 3707</bdi>",
        "SUPPORT_NUMBER_RUSSIA_4": "(В пределах Санкт-Петербурга): <bdi>363-2400</bdi>,<br> затем <bdi>866 310 3707</bdi>",
        "SUPPORT_NUMBER_RUSSIA_5": "(За пределами Санкт-Петербурга): <bdi>8^(495) 363-2400</bdi>,<br> затем <bdi>866 310 3707</bdi>",
        "SUPPORT_NAME_SAUDI_ARABIA": "Саудовская Аравия",
        "SUPPORT_NUMBER_SAUDI_ARABIA": "<bdi>+1 617 681 6306</bdi>",
        "SUPPORT_NAME_SERBIA": "Сербия",
        "SUPPORT_NUMBER_SERBIA": "<bdi>+1 617 973 1739</bdi>",
        "SUPPORT_NAME_SINGAPORE": "Сингапур",
        "SUPPORT_NUMBER_SINGAPORE": "<bdi>800 616 30 03</bdi>",
        "SUPPORT_NAME_SLOVAKIA": "Словакия",
        "SUPPORT_NUMBER_SLOVAKIA": "<bdi>0800 0044 65</bdi>",
        "SUPPORT_NAME_SLOVENIA": "Словения",
        "SUPPORT_NUMBER_SLOVENIA": "<bdi>+1 617 681 6306</bdi>",
        "SUPPORT_NAME_SOUTH_AFRICA": "Южно-Африканская Республика",
        "SUPPORT_NUMBER_SOUTH_AFRICA": "<bdi>0800 99 5853</bdi>",
        "SUPPORT_NAME_SOUTH_KOREA": "Южная Корея",
        "SUPPORT_NUMBER_SOUTH_KOREA": "<bdi>00308 33 00 08</bdi>",
        "SUPPORT_NAME_SPAIN": "Испания",
        "SUPPORT_NUMBER_SPAIN": "<bdi>900 90 2541</bdi>",
        "SUPPORT_NAME_SWEDEN": "Швеция",
        "SUPPORT_NUMBER_SWEDEN": "<bdi>020 120 99 69</bdi>",
        "SUPPORT_NAME_SWITZERLAND": "Швейцария",
        "SUPPORT_NUMBER_SWITZERLAND_1": "(на английском языке): <bdi>0800 199 325</bdi>",
        "SUPPORT_NUMBER_SWITZERLAND_2": "(на французском языке): <bdi>0800 891 183</bdi>",
        "SUPPORT_NUMBER_SWITZERLAND_3": "(на немецком языке): <bdi>0800 891 025</bdi>",
        "SUPPORT_NAME_TAIWAN": "Тайвань",
        "SUPPORT_NUMBER_TAIWAN": "<bdi>00801 33 33 42</bdi>",
        "SUPPORT_NAME_THAILAND": "Таиланд",
        "SUPPORT_NUMBER_THAILAND": "<bdi>1 800 33 140 353</bdi>",
        "SUPPORT_NAME_TUNISIA": "Тунис",
        "SUPPORT_NUMBER_TUNISIA": "<bdi>+1 617 681 6306</bdi>",
        "SUPPORT_NAME_TURKEY": "Турция",
        "SUPPORT_NUMBER_TURKEY": "<bdi>00 800 151 1335</bdi>",
        "SUPPORT_NAME_UKRAINE": "Украина",
        "SUPPORT_NUMBER_UKRAINE": "<bdi>0^00 11</bdi>, затем <bdi>866 245 4931</bdi>",
        "SUPPORT_NAME_UAE": "Объединенные Арабские Эмираты",
        "SUPPORT_NUMBER_UAE": "<bdi>8000-021</bdi>, затем <bdi>866 310 3707</bdi>",
        "SUPPORT_NAME_UK": "Великобритания",
        "SUPPORT_NUMBER_UK": "<bdi>0800 015 0408</bdi>",
        "SUPPORT_NAME_US": "Соединенные Штаты Америки",
        "SUPPORT_NUMBER_US_1": "(основной): <bdi>1 800 748 5669</bdi>",
        "SUPPORT_NUMBER_US_2": "(резервный): <bdi>1 877 748 5669</bdi>",
        "SUPPORT_NAME_VENEZUELA": "Венесуэла",
        "SUPPORT_NUMBER_VENEZUELA_1": "(на английском языке): <bdi>0 800 552 6288</bdi>,<br> затем <bdi>866 310 3707</bdi> ",
        "SUPPORT_NUMBER_VENEZUELA_2": "(на испанском языке): <bdi>0 800 100 3063</bdi> ",
        "USER_NAME": "Имя пользователя:",
        "SUBJECT_ROLE": "Код пациента: {{{ getParticipantCode }}}",
        "SITE_ROLE": "Учреждение",
        "TEMPORARY_PASSWORD_MESSAGE": "Введите временный пароль для нового пользователя. Пользователя попросят создать новый пароль после входа в систему.",
        "SHARED_PASSWORD_MESSAGE": "Пароль для нового пользователя необходимо получить из системы StudyWorks.",
        "TEMP_PASSWORD": "Временный пароль: ",
        "ROLES": "Функция:",
        "LANGUAGE": "Язык:",
        "FULL_NAME": "Полное имя:",
        "CONFIRM_TEMP_PASS": "Подтвердите временный пароль:",
        "PASSWORD_MISMATCH": "Подтвержденный пароль не совпадает с первоначально введенным паролем",
        "PASSWORD_INVALID_CHARACTERS": "Используйте только цифры",
        "USER_NAME_INVALID_CHARACTERS": "Не используйте специальные символы",
        "USER_NAME_MORE_THAN_25": "Используйте 25 символов или меньше",
        "PRIVACY_POLICY_VERSION_LABEL": "Версия: ",
        "PRIVACY_POLICY_VERSION": "1.6.0",
        "PRIVACY_POLICY_LAST_UPDATED_LABEL": "Последнее обновление: ",
        "PRIVACY_POLICY_LAST_UPDATED": "21 января 2014 г.",
        "PRIVACY_POLICY_TEXT_LABEL": "О конфиденциальности: ",
        "PRIVACY_POLICY_TEXT": "ERT предоставляет программное обеспечение, которое Вы собираетесь установить. ERT работает с Вашим сайтом клинического исследования, чтобы принять необходимые меры для предотвращения получения сведений о Вас кем-либо без разрешения Вашего сайта. Вы получаете право видеть Ваши записи путем организации просмотра Вашего сайта.",
        "SUBJECT_REPORT_AFF": "Настоящим я удостоверяю, что ответил(а) на все вопросы с максимальной точностью.",
        "SUBJECT_INITIALS_LABEL": "Инициалы пациента:",
        "SUBJECT": "Пациент",
        "SET_TIMEZONE": "Установить часовой пояс",
        "SET_TIMEZONE_MESSAGE": "Выберите свой часовой пояс:",
        "SET_TIMEZONE_BUTTON": "Установить",
        "TIME_ZONE_CONFIRM_HEADER": "Подтверждение изменения часового пояса",
        "TIME_ZONE_CONFIRM": "Изменить часовой пояс? Приложение будет перезапущено, чтобы применить изменение.",
        "TIME_ZONE_EUROPE_KALININGRAD": "Европа/Калининград",
        "TIME_ZONE_EUROPE_MOSCOW": "Европа/Москва",
        "TIME_ZONE_ASIA_KARACHI": "Азия/Карачи",
        "TIME_ZONE_ASIA_YEKATERINBURG": "Азия/Екатеринбург",
        "TIME_ZONE_ASIA_NOVOSIBIRSK": "Азия/Новосибирск",
        "TIME_ZONE_ASIA_KRASNOYARSK": "Азия/Красноярск",
        "TIME_ZONE_ASIA_IRKUTSK": "Азия/Иркутск",
        "TIME_ZONE_ASIA_YAKUTSK": "Азия/Якутск",
        "TIME_ZONE_ASIA_VLADIVOSTOK": "Азия/Владивосток",
        "TIME_ZONE_ASIA_KAMCHATKA": "Азия/Камчатка",
        "AF-ZA": "Африкаанс",
        "AR-EG": "Арабский",
        "BE-BY": "Белорусский",
        "BG-BG": "Болгарский",
        "BN-IN": "Бенгальский",
        "BS-BA": "Боснийский",
        "CA-ES": "Каталонский",
        "CS-CZ": "Чешский",
        "DA-DK": "Датский",
        "DE-DE": "Немецкий (Германия)",
        "DE-AT": "Немецкий (Австрия)",
        "EL-GR": "Греческий",
        "EN-GB": "Английский (Великобритания)",
        "EN-US": "Английский (США)",
        "ES-ES": "Испанский (Испания)",
        "ES-US": "Испанский (США)",
        "ES-PY": "Испанский (универсальный)",
        "ET-EE": "Эстонский",
        "FI-FI": "Финский",
        "FR-CA": "Французский (Канада)",
        "FR-FR": "Французский (Франция)",
        "GD-IE": "Гэльский",
        "GU-IN": "Гуджарати",
        "HE-IL": "Иврит",
        "HI-IN": "Хинди",
        "HR-HR": "Хорватский",
        "HU-HU": "Венгерский",
        "IT-IT": "Итальянский",
        "JA-JP": "Японский",
        "KA-GE": "Грузинский",
        "KN-IN": "Каннада",
        "KO-KR": "Корейский",
        "LV-LV": "Латышский",
        "LT-LT": "Литовский",
        "ML-IN": "Малайялам",
        "MR-IN": "Маратхи",
        "MS-MY": "Малайский",
        "NB-NO": "Норвежский",
        "NL-BE": "Нидерландский (Бельгия)",
        "NL-NL": "Нидерландский (Нидерланды)",
        "PA-IN": "Пенджаби",
        "PL-PL": "Польский",
        "PT-BR": "Португальский (Бразилия)",
        "PT-PT": "Португальский (Португалия)",
        "RO-RO": "Румынский",
        "RU-RU": "Русский",
        "SL-SL": "Словенский",
        "SK-SK": "Словацкий",
        "SR-RS": "Сербский (латиница)",
        "SR-SP": "Сербский (кириллица)",
        "ST-ZA": "Сото",
        "SV-SE": "Шведский",
        "TA-IN": "Тамильский",
        "TE-IN": "Телугу",
        "TH-TH": "Тайский",
        "TL-PH": "Тагальский",
        "TN-ZA": "Тсвана",
        "TR-TR": "Турецкий",
        "UK-UA": "Украинский",
        "UR-IN": "Урду",
        "VI-VN": "Вьетнамский",
        "XH-ZA": "Кхоса",
        "ZH-CN": "Китайский (Китай)",
        "ZH-TW": "Китайский (Тайвань)",
        "ZU-ZU": "Зулу",
        "NO_RESULTS_FOUND": "Результатов не найдено.",
        "USER": "Пользователь",
        "SYNC": "Синхронизация",
        "TIME_LBL": "Время:",
        "SET_TIME": "Установить время",
        "NEW_USER": "Добавить новый дневник пользователя",
        "NEW_USER_CREATED": "Создан новый пользователь.",
        "TIME_ZONE_SET_CONFIRM": "Вы действительно хотите установить для часового пояса значение <br/>{{{selectedTimeZone}}}? <br/> Возможно, приложение придется перезапустить, чтобы применить изменение.",
        "TIME_ZONE_SET_CONFIRM_NOCHANGE": "Вы действительно хотите установить для часового пояса значение <br/>{{{selectedTimeZone}}}?",
        "TIME_ZONE_SET_HEADER": "Подтверждение установки часового пояса",
        "TIME_ZONE_ERROR_HEADER": "Ошибка часового пояса",
        "TIME_ZONE_ERROR_MSG": "Ошибка при получении списка часовых поясов. За дополнительной помощью обращайтесь в центр поддержки ERT.",
        "TIME_ZONE_SET_ERROR_MSG": "Ошибка при установке часового пояса. За дополнительной помощью обращайтесь в центр поддержки ERT.",
        "TIME_CONFIRMATION_INSTRUCTIONS": "Необходимо подтвердить местное время на устройстве. Введите дату и время, используя надежный источник.",
        "LOW_BATTERY": "Предупреждение. Низкий уровень заряда батареи. Подключите устройство к сети для подзарядки.",
        "CRITICAL_BATTERY": "Предупреждение. Крайне низкий уровень заряда батареи. Подключите устройство к сети для подзарядки. В противном случае оно выключится.",
        "SITE_ADMINISTRATOR": "Администратор учреждения",
        "TIME_CONFIRMATION_HEADER": "Подтвердить дату/время",
        "TIMESLIP_ERROR": "Неверные значения времени или даты на устройстве. Перейдите в местоположение, где возможно подключение к Интернету, и повторите попытку. Если проблемы остаются, обратитесь в центр обслуживания клиентов ERT.",
        "P_AFFIDAVIT_HEADER": "<div><strong>Учреждение: {{{ getSiteCodeForSubject }}}</strong><br /><strong>ИД пациента: {{{ getParticipantCodeForSubject }}}</strong></div>",
        "RESTART_NOTIFICATION_HEADER": "Требуется перезапуск",
        "RESTART_NOTIFICATION_MSG": "Часовой пояс был изменен. Приложение будет перезапущено через {{{ timeZoneChangeRestartCountdown }}}.",
        "RESTART_NOW": "Перезапустить сейчас",
        "SECONDS": "сек",
        "MINUTES": "мин",
        "SELECT_LANGUAGE": "Выберите предпочитаемый язык для субъекта.",
        "ACCEPT": "Принимаю",
        "DECLINE": "Отклоняю",
        "EULA": "ЛИЦЕНЗИЯ ДЛЯ КОНЕЧНОГО ПОЛЬЗОВАТЕЛЯ",
        "EULA_TEXT": "<p><strong><span class=\"text-underline\">ВАЖНО</span>.  НЕ НАЖИМАЙТЕ КНОПКУ «ПРИНИМАЮ», ПОКА НЕ ПРОЧИТАЕТЕ ЭТО СОГЛАШЕНИЕ.  НАЖАВ КНОПКУ «ПРИНИМАЮ», ВЫ ПРИНИМАЕТЕ ВСЕ УСЛОВИЯ ДАННОГО СОГЛАШЕНИЯ.  ЕСЛИ ВЫ НЕ ПРИНИМАЕТЕ ВСЕ УСЛОВИЯ НАСТОЯЩЕГО СОГЛАШЕНИЯ (1), НЕ НАЖИМАЙТЕ КНОПКУ «ПРИНИМАЮ», (2) ПРЕРВИТЕ ПРОЦЕСС УСТАНОВКИ И ЛИЦЕНЗИРОВАНИЯ, НАЖАВ КНОПКУ «ОТКЛОНЯЮ».</strong></p><p>eResearchTechnology, Inc. («Лицензиар») предоставляет вам неисключительное, не подлежащее передаче другому лицу право на использование программного обеспечения eResearchTechnology, Inc., встроенного в данное устройство («Программное обеспечение»), в связи с вашим соглашением на участие в клиническом исследовании: <strong>{{{ clinicalTrial }}}</strong>.  Программное обеспечение eResearchTechnology, Inc. защищено выданными патентами и патентами, находящимися на рассмотрении.  Настоящее Соглашение не означает передачу вам каких-либо прав собственности на какую-либо часть Программного обеспечения (или любой его копии), а только подтверждает лицензию на использование Программного обеспечения в соответствии со всеми условиями Соглашения.  Право собственности на Программное обеспечение и, соответственно, на все его части, а также все вытекающие из этого имущественные и интеллектуальные права собственности неотъемлемо и неизменно принадлежат Лицензиару.</p><p>Вы соглашаетесь, прямо или косвенно, что не будете (i) пытаться раскрыть технологию, деассемблировать или декомпилировать Программное обеспечение; (ii) копировать, распространять, производить, адаптировать, создавать его производные продукты, переводить, локализовать, переносить или иным образом изменять Программное обеспечение; или (iii) удалять или видоизменять какие-либо замечания по поводу авторского права, коммерческой тайны или юридической информации, содержащиеся в Программном обеспечении.  ВЫ ПОДТВЕРЖДАЕТЕ И СОГЛАСНЫ, ЧТО ПРОГРАММНОЕ ОБЕСПЕЧЕНИЕ МОЖЕТ СОДЕРЖАТЬ КОД, КОТОРЫЙ ПРЕДОТВРАЩАЕТ НЕСАНКЦИОНИРОВАННОЕ ИСПОЛЬЗОВАНИЕ ПРОГРАММНОГО ОБЕСПЕЧЕНИЯ.</p><br><p>ЕСЛИ ВЫ СОГЛАСНЫ СО ВСЕМ ВЫШЕИЗЛОЖЕННЫМ, выберите <strong>Принимаю</strong>, нажав кнопку «Принимаю», что означает принятие вами условий лицензии.</p><p>ЕСЛИ ВЫ НЕ СОГЛАСНЫ СО ВСЕМ ВЫШЕИЗЛОЖЕННЫМ или не уполномочены на принятие, выберите <strong>Отклоняю</strong>; в этом случае дальнейший доступ к Программному обеспечению будет заблокирован.  Если у вас нет соответствующих полномочий, вы можете принять условия в другое время.</p>",
        "HAND_DEVICE_SITE_TITLE": "Передача устройства пользователю учреждения",
        "HAND_DEVICE_SITE_BODY": "Передайте устройство пользователю учреждения.",
        "SQ-AL": "Албанский",
        "IMAGE_FOLDER": "{{{ imageFolder }}}",
        "MODAL_OK_TEXT": "ОК",
        "BROWSER_LOAD_ERROR": "Страница не найдена. Проверьте соединение с Интернетом и повторите попытку.",
		"NONEXISTENT_USER" : "Пользователь не найден.",
		"NO_USER_OF_ROLE" : "Пользователь с этой ролью не найден.",
		"START_VISIT_OUTSIDE_WINDOW_MSG": "{{{ getVisitName }}} введено за пределами заданного периода времени: {{{ startDate }}} - {{{ endDate }}}",
		"START_VISIT_HARD_STOP_MSG" : "{{{ getVisitName }}} нельзя вводить за пределами заданного периода времени: {{{ startDate }}} - {{{ endDate }}}",
		"YES" : "Да",
		"NO" : "НЕТ"
    },
    "dates": {
        "setDateButtonLabel": "ОК",
        "setTimeButtonLabel": "ОК",
        "setDurationButtonLabel": "Установить продолжительность",
        "calTodayButtonLabel": "Перейти к сегодняшней дате",
        "titleDateDialogLabel": "Установить дату",
        "titleTimeDialogLabel": "Установить время",
        "daysOfWeek": [
            "Воскресенье",
            "Понедельник",
            "Вторник",
            "Среда",
            "Четверг",
            "Пятница",
            "Суббота"
        ],
        "daysOfWeekShort": [
            "Вс",
            "Пн",
            "Вт",
            "Ср",
            "Чт",
            "Пт",
            "Сб"
        ],
        "monthsOfYear": [
            "Январь",
            "Февраль",
            "Март",
            "Апрель",
            "Май",
            "Июнь",
            "Июль",
            "Август",
            "Сентябрь",
            "Октябрь",
            "Ноябрь",
            "Декабрь"
        ],
        "monthsOfYearShort": [
            "Янв",
            "Фев",
            "Мар",
            "Апр",
            "Май",
            "Июн",
            "Июл",
            "Авг",
            "Сен",
            "Окт",
            "Ноя",
            "Дек"
        ],
        "durationLabel": [
            "Дн.",
            "Час.",
            "Мин.",
            "Сек."
        ],
        "durationDays": [
            "День",
            "Дн."
        ],
        "tooltip": "Выбрать дату",
        "nextMonth": "Следующий месяц",
        "prevMonth": "Предыдущий месяц",
        "clearButton": "Очистить",
        "meridiem": [
            "Д. П.",
            "П. П."
        ]
    }
}
