{
	"namespace": "FACTP",
	"language": "ru",
	"locale": "US",
	"direction": "ltr",
	"resources": {
		"DISPLAY_NAME": "FACT-P",
		"FP005_Q1_TEXT": "<div>Ниже приведён список утверждений, которые, по мнению людей, страдающих тем же заболеванием, что и Вы, являются существенными.</div><div>&nbsp;</div><div>Просьба выбрать один ответ на каждой электронной странице применительно к <u>последним 7 дням</u>.</div>",
		"FP005_Q1_TITLE": "",
		"FP010_Q1_TEXT": "Я испытываю недостаток энергии",
		"FP010_Q1_TITLE": "<div>ФИЗИЧЕСКОЕ СОСТОЯНИЕ</div>",
		"FP011_Q1_TEXT": "Я испытываю тошноту",
		"FP011_Q1_TITLE": "ФИЗИЧЕСКОЕ СОСТОЯНИЕ",
		"FP012_Q1_TEXT": "Моё физическое состояние затрудняет выполнение семейных дел",
		"FP012_Q1_TITLE": "ФИЗИЧЕСКОЕ СОСТОЯНИЕ",
		"FP013_Q1_TEXT": "У меня бывают боли",
		"FP013_Q1_TITLE": "ФИЗИЧЕСКОЕ СОСТОЯНИЕ",
		"FP014_Q1_TEXT": "Меня беспокоят побочные эффекты лечения",
		"FP014_Q1_TITLE": "ФИЗИЧЕСКОЕ СОСТОЯНИЕ",
		"FP015_Q1_TEXT": "Я чувствую себя больным(-ой)",
		"FP015_Q1_TITLE": "ФИЗИЧЕСКОЕ СОСТОЯНИЕ",
		"FP016_Q1_TEXT": "Я вынужден(-а) проводить время в постели",
		"FP016_Q1_TITLE": "ФИЗИЧЕСКОЕ СОСТОЯНИЕ",
		"FP017_Q1_TEXT": "У меня хорошие отношения с&nbsp;друзьями",
		"FP017_Q1_TITLE": "СОЦИАЛЬНЫЕ/СЕМЕЙНЫЕ ВЗАИМООТНОШЕНИЯ",
		"FP018_Q1_TEXT": "Моя семья оказывает мне моральную поддержку",
		"FP018_Q1_TITLE": "СОЦИАЛЬНЫЕ/СЕМЕЙНЫЕ ВЗАИМООТНОШЕНИЯ",
		"FP019_Q1_TEXT": "Меня поддерживают мои друзья.",
		"FP019_Q1_TITLE": "СОЦИАЛЬНЫЕ/СЕМЕЙНЫЕ ВЗАИМООТНОШЕНИЯ",
		"FP020_Q1_TEXT": "Моя семья воспринимает мою болезнь такой, какая она есть",
		"FP020_Q1_TITLE": "СОЦИАЛЬНЫЕ/СЕМЕЙНЫЕ ВЗАИМООТНОШЕНИЯ",
		"FP021_Q1_TEXT": "Мы свободно говорим о моей болезни в кругу семьи",
		"FP021_Q1_TITLE": "СОЦИАЛЬНЫЕ/СЕМЕЙНЫЕ ВЗАИМООТНОШЕНИЯ",
		"FP022_Q1_TEXT": "Я чувствую близость с женой/мужем или человеком, который является для меня главной опорой",
		"FP022_Q1_TITLE": "СОЦИАЛЬНЫЕ/СЕМЕЙНЫЕ ВЗАИМООТНОШЕНИЯ",
		"FP023_Q1_TEXT": "Я удовлетворен(-а) моей половой жизнью",
		"FP023_Q1_TITLE": "СОЦИАЛЬНЫЕ/СЕМЕЙНЫЕ ВЗАИМООТНОШЕНИЯ",
		"FP023_Q2_TEXT": " ",
		"FP023_Q2_TITLE": "",
		"FP040_Q1_TEXT": "Я чувствую грусть",
		"FP040_Q1_TITLE": "ЭМОЦИОНАЛЬНОЕ БЛАГОПОЛУЧИЕ",
		"FP050_Q1_TEXT": "Я удовлетворен(-а) тем, как я справляюсь со своей болезнью",
		"FP050_Q1_TITLE": "ЭМОЦИОНАЛЬНОЕ БЛАГОПОЛУЧИЕ",
		"FP060_Q1_TEXT": "Я теряю надежду, что смогу преодолеть мою болезнь",
		"FP060_Q1_TITLE": "ЭМОЦИОНАЛЬНОЕ БЛАГОПОЛУЧИЕ",
		"FP070_Q1_TEXT": "Я нервничаю",
		"FP070_Q1_TITLE": "ЭМОЦИОНАЛЬНОЕ БЛАГОПОЛУЧИЕ",
		"FP080_Q1_TEXT": "Меня беспокоит мысль о смерти",
		"FP080_Q1_TITLE": "ЭМОЦИОНАЛЬНОЕ БЛАГОПОЛУЧИЕ",
		"FP090_Q1_TEXT": "Я беспокоюсь, что моё состояние может ухудшиться",
		"FP090_Q1_TITLE": "ЭМОЦИОНАЛЬНОЕ БЛАГОПОЛУЧИЕ",
		"FP100_Q1_TEXT": "Я способен(-на) работать (включая работу дома)",
		"FP100_Q1_TITLE": "БЛАГОПОЛУЧИЕ В ПОВСЕДНЕВНОЙ ЖИЗНИ",
		"FP110_Q1_TEXT": "Моя работа (включая работу дома) приносит мне удовлетворение",
		"FP110_Q1_TITLE": "БЛАГОПОЛУЧИЕ В ПОВСЕДНЕВНОЙ ЖИЗНИ",
		"FP120_Q1_TEXT": "Я способен(-на) радоваться жизни",
		"FP120_Q1_TITLE": "БЛАГОПОЛУЧИЕ В ПОВСЕДНЕВНОЙ ЖИЗНИ",
		"FP130_Q1_TEXT": "Я отношусь к моей болезни спокойно",
		"FP130_Q1_TITLE": "БЛАГОПОЛУЧИЕ В ПОВСЕДНЕВНОЙ ЖИЗНИ",
		"FP140_Q1_TEXT": "Я хорошо сплю",
		"FP140_Q1_TITLE": "БЛАГОПОЛУЧИЕ В ПОВСЕДНЕВНОЙ ЖИЗНИ",
		"FP150_Q1_TEXT": "Я получаю удовольствие от того, чем я занимаюсь в свободное время",
		"FP150_Q1_TITLE": "БЛАГОПОЛУЧИЕ В ПОВСЕДНЕВНОЙ ЖИЗНИ",
		"FP160_Q1_TEXT": "Я удовлетворен(-а) качеством моей жизни в данный момент",
		"FP160_Q1_TITLE": "БЛАГОПОЛУЧИЕ В ПОВСЕДНЕВНОЙ ЖИЗНИ",
		"FP170_Q1_TEXT": "Я теряю в весе",
		"FP170_Q1_TITLE": "ДОПОЛНИТЕЛЬНЫЕ ПОКАЗАТЕЛИ",
		"FP180_Q1_TEXT": "У меня хороший аппетит",
		"FP180_Q1_TITLE": "ДОПОЛНИТЕЛЬНЫЕ ПОКАЗАТЕЛИ",
		"FP190_Q1_TEXT": "Я испытываю боли, которые беспокоят меня",
		"FP190_Q1_TITLE": "ДОПОЛНИТЕЛЬНЫЕ ПОКАЗАТЕЛИ",
		"FP200_Q1_TEXT": "Я испытываю боли в некоторых частях тела",
		"FP200_Q1_TITLE": "ДОПОЛНИТЕЛЬНЫЕ ПОКАЗАТЕЛИ",
		"FP210_Q1_TEXT": "Боли мешают мне заниматься тем, чем я хочу",
		"FP210_Q1_TITLE": "ДОПОЛНИТЕЛЬНЫЕ ПОКАЗАТЕЛИ",
		"FP220_Q1_TEXT": "Я удовлетворен своим нынешним самочувствием",
		"FP220_Q1_TITLE": "ДОПОЛНИТЕЛЬНЫЕ ПОКАЗАТЕЛИ",
		"FP230_Q1_TEXT": "Я способен чувствовать себя мужчиной.",
		"FP230_Q1_TITLE": "ДОПОЛНИТЕЛЬНЫЕ ПОКАЗАТЕЛИ",
		"FP240_Q1_TEXT": "У меня затруднения с опорожнением кишечника",
		"FP240_Q1_TITLE": "ДОПОЛНИТЕЛЬНЫЕ ПОКАЗАТЕЛИ",
		"FP250_Q1_TEXT": "У меня трудности с мочеиспусканием",
		"FP250_Q1_TITLE": "ДОПОЛНИТЕЛЬНЫЕ ПОКАЗАТЕЛИ",
		"FP260_Q1_TEXT": "Я мочусь чаще, чем обычно",
		"FP260_Q1_TITLE": "ДОПОЛНИТЕЛЬНЫЕ ПОКАЗАТЕЛИ",
		"FP270_Q1_TEXT": "Трудности с мочеиспусканием ограничивают меня в моих занятиях",
		"FP270_Q1_TITLE": "ДОПОЛНИТЕЛЬНЫЕ ПОКАЗАТЕЛИ",
		"FP280_Q1_TEXT": "Я в состоянии достичь и удерживать эрекцию",
		"FP280_Q1_TITLE": "ДОПОЛНИТЕЛЬНЫЕ ПОКАЗАТЕЛИ",
		"FP010_Q1_W0_A0": "совсем нет",
		"FP010_Q1_W0_A1": "немного",
		"FP010_Q1_W0_A2": "умеренно",
		"FP010_Q1_W0_A3": "сильно",
		"FP010_Q1_W0_A4": "очень сильно",
		"FP011_Q1_W0_A0": "совсем нет",
		"FP011_Q1_W0_A1": "немного",
		"FP011_Q1_W0_A2": "умеренно",
		"FP011_Q1_W0_A3": "сильно",
		"FP011_Q1_W0_A4": "очень сильно",
		"FP012_Q1_W0_A0": "совсем нет",
		"FP012_Q1_W0_A1": "немного",
		"FP012_Q1_W0_A2": "умеренно",
		"FP012_Q1_W0_A3": "сильно",
		"FP012_Q1_W0_A4": "очень сильно",
		"FP013_Q1_W0_A0": "совсем нет",
		"FP013_Q1_W0_A1": "немного",
		"FP013_Q1_W0_A2": "умеренно",
		"FP013_Q1_W0_A3": "сильно",
		"FP013_Q1_W0_A4": "очень сильно",
		"FP014_Q1_W0_A0": "совсем нет",
		"FP014_Q1_W0_A1": "немного",
		"FP014_Q1_W0_A2": "умеренно",
		"FP014_Q1_W0_A3": "сильно",
		"FP014_Q1_W0_A4": "очень сильно",
		"FP015_Q1_W0_A0": "совсем нет",
		"FP015_Q1_W0_A1": "немного",
		"FP015_Q1_W0_A2": "умеренно",
		"FP015_Q1_W0_A3": "сильно",
		"FP015_Q1_W0_A4": "очень сильно",
		"FP016_Q1_W0_A0": "совсем нет",
		"FP016_Q1_W0_A1": "немного",
		"FP016_Q1_W0_A2": "умеренно",
		"FP016_Q1_W0_A3": "сильно",
		"FP016_Q1_W0_A4": "очень сильно",
		"FP017_Q1_W0_A0": "совсем нет",
		"FP017_Q1_W0_A1": "немного",
		"FP017_Q1_W0_A2": "умеренно",
		"FP017_Q1_W0_A3": "сильно",
		"FP017_Q1_W0_A4": "очень сильно",
		"FP018_Q1_W0_A0": "совсем нет",
		"FP018_Q1_W0_A1": "немного",
		"FP018_Q1_W0_A2": "умеренно",
		"FP018_Q1_W0_A3": "сильно",
		"FP018_Q1_W0_A4": "очень сильно",
		"FP019_Q1_W0_A0": "совсем нет",
		"FP019_Q1_W0_A1": "немного",
		"FP019_Q1_W0_A2": "умеренно",
		"FP019_Q1_W0_A3": "сильно",
		"FP019_Q1_W0_A4": "очень сильно",
		"FP020_Q1_W0_A0": "совсем нет",
		"FP020_Q1_W0_A1": "немного",
		"FP020_Q1_W0_A2": "умеренно",
		"FP020_Q1_W0_A3": "сильно",
		"FP020_Q1_W0_A4": "очень сильно",
		"FP021_Q1_W0_A0": "совсем нет",
		"FP021_Q1_W0_A1": "немного",
		"FP021_Q1_W0_A2": "умеренно",
		"FP021_Q1_W0_A3": "сильно",
		"FP021_Q1_W0_A4": "очень сильно",
		"FP022_Q1_W0_A0": "совсем нет",
		"FP022_Q1_W0_A1": "немного",
		"FP022_Q1_W0_A2": "умеренно",
		"FP022_Q1_W0_A3": "сильно",
		"FP022_Q1_W0_A4": "очень сильно",
		"FP023_Q1_W0_A0": "совсем нет",
		"FP023_Q1_W0_A1": "немного",
		"FP023_Q1_W0_A2": "умеренно",
		"FP023_Q1_W0_A3": "сильно",
		"FP023_Q1_W0_A4": "очень сильно",
		"FP023_Q2_W0_A0": "Предпочитаю не отвечать",
		"FP040_Q1_W0_A0": "совсем нет",
		"FP040_Q1_W0_A1": "немного",
		"FP040_Q1_W0_A2": "умеренно",
		"FP040_Q1_W0_A3": "сильно",
		"FP040_Q1_W0_A4": "очень сильно",
		"FP050_Q1_W0_A0": "совсем нет",
		"FP050_Q1_W0_A1": "немного",
		"FP050_Q1_W0_A2": "умеренно",
		"FP050_Q1_W0_A3": "сильно",
		"FP050_Q1_W0_A4": "очень сильно",
		"FP060_Q1_W0_A0": "совсем нет",
		"FP060_Q1_W0_A1": "немного",
		"FP060_Q1_W0_A2": "умеренно",
		"FP060_Q1_W0_A3": "сильно",
		"FP060_Q1_W0_A4": "очень сильно",
		"FP070_Q1_W0_A0": "совсем нет",
		"FP070_Q1_W0_A1": "немного",
		"FP070_Q1_W0_A2": "умеренно",
		"FP070_Q1_W0_A3": "сильно",
		"FP070_Q1_W0_A4": "очень сильно",
		"FP080_Q1_W0_A0": "совсем нет",
		"FP080_Q1_W0_A1": "немного",
		"FP080_Q1_W0_A2": "умеренно",
		"FP080_Q1_W0_A3": "сильно",
		"FP080_Q1_W0_A4": "очень сильно",
		"FP090_Q1_W0_A0": "совсем нет",
		"FP090_Q1_W0_A1": "немного",
		"FP090_Q1_W0_A2": "умеренно",
		"FP090_Q1_W0_A3": "сильно",
		"FP090_Q1_W0_A4": "очень сильно",
		"FP100_Q1_W0_A0": "совсем нет",
		"FP100_Q1_W0_A1": "немного",
		"FP100_Q1_W0_A2": "умеренно",
		"FP100_Q1_W0_A3": "сильно",
		"FP100_Q1_W0_A4": "очень сильно",
		"FP110_Q1_W0_A0": "совсем нет",
		"FP110_Q1_W0_A1": "немного",
		"FP110_Q1_W0_A2": "умеренно",
		"FP110_Q1_W0_A3": "сильно",
		"FP110_Q1_W0_A4": "очень сильно",
		"FP120_Q1_W0_A0": "совсем нет",
		"FP120_Q1_W0_A1": "немного",
		"FP120_Q1_W0_A2": "умеренно",
		"FP120_Q1_W0_A3": "сильно",
		"FP120_Q1_W0_A4": "очень сильно",
		"FP130_Q1_W0_A0": "совсем нет",
		"FP130_Q1_W0_A1": "немного",
		"FP130_Q1_W0_A2": "умеренно",
		"FP130_Q1_W0_A3": "сильно",
		"FP130_Q1_W0_A4": "очень сильно",
		"FP140_Q1_W0_A0": "совсем нет",
		"FP140_Q1_W0_A1": "немного",
		"FP140_Q1_W0_A2": "умеренно",
		"FP140_Q1_W0_A3": "сильно",
		"FP140_Q1_W0_A4": "очень сильно",
		"FP150_Q1_W0_A0": "совсем нет",
		"FP150_Q1_W0_A1": "немного",
		"FP150_Q1_W0_A2": "умеренно",
		"FP150_Q1_W0_A3": "сильно",
		"FP150_Q1_W0_A4": "очень сильно",
		"FP160_Q1_W0_A0": "совсем нет",
		"FP160_Q1_W0_A1": "немного",
		"FP160_Q1_W0_A2": "умеренно",
		"FP160_Q1_W0_A3": "сильно",
		"FP160_Q1_W0_A4": "очень сильно",
		"FP170_Q1_W0_A0": "совсем нет",
		"FP170_Q1_W0_A1": "немного",
		"FP170_Q1_W0_A2": "умеренно",
		"FP170_Q1_W0_A3": "сильно",
		"FP170_Q1_W0_A4": "очень сильно",
		"FP180_Q1_W0_A0": "совсем нет",
		"FP180_Q1_W0_A1": "немного",
		"FP180_Q1_W0_A2": "умеренно",
		"FP180_Q1_W0_A3": "сильно",
		"FP180_Q1_W0_A4": "очень сильно",
		"FP190_Q1_W0_A0": "совсем нет",
		"FP190_Q1_W0_A1": "немного",
		"FP190_Q1_W0_A2": "умеренно",
		"FP190_Q1_W0_A3": "сильно",
		"FP190_Q1_W0_A4": "очень сильно",
		"FP200_Q1_W0_A0": "совсем нет",
		"FP200_Q1_W0_A1": "немного",
		"FP200_Q1_W0_A2": "умеренно",
		"FP200_Q1_W0_A3": "сильно",
		"FP200_Q1_W0_A4": "очень сильно",
		"FP210_Q1_W0_A0": "совсем нет",
		"FP210_Q1_W0_A1": "немного",
		"FP210_Q1_W0_A2": "умеренно",
		"FP210_Q1_W0_A3": "сильно",
		"FP210_Q1_W0_A4": "очень сильно",
		"FP220_Q1_W0_A0": "совсем нет",
		"FP220_Q1_W0_A1": "немного",
		"FP220_Q1_W0_A2": "умеренно",
		"FP220_Q1_W0_A3": "сильно",
		"FP220_Q1_W0_A4": "очень сильно",
		"FP230_Q1_W0_A0": "совсем нет",
		"FP230_Q1_W0_A1": "немного",
		"FP230_Q1_W0_A2": "умеренно",
		"FP230_Q1_W0_A3": "сильно",
		"FP230_Q1_W0_A4": "очень сильно",
		"FP240_Q1_W0_A0": "совсем нет",
		"FP240_Q1_W0_A1": "немного",
		"FP240_Q1_W0_A2": "умеренно",
		"FP240_Q1_W0_A3": "сильно",
		"FP240_Q1_W0_A4": "очень сильно",
		"FP250_Q1_W0_A0": "совсем нет",
		"FP250_Q1_W0_A1": "немного",
		"FP250_Q1_W0_A2": "умеренно",
		"FP250_Q1_W0_A3": "сильно",
		"FP250_Q1_W0_A4": "очень сильно",
		"FP260_Q1_W0_A0": "совсем нет",
		"FP260_Q1_W0_A1": "немного",
		"FP260_Q1_W0_A2": "умеренно",
		"FP260_Q1_W0_A3": "сильно",
		"FP260_Q1_W0_A4": "очень сильно",
		"FP270_Q1_W0_A0": "совсем нет",
		"FP270_Q1_W0_A1": "немного",
		"FP270_Q1_W0_A2": "умеренно",
		"FP270_Q1_W0_A3": "сильно",
		"FP270_Q1_W0_A4": "очень сильно",
		"FP280_Q1_W0_A0": "совсем нет",
		"FP280_Q1_W0_A1": "немного",
		"FP280_Q1_W0_A2": "умеренно",
		"FP280_Q1_W0_A3": "сильно",
		"FP280_Q1_W0_A4": "очень сильно"
	}
}
