{
	"namespace": "HHTrainingModule",
	"language": "ru",
	"locale": "US",
	"direction": "ltr",
	"resources": {
		"DISPLAY_NAME": "Учебный дневник",
		"HHTM010_Q1_TEXT": "Следующие экраны предназначены только для учебных целей. Ответы не могут быть правильными или неправильными. Введенные Вами ответы не будут регистрироваться. В конце Вы подтвердите, что прошли курс обучения по использованию этого электронного дневника. Если у Вас есть какие-либо сомнения относительно того, как отвечать на следующие вопросы, задавайте вопросы сейчас, во время заполнения дневника.<br><br>Коснитесь кнопки «Далее» для перехода на следующий экран.",
		"HHTM010_Q1_TITLE": "",
		"HHTM020_Q1_TEXT": "На следующих экранах представлены инструкции для типов вопросов, которые Вам могут задать в ходе этого исследования. На каждом экране представлен отдельный тип вопроса с инструкциями по предоставлению ответа. Внимательно ознакомьтесь с каждой инструкцией, прежде чем вводить ответ.<br><br>Коснитесь кнопки «Далее» для перехода на следующий экран.",
		"HHTM020_Q1_TITLE": "",
		"HHTM030_Q1_TEXT": "Читая каждую инструкцию, обратите внимание, что некоторые слова могут быть выделены, поскольку они содержат важную информацию, например, информацию об общих временных рамках. Обратите особое внимание на выделенные слова в тексте.<br>Они могут быть:<br>&nbsp;<br><u>подчеркнуты</u>, НАПИСАНЫ ЗАГЛАВНЫМИ БУКВАМИ или <b>выделены жирным шрифтом</b>.<br>&nbsp;<br>Коснитесь кнопки «Далее» для перехода на следующий экран.",
		"HHTM030_Q1_TITLE": "",
		"HHTM050_CUSTOM_Q1_TEXT": "В некоторых вопросах Вас просят выбрать ответ, который наиболее точно отражает Ваше самочувствие. Выберите нужный ответ, коснувшись его. Затем коснитесь кнопки «Далее» для перехода на следующий экран.",
		"HHTM050_CUSTOM_Q1_TITLE": "",
		"HHTM060_Q1_TEXT": "В некоторых вопросах Вас просят выбрать значение из списка. Коснитесь квадратика ниже, чтобы просмотреть список, и выберите нужный ответ. Затем коснитесь кнопки «Далее» для перехода на следующий экран.",
		"HHTM060_Q1_TITLE": "",
		"HHTM080_BOT_Q1_TEXT": "<span style='font-size: 12px'>В некоторых вопросах Вас просят оценить, как Вы себя чувствуете, выбрав цифру из ряда цифр, как указано ниже. Коснитесь той цифры на экране, которая наиболее точно соответствует Вашему самочувствию. Затем коснитесь кнопки «Далее» для перехода на следующий экран.</span>",
		"HHTM080_BOT_Q1_TITLE": "",
		"HHTM090_POST_Q1_TEXT": "В некоторых вопросах Вас просят оценить, как Вы себя чувствуете по приведенной ниже шкале. Коснитесь линии в том месте, которое наиболее точно отражает Ваше самочувствие. Вы можете перемещать указатель до тех пор, пока линия не будет наиболее точно отражать Ваше самочувствие.&nbsp; Затем коснитесь кнопки «Далее» для перехода на следующий экран.",
		"HHTM090_POST_Q1_TITLE": "",
		"HHTM140_lead_Q1_TEXT": "<div>На следующем экране Вам будет предложено выбрать дату и время.&nbsp;&nbsp;Для тренировки коснитесь первого квадратика, введите вчерашнюю дату в календаре и нажмите «OK».&nbsp;&nbsp;Коснитесь второго квадратика и измените время на 10:20, затем нажмите «OK».&nbsp;&nbsp;Затем коснитесь кнопки «Далее» для перехода на следующий экран.</div>",
		"HHTM140_lead_Q1_TITLE": "",
		"HHTM140_Q1_TEXT": "Если Вы хотите&nbsp;вернуться к инструкциям, коснитесь кнопки «Назад».&nbsp;&nbsp;",
		"HHTM140_Q1_TITLE": "",
		"HHTM160_Q1_TEXT": "В некоторых вопросах Вас просят ввести число. Для тренировки коснитесь квадратика ниже. Воспользуйтесь клавиатурой, чтобы ввести число 14. Затем коснитесь кнопки «Далее» для перехода на следующий экран.",
		"HHTM160_Q1_TITLE": "",
		"HHTM161_Q1_TEXT": "На следующем экране Вам будет предложено выбрать область тела, чтобы указать локализацию боли. Для тренировки коснитесь одной области на экране, а затем другой. Вы можете отменить выбор области, нажав на выбранную область второй раз.</div><div>Коснитесь кнопки «Далее» для перехода на следующий экран.</div>",
		"HHTM161_Q1_TITLE": "",
		"HHTM162_Q1_TEXT": "Отметьте на диаграмме те области тела, в которых Вы чувствуете боль.",
		"HHTM162_Q1_TITLE": "",
		"HHTM163_Q1_TEXT": "Выберите те области тела, в которых Вы чувствуете боль.",
		"HHTM163_Q1_TITLE": "",
		"HHTM164_Q1_TEXT": "Выберите те области тела, в которых Вы чувствуете боль.",
		"HHTM164_Q1_TITLE": "",
		"HHTM165_Q1_TEXT": "Выберите те области тела, в которых Вы чувствуете боль.",
		"HHTM165_Q1_TITLE": "",
		"HHTM166_Q1_TEXT": "Выберите те области тела, в которых Вы чувствуете боль.",
		"HHTM166_Q1_TITLE": "",
		"HHTM190_Q1_TEXT": "На некоторых экранах Вас попросят проверить данные, после того как Вы введете их в дневник. Следующий экран является образцом экрана такого типа с примером данных. Кнопки в нижней части экрана позволят Вам ввести новые данные, отредактировать введенные данные или удалить данные в дневнике, который Вы будете заполнять во время этого исследования. Коснитесь кнопки «Далее» для перехода на следующий экран.",
		"HHTM190_Q1_TITLE": "",
		"HHTM200_1_Q1_TEXT": "Ваши записи:",
		"HHTM200_1_Q1_EDIT_INSTRUCTIONS": "Вы можете изменить или удалить дозу, которая не выделена серым цветом, коснувшись ее.",
		"HHTM200_1_Q1_ADDITIONAL_INSTRUCTIONS": "Когда Вы выполните все необходимые действия на этом экране, коснитесь кнопки «Далее» для перехода на следующий экран.",
		"HHTM200_1_Q1_TITLE": "",
		"HHTM200_5_Q1_TEXT": "Выбрать обезболивающее средство:",
		"HHTM200_5_Q1_TITLE": "",
		"HHTM200_2_Q1_TEXT": "Выберите дату и время приема препарата:",
		"HHTM200_2_Q1_TITLE": "",
		"HHTM200_3_Q1_TEXT": "Выберите количество принятых таблеток:",
		"HHTM200_3_Q1_TITLE": "",
		"HHTM200_4_Q1_TEXT": "<div>Вы действительно хотите удалить эту запись?</div><div>&nbsp;</div><div>&nbsp;</div>{{{HHTM200_4_MED}}}",
		"HHTM200_4_Q1_TITLE": "",
		"HHTM980_Q1_TEXT": "Иногда необходимо повторно просмотреть свои ответы на предыдущие вопросы. Для этого коснитесь кнопки «Назад». Попробуйте вернуться к предыдущим экранам, коснувшись кнопки «Назад». Затем касайтесь кнопки «Далее» до тех пор, пока не вернетесь на этот экран. Затем опять коснитесь кнопки «Далее» для перехода на следующий экран.",
		"HHTM980_Q1_TITLE": "",
		"HHTM990_Q1_TEXT": "Вы рассмотрели различные типы экранов, которые можно увидеть в ходе этого исследования. Вы хотите:",
		"HHTM990_Q1_TITLE": "",
		"HHTM080_BOT_Q1_W0_DisplayText": "NRS",
		"HHTM080_BOT_Q1_W0_LeftMarker": "<span style='font-size: 11px'>Нет боли</span>",
		"HHTM080_BOT_Q1_W0_RightMarker": "<span style='font-size: 11px'>Максимально сильная боль, которую только можно себе представить</span>",
		"HHTM090_POST_Q1_W0_LEFT": "Наихудшее состояние здоровья, которое можно себе представить",
		"HHTM090_POST_Q1_W0_RIGHT": "Наилучшее состояние здоровья, которое можно себе представить",
		"HHTM160_Q1_W0_label": " ",
		"HHTM160_Q1_W0_placeHolder": " ",
		"HHTM050_CUSTOM_Q1_W0_A0": "Счастливый (-ая)",
		"HHTM050_CUSTOM_Q1_W0_A1": "Грустный (-ая)",
		"HHTM050_CUSTOM_Q1_W0_A2": "Усталый (-ая)",
		"HHTM050_CUSTOM_Q1_W0_A3": "Удивленный (-ая)",
		"HHTM060_Q1_W0_A0": "Вариант 1",
		"HHTM060_Q1_W0_A1": "Вариант 2",
		"HHTM060_Q1_W0_A2": "Вариант 3",
		"HHTM060_Q1_W0_A3": "Вариант 4",
		"HHTM060_Q1_W0_A4": "Вариант 5",
		"HHTM080_BOT_Q1_W0_A0": "0",
		"HHTM080_BOT_Q1_W0_A1": "1",
		"HHTM080_BOT_Q1_W0_A2": "2",
		"HHTM080_BOT_Q1_W0_A3": "3",
		"HHTM080_BOT_Q1_W0_A4": "4",
		"HHTM080_BOT_Q1_W0_A5": "5",
		"HHTM080_BOT_Q1_W0_A6": "6",
		"HHTM080_BOT_Q1_W0_A7": "7",
		"HHTM080_BOT_Q1_W0_A8": "8",
		"HHTM080_BOT_Q1_W0_A9": "9",
		"HHTM080_BOT_Q1_W0_A10": "10",
		"HHTM200_5_Q1_W0_A0": "Обезболивающее средство 1",
		"HHTM200_5_Q1_W0_A1": "Другое обезболивающее средство",
		"HHTM200_3_Q1_W0_A0": "1",
		"HHTM200_3_Q1_W0_A1": "2",
		"HHTM200_3_Q1_W0_A2": "3",
		"HHTM200_3_Q1_W0_A3": "4",
		"HHTM200_4_Q1_W0_A0": "Нет",
		"HHTM200_4_Q1_W0_A1": "Да",
		"HHTM990_Q1_W0_A0": "Завершить учебный модуль. Мне понятно, как пользоваться электронным дневником.",
		"HHTM990_Q1_W0_A1": "Пройти учебный модуль повторно.",
        "HHTM162_Q1_1": "Вид спереди",
        "HHTM162_Q1_2": "Право",
        "HHTM162_Q1_3": "Левo",
        "HHTM162_Q1_4": "Вид сзади",
        "HHTM162_Q1_5": "Левo",
        "HHTM162_Q1_6": "Право",
        "HHTM162_Q2_A1" : "Нет боли",
        "HHTM163_Q1_1": "Вид спереди",
        "HHTM163_Q1_2": "Левo",
        "HHTM163_Q1_3": "Право",
        "HHTM164_Q1_1": "Вид спереди",
        "HHTM164_Q1_2": "Левo",
        "HHTM164_Q1_3": "Право",
        "HHTM165_Q1_1": "Вид сзади",
        "HHTM165_Q1_2": "Левo",
        "HHTM165_Q1_3": "Право",
        "HHTM166_Q1_1": "Вид сзади",
        "HHTM166_Q1_2": "Левo",
        "HHTM166_Q1_3": "Право",
        "HHTM200_ReviewScreen_Header1": "дату/время",
        "HHTM200_ReviewScreen_Header2": "Значение",
        "HHTM200_ReviewScreen_AddButton": "Добавить новую запись",
        "HHTM200_ReviewScreen_EditButton": "Редактировать эту запись",
        "HHTM200_ReviewScreen_DeleteButton": "Удалить эту запись",
        "PILLS": "таблетка(-и)"
	}
}
