{
    "namespace": "CORE",
    "language": "da",
    "locale": "GH",
    "localized": "Dagbani",
    "direction": "ltr",
    "resources": {
        "ACCEPT": "N’saɣ’ti",
        "ACTIVE": "Di yooya",
        "ACTIVATE_USER": "Yooi ti di lana",
        "ACTIVATE_USER_CANCEL_CONFIRM": "Di chali Yoobu?",
        "ACTIVATE_USER_CANCEL_BODY": "A yi chali pumpoŋo, di biyen yooi ti lana niri ŋun be lala vihigu zishee maa. A shiri saɣ’ti ni di chala?",
        "ACTIVATE_USER_AFF": "N’nuu dihibu gbinni ŋo wuhiri ni kadama m’mali soli ni yoogi ti ŋun be lala vihigu zishee ŋo.",
        "ACTIVATE_USER_CONFIRM_INFORMATION": "Dim suglo, lihimi ka saɣ’ti ni yel’ sheŋa din do gbinni ŋo nyela ninvugi so ŋun yi vihigu zishee sheli an’bori ni ayoogi maa ni na.",
        "ADD_PATIENT": "Zaŋmi barilana pahi",
        "ADD_USER": "Zaŋmi di lana pahi",
        "AFFIDAVIT": "Dihimi OK, ka dihi Next diyi niŋ ka a saɣ’ti an’labsi bohisi maa shem maa.",
        "AFFIDAVIT_HELP": "Ti pagiya. A labsi bohi sheŋa zaa din tu ni alabsi. Ayi bori ni a tagi n an’labsi bohisi maa shem maa nyin dihimi Labmi Nyaanga.",
        "P_AFFIDAVIT_HEADER": "<div><strong>Vihigu Zishee: {{{ getSiteCode }}}</strong><br /><strong>Bar’ Maa ID: {{{ getPatientIdNumber }}}</strong></div>",
        "ALL_QUESTIONNAIRES_COMPLETED": "Gbana maa zaa kpehiya naagi",
        "APP_NAME": "ERT",
        "APPLICATION_HEADER": "{{{ appHeader }}}",
        "APP_NAME_LBL": "App ŋo yuli",
        "APP_VERSION": "Binagli sham",
        "ASSIGNED_TO": "Di Zaŋmi Ti",
        "AVAILABLE": "Di beni",
        "BACK": "Labmi Nyaanga",
        "BACK_OUT_CONFIRM": "A shiri bori ni a yi kpe? An’labsi bohi sheŋa maa ni barigi.",
        "BLUETOOTH_REG_REFRESH_BUTTON": "Labi yihi bachinim maa na",
        "CANCEL": "Chala",
        "CHECK_FOR_UPDATES": "Lihi nya bin pala din kana",
        "CHOOSE_A_SITE": "Zaŋmi device yuli ti vihigu zishee sheli.",
        "COMPLETED": "Di Naaya",
        "CONFIRM_PASSWORD": "Saɣ’ti a daashili bachi:",
        "CONFIRM_TEMP_PASS": "Saɣ’ti Password Tuuli:",
        "CONSOLE_LOG": "Console Log",
        "CONTINUE": "Zaŋ tugi",
        "COUNTRY": "Tingbani",
        "CUSTOM_ENVIRONMENT": "Nyumbor bini ma foɳ ni",
        "DEACTIVATE_PATIENT": "Yihimi Bari maa",
        "DEACTIVATE_USER": "Yihimi di lana maa",
        "DEACTIVATED": "O yiya",
        "DEACTIVATE_USER_CANCEL_CONFIRM": "Di chali yihibu maa?",
        "DEACTIVATE_USER_CANCEL_BODY": "A yi che yihibu maa, lala ŋun chani lala vihigu zishee maa biyen yi. A shiri saɣ’ti ni di chala?",
        "DEACTIVATE_USER_AFF": "N’nuu didhibu gbinni ŋo wuhiri ni kadama n mali soli ni n’yihi ŋun be lala vihigu zishee maa.",
        "DEACTIVATE_USER_SIG": "<strong>Din yen yihi so yuli maa:</strong> <br />{{{ getSelectedUsername }}}<br /><br /><strong>ŋun dihi nuu:</strong> {{{ getActiveUserName }}}",
        "DEACTIVATE_USER_CONFIRM_INFORMATION": "Dim suglo, saɣ’ti ni kadama gban sheŋa din be gbinni ŋo nyela ninvug so an;bori ni ayihi lala vihigu zishee maa dini.",
        "DECLINE": "M’bi sagi",
        "DEVICE_ID": "Tabibi ID",
        "DEVICE_REGISTRATION_FAILURE": "Ti bi tooi nyaŋ kpehi device yuli.",
        "DEVICE_UUIID": "Tabibi UUID",
        "BATTERY_LEVEL": "Battery ni kpalim shem",
        "DEVICE_INFO": "Tabibi maa yela zaaha",
        "DIARY_TIMEOUT": "Saha sheli din tu ni di zaŋ naagi gbaŋ ŋo gariya.",
        "EDIT_MY_INFO": "N’biehigu yeltoga tagibu",
        "EDIT_PATIENT": "Bari yeltoga tagibu",
        "EDIT_PATIENT_QUESTION_1_MAIN_TITLE": "<div class='question-title-large'>Bari maa ID </div><div>yuli bachi zaŋkpa vihigu zishee ŋo polo:<br /><strong> {{{ patientIDRange }}}</strong></div><div class='edit-patient-id'>Bar’ Maa ID:<br /><strong>{{{ getPatientIdNumber }}} ({{{getPatientInitials}}})</strong</div><br /><br />",
        "EDIT_PATIENT_QUESTION_1": "Bar’ Maa ID:",
        "EDIT_PATIENT_QUESTION_1_EMPTY": "Dim suglo kpehimi bari maa ID.",
        "EDIT_PATIENT_QUESTION_1_EMPTY_HEADER": "Bar’ Maa ID",
        "EDIT_PATIENT_QUESTION_1_RANGE": "Bar’ Maa ID sheli an’kpehi maa bipahi tin’ sagi ID sheŋa ni: {{{ patientIDRange }}}.  Dim suglo kpehimi tin sagi ti ID sheli.",
        "EDIT_PATIENT_QUESTION_1_RANGE_HEADER": "Bar’ Maa ID sheli an’kpehi ŋo nuu kani",
        "EDIT_PATIENT_QUESTION_1_UNIQUE": "Bari maa yuli pun benimi.  Dim suglo, kphenimi Bar’ Maa ID sheli dabam.",
        "EDIT_PATIENT_QUESTION_1_UNIQUE_HEADER": "Bar’ Maa ID sheli an’kpehi maa pun benimi",
        "EDIT_PATIENT_QUESTION_2": "Bari yuli piligu bachinima:",
        "EDIT_PATIENT_QUESTION_2_EMPTY": "Dim suglo kpehimi bari maa yuya piligu bachinima, cheka di galisi gari bachi 2.",
        "EDIT_PATIENT_QUESTION_2_EMPTY_HEADER": "Bari yuli piligu bachinima",
        "EDIT_PATIENT_QUESTION_3_TITLE": "<div class='question-title-large'>Piimi Bal’li</div><div>Bar’ Maa ID:<br /><strong>{{{ getPatientIdNumber }}} ({{{getPatientInitials}}})</strong</div><br /><br />",
        "EDIT_PATIENT_QUESTION_3": "Piimi bari maa ni yeri bali sheli",
        "EDIT_PATIENT_QUESTION_4_TITLE": "<div class='question-title-large'>Mali niŋ daliri</div><br /><br />",
        "EDIT_PATIENT_QUESTION_4": "Piimi daliri sheli din che ka a tagiri bari maa yela",
        "EDIT_PATIENT_CANCEL_CONFIRM": "Di chali Bari maa yela tagibu?",
        "EDIT_PATIENT_CANCEL_BODY": "Ayi chali pumpoŋo, bari maa yela biyen mali niŋ.  A shiri saɣ’ti ni di chala?",
        "EDIT_PATIENT_NO_CHANGES_CONFIRM": "Ti bi tagi bari maa binshegu",
        "EDIT_PATIENT_NO_CHANGES_BODY": "Ti bi tagi bari ŋo binshegu. Di kuli yim kpe?",
        "EDIT_PATIENT_REASON_0": "Vihigu karachi maanila binshegu din bi niŋ dede niŋda",
        "EDIT_PATIENT_REASON_1": "Di zaŋmi yela maa mali niŋ zaŋ jali",
        "EDIT_PATIENT_REASON_2": "ID tagibu",
        "EDIT_PATIENT_REASON_3": "Bali sheli an’pii maa bi niŋ dede",
        "EDIT_REASON": "Mali niŋ daliri:",
        "EDIT_SERVICE_URL": "Diyen naɳ ti URL tagibu",
        "EDIT_SERVICE_URL_SUCCESS": "Dinyen naɳ ti URL maa maliya niŋ.",
        "EDIT_USER": "Di lana mali niŋ",
        "EDIT_USER_AFF": "N’nuu dihibu gbinni ŋo wuhiri ni kadama m’mali soli ni yoogi ti ŋun be lala vihigu zishee ŋo. <br /><br /><strong>ŋun dihi nuu:</strong> {{{ getActiveUserName }}}",
        "EDIT_USER_CANCEL_CONFIRM": "Di chali di lana maa yeltoga mal’niŋ?",
        "EDIT_USER_CANCEL_BODY": "A yi chali pumpoŋo, di biyen tagi lala niri ŋun be lala vihigu zishee maa binyahiri. A shiri saɣ’ti ni di chala?",
        "EDIT_USER_NO_CHANGES_HEADER": "Ti bi tagi ŋun be lala vihigu zishee maa binshegu.",
        "EDIT_USER_NO_CHANGES_BODY": "Ti bi tagi ŋun be lala vihigu zishee ŋo binshegu. Di kuli yim kpe?",
        "EMAIL": "Email Taliɳ",
        "ENTER_PATIENT_INFO": "Kpehimi bari yetoga",
        "ENTER_UNLOCK_CODE": "Dim suglo kpehimi Yoobu Bachi maa",
        "ENTER_USER_INFO": "Kpehimi vihigu zishee palli niri yetoga",
        "ENVIRONMENT": "Foɳ ma ni",
        "ERROR_CODE": "Barna bachi:",
        "ERROR_TITLE": "Barna",
        "EULA": "ŋUN MAL’LI TUMDI TUMA YARDA GBAŋ",
        "EULA_TEXT": "<p><strong><span class=\"text-underline\">DIN NIŋ TALAHI</span>:  DI DIHI SAƔ’TI BUTTON ZUGU NAGLA A KARIM LA ZALIKPANA ŋO NAAGI.  NYIN DEE YI DIHI SAƔ’TI BUTTON MAA ZUGU, A SAƔ’TI ZALIKPANA SHEŋA ZAA DIN BE GBAŋ ŋO PUUNI.  A YI BI SAƔ’TI ZALISI MAA ZAA DIN ŋUNA (1) MIRA KA A DIHI ‘N’SAƔ’TI’ BUTTON MAA ZUGU, (2) CHALI BIN ŋO KPEHIBU A MASHINI MAA ZUGU NI DI YARDA NIŋ BU, KA DIHI ‘M’BI SAGI’ BUTTON MAA ZUGU.</strong></p><p>eResearchTechnology, Inc. (\"BAN TIRI YARDA BIN ŋO ZAŋ TUM TUMA POLO\") ti agba soli, so sheli ankutooi zaŋ ti so dabam, ni azaŋ eResearchTechnology, Inc. software din be mashini ŋo zugu (\"Software\") n’tum tuma din yen soŋ a tuma ashibiti karim vihigu ŋo puuni. <strong>{{{ clinicalTrial }}}</strong>.  Vihigu baɳsim, Inc. software ŋo nyela tingbana zalisi ni mi sheli yela.  Yarda sheli tin taa ŋo bi wuhiri ni a sula software nim ŋo sheli (bee di ŋmaya), amaa dikuli nyela yarda din taa soli ni a zaŋ software maa tum tuma zaŋ chaŋ ŋun suli ŋo ni taa so sheli zaaha.  Software maa yuli, ni din be di puuni zaa nyela so baŋsim mini ariziki buni, ka kuli yen nye lala zaŋti di lana maa saha sheli kam.</p><p>A sagiya ni a’pala ŋun yen niŋ bee a’pala ŋun yen soŋ so ka yi i) lebgi, ka wurim Software maa; (ii)n’ ŋmali, ka tarili, ka mal’li, ka che ka di simsi, ka mali di paya paya, n’tagi di bal’li, n’lebgili lugsheli dini, n’zintahi bee tagi Software maa biehigu; bee (iii) n’yihi bee n tagi din kohiri shem, di daguli ashili bee zaligu ni zagsi binsheŋa zaa Software ŋo ni.  A’MI KA SAƔ’TI KADAMA NI SOFTWARE MAA NITOOI MALI CODE SHEŋA DIN YEN CHE KA DIN BI TI SHEBI SOLI BITOOI ZAŋ SOFTWARE MAA TUM TUMA.</p><br><p>AYI SAƔ’TI DIN BEE NYAANGA ŋO MAA ZAAHA, dim suglo nyin piimi – <strong>N’SAGYA</strong> –ayi dihi \"N’sagya\" di wuhirimi ni a saɣ’ti zalisi maa zaa.</p><p>AYI BI SAƔ’TI ZALISI MAA SHELI, bee ayi ka soli ni saɣ’ti, nyin piimi – <strong>M’bi Sagi</strong> – di saha, akutooi lahi nya Software maa puuni binshegu yeha.  Ayi mali soli, an’tooi sagi saha sheli yeha an’bora.</p>",
        "FIRST_NAME": "Amaŋ maŋ Yuli",
        "FORGOT_PASSWORD": "A tam la Akoko bachi bihi?",
        "FORM": "Gbaŋ",
        "FORM_GATEWAY": "Gbaŋ Kpebu Shee",
        "FORM_NAME": "Gbaŋ Yuli",
        "FULL_NAME": "A’yuli ni a’ba yuli:",
        "GO_TO_VISITS": "Bari Chandi",
        "HAND_DEVICE_SITE_TITLE": "Zaŋmi Device maa ti ŋun be lala Vihigu Vishee maa",
        "HAND_DEVICE_SITE_BODY": "Dim suglo, zaŋmi Device maa ti ŋun be lala Vihigu Vishee maa.",
        "HELP": "Soŋsim",
        "HOME": "Yiŋa",
        "IN_PROGRESS": "Di be tumbu ni",
        "INITIALS": "Yuli piligu bachinima",
        "INVALID_URL": "Dim suglo kpehimi URL sheli din tumdi tuma.",
        "INVALID_PERMISSION": "A’ka di soli.",
        "INVALID_PASSWORD": "Password ŋo kani.",
        "LANGUAGE": "Bal’li:",
        "LAST_LOGIN": "A’kpebuna bahigu",
        "LAST_NAME": "A’ba yuli",
        "LAST_REFRESH_TIME": "Saha Sheli an’labi yihi Bachinim maa na",
        "LOCATION": "Biehigu shee",
        "LOGIN": "Kpebu shee",
        "LOGIN_SCREEN": "Kpebu shee",
        "LOGOUT": "Yim kpe",
        "MANAGE_USERS": "Malimi Vihigu Zishehi nim niŋ",
        "MARK_AS_COMPLETED": "Dalimmi li kama di naaya",
        "SITE_SIGNATURE": "ŋun dihi nuu: ",
        "SITE_REPORT_AFF": "N’kpeya, n’ti labi lihi, di zugu n’ti lala yetoga maa yarda.<br /><br /><strong>ŋun dihi nuu:</strong> {{{ getActiveUserName }}}",
        "PATIENT_REPORT_AFF": "N’kpeya, n’ti labi lihi, di zugu n’ti lala yetoga maa yarda.<br /><br /><strong>ŋun yuli piligu bachinima:</strong> {{{ getActiveUserName }}}",
        "CLEAR_SIGNATURE": "Nuu dihibu din yi polo",
        "MENU": "Dimaɳmaɳ",
        "MODE": "Hali",
        "NAME": "Yuli",
        "NEW_USER": "Pahimi ninvug pal’li so yetoga",
        "FIRST_SITE_USER": "Pahimi vihigu zishee ninvug tuuli",
        "NEW_USER_CREATED": "Vihigu zishee niri maa yuli kpehiya.",
        "NEW_PATIENT_QUESTION_1_MAIN_TITLE": "<div class='question-title-large'>Kpehimi bari maa baŋbu yeltoga</div><div>ID sheŋa vihigu zishee ŋo ni deera:<br /><strong> {{{ patientIDRange }}}</strong></div><div><strong>Vihigu Zishee: {{{ getSiteCode }}}</strong></div><div><strong>Tuma lana: {{{ getUserName }}}</strong</div><br /><br />",
        "NEW_PATIENT_HELP_TEXT_1": "",
        "NEW_PATIENT_HELP_TEXT_2": "",
        "NEW_PATIENT_HELP_TEXT_3": "",
        "NEW_PATIENT_QUESTION_1_TITLE": "Bar’ Maa ID",
        "NEW_PATIENT_QUESTION_1": "Bar’ Maa ID:",
        "NEW_PATIENT_QUESTION_1_EMPTY": "Dim suglo kpehimi bari maa ID.",
        "NEW_PATIENT_QUESTION_1_EMPTY_HEADER": "Bar’ Maa ID",
        "NEW_PATIENT_QUESTION_1_RANGE": "Bar’ Maa ID sheli an’kpehi maa bipahi tin’ sagi ID sheŋa ni: {{{ patientIDRange }}}.  Dim suglo kpehimi tin sagi ti ID sheli.",
        "NEW_PATIENT_QUESTION_1_RANGE_HEADER": "Bar’ Maa ID sheli an’kpehi ŋo nuu kani",
        "NEW_PATIENT_QUESTION_1_UNIQUE": "Bari maa yuli pun benimi.  Dim suglo, kphenimi Bar’ Maa ID sheli dabam.",
        "NEW_PATIENT_QUESTION_1_UNIQUE_HEADER": "Bar’ Maa ID sheli an’kpehi maa pun benimi",
        "NEW_PATIENT_QUESTION_2": "Bari yuli piligu bachinima:",
        "NEW_PATIENT_QUESTION_2_EMPTY": "Dim suglo kpehimi bari maa yuya piligu bachinima, cheka di galisi gari bachi 2.",
        "NEW_PATIENT_QUESTION_2_EMPTY_HEADER": "Bari yuli piligu bachinima",
        "NEW_PATIENT_QUESTION_3_TITLE": "<div class='question-title-large'>Piimi Bal’li</div><div><strong>Vihigu Zishee: {{{ getSiteCode }}}</strong></div><div><strong>Tuma lana: {{{ getUserName }}}</strong</div><div><strong>Bar’ Maa ID: {{{ getPatientID }}}</strong></div><br /><br />",
        "NEW_PATIENT_QUESTION_3": "Piimi bari maa ni yeri bali sheli",
        "NEW_PATIENT_CANCEL_CONFIRM": "Di chali bari pahibu?",
        "NEW_PATIENT_CANCEL_BODY": "Ayi che pahibu maa, lala bari maa yuli biyen pahi.  A shiri saɣ’ti ni di chala?",
        "NEW_PATIENT_AFFIDAVIT_HEADER": "<div><strong>Vihigu Zishee: {{{ getSiteCode }}}</strong><br /><strong>Tuma lana: {{{ getUserName }}}</strong><br /><strong>Bar’ Maa ID: {{{ getPatientID }}}</strong></div>",
        "NEXT": "Din paya",
        "NO_RESULTS_FOUND": "Ti bi nya binshegu.",
        "NOT_AVAILABLE": "Di kani",
        "OK": "Too",
        "ORDER": "Pebu",
        "PASSWORD": "Ako bachi bihi:",
        "PATIENT": "Bara",
        "PATIENT_ID": "Bar’ Maa ID:",
        "PATIENT_INITIALS": "Bari yuli piligu bachinima:",
        "PATIENT_DELETED": "Bar’ so tin bi mi",
        "PATIENT_DELETED_MSG": "Ti bitooi nya bar’ maa.",
        "PATIENT_DELETED_SUBJECT_MSG": "Ti bitooi nya bar’ maa. Dim suglo, labsim device ti ŋun su di fukumsi vihigu zishee maa.",
        "PENDING_TRANSMISSIONS": "Di guli la di pohim zugu chandi",
        "PLEASE_WAIT": "Dim suglo guhima",
        "PLEASE_CONFIRM": "Dim suglo saɣ’ti",
        "PLEASE_CONTACT": "Dim suglo bolimi ERT soŋsim zishee.",
        "PLEASE_TRY_OR_CONTACT_SUPPORT": "Dim suglo, lab’niŋli bee ka a’boli ERT Soŋsim Zishee.",
        "QR_CODE_UNAVAILABLE": "Dihimi bar’ zugu ka lab’ nya o QR.",
        "QR_MODAL_TITLE": "QR Bachi: ",
        "REASON": "Daliri:",
        "REPORTS_AND_FORMS": "Yela ni chani shem mini Gbana.",
        "REPORTS_COMPLETED_MESSAGE": "A naagi a’gbana kpehibu zaaha. Dim suglo, labsim device ti ŋun su di fukumsi vihigu zishee maa.",
        "REQUIRED_ANSWER": "Dim suglo kpehimi din bori yel’ sheŋa maa zaa.",
        "RESET_PIN": "Labi ti bara PIN",
        "RESET_USER_PASSWORD": "Lab’ ti di lana Password",
        "ROLES": "Di tuma:",
        "SAVE": "Gbub’ soŋ",
        "SEARCH": "Lihi bo",
        "SECURITY_QUESTION_0": "Nyu tumdi tir ama yuli?",
        "SECURITY_QUESTION_1": "Tinkani ka bi doga?",
        "SECURITY_QUESTION_2": "Yuli bo ka a daa ti binkobi tuuli so an’piigi?",
        "SECURITY_QUESTION_3": "An’yuri diema sheli n’nye dini?",
        "SECURITY_QUESTION_4": "Yuun dini ka a naagi shikuru?",
        "SECURITY_QUESTION_5": "A’bikpem sunsuuni yuli n’nye dini?",
        "SECURITY_QUESTION_6": "A bilim ni zosuŋ yuli nyela dini?",
        "SECURITY_QUESTION_7": "An’daa bee shikuru dur’ata, a karim ba yuli bahigu daa nyela wula?",
        "SECURITY_QUESTION_8": "Tinkani ka a piligi tuma tumbu?",
        "SECRET_ANSWER": "Bohi sheli din yen guwa:",
        "SECRET_QUESTION": "Lala bohigu maa labsibu:",
        "SECRET_QUESTION_HELP_TEXT": "Piimi Bohi sheli din yen guwa gbinni ŋo. An’labsi bohigu shem maa yen soŋa a’mi ka a tooi kpe bin ŋo ni, di yi niŋ ka a’tam a Password.",
        "SECRET_QUESTION_ANSWER": "Bohi Sheli Din Yen Guwa mini di Labsibu",
        "SELECT_LANGUAGE": "Dim suglo piimi an’bori bali sheli vihigu zishee maa.",
        "SET_TIMEZONE_MESSAGE": "Piimi A Saha ni Doli Yag’sheli:",
        "SELECT_SITE_NUMBER": "Dim suglo piimi vihigu zishee maa kalinli bachi",
        "SERVICE_URL": "Diyen naɳ ti URL",
        "SETTINGS": "Maligu",
        "SETUP_COMPLETE": "Kpehibu naaya",
        "SETUP_COMPLETE_DESC": "Tabibi maa biyahiri kpehibu naaya, di pan tooi zaŋli talim.  Dim suglo dihimi TOO, ka kpihi device naa screen sheli din paya zugu.",
        "SETUP_SITE_USER": "Kpehimi vihigu zishee tum tumda",
        "SETUP_SITE_USER_LEGEND": "Dim suglo, kpehimi vihigu zishe sheli din tum tumdi yen tumdi tabibi ŋo zugu.",
        "SITE": "Vihigu Zishee",
        "SITE_ASSESSMENTS": "Vihigu zishee yela ni be shem",
        "SIGNATURE_DATA_LIMIT_EXCEEDED": "Nuu dihibu shee maa bitooi gbaagi a’nuu maa kaman an’dihili shem maa. Dim suglo, chali ka sabi a’yuli piligu bachinima.",
        "SITE_NUMBER": "Vihigu zishee kalinli bachi",
        "SITE_ROLE": "Vihigu zishee tum tumda",
        "SITE_SELECTION": "Vihigu zishee piibu",
        "SKIP_FORM": "Yagmi gbaŋ ŋo",
        "SKIP_QUESTION": "A shiri bori ni a’yagi bohi sheŋa din be screen ŋo zugu?",
        "SKIP_TO_VISIT": "Yag’ chaŋ Chandi",
        "SKIP_VISIT": "Yag’mi Chandi",
        "SKIP_VISITS": "Yagmi chandinim ŋo",
        "SKIP_VISITS_QUESTION_1": "<div class='question-title-large'><strong>Daliri</strong></div><br /><br /><div>Piimi daliri sheli ŋin che ka a yag’ chandinim maa:</div>",
        "SKIP_VISITS_CANCEL_CONFIRM": "Di chali chandinim maa yag’bu?",
        "SKIP_VISITS_CANCEL_BODY": "Ayi chali pumpoŋo, di biyen yag’ chandinim maa. A shiri saɣ’ti ni di chala?",
        "SKIPPED": "Di yagiya",
        "SKIPPED_VISITS": "{{{ skippedVisits }}}",
        "START_FORM": "Pilimi gbaŋ maa",
        "START_VISIT": "Pilimi Chandi",
        "STATUS": "Di zaa shee",
        "STATUS_DATE": "Din za sheli dabsili",
        "STUDY": "Vihigu",
        "STUDYWORKS_LOGIN": "Zahambu tuma Kpebu",
        "SUBJECT_ID": "Bar’ Maa ID",
        "SUBJECT_ROLE": "Bara",
        "SUBMIT": "Che ka di Chaŋ",
        "SUPPORT_TOOLS": "Soŋsim nema",
        "SYNC": "Zaŋ kpehi",
        "SYNC_USERS": "Zaŋ tum tumdiba kpehi",
        "SYNC_TO_DEVICE": "Zaŋ Vihigu Kephi tabibi maa ni",
        "TEMPORARY_PASSWORD_MESSAGE": "Dim suglo, zaŋmi yiŋ password maa ti ninvug so ŋun yen tum tuma di zugu tuuli maa. Biyen piila password pal’li bi yi kpe di puuni naagi.",
        "TEMP_PASSWORD": "Yiŋ Ako bachi bihi: ",
        "UNABLE_TO_GET_SITE_LIST": "Ti bi tooi gbaagi ban be lala Vihigu zishee maa",
        "UNLOCK_CODE": "Yoobu Bachi",
        "UNLOCK_CODE_HELP": "Antooi nya a ERT Tabibi boƔm maa yoobu bachi Karam Tuma puuni, ka di be ‘ERT Yoobu bachi’ TalaɳLabal puuni. Dim suglo bolimi ERT soŋsim zishee maa ka bi soŋa.",
        "USER": "Tum tumda",
        "USER_ALREADY_EXISTS": "Di lana maa pun beni mi",
        "USER_EDITED": "Di lana maa yela maliya niŋ.",
        "USER_TO_ACTIVATE": "<strong>Din yen yoogi ti so:</strong> <br />{{{ getSelectedUsername }}}<br /><br /><strong>ŋun dihi nuu:</strong> {{{ getActiveUserName }}}",
        "SUBJECT_ALREADY_EXISTS": "Bar’ ŋun mali lala ID {{{ getPatientIDForDuplicate }}} maa pun benimi",
        "TIME_CONFIRMATION_INSTRUCTIONS": "Tabibi maa borimi ni di gbaagi a ya wakati chibi. Dim suglo kpehimi dabsili sheli mini wakati sheli a nini ni tigi.",
        "TIME_ZONE_ERROR_HEADER": "Barna be yagili wakati sheli an’pii maa",
        "TIME_ZONE_ERROR_MSG": "Mugsigu yimina yaga wakatinim maa bobu shee. Dim suglo bolimi ERT soŋsim zishee maa ka bi soŋa.",
        "TIME_ZONE_SET_ERROR_MSG": "Mugsigu yimina yagli ŋo wakati kpehibu shee. Dim suglo bolimi ERT soŋsim zishee maa ka bi soŋa.",
        "TIME_ZONE_SET_CONFIRM": "A shiri sagya ni abori ni amali a yagli ŋo wakati ti: <bdo dir='ltr'>{{{selectedTimeZone}}}</bdo>? <br/> Dintooi niŋ ka taibi kpi ka nyo poi ka an’pkehi sheli maa naan yi kana.",
        "TIME_ZONE_SET_CONFIRM_NOCHANGE": "A shiri sagya ni abori ni amali a yagli ŋo wakati ti: <bdo dir='ltr'>{{{selectedTimeZone}}}</bdo>?",
        "TIME_ZONE_SET_HEADER": "Yagli Wakati Kpehibu Saɣ’ti",
        "TRAINER": "Wuhibu Sham",
        "TRAINER_EXIT": "Yim Wuhibu Sham",
        "TRAINER_EXIT_NOTIFICATION": "A yiri la Wuhibu Sham maa",
        "TRAINER_HEADER": "(ŋun Wuhira)",
        "USER_ROLE": "Di lana fukumsi",
        "USERNAME": "Yupiili",
        "USER_NAME": "Yupiili:",
        "VISIT": "Chandi",
        "VISIT_COMPLETED_MESSAGE": "Gbaŋ lahi kani kandi ŋo na puuni.  Chandi ŋo naaya.",
        "VISIT_INACTIVE_HEADER": "Chandi din na doya.",
        "VISIT_INACTIVE_MESSAGE": "Chandi ŋo lahi kani.",
        "VISIT_INACTIVE_MESSAGE_SUBJECT": "Chandi ŋo lahi kani. Dim suglo, labsim device ti ŋun su di fukumsi vihigu zishee maa.",
        "VISIT_EXPIRED_HEADER": "Chandi sheli din gari.",
        "VISIT_EXPIRED_MESSAGE": "Chandi ŋo lahi kani dama di gariya.",
        "VISIT_EXPIRED_MESSAGE_SUBJECT": "Chandi ŋo lahi kani dama di gariya. Dim suglo, labsim device ti ŋun su di fukumsi vihigu zishee maa.",
        "VISITS": "Chandinima",
        "VISITS_SKIPPED": "Chandi sheŋa din yagi:",
        "VISIT_NAME": "Chandi yuli",
        "WELCOME": "Amaraaba",
        "AF-ZA": "Afrikaans",
        "SQ-AL": "Albanian",
        "AR-EG": "Arabic",
		"AS-IN": "Assamese",
        "BE-BY": "Belarusian",
        "BG-BG": "Bulgarian",
        "BN-IN": "Bengali",
        "BS-BA": "Bosnian",
        "CA-ES": "Catalan",
		"CE-PH": "Cebuano",
        "CS-CZ": "Czech",
        "CY-GB": "Welsh",
		"DA-DK": "Danish",
        "DE-DE": "German (Germany)",
        "DE-AT": "German (Austria)",
		"DH-KE": "Dholuo",
        "EL-GR": "Greek",
        "EN-GB": "English (UK)",
        "EN-US": "English (US)",
        "ES-ES": "Spanish (Spain)",
        "ES-US": "Spanish (US)",
        "ES-PY": "Spanish (Universal)",
        "ET-EE": "Estonian",
        "FI-FI": "Finnish",
        "FR-CA": "French (Canada)",
        "FR-FR": "French (France)",
        "GD-IE": "Gaelic",
        "GU-IN": "Gujarati",
        "HE-IL": "Hebrew",
        "HI-IN": "Hindi",
        "HR-HR": "Croatian",
        "HU-HU": "Hungarian",
        "IT-IT": "Italian",
        "JA-JP": "Japanese",
        "KA-GE": "Georgian",
        "KN-IN": "Kannada",
        "KO-KR": "Korean",
		"LG-UG": "Luganda",
        "LV-LV": "Latvian",
        "LT-LT": "Lithuanian",
		"MK-MK": "Macedonian",
        "ML-IN": "Malayalam",
        "MR-IN": "Marathi",
        "MS-MY": "Malay",
        "NB-NO": "Norwegian",
        "NL-BE": "Dutch (Belgium)",
        "NL-NL": "Dutch (Netherlands)",
        "PA-IN": "Punjabi",
        "PL-PL": "Polish",
        "PT-BR": "Portuguese (Brazil)",
        "PT-PT": "Portuguese (Portugal)",
        "RO-RO": "Romanian",
        "RU-RU": "Russian",
        "SL-SL": "Slovenian",
        "SK-SK": "Slovak",
        "SR-RS": "Serbian (Latin)",
        "SR-SP": "Serbian (Cyrillic)",
        "ST-ZA": "Sotho",
        "SV-SE": "Swedish",
		"SW-KE": "Swahili",
        "TA-IN": "Tamil",
        "TE-IN": "Telugu",
        "TH-TH": "Thai",
        "TL-PH": "Tagalog",
        "TN-ZA": "Tswana",
        "TR-TR": "Turkish",
		"TW-GH": "Twi",
        "UK-UA": "Ukrainian",
        "UR-IN": "Urdu",
        "VI-VN": "Vietnamese",
        "XH-ZA": "Xhosa",
        "ZH-CN": "Chinese (China)",
        "ZH-TW": "Chinese (Taiwan)",
        "ZU-ZU": "Zulu",
        "HAND_DEVICE_SUBJECT_BODY": "Gbaŋ sheli din paya ŋo din tu ni di kpehi naagi zaŋ chaŋ {{{ patientOrRole }}}. Dim suglo yihimi a yuli ka zaŋ device maa ti {{{ patientOrRole }}}.",
        "HAND_DEVICE_SUBJECT_TITLE": "Gbaŋ maa kpehibu pilibu {{{ formTitle }}}.",
        "SKIP_VISIT_TITLE": "Yagmi chandi(nim) ŋo?",
        "SKIP_VISIT_TEXT": "Ayi bi che, di yen yagla chandi sheŋa din be gbinni ŋo :<br/> {{{ skippedVisits }}} Di shiri yagmi chandinim ŋo?",
        "YES": "Iyii",
        "NO": "Ahyi",
        "TIME_LBL": "Wakati:",
        "SET_TIME": "Din zali saha sheli",
        "DATE_LBL": "Dabsili:",
        "CREATE_PERMANENT_PASSWORD_TITLE": "Malimi Ako bachi sheli an’kulahi tagi",
        "USER_ID": "Di lana ID:",
        "PHASE": "Din Paagi Sheli",
        "LAST_VISIT": "Chandi sheli din gari ŋo",
        "CONNECTION_REQUIRED": "Shee amali internet.",
        "RETRY": "Lab’ niŋ",
        "UPDATE_FAILURE": "Mali kpehi maa bi naagi",
        "UPDATE_SUCCESS": "Mali kpehi maa naaya",
        "CANCEL_PERMANENT_PASSWORD_TITLE": "Di chali password sheli an’kulahi tagi maa malibu?",
        "CANCEL_PERMANENT_PASSWORD_TEXT": "Ayi cheli punpoŋo, an’tagi password sheli maa biyen niŋ. Di zimi ni amali password sheli an’kulahi tagi poi ka a’ naan yi tooi tum ERT zugu. A shiri saɣ’ti ni di chala?",
        "ACCOUNT_CONFIGURED_TITLE": "Yuli kpehibu naaya",
        "ACCOUNT_CONFIGURED_TEXT": "A naala a yuli kpehibu maa, antooi pili eCOA maa zugu tumbu.",
        "LOGGED_IN_AS": "A kpemina ni yuli ŋo",
        "EDIT_PATIENT_AFFIDAVIT_HEADER": "<p class='question-title-large'>Nuu dihibu</p><br />",
        "EDIT_PATIENT_AFF": "N’nuu dihibu gbinni ŋo wuhiri ni kadama m’mali soli ni mali bari ŋo yela ni.<br /><br />Bari ID: {{{ getPatientIdNumber }}} ({{{getPatientInitials}}})<br /><br /><strong>ŋun dihi nuu:</strong> {{{ getActiveUserName }}}",
        "PASSWORD_MISMATCH": "An’labi ŋme sheli maa bi magsi an’pun ŋme sheli maa",
        "FIRST_USER_AFFIDAVIT": "N’nuu dihibu gbinni ŋo wuhiri ni kadama mani n nye vihigu kpema bee m’mali soli ni kpehi yuya bin ŋo ni.<br /><br /><strong>ŋun dihi nuu:</strong> {{{ getFirstUsername }}}",
        "INCOMPLETE": "Di bi naagi",
        "INVALID_ENTRY": "Kpehiri sheli tin bi saɣ’ti",
        "PLEASE_ANSWER_SQ": "Dim suglo labsim a gubu bohigu:",
        "FORGOT_SECRET_ANSWER": "A tamla a gubu bohigu maa?",
        "CONTACT_STUDY_COORDINATOR": "Bolimi vihigu soŋda",
        "ENTER_NEW_PASSWORD": "Password Pal’li:",
        "CONTACT_UNLOCK_CODE": "Dim suglo, bolimi a vihigu soŋda maa n’deegi Yoobu Code din nye zuŋo konko dini:",
        "CURRENT_DATE": "{{{ currentDate }}}",
        "TEMPORARY_UNLOCK_CODE": "Kpehimi Yoobu code sheli Vihigu Soŋda maa ni taa maa.",
        "RESET_SECRET_QUESTION": "Lab’kpehi a’Gubu Bohigu",
        "SECRET_QUESTION_CHANGE_SUCCESS": "A lab’kpehi a password mini a’gubu bohigu maa naagi.",
        "RESET_PASSWORD": "Lab’kpehi Password",
        "ANSWER_ATTEMPT_EXCEEDED": "A kpehi la labsigu sheli din kani bushem zugu bee a’ dihila gubu bohigu tambu link la zugu.",
        "PASSWORD_ATTEMPT_EXCEEDED": "A kpehi la password sheli din kani bushem bee a’ dihila gubu bohigu tambu link la zugu.",
        "PASSWORD_CHANGE_SUCCESS": "A lab’kpehi a password naagi.",
        "CHANGE_PASSWORD": "Tagmi Password",
        "CHANGE_SECRET_QUESTION": "Tagmi Gubu Bohigu",
        "SYNC_COMPLETE": "Zaŋ lagm naaya",
        "INCORRECT_ANSWER": "Labsigu maa kani",
        "INCORRECT_UNLOCK_CODE": "Yoobu Bachi maa Kani",
        "PASSWORD_INVALID": "Ako bachi din kani",
        "SUBJECT": "Bara",
        "PATIENT_ADDED": "Bar’ maa Pahiya",
        "SITE_ADMINISTRATOR": "Vihigu Zishee Kpema",
        "LOW_BATTERY": "Tibili: Batiri koaa maa bugim chaŋ tiŋa. Dim suglo, zaŋmi device tu ka di nyu bugum.",
        "CRITICAL_BATTERY": "Tibili: Batiri koaa maa bugim chaŋ tiŋa yagi. Dim suglo, zaŋmi device tu ka di nyu bugum ka diyi palala din kpi.",
        "TIME_CONFIRMATION_HEADER": "Saɣ’ti Dabsili/Wakati",
        "IMAGE_FOLDER": "{{{ imageFolder }}}",
        "TIMESLIP_ERROR": "Wakati sheli din be a device maa zugu maa pa venyela. Dim suglo, mali zani lugsheli polo internet pohim ni beni kalahi niŋ nya. Diyi bi tagira nyin bolimi ERT Zama Yuuniba.",
        "SUPPORT": "Zama Soŋdiba",
        "SUPPORT_MESSAGE": "Niriba ban be United States nitooi nya ERT Soŋsim Zishee maa nuchee baŋ ŋo zugu 800-748-5669. Tiŋ sheŋa niriba, dimya suglo piimiya tingbani sheli din miriya gbinni ŋo:",
        "SUPPORT_DROPDOWN": "Piimi a tingbani",
        "SUPPORT_NAME_ARGENTINA": "Argentina",
        "SUPPORT_NUMBER_ARGENTINA": "<bdo dir='ltr'>0800 444 0962</bdo>",
        "SUPPORT_NAME_ARMENIA": "Armenia",
        "SUPPORT_NUMBER_ARMENIA": "<bdo dir='ltr'>+1 617 681 6306</bdo>",
        "SUPPORT_NAME_AUSTRALIA": "Australia",
        "SUPPORT_NUMBER_AUSTRALIA": "<bdo dir='ltr'>1 800 800 051</bdo>",
        "SUPPORT_NAME_AUSTRIA": "Austria",
        "SUPPORT_NUMBER_AUSTRIA": "<bdo dir='ltr'>0800 100 405</bdo>",
        "SUPPORT_NAME_BELARUS": "Belarus",
        "SUPPORT_NUMBER_BELARUS": "<bdo dir='ltr'>8 820 0321 0036</bdo>",
        "SUPPORT_NAME_BELGIUM": "Belgium",
        "SUPPORT_NUMBER_BELGIUM_1": "(English) : <bdo dir='ltr'>0800 58 016</bdo>",
        "SUPPORT_NUMBER_BELGIUM_2": "(French) : <bdo dir='ltr'>0800 71 076</bdo>",
        "SUPPORT_NUMBER_BELGIUM_3": "(German) : <bdo dir='ltr'>0800 71 113</bdo>",
        "SUPPORT_NAME_BRAZIL": "Brazil",
        "SUPPORT_NUMBER_BRAZIL": "<bdo dir='ltr'>0800 891 5909</bdo>",
        "SUPPORT_NAME_BOSNIA": "Bosnia",
        "SUPPORT_NUMBER_BOSNIA": "<bdo dir='ltr'>+1 617 681 6306</bdo>",
        "SUPPORT_NAME_BULGARIA": "Bulgaria",
        "SUPPORT_NUMBER_BULGARIA": "<bdo dir='ltr'>00800 0010</bdo>, mini <bdo dir='ltr'>866 245 4931</bdo>",
        "SUPPORT_NAME_CANADA": "Canada",
        "SUPPORT_NUMBER_CANADA": "<bdo dir='ltr'>1 800 748 5669</bdo>",
        "SUPPORT_NAME_CHILE": "Chile",
        "SUPPORT_NUMBER_CHILE": "<bdo dir='ltr'>123 0020 3408</bdo>",
        "SUPPORT_NAME_CHINA": "China",
        "SUPPORT_NUMBER_CHINA_1": "NetCom (North) : <bdo dir='ltr'>1 0800 74 40 164</bdo>",
        "SUPPORT_NUMBER_CHINA_2": "Telecom (South) : <bdo dir='ltr'>1 0800 44 00 158</bdo>",
        "SUPPORT_NAME_COLOMBIA": "Colombia",
        "SUPPORT_NUMBER_COLOMBIA": "<bdo dir='ltr'>01 800 911 0010</bdo>, mini <bdo dir='ltr'>866 310 3707</bdo>",
        "SUPPORT_NAME_COSTA_RICA": "Costa Rica",
        "SUPPORT_NUMBER_COSTA_RICA": "<bdo dir='ltr'>0800 013 1210</bdo>",
        "SUPPORT_NAME_CROATIA": "Croatia",
        "SUPPORT_NUMBER_CROATIA": "<bdo dir='ltr'>0800 222 953</bdo>",
        "SUPPORT_NAME_CZECH_REPUBLIC": "Czech Republic",
        "SUPPORT_NUMBER_CZECH_REPUBLIC": "<bdo dir='ltr'>800 142 150</bdo>",
        "SUPPORT_NAME_DENMARK": "Denmark",
        "SUPPORT_NUMBER_DENMARK": "<bdo dir='ltr'>80 60 00 09</bdo>",
        "SUPPORT_NAME_EGYPT": "Egypt",
        "SUPPORT_NUMBER_EGYPT": "<bdo dir='ltr'>02 510 0200</bdo>, mini <bdo dir='ltr'>866 310 3707</bdo>",
        "SUPPORT_NAME_EL_SALVADOR": "El Salvador",
        "SUPPORT_NUMBER_EL_SALVADOR": "<bdo dir='ltr'>+1 617 681 6306</bdo>",
        "SUPPORT_NAME_ESTONIA": "Estonia",
        "SUPPORT_NUMBER_ESTONIA": "<bdo dir='ltr'>800 00 44 154</bdo>",
        "SUPPORT_NAME_FINLAND": "Finland",
        "SUPPORT_NUMBER_FINLAND": "<bdo dir='ltr'>0800 11 6366</bdo>",
        "SUPPORT_NAME_FRANCE": "France",
        "SUPPORT_NUMBER_FRANCE": "<bdo dir='ltr'>0800 10 19 79</bdo>",
        "SUPPORT_NAME_GERMANY": "Germany",
        "SUPPORT_NUMBER_GERMANY": "<bdo dir='ltr'>0800 101 28 21</bdo>",
        "SUPPORT_NAME_GREECE": "Greece",
        "SUPPORT_NUMBER_GREECE": "<bdo dir='ltr'>00 800 1311</bdo>, mini <bdo dir='ltr'>866 310 3707</bdo>",
        "SUPPORT_NAME_GUATEMALA": "Guatemala",
        "SUPPORT_NUMBER_GUATEMALA": "<bdo dir='ltr'>1 800 624 0079</bdo>",
        "SUPPORT_NAME_HONG_KONG": "Hong Kong",
        "SUPPORT_NUMBER_HONG_KONG": "<bdo dir='ltr'>3002 1665</bdo>",
        "SUPPORT_NAME_HUNGARY": "Hungary",
        "SUPPORT_NUMBER_HUNGARY": "<bdo dir='ltr'>06 800 14 571</bdo>",
        "SUPPORT_NAME_ICELAND": "Iceland",
        "SUPPORT_NUMBER_ICELAND": "<bdo dir='ltr'>800 8544</bdo>",
        "SUPPORT_NAME_INDIA": "India",
        "SUPPORT_NUMBER_INDIA": "<bdo dir='ltr'>000 800 440 1125</bdo>",
        "SUPPORT_NAME_INDONESIA": "Indonesia",
        "SUPPORT_NUMBER_INDONESIA": "<bdo dir='ltr'>008 800 330 334</bdo>",
        "SUPPORT_NAME_IRELAND": "Ireland",
        "SUPPORT_NUMBER_IRELAND": "<bdo dir='ltr'>1 800 946 700</bdo>",
        "SUPPORT_NAME_ISRAEL": "Israel",
        "SUPPORT_NUMBER_ISRAEL": "<bdo dir='ltr'>1 809 470 062</bdo>",
        "SUPPORT_NAME_ITALY": "Italy",
        "SUPPORT_NUMBER_ITALY": "<bdo dir='ltr'>800 90 56 37</bdo>",
        "SUPPORT_NAME_JAPAN": "Japan",
        "SUPPORT_NUMBER_JAPAN": "Dim suglo yulimi a ePRO Vihigu Gbaŋ maa ni nya a vihigu maa nuchee baŋ sheli an’nitooi boli yoli.",
        "SUPPORT_NAME_LATVIA": "Latvia",
        "SUPPORT_NUMBER_LATVIA": "<bdo dir='ltr'>8000 2151</bdo>",
        "SUPPORT_NAME_LEBANON": "Lebanon",
        "SUPPORT_NUMBER_LEBANON": "<bdo dir='ltr'>01-426-801</bdo> mini <bdo dir='ltr'>866 310 3707</bdo>",
        "SUPPORT_NAME_LITHUANIA": "Lithuania",
        "SUPPORT_NUMBER_LITHUANIA": "<bdo dir='ltr'>8800 30207</bdo>",
        "SUPPORT_NAME_MALAYSIA": "Malaysia",
        "SUPPORT_NUMBER_MALAYSIA": "<bdo dir='ltr'>1800 80 59 71</bdo>",
        "SUPPORT_NAME_MEXICO": "Mexico",
        "SUPPORT_NUMBER_MEXICO_1": "(English) : <bdo dir='ltr'>001 800 748 5669</bdo> ",
        "SUPPORT_NUMBER_MEXICO_2": "(Spanish) : <bdo dir='ltr'>001 855 631 6952</bdo>",
        "SUPPORT_NAME_MOLDOVA": "Moldova",
        "SUPPORT_NUMBER_MOLDOVA": "<bdo dir='ltr'>617 681 6306</bdo>",
        "SUPPORT_NAME_NETHERLANDS": "Netherlands",
        "SUPPORT_NUMBER_NETHERLANDS": "<bdo dir='ltr'>0800 023 1389</bdo>",
        "SUPPORT_NAME_NEW_ZEALAND": "New Zealand",
        "SUPPORT_NUMBER_NEW_ZEALAND": "<bdo dir='ltr'>0800 110 178</bdo>",
        "SUPPORT_NAME_NORWAY": "Norway",
        "SUPPORT_NUMBER_NORWAY": "<bdo dir='ltr'>800 62 051</bdo>",
        "SUPPORT_NAME_PAKISTAN": "Pakistan",
        "SUPPORT_NUMBER_PAKISTAN": "<bdo dir='ltr'>00 800 0100</bdo>, mini <bdo dir='ltr'>866 237 9767</bdo>",
        "SUPPORT_NAME_PANAMA": "Panama",
        "SUPPORT_NUMBER_PANAMA": "<bdo dir='ltr'>001 800 201 3095</bdo>",
        "SUPPORT_NAME_PERU": "Peru",
        "SUPPORT_NUMBER_PERU": "<bdo dir='ltr'>0800 5 0974</bdo>",
        "SUPPORT_NAME_PHILIPPINES": "Philippines",
        "SUPPORT_NUMBER_PHILIPPINES": "<bdo dir='ltr'>1 800 1116 0651</bdo>",
        "SUPPORT_NAME_POLAND": "Poland",
        "SUPPORT_NUMBER_POLAND": "<bdo dir='ltr'>00800 331 1262</bdo>",
        "SUPPORT_NAME_PORTUGAL": "Portugal",
        "SUPPORT_NUMBER_PORTUGAL": "<bdo dir='ltr'>800 206 172</bdo>",
        "SUPPORT_NAME_PUERTO_RICO": "Puerto Rico (US Tingbani)",
        "SUPPORT_NUMBER_PUERTO_RICO": "<bdo dir='ltr'>1 800 748 5669</bdo>",
        "SUPPORT_NAME_ROMANIA": "Romania",
        "SUPPORT_NUMBER_ROMANIA": "<bdo dir='ltr'>0800 894492</bdo>",
        "SUPPORT_NAME_RUSSIA": "Russia",
        "SUPPORT_NUMBER_RUSSIA_1": "(Nuchee baŋ kpani – Ni bolibu nyela yoli) : <bdo dir='ltr'>8 10 800 249 13011</bdo>",
        "SUPPORT_NUMBER_RUSSIA_2": "(Moscow tiŋ puuni) : <bdo dir='ltr'>363-2400</bdo> <br> mini <bdo dir='ltr'>866 310 3707</bdo>",
        "SUPPORT_NUMBER_RUSSIA_3": "(Lugsheli kam din ka Moscow) : <bdo dir='ltr'>8^(495) 363-2400</bdo> <br> mini <bdo dir='ltr'>866 310 3707</bdo>",
        "SUPPORT_NUMBER_RUSSIA_4": "(St. Petersburg tiŋ puuni) : <bdo dir='ltr'>363-2400</bdo> <br> mini <bdo dir='ltr'>866 310 3707</bdo>",
        "SUPPORT_NUMBER_RUSSIA_5": "(Lugsheli kam din ka St. Petersburg) : <bdo dir='ltr'>8^(495) 363-2400</bdo> <br> mini <bdo dir='ltr'>866 310 3707</bdo>",
        "SUPPORT_NAME_SAUDI_ARABIA": "Saudi Arabia",
        "SUPPORT_NUMBER_SAUDI_ARABIA": "<bdo dir='ltr'>+1 617 681 6306</bdo>",
        "SUPPORT_NAME_SERBIA": "Serbia",
        "SUPPORT_NUMBER_SERBIA": "<bdo dir='ltr'>+1 617 973 1739</bdo>",
        "SUPPORT_NAME_SINGAPORE": "Singapore",
        "SUPPORT_NUMBER_SINGAPORE": "<bdo dir='ltr'>800 616 30 03</bdo>",
        "SUPPORT_NAME_SLOVAKIA": "Slovakia",
        "SUPPORT_NUMBER_SLOVAKIA": "<bdo dir='ltr'>0800 0044 65</bdo>",
        "SUPPORT_NAME_SLOVENIA": "Slovenia",
        "SUPPORT_NUMBER_SLOVENIA": "<bdo dir='ltr'>+1 617 681 6306</bdo>",
        "SUPPORT_NAME_SOUTH_AFRICA": "South Africa",
        "SUPPORT_NUMBER_SOUTH_AFRICA": "<bdo dir='ltr'>0800 99 5853</bdo>",
        "SUPPORT_NAME_SOUTH_KOREA": "South Korea",
        "SUPPORT_NUMBER_SOUTH_KOREA": "<bdo dir='ltr'>00308 33 00 08</bdo>",
        "SUPPORT_NAME_SPAIN": "Spain",
        "SUPPORT_NUMBER_SPAIN": "<bdo dir='ltr'>900 90 2541</bdo>",
        "SUPPORT_NAME_SWEDEN": "Sweden",
        "SUPPORT_NUMBER_SWEDEN": "<bdo dir='ltr'>020 120 99 69</bdo>",
        "SUPPORT_NAME_SWITZERLAND": "Switzerland",
        "SUPPORT_NUMBER_SWITZERLAND_1": "(English) : <bdo dir='ltr'>0800 199 325</bdo>",
        "SUPPORT_NUMBER_SWITZERLAND_2": "(French) : <bdo dir='ltr'>0800 891 183</bdo>",
        "SUPPORT_NUMBER_SWITZERLAND_3": "(German) : <bdo dir='ltr'>0800 891 025</bdo>",
        "SUPPORT_NAME_TAIWAN": "Taiwan",
        "SUPPORT_NUMBER_TAIWAN": "<bdo dir='ltr'>00801 33 33 42</bdo>",
        "SUPPORT_NAME_THAILAND": "Thailand",
        "SUPPORT_NUMBER_THAILAND": "<bdo dir='ltr'>1 800 33 140 353</bdo>",
        "SUPPORT_NAME_TUNISIA": "Tunisia",
        "SUPPORT_NUMBER_TUNISIA": "<bdo dir='ltr'>+1 617 681 6306</bdo>",
        "SUPPORT_NAME_TURKEY": "Turkey",
        "SUPPORT_NUMBER_TURKEY": "<bdo dir='ltr'>00 800 151 1335</bdo>",
        "SUPPORT_NAME_UKRAINE": "Ukraine",
        "SUPPORT_NUMBER_UKRAINE": "<bdo dir='ltr'>0^00 11</bdo>, mini <bdo dir='ltr'>866 245 4931</bdo>",
        "SUPPORT_NAME_UAE": "United Arab Emirates",
        "SUPPORT_NUMBER_UAE": "<bdo dir='ltr'>8000-021</bdo>, mini <bdo dir='ltr'>866 310 3707</bdo>",
        "SUPPORT_NAME_UK": "United Kingdom",
        "SUPPORT_NUMBER_UK": "<bdo dir='ltr'>0800 015 0408</bdo>",
        "SUPPORT_NAME_US": "United States",
        "SUPPORT_NUMBER_US_1": "(Maŋ Maŋa) : <bdo dir='ltr'>1 800 748 5669</bdo>",
        "SUPPORT_NUMBER_US_2": "(Din za di nyaanga) : <bdo dir='ltr'>1 877 748 5669</bdo>",
        "SUPPORT_NAME_VENEZUELA": "Venezuela",
        "SUPPORT_NUMBER_VENEZUELA_1": "(English) : <bdo dir='ltr'>0 800 552 6288</bdo> <br> mini <bdo dir='ltr'>866 310 3707</bdo> ",
        "SUPPORT_NUMBER_VENEZUELA_2": "(Spanish) : <bdo dir='ltr'>0 800 100 3063</bdo> ",
        "STUDY_VERSION": "Vihigu Kalinli:",
        "STUDY_URL": "Vihigu URL:",
        "DEVICE_SERIAL_NUMBER": "Device Maa Kalinli Bachi",
        "PROTOCOL": "So sheŋa din dola:",
        "SPONSOR": "ŋun yo di zugu:",
        "STORED_REPORTS": "Gban sheŋa din kpehi soŋ:",
        "CORE_PRODUCT_VERSION_LABEL": "Mashini ŋo Kalinli:",
        "ABOUT": "Din Be Shem",
        "SET_TIMEZONE": "Kpehimi Wakati yeg sheli an’be",
        "NONEXISTENT_USER": "A moya ni a mali ŋun bi tumdi tuma yela niŋ.",
        "SCREENING": "Di vihiri piira",
        "TREATMENT": "Tibbu",
        "RANDOMIZATION": "Gandam gandam niŋ bu",
        "FOLLOWUP": "Lab’ti nya",
        "TERMINATION": "Chabu",
        "MODAL_OK_TEXT": "Too",
        "BROWSER_LOAD_ERROR": "Ti bi nya Sheli Yag’li ŋo Maa. Dim suglo lihimi a internet maa zugu ka lab’ niŋ.",
        "NO_USER_OF_ROLE": "Ti bi nya so ka o’mali lala fukumsi.",
        "START_VISIT_OUTSIDE_WINDOW_MSG": "Kpehimili {{{ getVisitName }}} lugsheli polo din pa configured time window maa puuni. {{{ startDate }}} - {{{ endDate }}}",
		"START_VISIT_HARD_STOP_MSG" : "A’bitooi Kpehili {{{ getVisitName }}} lugsheli polo din pa configured time window maa puuni. {{{ startDate }}} - {{{ endDate }}}",
		"USER_NAME_INVALID_CHARACTERS" : "Dim suglo di kpehi bachi gahinda di puuni",
		"ERROR_PATIENT_SAVE" : "Mugsigu sheli kana bar’ pal’li maa pahibu shee",
		"PASSWORD_CHANGE_FAILED" : "Tabibi sheli dabam deerila a vihigu yeltoga. Dim suglo tag ako bachi lala device maa zugu.",
		"ERROR" : "Barna.  Dim suglo bolimi ERT soŋsim zishee.",
		"ERROR_AFTER_ACTIVATION_SUCCESSFUL" : "Mugsigu sheli kana. Shhe a kpehila a Setup code mini a ako bachi.",
		"CONNECTION_TIMEOUT" : "Di guhi pohim zugu chandi je.",
		"UPDATE_FAILED" : "ERT mali kpehi maa bitooi naagi. Dim suglo lihi nya bee a device maa mali internet di zugu ka labi niŋ nya.",
        "TRANSMIT_FAILED_403_14": "Binsheŋa bitooi chaŋ pohim zugu ka di nyala bar’ pal’li zaŋ kpehi bi naagi zugu. Dim suglo guhim bela ka lab’ niŋ.",
        "USER_SELECT_ROLE_VALIDATION": "Fukumsi piibu nyala talahi.",
        "USER_SELECT_LANGUAGE_VALIDATION": "Bal’li piibu nyala talahi.",
        "TRY_AGAIN_ADD_USER": "Lab’ niŋ nya bee ka a che ka kpehi bar’ pal’li maa lala ka di pa pohim zugu.",
        "NO_INTERNET_CONNECTION": "Internet maa bi tumda",
        "TRANSMIT_FAILED_404": "A internet kalinsi zugu, a binyahiri zan lagim taba maa bi naagi. Dim suglo lihimi a internet maa zugu ka lab’ niŋ.",
        "SKIP_VISITS_REASON_0": "Kandina saha yagiya.",
        "SKIP_VISITS_REASON_1": "Vihigu zishee nim maa bi niŋ binyahiri venyela.",
        "SKIP_VISITS_REASON_2": "Di lana maa bitooi nya vihigu nim maa dahinsheli din tu.",
        "SKIP_VISITS_REASON_3": "Kandina ŋo nuu kani.",
        "SKIP_VISITS_REASON_4": "Lala chandi maa pa talahi.",
        "AD-UG": "Jopadhola",
        "DA-GH": "Dagbani",
        "EE-GH": "Ewe",
        "HT-HT": "Creole (Haiti)",
        "OR-IN": "Oriya",
        "TE-UG": "Itesot",
        "HI-PH": "Hiligaynon"
    },
    "dates": {
        "setDateButtonLabel": "Din zali dabsili sheli",
        "setTimeButtonLabel": "Too",
        "setDurationButtonLabel": "Di Yuubu",
        "calTodayButtonLabel": "Yigi kana zuŋo.",
        "titleDateDialogLabel": "Din zali dabsili sheli",
        "titleTimeDialogLabel": "Din zali saha sheli",
        "daysOfWeek": [
            "Alahiri",
            "Atani",
            "Atalaata",
            "Alaaba",
            "Alaamishi",
            "Al zumba",
            "Asibiri"
        ],
        "daysOfWeekShort": [
            "Al",
            "At",
            "Ata",
            "Ala",
            "Laa",
            "Zum",
            "Asi"
        ],
        "monthsOfYear": [
            "Bugum",
            "Damba bilaa",
            "Damba",
            "Gaanbanda",
            "Chimsi",
            "Kpini bilaa",
            "Kpini",
            "Nolori bilaa",
            "Nolori",
            "Konyuri chugu",
            "Chimsi bilaa",
            "Bandacheena"
        ],
        "monthsOfYearShort": [
            "Bugum",
            "Damba bilaa",
            "Damba",
            "Gaanbanda",
            "Chimsi",
            "Kpini bilaa",
            "Kpini",
            "Nolori bilaa",
            "Nolori",
            "Konyuri chugu",
            "Chimsi bilaa",
            "Chimsi"
        ],
        "durationLabel": [
            "Dabsa",
            "Wakati nima",
            "Minti nima",
            "Seconds"
        ],
        "durationDays": [
            "Dabsili",
            "Dabsa"
        ],
        "tooltip": "Yoomi Din Piiri Dabsili",
        "nextMonth": "Goli sheli din paya",
        "prevMonth": "Goli sheli din gari",
        "clearButton": "Nyahima",
        "meridiem": [
            "Asiba",
            "Zaawuni"
        ]
    }
}
