{
	"namespace": "STM",
	"language": "pt",
	"locale": "BR",
	"direction": "ltr",
	"resources": {
		"DISPLAY_NAME": "Módulo de treinamento do participante",
		"SubjectTrainingModule_STM010_Q1_TEXT": "Módulo de treinamento do participante",
		"SubjectTrainingModule_STM010_Q1_TITLE": "",
		"SubjectTrainingModule_STM010_1_Q1_W1":"Clique aqui para começar o Módulo de treinamento do participante"
	}
}
