{
    "namespace" : "P_Loop1",
    "language"  : "es",
    "locale"    : "ES",
    "direction" : "ltr",
    "resources" : {
        "DISPLAY_NAME"  : "ES-Medication - Loop",
        "QUESTION_1"    : "ES-Did you take your prescription medication today?",
        "QUESTION_2"    : "ES-Please add any other medication you took today.",
        "QUESTION_3"    : "ES-Which other medication did you take today?",
        "QUESTION_4"    : "ES-What time did you take the other medication?",
        "YES"           : "ES-Yes",
        "NO"            : "ES-No",
        "ADVIL"         : "ES-Advil",
        "ALEVE"         : "ES-Aleve",
        "ASPIRIN"       : "ES-Aspirin",
        "EXCEDRIN"      : "ES-Excedrin",
        "MOTRIN"        : "ES-Motrin",
        "OXYCONTIN"     : "ES-OxyContin",
        "TYLENOL"       : "ES-Tylenol",
        "VICODIN"       : "ES-Vicodin",
        "ADD_MEDS"      : "ES-Add Medication",
        "EDIT_MEDS"     : "ES-Edit Medication",
        "DELETE_MEDS"   : "ES-Delete Medication",
        "INSERT_MEDS"   : "ES-Insert New Medication before Selected Medication"
    }
}
