{
    "namespace": "CORE",
    "language": "gu",
    "locale": "IN",
    "localized": "ગુજરાતી (ભારત)",
    "direction": "ltr",
    "resources": {
        "ACTIVE": "સક્રિય",
        "ACTIVATE_USER": "ઉપયોગકર્તાને સક્રિય કરો",
        "ACTIVATE_USER_CANCEL_CONFIRM": "સક્રિયકરણ રદ કરીએ?",
        "ACTIVATE_USER_CANCEL_BODY": "જો તમે હમણા રદ કરશો, તો સાઇટ ઉપયોગકર્તાને સક્રિય કરવામાં આવશે નહીં. તમે સુનિશ્ચિત છો કે તમે રદ કરવા માંગો છો?",
        "ACTIVATE_USER_AFF": "નીચે હસ્તાક્ષર કરીને, હું તેનાથી દર્શાવું છું કે હું આ સાઇટ ઉપયોગકર્તાને સક્રિય કરવા માટે અધિકૃત છું.",
        "ACTIVATE_USER_CONFIRM_INFORMATION": "કૃપા કરીને પુષ્ટિ કરો કે તમે નીચેની જે માહિતીને સક્રિય કરવા માંગતા હોય તે સાઇટ ઉપયોગકર્તાની છે.",
        "ADD_PATIENT": "નવું દર્દી ઉમેરો",
        "ADD_USER": "ઉપયોગકર્તા ઉમેરો",
        "AFFIDAVIT": "જયારે તમારો જવાબ સેવ કરવા માટે તૈયાર હોય ત્યારે ઓકે પસંદ કરી અને નેક્સટ કરો.",
        "AFFIDAVIT_HELP": "તમારો આભાર. તમે બધા આવશ્યક જવાબો આપ્યા છે. તમે બેક પસંદ કરી તમારા જવાબો ચકાસી શકશો અને બદલી શકશો.",
        "ALL_QUESTIONNAIRES_COMPLETED": "બધા ફોર્મ પૂર્ણ થયા છે",
        "APP_NAME": "ERT",
        "APPLICATION_HEADER": "{{{ appHeader }}}",
        "APP_NAME_LBL": "એપ નામ",
        "APP_VERSION": "એપ વર્ઝન",
        "ASSIGNED_TO": "આને સોંપેલ",
        "AVAILABLE": "ઉપલબ્ધ",
        "BACK": "પાછળ",
        "BACK_OUT_CONFIRM": "તમે સુનિશ્ચિત છો કે તમે બહાર નીકળવા માંગો છો? આ પત્રકના પ્રતિભાવો ખોવાઈ જશે.",
        "BLUETOOTH_REG_REFRESH_BUTTON": "યાદીને રીફ્રેશ કરો",
        "CANCEL": "રદ કરો",
        "CHECK_FOR_UPDATES": "અપડેટ્સ માટે તપાસો",
        "CHOOSE_A_SITE": "આ ઉપકરણને વિશિષ્ટ સાઇટને સોંપો.",
        "COMPLETED": "સમાપ્ત",
        "CONFIRM_PASSWORD": "પાસવર્ડ સુનિશ્ચિત કરો:",
        "CONFIRM_TEMP_PASS": "કામચલાઉ પાસવર્ડની પુષ્ટિ કરો:",
        "CONTINUE": "ચાલુ",
        "COUNTRY": "દેશ",
        "CUSTOM_ENVIRONMENT": "કસ્ટમ પરિસ્થિતિ",
        "DEACTIVATE_PATIENT": "દર્દીને નિષ્ક્રિય કરો",
        "DEACTIVATE_USER": "ઉપયોગકર્તાને નિષ્ક્રિય કરો",
        "DEACTIVATED": "નિષ્ક્રિય કર્યું",
        "DEACTIVATE_USER_CANCEL_CONFIRM": "નિષ્ક્રિયકરણ રદ કરીએ?",
        "DEACTIVATE_USER_CANCEL_BODY": "જો તમે હમણા રદ કરશો, તો સાઇટ ઉપયોગકર્તાને નિષ્ક્રિય કરવામાં આવશે નહીં. તમે સુનિશ્ચિત છો કે તમે રદ કરવા માંગો છો?",
        "DEACTIVATE_USER_AFF": "નીચે હસ્તાક્ષર કરીને, હું તેનાથી દર્શાવું છું કે હું આ સાઇટ ઉપયોગકર્તાને નિષ્ક્રિય કરવા માટે અધિકૃત છું.",
        "DEACTIVATE_USER_SIG": "<strong>નિષ્ક્રિય કરવા માટેનાં ઉપયોગકર્તા:</strong> <br />{{{ getSelectedUsername }}}<br /><br /><strong>સહીકર્તા:</strong> {{{ getActiveUserName }}}",
        "DEACTIVATE_USER_CONFIRM_INFORMATION": "કૃપા કરીને પુષ્ટિ કરો કે તમે નીચેની જે માહિતીને નિષ્ક્રિય કરવા માંગતા હોય તે સાઇટ ઉપયોગકર્તાની છે.",
        "DEVICE_ID": "ડિવાઈસ ID",
        "DEVICE_REGISTRATION_FAILURE": "ઉપકરણની નોંધણી કરવામાં નિષ્ફળ.",
        "DEVICE_UUIID": "ઉપકરણ UUID",
        "BATTERY_LEVEL": "બેટરીનું સ્તર",
        "DEVICE_INFO": "ઉપકરણ માહિતી",
        "DIARY_TIMEOUT": "આ પત્રકનો સમય સમાપ્ત થયો છે.",
        "EDIT_MY_INFO": "મારી માહિતી સંપાદિત કરો",
        "EDIT_PATIENT": "દર્દી સંપાદિત કરો",
        "EDIT_PATIENT_QUESTION_1_MAIN_TITLE": "<div class='question-title-large'>દર્દીની ઓળખ </div><div>આ સાઇટ માટે ID શ્રેણી:<br /><strong> {{{ patientIDRange }}}</strong></div><div class='edit-patient-id'>દર્દી ID:<br /><strong>{{{ getPatientIdNumber }}} ({{{getPatientInitials}}})</strong</div><br /><br />",
        "EDIT_PATIENT_QUESTION_1": "દર્દી ID:",
        "EDIT_PATIENT_QUESTION_1_EMPTY": "કૃપા કરી દર્દી ID ભરો.",
        "EDIT_PATIENT_QUESTION_1_EMPTY_HEADER": "દર્દી ID",
        "EDIT_PATIENT_QUESTION_1_RANGE": "તમે દાખલ કરેલ દર્દી ID મંજૂર ID ની શ્રેણીની અંદર નથી: {{{ patientIDRange }}}.  કૃપા કરીને માન્ય દર્દી ID દાખલ કરો.",
        "EDIT_PATIENT_QUESTION_1_RANGE_HEADER": "દર્દી ID શ્રેણીની બહાર છે",
        "EDIT_PATIENT_QUESTION_1_UNIQUE": "દર્દી પહેલાંથી હાજર છે.  કૃપા કરીને બીજું દર્દી ID દાખલ કરો.",
        "EDIT_PATIENT_QUESTION_1_UNIQUE_HEADER": "દર્દી ID બમણું છે",
        "EDIT_PATIENT_QUESTION_2": "દર્દીની સહી:",
        "EDIT_PATIENT_QUESTION_2_EMPTY": "કૃપા કરીને દર્દીના પ્રથમ અક્ષરો ભરો, ન્યૂનતમ 2 અક્ષરો સાથે.",
        "EDIT_PATIENT_QUESTION_2_EMPTY_HEADER": "દર્દીની સહી",
        "EDIT_PATIENT_QUESTION_3_TITLE": "<div class='question-title-large'>ભાષા પસંદ કરો</div><div>દર્દી ID:<br /><strong>{{{ getPatientIdNumber }}} ({{{getPatientInitials}}})</strong</div><br /><br />",
        "EDIT_PATIENT_QUESTION_3": "દર્દી માટે ભાષા પસંદ કરો",
        "EDIT_PATIENT_QUESTION_4_TITLE": "<div class='question-title-large'>કારણ સંપાદિત કરો</div><br /><br />",
        "EDIT_PATIENT_QUESTION_4": "દર્દીને સંપાદિત કરવાનું કારણ પસંદ કરો",
        "EDIT_PATIENT_CANCEL_CONFIRM": "દર્દીમાં કરેલ ફેરફારો રદ કરીએ?",
        "EDIT_PATIENT_CANCEL_BODY": "જો તમે હમણા રદ કરશો, તો દર્દીની સેટિંગ્સ અપડેટ કરવામાં આવશે નહીં.  તમે સુનિશ્ચિત છો કે તમે રદ કરવા માંગો છો?",
        "EDIT_PATIENT_NO_CHANGES_CONFIRM": "દર્દીમાં કોઈ ફેરફારો કરવામાં આવ્યા નથી",
        "EDIT_PATIENT_NO_CHANGES_BODY": "આ દર્દીમા કોઈ ફેરફાર કરવામાં આવ્યા નથી. શું નિકળવા માગો છો?",
        "EDIT_PATIENT_REASON_0": "ક્લિનિશિઅન દ્વારા ભૂલ સુધારણા",
        "EDIT_REASON": "કારણ સંપાદિત કરો:",
        "EDIT_SERVICE_URL": "સેવા URL સંપાદિત કરો",
        "EDIT_SERVICE_URL_SUCCESS": "સેવા URL અપડેટ કરાયેલ છે.",
        "EDIT_USER": "ઉપયોગકર્તા સંપાદિત કરો",
        "EDIT_USER_AFF": "નીચે હસ્તાક્ષર કરીને, હું તેનાથી દર્શાવું છું કે હું આ સાઇટ ઉપયોગકર્તાને સંપાદિત કરવા માટે અધિકૃત છું. <br /><br /><strong>સહીકર્તા:</strong> {{{ getActiveUserName }}}",
        "EDIT_USER_CANCEL_CONFIRM": "ઉપયોગકર્તાનું સંપાદન રદ કરીએ?",
        "EDIT_USER_CANCEL_BODY": "જો તમે હમણા રદ કરશો, તો સાઇટ ઉપયોગકર્તા ફેરફારો કરવામાં આવશે નહીં. તમે સુનિશ્ચિત છો કે તમે રદ કરવા માંગો છો?",
        "EDIT_USER_NO_CHANGES_HEADER": "સાઇટ ઉપયોગકર્તામાં કોઈ ફેરફારો કરાયા નથી",
        "EDIT_USER_NO_CHANGES_BODY": "આ સાઈટ ઉપયોગકર્તામાં કોઈ ફેરફાર કરવામાં આવ્યા નથી. શું નિકળવા માગો છો?",
        "EMAIL": "ઇમેલ સરનામું",
        "ENTER_PATIENT_INFO": "દર્દીની માહિતી દાખલ કરો",
        "ENTER_UNLOCK_CODE": "કૃપા કરીને અનલોક કોડ દાખલ કરો",
        "ENTER_USER_INFO": "નવી સાઇટ ઉપયોગકર્તા માહિતી દાખલ કરો",
        "ENVIRONMENT": "પરિસ્થિતિ",
        "ERROR_CODE": "એરર કોડ:",
        "ERROR_TITLE": "ભૂલ",
        "FIRST_NAME": "પ્રથમ નામ",
        "FORGOT_PASSWORD": "પાસવર્ડ ભૂલી ગયા?",
        "FORM": "ફૉર્મ",
        "FORM_GATEWAY": "ફૉર્મ ગેટવે",
        "FORM_NAME": "ફૉર્મનું નામ",
        "FULL_NAME": "પૂરું નામ:",
        "GO_TO_VISITS": "દર્દીની મુલાકાતો",
        "HAND_DEVICE_SITE_TITLE": "સાઇટ ઉપયોગકર્તાને ઉપકરણ આપો",
        "HAND_DEVICE_SITE_BODY": "કૃપા કરીને સાઇટ ઉપયોગકર્તાને ઉપકરણ આપો.",
        "HELP": "મદદ",
        "HOME": "હોમ",
        "IN_PROGRESS": "પ્રગતિરત",
        "INITIALS": "પ્રારંભિક અક્ષરો",
        "INVALID_URL": "કૃપા કરીને માન્ય URL દાખલ કરો.",
        "INVALID_PERMISSION": "અમાન્ય પરવાનગી",
        "INVALID_PASSWORD": "અમાન્ય પાસવર્ડ",
        "LANGUAGE": "ભાષા:",
        "LAST_LOGIN": "છેલ્લું લોગઇન",
        "LAST_NAME": "છેલ્લું નામ",
        "LAST_REFRESH_TIME": "છેલ્લો તાજો કરવાનો સમય",
        "LOCATION": "સ્થાન",
        "LOGIN": "લોગ ઇન",
        "LOGIN_SCREEN": "લોગઇન",
        "LOGOUT": "લોગ આઉટ",
        "MANAGE_USERS": "સાઇટ ઉપયોગકર્તાને સંચાલિત કરો",
        "MARK_AS_COMPLETED": "પૂર્ણ તરીકે ચિહ્નાંકિત કરો",
        "SITE_SIGNATURE": "સહીકર્તા: ",
        "SITE_REPORT_AFF": "આ સાથે હું ખાતરી આપું છું કે મે અગાઉનો ડેટા દાખલ કર્યો છે, ચકાસણી કરી છે.<br /><br /><strong>સહીકર્તા:</strong> {{{ getActiveUserName }}}",
        "PATIENT_REPORT_AFF": "આ સાથે હું ખાતરી આપું છું કે મે અગાઉનો ડેટા દાખલ કર્યો છે, ચકાસણી કરી છે<br /><br /><strong>આમની સહી આમના ટૂંકાક્ષર:</strong> {{{ getActiveUserName }}}",
        "CLEAR_SIGNATURE": "સહી કાઢી નાંખો",
        "MENU": "મેન્યુ",
        "MODE": "મોડ",
        "NAME": "નામ",
        "NEW_USER": "દરરોજ નવા વપરાશકર્તા ઉમેરો",
        "FIRST_SITE_USER": "સાઇટ પ્રથમ ઉપયોગકર્તા ઉમેરો",
        "NEW_USER_CREATED": "સાઇટ વપરાશકર્તા રચવામાં આવ્યા છે",
        "NEW_PATIENT_QUESTION_1_MAIN_TITLE": "<div class='question-title-large'>દર્દી ઓળખાણ માહિતી દાખલ કરો:</div><div>આ સાઇટ માટે ID શ્રેણી:<br /><strong> {{{ patientIDRange }}}</strong></div><div><strong>સાઇટ: {{{ getSiteCode }}}</strong></div><div><strong>વપરાશકર્તા: {{{ getUserName }}}</strong</div><br /><br />",
        "NEW_PATIENT_HELP_TEXT_1": "",
        "NEW_PATIENT_HELP_TEXT_2": "",
        "NEW_PATIENT_HELP_TEXT_3": "",
        "NEW_PATIENT_QUESTION_1_TITLE": "દર્દી ID",
        "NEW_PATIENT_QUESTION_1": "દર્દી ID:",
        "NEW_PATIENT_QUESTION_1_EMPTY": "કૃપા કરીને દર્દી ID ભરો.",
        "NEW_PATIENT_QUESTION_1_EMPTY_HEADER": "દર્દી ID",
        "NEW_PATIENT_QUESTION_1_RANGE": "તમે દાખલ કરેલી દર્દી ID મંજૂર ID શ્રેણીની અંદર નથીઃ {{{ patientIDRange }}}.  કૃપા કરીને માન્ય દર્દી ID દાખલ કરો.",
        "NEW_PATIENT_QUESTION_1_RANGE_HEADER": "દર્દી ID શ્રેણીની બહાર છે",
        "NEW_PATIENT_QUESTION_1_UNIQUE": "દર્દી પહેલાંથી હાજર છે.  કૃપા કરીને બીજું દર્દી ID દાખલ કરો.",
        "NEW_PATIENT_QUESTION_1_UNIQUE_HEADER": "દર્દી ID બેવડું છે",
        "NEW_PATIENT_QUESTION_2": "દર્દીની સહી:",
        "NEW_PATIENT_QUESTION_2_EMPTY": "કૃપા કરીને દર્દીના પ્રથમ અક્ષરો ભરો, ન્યૂનતમ 2 અક્ષરો સાથે.",
        "NEW_PATIENT_QUESTION_2_EMPTY_HEADER": "દર્દીની સહી",
        "NEW_PATIENT_QUESTION_3_TITLE": "<div class='question-title-large'>ભાષા પસંદ કરો</div><div><strong>સાઇટ: {{{ getSiteCode }}}</strong></div><div><strong>વપરાશકર્તા: {{{ getUserName }}}</strong</div><div><strong>દર્દી ID: {{{ getPatientID }}}</strong></div><br /><br />",
        "NEW_PATIENT_QUESTION_3": "દર્દી માટે ભાષા પસંદ કરો",
        "NEW_PATIENT_CANCEL_CONFIRM": "દર્દીને ઉમેરવાનું રદ કરીએ?",
        "NEW_PATIENT_CANCEL_BODY": "જો તમે રદ કરશો, તો દર્દી નોંધાશે નહીં.  તમે સુનિશ્ચિત છો કે તમે રદ કરવા માંગો છો?",
        "NEW_PATIENT_AFFIDAVIT_HEADER": "<div><strong>સાઇટ: {{{ getSiteCode }}}</strong><br /><strong>વપરાશકર્તા: {{{ getUserName }}}</strong><br /><strong>દર્દી ID: {{{ getPatientID }}}</strong></div>",
        "NEXT": "આગલું",
        "NO_RESULTS_FOUND": "કોઇ પરીણામો નથી મળ્યા",
        "NOT_AVAILABLE": "ઉપલબ્ધ નથી",
        "OK": "ઓકે",
        "ORDER": "ઑર્ડર",
        "PASSWORD": "પાસવર્ડ:",
        "PATIENT": "દર્દી",
        "PATIENT_ID": "દર્દી ID:",
        "PATIENT_INITIALS": "દર્દીની સહી:",
        "PATIENT_DELETED": "અજાણ્યું દર્દી",
        "PATIENT_DELETED_MSG": "દર્દી જોઈ શકાય તેમ નથી.",
        "PATIENT_DELETED_SUBJECT_MSG": "દર્દી જોઈ શકાય તેમ નથી. કૃપા કરી સાઈટ ખાતેના યોગ્ય કર્મચારીને ઉપકરણ પરત કરો.",
        "PENDING_TRANSMISSIONS": "બાકી રવાનગીઓ",
        "PLEASE_WAIT": "કૃપા કરી રાહ જૂઓ",
        "PLEASE_CONFIRM": "કૃપયા સુનિશ્ચિત કરો",
        "PLEASE_CONTACT": "ERT સહાય કેન્દ્ર સાથે મહેરબાની કરી સંપર્ક કરો.",
        "PLEASE_TRY_OR_CONTACT_SUPPORT": "કૃપયા ફરી પ્રયાસ કરો અથવા ERT સપોર્ટ કેન્દ્રનો સંપર્ક કરો.",
        "REASON": "કારણ:",
        "REPORTS_AND_FORMS": "અહેવાલો અને ફોર્મ્સ",
        "REPORTS_COMPLETED_MESSAGE": "તમે તમારા બધા ફોર્મ્સ પૂર્ણ કરી લીધા છે. કૃપા કરીને ઉપકરણ યોગ્ય સાઇટ કર્મચારીને પાછું આપો.",
        "REQUIRED_ANSWER": "કૃપા કરીને વિનંતી કરેલ માહિતી પૂર્ણ કરો.",
        "RESET_PIN": "દર્દી PIN રીસેટ કરો",
        "RESET_USER_PASSWORD": "ઉપયોગકર્તા પાસવર્ડ રીસેટ કરો",
        "ROLES": "ભૂમિકા:",
        "SAVE": "સાચવો",
        "SEARCH": "શોધો",
        "SECURITY_QUESTION_0": "તમારી માતાનું મધ્યનું નામ શું છે?",
        "SECURITY_QUESTION_1": "તમે કયા શહેરમાં જન્મયા છો?",
        "SECURITY_QUESTION_2": "તમારા પ્રથમ પાલતુ પ્રાણીનું નામ શું છે?",
        "SECURITY_QUESTION_3": "તમારી પસંદગીની રમત ગમત શું છે?",
        "SECURITY_QUESTION_4": "તમે કયા વર્ષમાં સ્નાતક કર્યુ?",
        "SECURITY_QUESTION_5": "તમારા સૌથી મોટા બાળકનું મધ્ય નામ શું છે?",
        "SECURITY_QUESTION_6": "તમારા મનપસંદ બાળપણના મિત્રનું નામ શું છે?",
        "SECURITY_QUESTION_7": "તમારા ત્રીજા ધોરણના શિક્ષકનું છેલ્લુ નામ શું હતું?",
        "SECURITY_QUESTION_8": "કયા શહેર અથવા નગરમાં તમારી પ્રથમ નોકરી હતી?",
        "SECRET_ANSWER": "સુરક્ષા જવાબ:",
        "SECRET_QUESTION": "સુરક્ષા પ્રશ્ન:",
        "SECRET_QUESTION_HELP_TEXT": "નીચેની યાદીમાંથી સુરક્ષા પ્રશ્ન પસંદ કરો. જો તમે તમારો પાસવર્ડ ભૂલી જાઓ તો ઉત્તર તમારું લોગ ઇન મંજૂર કરવા માટે ઉપયોગ થાય છે.",
        "SECRET_QUESTION_ANSWER": "સુરક્ષા પ્રશ્ન અને ઉત્તર",
        "SELECT_LANGUAGE": "કૃપા કરીને સાઇટ માટે પસંદગીની ભાષા પસંદ કરો.",
        "SET_TIMEZONE_MESSAGE": "તમારો ટાઈમ ઝોન પસંદ કરો:",
        "SELECT_SITE_NUMBER": "કૃપા કરીને સાઇટ નંબર પસંદ કરો",
        "SERVICE_URL": "સેવા URL",
        "SETTINGS": "સેટ્ટીંગ્સ",
        "SETUP_COMPLETE": "સેટઅપ પૂર્ણ",
        "SETUP_COMPLETE_DESC": "ઉપકરણ હવે સેટઅપ થઈ ગયું છે અને શિપમન્ટ માટે તૈયાર છે.  કૃપા કરીને ઓકે દબાવો પછી પછીની સ્ક્રીન પર ઉપકરણ બંધ કરો.",
        "SETUP_SITE_USER": "સાઇટ ઉપયોગકર્તા સેટ અપ કરો",
        "SETUP_SITE_USER_LEGEND": "કૃપા કરીને આ ઉપકરણ માટે સાઇટ ઉપયોગકર્તા સેટ અપ કરો.",
        "SITE": "સાઇટ",
        "SITE_ASSESSMENTS": "સાઇટ આકારણીઓ",
        "SIGNATURE_DATA_LIMIT_EXCEEDED": "હસ્તાક્ષર બૉક્સ તમારા હસ્તાક્ષરને જેવા દોરેલા છે તેવા આબેહૂબ પ્રસ્તુત કરી શક્યું નથી. કૃપયા તેને બદલે તમારા આદ્યાક્ષરો સાથે સહી કરો.",
        "SITE_NUMBER": "સાઈટ નંબર",
        "SITE_ROLE": "સાઈટના વપરાશકર્તા",
        "SITE_SELECTION": "સાઇટ પસંદગીઓ",
        "SKIP_FORM": "ફૉર્મ છોડો",
        "SKIP_QUESTION": "તમે સુનિશ્ચિત છો કે તમે આ સ્ક્રીન પર જવાબો જતા કરવા માંગો છો?",
        "SKIP_TO_VISIT": "મુલાકાત માટે છોડો",
        "SKIP_VISIT": "મુલાકાત છોડો",
        "SKIP_VISITS": "મુલાકાતો છોડીએ",
        "SKIP_VISITS_QUESTION_1": "<div class='question-title-large'><strong>કારણ</strong></div><br /><br /><div>મુલાકાતો છોડવાનું કારણ પસંદ કરો:</div>",
        "SKIP_VISITS_REASON_0": "મુલાકાત સમાપ્ત થયેલ છે",
        "SKIP_VISITS_REASON_1": "વહીવટમાં સાઇટ ભૂલ",
        "SKIP_VISITS_REASON_2": "સહભાગી ક્લિનિકલ અપૉઇન્ટમેન્ટ ચૂક્યો છે.",
        "SKIP_VISITS_REASON_3": "લાગુ પડતું નથી",
        "SKIP_VISITS_REASON_4": "મુલાકાત વૈકલ્પિક છે, નથી કરી.",
        "SKIP_VISITS_CANCEL_CONFIRM": "મુલાકાતો છોડવાનું રદ કરીએ?",
        "SKIP_VISITS_CANCEL_BODY": "જો તમે હમણા રદ કરશો, તો મુલાકાતો છૂટશે નહીં. તમે સુનિશ્ચિત છો કે તમે રદ કરવા માંગો છો?",
        "SKIPPED" : "છોડી દીધેલી",
        "SKIPPED_VISITS": "{{{ skippedVisits }}}",
        "START_FORM": "ફૉર્મ શરૂ કરો",
        "START_VISIT": "મુલાકાત શરૂ કરો",
        "STATUS": "સ્થિતિ",
        "STATUS_DATE": "સ્થ્રિતિ તારીખ",
        "STUDY": "અભ્યાસ",
        "STUDYWORKS_LOGIN": "StudyWorks લોગઇન",
        "SUBJECT_ID": "દર્દી ID",
        "SUBJECT_ROLE": "દર્દી",
        "SUBMIT": "સબમિટ કરો",
        "SUPPORT_TOOLS": "આધાર સાધનો",
        "SYNC": "સિંક કરો",
        "SYNC_USERS": "ઉપયોગકર્તાઓ સિંક કરો",
        "SYNC_TO_DEVICE": "અભ્યાસને ઉપકરણ સાથે સિંક કરો",
        "TEMPORARY_PASSWORD_MESSAGE": "કૃપયા નવા ઉપયોગકર્તાને કામચલાઉ પાસવર્ડ આપો. તેઓ લૉગ ઇન કરે પછી તેમને એક નવો પાસવર્ડ બનાવવાનું કહેવામાં આવશે.",
        "TEMP_PASSWORD": "કામચલાઉ પાસવર્ડ: ",
        "UNABLE_TO_GET_SITE_LIST": "સાઇટ યાદી મેળવવામાં અસમર્થ",
        "UNLOCK_CODE": "અનલોક કોડ",
        "UNLOCK_CODE_HELP": "તમારા ERT Tablet માટે અનલોક કોડ StudyWorks માંથી 'ERT અનલોક કોડ્સ' SmartReport માં મેળવી શકાય છે. વધારાની સહાય માટે ERTઆધાર કેંદ્ર્નો સંપર્ક કરો.",
        "USER": "વપરાશકર્તા",
        "USER_ALREADY_EXISTS": "ઉપયોગકર્તા પહેલેથી હાજર છે",
        "USER_EDITED": "ઉપયોગકર્તા અપડેટ કરાયેલ છે.",
        "USER_TO_ACTIVATE": "<strong>સક્રિય કરવા માટે ઉપયોગકર્તા</strong> <br />{{{ getSelectedUsername }}}<br /><br /><strong>સહીકર્તા:</strong> {{{ getActiveUserName }}}",
        "SUBJECT_ALREADY_EXISTS": "ID સાથેનું દર્દી {{{ getPatientIDForDuplicate }}} પહેલાથી હાજર છે",
        "TIME_CONFIRMATION_INSTRUCTIONS": "ઉપકરણે તમારા સ્થાનિક સમયની પૃષ્ટિ કરવાની જરૂર છે. મહેરબાની કરી વિશ્વસનીય સ્રોતથી સમય અને તારીખ દાખલ કરો.",
        "TIME_ZONE_ERROR_HEADER": "ટાઈમ ઝોન ક્ષતિ",
        "TIME_ZONE_ERROR_MSG": "ટાઇમ ઝોન યાદી મેળવતા દરમ્યાન ભૂલ આવી. વધારાની સહાય માટે ERTઆધાર કેંદ્ર્નો સંપર્ક કરો.",
        "TIME_ZONE_SET_ERROR_MSG": "ટાઈમ ઝોન સેટિંગ કરતી વખતે ક્ષતિ થઈ વધારાની સહાય માટે ERTઆધાર કેંદ્ર્નો સંપર્ક કરો.",
        "TIME_ZONE_SET_CONFIRM": "શું તમે ટાઈમ ઝોન નિર્ધારીત કરવા ચોક્કસ છોઃ <bdo dir='ltr'>{{{selectedTimeZone}}}</bdo>? <br/> પરીવર્તનને લાગુ કરવા માટે આ એપ્લીકેશન ફ્ રી શરૂ થઇ શકે",
        "TIME_ZONE_SET_CONFIRM_NOCHANGE": "શું તમે ટાઈમ ઝોન નિર્ધારીત કરવા ચોક્કસ છોઃ <bdo dir='ltr'>{{{selectedTimeZone}}}</bdo>?",
        "TIME_ZONE_SET_HEADER": "ટાઈમ ઝોન સેટ પૃષ્ટિ",
        "TRAINER": "ટ્રેનર મોડ",
        "TRAINER_EXIT": "ટ્રેનર મોડમાંથી બહાર આવો",
        "TRAINER_EXIT_NOTIFICATION": "તમે ટ્રેનર મોડમાંથી બહાર આવી રહ્યા છો",
        "TRAINER_HEADER": "(ટ્રેનર)",
        "USER_ROLE": "ઉપયોગકર્તા ભૂમિકા",
        "USERNAME": "ઉપયોગકર્તાનામ",
        "USER_NAME": "ઉપયોગકર્તાનામ:",
        "VISIT": "મુલાકાત",
        "VISIT_COMPLETED_MESSAGE": "આ મુલાકાત માટે અન્ય ફોર્મ નથી.  મુલાકાત હવે પૂર્ણ થઈ છે.",
        "VISIT_INACTIVE_HEADER": "મુલાકાત નિષ્ક્રિય.",
        "VISIT_INACTIVE_MESSAGE": "આ મુલાકાત હમણાથી સક્રિય નથી.",
        "VISIT_INACTIVE_MESSAGE_SUBJECT": "આ મુલાકાત હમણાથી સક્રિય નથી. કૃપા કરીને ઉપકરણ યોગ્ય સાઇટ કર્મચારીને પાછું આપો.",
        "VISITS": "મુલાકાત",
        "VISITS_SKIPPED": "છોડેલ મુલાકાતો:",
        "VISIT_NAME": "મુલાકાત નામ",
        "WELCOME": "સ્વાગત",
        "AF-ZA": "આફ્રીકાંસ",
        "AR-EG": "અરેબિક",
        "BE-BY": "બેલુરશીયન",
        "BG-BG": "બલ્ગેરિઅન",
        "BN-IN": "બંગાળી",
        "BS-BA": "બોસ્નિયન",
        "CA-ES": "કતલાન",
        "CS-CZ": "ચેક",
        "DA-DK": "ડેનીશ",
        "DE-DE": "જર્મન (જર્મની)",
        "DE-AT": "જર્મન (ઑસ્ટ્રિયા)",
        "EL-GR": "ગીક",
        "EN-GB": "ઇંગલિશ (UK)",
        "EN-US": "ઇંગલિશ (US)",
        "ES-ES": "સ્પેનિશ (સ્પેઇન)",
        "ES-US": "સ્પેનિશ (US)",
        "ES-PY": "સ્પેનિશ (સાર્વત્રિક)",
        "ET-EE": "એસ્ટોનીઅન",
        "FI-FI": "ફીનીશ",
        "FR-CA": "ફ્રેન્ચ (કેનેડા)",
        "FR-FR": "ફ્રેન્ચ (ફ્રાન્સ)",
        "GD-IE": "ગેલીક",
        "GU-IN": "ગુજરાતી",
        "HE-IL": "હિબ્રુ",
        "HI-IN": "હિન્દી",
        "HR-HR": "ક્રોએશિઅન",
        "HU-HU": "હંગેરીઅન",
        "IT-IT": "ઇટાલિયન",
        "JA-JP": "જાપાની",
        "KA-GE": "જ્યોર્જિઅન",
        "KN-IN": "કન્નડ",
        "KO-KR": "કોરિયન",
        "LV-LV": "લેટીવીઅન",
        "LT-LT": "લીથુનીઅન",
        "ML-IN": "મલયાલમ",
        "MR-IN": "મરાઠી",
        "MS-MY": "મલય",
        "NB-NO": "નોર્વેજીયન",
        "NL-BE": "ડચ (બેલ્જિયમ)",
        "NL-NL": "ડચ (નેધરલેન્ડ્સ)",
        "PA-IN": "પંજાબી",
        "PL-PL": "પોલિશ",
        "PT-BR": "પોર્ટુગીઝ (બ્રાઝીલ)",
        "PT-PT": "પોર્ટુગીઝ (પોર્ટુગલ)",
        "RO-RO": "રોમાનીઅન",
        "RU-RU": "રશીયન",
        "SL-SL": "સ્લોવેનીઅન",
        "SK-SK": "સ્લોવૅક",
        "SR-RS": "સર્બિયન (લેટિન)",
        "SR-SP": "સર્બિયન (સીરીલીક)",
        "ST-ZA": "સોથો",
        "SV-SE": "સ્વીડિશ",
        "TA-IN": "તમિલ",
        "TE-IN": "તેલુગુ",
        "TH-TH": "થાઇ",
        "TL-PH": "ટગ્લોગ",
        "TN-ZA": "સવાના",
        "TR-TR": "ટર્કિશ",
        "UK-UA": "યુક્રેનીઅન",
        "UR-IN": "ઉર્દૂ",
        "VI-VN": "વિયેતનામીઝ",
        "XH-ZA": "હોસા",
        "ZH-CN": "ચીની[ચીની]",
        "ZH-TW": "ચીની(તાઇવાન)",
        "ZU-ZU": "ઝૂલૂ",
        "HAND_DEVICE_SUBJECT_BODY": "પછીનું ફૉર્મ {{{ patientOrRole }}} દ્વારા પૂર્ણ થવું જોઈએ. કૃપા કરીને લોગઆઉટ કરો, પછી ઉપકરણ {{{ patientOrRole }}} ને આપો.",
        "HAND_DEVICE_SUBJECT_TITLE": "પ્રારંભિક ફૉર્મ {{{ formTitle }}}",
        "SKIP_VISIT_TITLE": "મુલાકાત(ઓ) છોડીએ?",
        "SKIP_VISIT_TEXT": "જો તમે ચાલુ રાખશો, તો નીચેની મુલાકાતો છોડવામાં આવશે:<br/> {{{ skippedVisits }}} ચાલુ રાખો અને આ મુલાકાતોને છોડો?",
        "YES": "હા",
        "NO": "ના",
        "TIME_LBL": "સમય:",
        "SET_TIME": "સમય સેટ કરો",
        "DATE_LBL": "તારીખ:",
        "CREATE_PERMANENT_PASSWORD_TITLE": "કાયમી પાસવર્ડ બનાવો",
        "USER_ID": "ઉપયોગકર્તા ID:",
        "PHASE": "તબક્કો",
        "LAST_VISIT": "છેલ્લી પૂર્ણ કરેલ મુલાકાત",
        "CONNECTION_REQUIRED": "ઇન્ટરનેટ જોડાણ આવશ્યક છે.",
        "RETRY": "ફરી પ્રયાસ કરો",
        "UPDATE_FAILURE": "અપડેટ પૂર્ણ થઈ નથી",
        "UPDATE_SUCCESS": "અપડેટ સફળ",
        "CANCEL_PERMANENT_PASSWORD_TITLE": "કાયમી પાસવર્ડ બનાવાનું રદ કરીએ?",
        "CANCEL_PERMANENT_PASSWORD_TEXT": "જો તમે હમણા રદ કરશો, તો તમારો કાયમી પાસવર્ડ બનશે નહીં. તમને ERT નો ઉપયોગ શરૂ કરવા માટે કાયમી પાસવર્ડની જરૂર પડશે. તમે સુનિશ્ચિત છો કે તમે રદ કરવા માંગો છો?",
        "ACCOUNT_CONFIGURED_TITLE": "એકાઉન્ટ સેટઅપ પૂર્ણ થયું",
        "ACCOUNT_CONFIGURED_TEXT": "હવે તમે તમારું એકાઉન્ટ સેટઅપ કરવાનું પૂર્ણ કરેલ છે, હવે તમે eCOA સિસ્ટમનો ઉપયોગ કરવાનું ચાલુ રાખી શકો છો.",
        "LOGGED_IN_AS": "આ તરીકે લોગિન કર્યું:",
        "EDIT_PATIENT_AFFIDAVIT_HEADER": "<p class='question-title-large'>સહી</p><br />",
        "EDIT_PATIENT_AFF": "નીચે હસ્તાક્ષર કરીને, હું તેનાથી દર્શાવું છું કે હું આ દર્દીને સંપાદિત કરવા માટે અધિકૃત છું.<br /><br />દર્દી ID: {{{ getPatientIdNumber }}}<br /><br /><strong>સહીકર્તા:</strong> {{{ getActiveUserName }}}",
        "PASSWORD_MISMATCH": "પાસવર્ડ પુષ્ટિકરણ પાસવર્ડથી મેળ ખાતો નથી",
        "FIRST_USER_AFFIDAVIT": "નીચે હસ્તાક્ષર કરીને, હું તેનાથી દર્શાવું છું કે હું મુખ્ય તપાસનીસ છું અને આ સિસ્ટમ પર એકાઉન્ટ્સ બનાવવા માટે અધિકૃત પ્રતિનિધિ છું.<br /><br /><strong>સહીકર્તા:</strong> {{{ getFirstUsername }}}",
		"INCOMPLETE": "અપૂર્ણ",
        "INVALID_ENTRY": "અમાન્ય એન્ટ્રી",
        "PLEASE_ANSWER_SQ": "કૃપયા તમારા સુરક્ષા પ્રશ્નનો જવાબ આપો:",
        "FORGOT_SECRET_ANSWER": "સુરક્ષા જવાબ ભૂલી ગયા?",
        "CONTACT_STUDY_COORDINATOR": "અભ્યાસ સહયોજકનો સંપર્ક કરો",
        "ENTER_NEW_PASSWORD": "નવો પાસવર્ડ:",
        "CONTACT_UNLOCK_CODE": "આજનો કોડ અનલોક કરવા માટે કૃપયા તમારા અભ્યાસ સંયોજકનો સંપર્ક કરો:",
        "CURRENT_DATE": "{{{ currentDate }}}",
        "TEMPORARY_UNLOCK_CODE": "અભ્યાસ સંચાલક દ્વારા આપવામાં આવેલ અનલોક કોડ દાખલ કરો.",
        "RESET_SECRET_QUESTION": "સુરક્ષા પ્રશ્ન રીસેટ કરો",
        "SECRET_QUESTION_CHANGE_SUCCESS": "તમે સફળતા પૂર્વક તમારો પાસવર્ડ અને સુરક્ષા પ્રશ્ન અપડેટ કર્યો છે.",
        "RESET_PASSWORD": "પાસવર્ડ રીસેટ કરો",
        "ANSWER_ATTEMPT_EXCEEDED": "તમે ઘણી બધી વખત ખોટા જવાબો દાખલ કર્યા છે અથવા સુરક્ષા જવાબ ભૂલી ગયાની લિંક પર ક્લિક કર્યું છે.",
        "PASSWORD_ATTEMPT_EXCEEDED": "તમે ઘણી બધી વખત ખોટો પાસવર્ડ દાખલ કર્યો છે અથવા પાસવર્ડ ભૂલી ગયાની લિંક પર ક્લિક કર્યું છે.",
        "PASSWORD_CHANGE_SUCCESS": "તમે સફળતાપૂર્વક તમારો પાસવર્ડ અપડેટ કર્યો છે.",
        "CHANGE_PASSWORD": "પાસવર્ડ બદલો",
        "CHANGE_SECRET_QUESTION": "સુરક્ષા પ્રશ્ન બદલો",
        "SYNC_COMPLETE": "સિંક પૂર્ણ થયું",
        "INCORRECT_ANSWER": "ખોટો જવાબ",
        "INCORRECT_UNLOCK_CODE": "ખોટો અનલોક કોડ",
        "PASSWORD_INVALID": "ખોટો પાસવર્ડ",
        "SUBJECT": "દર્દી",
        "PATIENT_ADDED": "દર્દી ઉમેરાયા",
        "SITE_ADMINISTRATOR": "સાઇટ વહીવટકર્તા",
        "LOW_BATTERY": "ચેતવણી: બેટરીનું સ્તર ખૂબ જ ઓછું છે. કૃપા કરી રિચાર્જ કરવા ઉપકરણને જોડો",
        "CRITICAL_BATTERY": "ચેતવણી: બેટરીનું સ્તર નોંધાપત્ર રીતે ઓછું છે. કૃપા કરીને રીચાર્જ કરવા માટે તેનો પ્લગ નાખો નહીં તો તે બંધ થશે.",
        "TIME_CONFIRMATION_HEADER": "તારીખ/સમયની પુષ્ટિ કરો",
        "TIMESLIP_ERROR": "તમારા ડિવાઇસ પરની તારીખ અથવા સમય ખોટો છે. કૃપા કરી ઇન્ટરનેટ કનેક્ટિવિટીવાળા સ્થાન પર જાઓ અને ફરી પ્રયાસ કરો. જો તમને મૂશ્કેલી આવવાનું ચાલુ રહે, તો ઈઆરટી ગ્રાહક સંભાળનો સંપર્ક કરો.",
        "SUPPORT": "ગ્રાહક સમર્થન",
        "SUPPORT_MESSAGE": "યુનાઇટેડ સ્ટેટ્સમાં રહેતા વપરાશકર્તાઓ 800-748-5669 પર ERT સહાય કેન્દ્રનો સંપર્ક કરી શકે છે. વિદેશમાં રહેતા વપરાશકર્તાઓ, કૃપા કરીને નીચે આપેલ સૌથી નજીક હોય તેવો દેશ પસંદ કરો:",
        "SUPPORT_DROPDOWN": "તમારો દેશ પસંદ કરો",
        "SUPPORT_NAME_ARGENTINA": "અર્જેન્ટીના",
        "SUPPORT_NUMBER_ARGENTINA": "<bdo dir='ltr'>0800 444 0962</bdo>",
        "SUPPORT_NAME_ARMENIA": "આર્મેનિયા",
        "SUPPORT_NUMBER_ARMENIA": "<bdo dir='ltr'>+1 617 681 6306</bdo>",
        "SUPPORT_NAME_AUSTRALIA": "ઓસ્ટ્રેલિયા",
        "SUPPORT_NUMBER_AUSTRALIA": "<bdo dir='ltr'>1 800 800 051</bdo>",
        "SUPPORT_NAME_AUSTRIA": "ઓસ્ટ્રિયા",
        "SUPPORT_NUMBER_AUSTRIA": "<bdo dir='ltr'>0800 100 405</bdo>",
        "SUPPORT_NAME_BELARUS": "બેલારુસ",
        "SUPPORT_NUMBER_BELARUS": "<bdo dir='ltr'>8 820 0321 0036</bdo>",
        "SUPPORT_NAME_BELGIUM": "બેલ્જિયમ",
        "SUPPORT_NUMBER_BELGIUM_1": "(અંગ્રેજી): <bdo dir='ltr'>0800 58 016</bdo>",
        "SUPPORT_NUMBER_BELGIUM_2": "(ફ્રેન્ચ): <bdo dir='ltr'>0800 71 076</bdo>",
        "SUPPORT_NUMBER_BELGIUM_3": "(જર્મન): <bdo dir='ltr'>0800 71 113</bdo>",
        "SUPPORT_NAME_BRAZIL": "બ્રાઝીલ",
        "SUPPORT_NUMBER_BRAZIL": "<bdo dir='ltr'>0800 891 5909</bdo>",
        "SUPPORT_NAME_BOSNIA": "બોસ્નિયા",
        "SUPPORT_NUMBER_BOSNIA": "<bdo dir='ltr'>+1 617 681 6306</bdo>",
        "SUPPORT_NAME_BULGARIA": "બલ્ગેરિયા",
        "SUPPORT_NUMBER_BULGARIA": "<bdo dir='ltr'>00800 0010</bdo>, પછી <bdo dir='ltr'>866 245 4931</bdo>",
        "SUPPORT_NAME_CANADA": "કેનેડા",
        "SUPPORT_NUMBER_CANADA": "<bdo dir='ltr'>1 800 748 5669</bdo>",
        "SUPPORT_NAME_CHILE": "ચિલી",
        "SUPPORT_NUMBER_CHILE": "<bdo dir='ltr'>123 0020 3408</bdo>",
        "SUPPORT_NAME_CHINA": "ચીન",
        "SUPPORT_NUMBER_CHINA_1": "નેત્કોમ (ઉત્તર): <bdo dir='ltr'>1 0800 74 40 164</bdo>",
        "SUPPORT_NUMBER_CHINA_2": "ટેલિકોમ (દક્ષિણ): <bdo dir='ltr'>1 0800 44 00 158</bdo>",
        "SUPPORT_NAME_COLOMBIA": "કોલમ્બિયા",
        "SUPPORT_NUMBER_COLOMBIA": "<bdo dir='ltr'>01 800 911.0010</bdo>, પછી <bdo dir='ltr'>866 310 3707</bdo>",
        "SUPPORT_NAME_COSTA_RICA": "કોસ્ટા રિકા",
        "SUPPORT_NUMBER_COSTA_RICA": "<bdo dir='ltr'>0800 013 1210</bdo>",
        "SUPPORT_NAME_CROATIA": "ક્રોએશિયા",
        "SUPPORT_NUMBER_CROATIA": "<bdo dir='ltr'>0800 222 953</bdo>",
        "SUPPORT_NAME_CZECH_REPUBLIC": "ચેક ગણતંત્ર",
        "SUPPORT_NUMBER_CZECH_REPUBLIC": "<bdo dir='ltr'>800 142 150</bdo>",
        "SUPPORT_NAME_DENMARK": "ડેનમાર્ક",
        "SUPPORT_NUMBER_DENMARK": "<bdo dir='ltr'>80 60 00 09</bdo>",
        "SUPPORT_NAME_EGYPT": "ઇજિપ્ત",
        "SUPPORT_NUMBER_EGYPT": "<bdo dir='ltr'>02 510 0200</bdo>, પછી <bdo dir='ltr'>866 310 3707</bdo>",
        "SUPPORT_NAME_EL_SALVADOR": "અલ સાલ્વાડોર",
        "SUPPORT_NUMBER_EL_SALVADOR": "<bdo dir='ltr'>+1 617 681 6306</bdo>",
        "SUPPORT_NAME_ESTONIA": "એસ્ટોનિયા",
        "SUPPORT_NUMBER_ESTONIA": "<bdo dir='ltr'>800 00 44 154</bdo>",
        "SUPPORT_NAME_FINLAND": "ફિનલેન્ડ",
        "SUPPORT_NUMBER_FINLAND": "<bdo dir='ltr'>0800 11 6366</bdo>",
        "SUPPORT_NAME_FRANCE": "ફ્રાન્સ",
        "SUPPORT_NUMBER_FRANCE": "<bdo dir='ltr'>0800 10 19 79</bdo>",
        "SUPPORT_NAME_GERMANY": "જર્મની",
        "SUPPORT_NUMBER_GERMANY": "<bdo dir='ltr'>0800 101 28 21</bdo>",
        "SUPPORT_NAME_GREECE": "ગ્રીસ",
        "SUPPORT_NUMBER_GREECE": "<bdo dir='ltr'>00 800 1311</bdo>, પછી <bdo dir='ltr'>866 310 3707</bdo>",
        "SUPPORT_NAME_GUATEMALA": "ગ્વાટેમાલા",
        "SUPPORT_NUMBER_GUATEMALA": "<bdo dir='ltr'>1 800 624 0079</bdo>",
        "SUPPORT_NAME_HONG_KONG": "હોંગ કોંગ",
        "SUPPORT_NUMBER_HONG_KONG": "<bdo dir='ltr'>3002 1665</bdo>",
        "SUPPORT_NAME_HUNGARY": "હંગેરી",
        "SUPPORT_NUMBER_HUNGARY": "<bdo dir='ltr'>06 800 14 571</bdo>",
        "SUPPORT_NAME_ICELAND": "આઈસલેન્ડ",
        "SUPPORT_NUMBER_ICELAND": "<bdo dir='ltr'>800 8544</bdo>",
        "SUPPORT_NAME_INDIA": "ભારત",
        "SUPPORT_NUMBER_INDIA": "<bdo dir='ltr'>000 800 440 1125</bdo>",
        "SUPPORT_NAME_INDONESIA": "ઇન્ડોનેશિયા",
        "SUPPORT_NUMBER_INDONESIA": "<bdo dir='ltr'>008 800 330 334</bdo>",
        "SUPPORT_NAME_IRELAND": "આયર્લેન્ડ",
        "SUPPORT_NUMBER_IRELAND": "<bdo dir='ltr'>1 800 946 700</bdo>",
        "SUPPORT_NAME_ISRAEL": "ઇઝરાયેલ",
        "SUPPORT_NUMBER_ISRAEL": "<bdo dir='ltr'>1 809 470 062</bdo>",
        "SUPPORT_NAME_ITALY": "ઇટાલી",
        "SUPPORT_NUMBER_ITALY": "<bdo dir='ltr'>800 90 56 37</bdo>",
        "SUPPORT_NAME_JAPAN": "જાપાન",
        "SUPPORT_NUMBER_JAPAN": "તમારા અભ્યાસના ટોલ-ફ્રી નંબર માટે કૃપા કરી તમારા ePRo અભ્યાસ માહિતી માર્ગદર્શિકાને જુઓ.",
        "SUPPORT_NAME_LATVIA": "લાતવિયા",
        "SUPPORT_NUMBER_LATVIA": "<bdo dir='ltr'>8000 2151</bdo>",
        "SUPPORT_NAME_LEBANON": "લેબનોન",
        "SUPPORT_NUMBER_LEBANON": "<bdo dir='ltr'>01-426-801</bdo> પછી <bdo dir='ltr'>866 310 3707</bdo>",
        "SUPPORT_NAME_LITHUANIA": "લિથુઆનિયા",
        "SUPPORT_NUMBER_LITHUANIA": "<bdo dir='ltr'>8800 30207</bdo>",
        "SUPPORT_NAME_MALAYSIA": "મલેશિયા",
        "SUPPORT_NUMBER_MALAYSIA": "<bdo dir='ltr'>1800 80 59 71</bdo>",
        "SUPPORT_NAME_MEXICO": "મેક્સિકો",
        "SUPPORT_NUMBER_MEXICO_1": "(અંગ્રેજી): <bdo dir='ltr'>001 800 748 5669</bdo> ",
        "SUPPORT_NUMBER_MEXICO_2": "(સ્પેનિશ): <bdo dir='ltr'>001 855 631 6952</bdo>",
        "SUPPORT_NAME_MOLDOVA": "મોલ્ડોવા",
        "SUPPORT_NUMBER_MOLDOVA": "<bdo dir='ltr'>617 681 6306</bdo>",
        "SUPPORT_NAME_NETHERLANDS": "નેધરલેન્ડ",
        "SUPPORT_NUMBER_NETHERLANDS": "<bdo dir='ltr'>0800 023 1389</bdo>",
        "SUPPORT_NAME_NEW_ZEALAND": "ન્યૂઝિલેંડ",
        "SUPPORT_NUMBER_NEW_ZEALAND": "<bdo dir='ltr'>0800 110 178</bdo>",
        "SUPPORT_NAME_NORWAY": "નોર્વે",
        "SUPPORT_NUMBER_NORWAY": "<bdo dir='ltr'>800 62 051</bdo>",
        "SUPPORT_NAME_PAKISTAN": "પાકિસ્તાન",
        "SUPPORT_NUMBER_PAKISTAN": "<bdo dir='ltr'>00 800 0100</bdo>, પછી <bdo dir='ltr'>866 237 9767</bdo>",
        "SUPPORT_NAME_PANAMA": "પનામા",
        "SUPPORT_NUMBER_PANAMA": "<bdo dir='ltr'>001 800 201 3095</bdo>",
        "SUPPORT_NAME_PERU": "પેરુ",
        "SUPPORT_NUMBER_PERU": "<bdo dir='ltr'>0800 5 0974</bdo>",
        "SUPPORT_NAME_PHILIPPINES": "ફિલિપાઇન્સ",
        "SUPPORT_NUMBER_PHILIPPINES": "<bdo dir='ltr'>1 800 1116 0651</bdo>",
        "SUPPORT_NAME_POLAND": "પોલેન્ડ",
        "SUPPORT_NUMBER_POLAND": "<bdo dir='ltr'>00800 331 1262</bdo>",
        "SUPPORT_NAME_PORTUGAL": "પોર્ટુગલ",
        "SUPPORT_NUMBER_PORTUGAL": "<bdo dir='ltr'>800 206 172</bdo>",
        "SUPPORT_NAME_PUERTO_RICO": "પ્યુર્ટો રીકો (યુએસ પ્રદેશ)",
        "SUPPORT_NUMBER_PUERTO_RICO": "<bdo dir='ltr'>1 800 748 5669</bdo>",
        "SUPPORT_NAME_ROMANIA": "રોમાનિયા",
        "SUPPORT_NUMBER_ROMANIA": "<bdo dir='ltr'>0800 894492</bdo>",
        "SUPPORT_NAME_RUSSIA": "રશિયા",
        "SUPPORT_NUMBER_RUSSIA_1": "(મુખ્ય – ટોલ ફ્રી): <bdo dir='ltr'>8 10 800 249 13011</bdo>",
        "SUPPORT_NUMBER_RUSSIA_2": "(મોસ્કોમાં): <bdo dir='ltr'>363-2400</bdo> <br> પછી <bdo dir='ltr'>866 310 3707</bdo>",
        "SUPPORT_NUMBER_RUSSIA_3": "(મોસ્કોની બહાર): <bdo dir='ltr'>8^(495) 363-2400</bdo> <br> પછી <bdo dir='ltr'>866 310 3707</bdo>",
        "SUPPORT_NUMBER_RUSSIA_4": "(સેંટ પીટર્સબર્ગમાં): <bdo dir='ltr'>363-2400</bdo> <br> પછી <bdo dir='ltr'>866 310 3707</bdo>",
        "SUPPORT_NUMBER_RUSSIA_5": "(સેંટ પીટર્સબર્ગની બહાર): <bdo dir='ltr'>8^(495) 363-2400</bdo> <br> પછી <bdo dir='ltr'>866 310 3707</bdo>",
        "SUPPORT_NAME_SAUDI_ARABIA": "સાઉદી અરેબિયા",
        "SUPPORT_NUMBER_SAUDI_ARABIA": "<bdo dir='ltr'>+1 617 681 6306</bdo>",
        "SUPPORT_NAME_SERBIA": "સર્બિયા",
        "SUPPORT_NUMBER_SERBIA": "<bdo dir='ltr'>+1 617 973 1739</bdo>",
        "SUPPORT_NAME_SINGAPORE": "સિંગાપુર",
        "SUPPORT_NUMBER_SINGAPORE": "<bdo dir='ltr'>800 616 30 03</bdo>",
        "SUPPORT_NAME_SLOVAKIA": "સ્લોવાકિયા",
        "SUPPORT_NUMBER_SLOVAKIA": "<bdo dir='ltr'>0800 0044 65</bdo>",
        "SUPPORT_NAME_SLOVENIA": "સ્લોવેનિયા",
        "SUPPORT_NUMBER_SLOVENIA": "<bdo dir='ltr'>+1 617 681 6306</bdo>",
        "SUPPORT_NAME_SOUTH_AFRICA": "દક્ષિણ આફ્રિકા",
        "SUPPORT_NUMBER_SOUTH_AFRICA": "<bdo dir='ltr'>0800 99 5853</bdo>",
        "SUPPORT_NAME_SOUTH_KOREA": "દક્ષિણ કોરિયા",
        "SUPPORT_NUMBER_SOUTH_KOREA": "<bdo dir='ltr'>00308 33 00 08</bdo>",
        "SUPPORT_NAME_SPAIN": "સ્પેન",
        "SUPPORT_NUMBER_SPAIN": "<bdo dir='ltr'>900 90 2541</bdo>",
        "SUPPORT_NAME_SWEDEN": "સ્વીડન",
        "SUPPORT_NUMBER_SWEDEN": "<bdo dir='ltr'>020 120 99 69</bdo>",
        "SUPPORT_NAME_SWITZERLAND": "સ્વિટ્ઝર્લેંડ",
        "SUPPORT_NUMBER_SWITZERLAND_1": "(અંગ્રેજી): <bdo dir='ltr'>0800 199 325</bdo>",
        "SUPPORT_NUMBER_SWITZERLAND_2": "(ફ્રેન્ચ): <bdo dir='ltr'>0800 891 183</bdo>",
        "SUPPORT_NUMBER_SWITZERLAND_3": "(જર્મન): <bdo dir='ltr'>0800 891 025</bdo>",
        "SUPPORT_NAME_TAIWAN": "તાઇવાન",
        "SUPPORT_NUMBER_TAIWAN": "<bdo dir='ltr'>00801 33 33 42</bdo>",
        "SUPPORT_NAME_THAILAND": "થાઇલેન્ડ",
        "SUPPORT_NUMBER_THAILAND": "<bdo dir='ltr'>1 800 33 140 353</bdo>",
        "SUPPORT_NAME_TUNISIA": "ટ્યુનિશિયા",
        "SUPPORT_NUMBER_TUNISIA": "<bdo dir='ltr'>+1 617 681 6306</bdo>",
        "SUPPORT_NAME_TURKEY": "તુર્કી",
        "SUPPORT_NUMBER_TURKEY": "<bdo dir='ltr'>00 800 151 1335</bdo>",
        "SUPPORT_NAME_UKRAINE": "યુક્રેન",
        "SUPPORT_NUMBER_UKRAINE": "<bdo dir='ltr'>0^00 11</bdo>, પછી <bdo dir='ltr'>866 245 4931</bdo>",
        "SUPPORT_NAME_UAE": "યુનાઈટેડ આરબ અમિરાત",
        "SUPPORT_NUMBER_UAE": "<bdo dir='ltr'>8000-021</bdo>, પછી <bdo dir='ltr'>866 310 3707</bdo>",
        "SUPPORT_NAME_UK": "યુનાઇટેડ કિંગડમ",
        "SUPPORT_NUMBER_UK": "<bdo dir='ltr'>0800 015 0408</bdo>",
        "SUPPORT_NAME_US": "યુનાઇટેડ સ્ટેટ્સ",
        "SUPPORT_NUMBER_US_1": "(મુખ્ય): <bdo dir='ltr'>1 800 748 5669</bdo>",
        "SUPPORT_NUMBER_US_2": "(બેકઅપ): <bdo dir='ltr'>1 877 748 5669</bdo>",
        "SUPPORT_NAME_VENEZUELA": "વેનેઝુએલા",
        "SUPPORT_NUMBER_VENEZUELA_1": "(અંગ્રેજી): <bdo dir='ltr'>0 800 552 6288</bdo> <br> પછી <bdo dir='ltr'>866 310 3707</bdo> ",
        "SUPPORT_NUMBER_VENEZUELA_2": "(સ્પેનિશ): <bdo dir='ltr'>0 800 100 3063</bdo> ",
        "STUDY_VERSION": "અભ્યાસ વર્ઝન:",
        "STUDY_URL": "અભ્યાસ URL:",
        "PROTOCOL": "પ્રોટોકોલ:",
        "SPONSOR": "પ્રાયોજક:",
        "STORED_REPORTS": "સંગ્રહિત પત્રકો:",
        "CORE_PRODUCT_VERSION_LABEL": "ઉત્પાદન આવૃત્તિ:",
        "ABOUT": "વિશે",
        "P_AFFIDAVIT_HEADER": "<div><strong>સાઇટ: {{{ getSiteCode }}}</strong><br /><strong>દર્દી ID: {{{ getPatientIdNumber }}}</strong></div>",
		"SET_TIMEZONE": "ટાઈમ ઝોન સેટ કરો",
		"DEVICE_SERIAL_NUMBER": "ઉપકરણ કમશઃ નંબર",
		"NONEXISTENT_USER": "અવિદ્યમાન ઉપયોગકર્તાને અપડેટ કરવાનો પ્રયાસ થયો.",
		"SCREENING" : "સ્ક્રીનિંગ",
		"TREATMENT" : "ઉપચાર",
		"RANDOMIZATION" : "રેન્ડમાઈઝેશન",
		"FOLLOWUP" : "અનુવર્તી",
		"TERMINATION" : "સમાપ્તિ",
        "ACCEPT": "હું સ્વીકાર કરું છું",
        "DECLINE": "હું અસ્વીકાર કરું છું",
		"EULA": "એન્ડ યુઝર (અંતિમ વપરાશકર્તા) લાઇસન્સ",
        "EULA_TEXT": "<p><strong><span class=\"text-underline\">મહત્વપૂર્ણ:</span>:  જ્યાં સુધી તમે આ કરાર વાંચ્યો હોય નહીં ત્યાં સુધી ACCEPT (સ્વીકાર્ય) બટન પર ક્લિક કરશો નહીં.  ACCEPT (સ્વીકાર્ય) બટન પર ક્લિક કરીને, તમે આ કરારની તમામ શરતોને સ્વીકાર કરો છો.  જો તમે આ કરારની શરતોમાંની તમામ સ્વીકારતા નથી તો (1) \"હું સ્વીકારું છું\" બટન પર ક્લિક કરશો નહીં, (2) \"હું અસ્વીકાર કરું છું\" બટન પર ક્લિક કરીને ઇન્સ્ટોલેશન અને લાઇસન્સિંગ પ્રક્રિયાને રદ કરો.</strong></p><p>eResearchTechnology, Inc. (\"લાઇસંસર\") ક્લિનિકલ ટ્રાયલ કરારમાં તમારી સહભાગિતાના સંબંધમાં આ ડિવાઇસ (સૉફ્ટવેર) પર પ્રસ્તુત કરાયેલ eResearchTechnology, Inc. સૉફ્ટવેરનો ઉપયોગ કરવા માટે તમને અનૈકાંતિક, અપરિવર્તનિય અધિકાર આપે છે: <strong>{{{ clinicalTrial }}}</strong>.  eResearchTechnology, Inc. સૉફ્ટવેર ઇશ્યૂ કરાયેલા પેટન્ટ્સ અને અન્ય બાકી પેટન્ટ્સ દ્વારા આવરિત છે.  આ કરાર તમને કોઈપણ સૉફ્ટવેર (અથવા તેની કોઈ પણ નકલો માટે) માં કોઈપણ માલિકી અધિકારો પ્રદાન કરતું નથી, પરંતુ માત્ર આ કરારની તમામ શરતો અનુસાર સૉફ્ટવેરનો ઉપયોગ કરવા માટેનું એક લાઇસન્સ સ્થાપિત કરે છે.  આ સૉફ્ટવેર અને તેના તમામ ભાગોની માલિકી અને તેમાં સમાવિષ્ટ તમામ માલિકી અને બૌદ્ધિક સંપદા અધિકારો દરેક સમયે લાઇસંસરને નિહિત કરાયેલા રહેશે.</p><p>તમે સંમત થાવ છો કે તમે સીધી અથવા પરોક્ષ રીતે, સૉફ્ટવેરને (i) રિવર્સ એન્જિનિયર, ડિસએસેમ્બલ અથવા ડિકમ્પાઇલ કરશો નહીં; (ii) કૉપિ, વિતરણ, ઉત્પાદન, અનુકૂલન, તેના વ્યુત્પન્ન સંસ્કરણો, અનુવાદ, સ્થાનિકરણ, પોર્ટ અથવા અન્યથા સોફ્ટવેરને સંશોધિત કરશો નહીં; અથવા (iii) કોઈપણ કૉપિરાઇટ, વેપાર રહસ્ય અથવા સૉફ્ટવેર પર અથવા તેમાં રહેલા અન્ય કાનૂની સૂચનાઓને દૂર કરશો અથવા બદલશો નહીં.  તમે સ્વીકારો છો અને સંમત થાવ છો કે સૉફ્ટવેરમાં એવા કોડ સમાવિષ્ટ હોઈ શકે છે કે જે સૉફ્ટવેરના અનધિકૃત ઉપયોગને અટકાવે છે.</p><br><p>જો તમે ઉપર જણાવેલ તમામને સ્વીકારો છો, તો કૃપા કરીને – <strong>\"હું સ્વીકારું છું\"</strong> –ક્લિક કરીને - હું સ્વીકારું છું પસંદ કરો જે લાઇસન્સની શરતો માટેની તમારી સ્વીકૃતિ સૂચવે છે.</p><p>જો તમે ઉપર જણાવેલ તમામને સંમત થતા નથી, અથવા સંમત થવા માટે અધિકૃત નથી, તો – <strong>હું અસ્વીકાર</strong> કરું છું પસંદ કરો – જે કિસ્સામાં, સૉફ્ટવેરની આગળની પહોંચ અવરોધિત કરવામાં આવશે.  જો અધિકૃત હોવ તો તમે અન્ય સમયે સ્વીકારી શકો છો.</p>",
        "VISIT_EXPIRED_HEADER": "સમાપ્ત થયેલ મુલાકાત.",
        "VISIT_EXPIRED_MESSAGE": "આ મુલાકાત હવે ઉપલબ્ધ નથી કારણ કે તે સમાપ્ત થઈ ગઈ છે.",
        "VISIT_EXPIRED_MESSAGE_SUBJECT": "આ મુલાકાત હવે ઉપલબ્ધ નથી કારણ કે તે સમાપ્ત થઈ ગઈ છે. કૃપા કરી સાઈટ ખાતેના યોગ્ય કર્મચારીને ઉપકરણ પરત કરો.",
        "SQ-AL": "અલ્બેનિયન",
        "IMAGE_FOLDER": "{{{ imageFolder }}}",
		"MODAL_OK_TEXT": "ઓકે",
        "BROWSER_LOAD_ERROR": "પેજ મળ્યું નથી. કૃપા કરીને તમારું ઇન્ટરનેટ કનેક્શન તપાસો અને ફરી પ્રયાસ કરો.",
		"NO_USER_OF_ROLE" : "તે ભૂમિકા સાથે કોઈ વપરાશકર્તા મળ્યા નથી.",
        "EDIT_PATIENT_REASON_1": "એટ્રીબ્યુટ (લક્ષણ) ડેટા સુધારણા",
        "EDIT_PATIENT_REASON_2": "ID (ઓળખ) ફેરફાર",
        "EDIT_PATIENT_REASON_3": "ખોટી ભાષા પસંદ કરવામાં આવી છે",
		"START_VISIT_OUTSIDE_WINDOW_MSG": "રૂપરેખાંકિત (કન્ફિગર કરાયેલ) સમય વિંડોની બહાર {{{ getVisitName }}} દાખલ કરો: {{{ startDate }}} - {{{ endDate }}}",
		"START_VISIT_HARD_STOP_MSG" : "તમે રૂપરેખાંકિત (કન્ફિગર કરાયેલ) સમય વિંડોની બહાર {{{ getVisitName }}} દાખલ કરવામાં અસમર્થ છો: {{{ startDate }}} - {{{ endDate }}}",
		"USER_NAME_INVALID_CHARACTERS" : "કૃપા કરી વિશેષ મૂળાક્ષરોનો ઉપગયોગ કરશો નહીં",
		"ERROR_PATIENT_SAVE" : "નવા દર્દીને ઉમેરતી વખતે એરર થઇ હતી",
		"PASSWORD_CHANGE_FAILED" : "તમારા અભ્યાસના ડેટા એકત્ર કરવા માટે અલગ ઉપકરણ સક્રિય કરવામાં આવેલ છે. કૃપયા એ ઉપકરણ પર તમારો પાસવર્ડ બદલો.",
		"ERROR" : "ભૂલ.  ERT સહાય કેન્દ્ર સાથે મહેરબાની કરી સંપર્ક કરો.",
		"ERROR_AFTER_ACTIVATION_SUCCESSFUL" : "ભૂલ આવી છે. તમારે તમારો સેટઅપ કોડ અને પાસવર્ડ દાખલ કરવાની જરૂરિયાત છે.",
		"CONNECTION_TIMEOUT" : "કનેક્શનનો સમય પૂરો થયો છે.",
		"UPDATE_FAILED" : "ERT અપડેટ પૂર્ણ થઈ નથી. કૃપયા સુનિશ્ચિત કરો કે આ ઉપકરણ ઇન્ટરનેટથી જોડાયેલ છે અને ફરી પ્રયાસ કરો.",
        "QR_CODE_UNAVAILABLE": "QR રિફ્રેશ કરવા પેશન્ટ પર ક્લિક કરો.",
        "QR_MODAL_TITLE": "QR કોડઃ ",
        "TRANSMIT_FAILED_403_14": "દર્દી રચનાને લગતી પ્રક્રિયા પૂર્ણ નહીં થવાને લીધે એક અથવા વધારે ટ્રાન્સમિશન્સ નિષ્ફળ ગઈ છે. રાહ જુઓ અને ફરીથી પ્રયત્ન કરો.",
        "CONSOLE_LOG": "કોન્સોલ લોગ",
		"USER_SELECT_ROLE_VALIDATION": "ભૂમિકાની રચના જરૂરી છે.",
        "USER_SELECT_LANGUAGE_VALIDATION": "ભાષાની પસંદગી જરૂરી છે."
    },
    "dates": {
        "setDateButtonLabel": "તારીખ સેટ કરો",
        "setTimeButtonLabel": "ઓકે",
        "setDurationButtonLabel": "સમયગાળો સેટ કરો",
        "calTodayButtonLabel": "આજ પર જાઓ",
        "titleDateDialogLabel": "તારીખ સેટ કરો",
        "titleTimeDialogLabel": "સમય સેટ કરો",
        "daysOfWeek": [
            "રવિવાર",
            "સોમવાર",
            "મંગળવાર",
            "બુધવાર",
            "ગુરુવાર",
            "શુક્રવાર",
            "શનિવાર"
        ],
        "daysOfWeekShort": [
            "રવિ",
            "સોમ",
            "મંગળ",
            "બુધ",
            "ગુરુ",
            "શુક્ર",
            "શનિ"
        ],
        "monthsOfYear": [
            "જાન્યુઆરી",
            "ફેબ્રુઆરી",
            "માર્ચ",
            "એપ્રિલ",
            "મે",
            "જૂન",
            "જુલાઇ",
            "ઑગસ્ટ",
            "સપ્ટેમ્બર",
            "ઑક્ટોબર",
            "નવેમ્બર",
            "ડિસેમ્બર"
        ],
        "monthsOfYearShort": [
            "જાન્યુ",
            "ફેબ્રુ",
            "મા",
            "એપ્રિ",
            "મે",
            "જૂન",
            "જુલા",
            "ઑગ",
            "સપ્ટે",
            "ઑક્ટો",
            "નવે",
            "ડિસે"
        ],
        "durationLabel": [
            "દિવસો",
            "કલાક",
            "મિનિટ",
            "સેકન્ડ"
        ],
        "durationDays": [
            "દિવસ",
            "દિવસો"
        ],
        "tooltip": "ખુલ્લી તારીખ લેનાર",
        "nextMonth": "આગામી મહિનો",
        "prevMonth": "પહેલાનો મહિનો",
        "clearButton": "સ્પષ્ટ",
        "meridiem": [
            "સવારે",
            "સાંજે"
        ]
    }
}
