{
    "namespace" : "P_Screening_Toss",
    "language"  : "es",
    "locale"    : "ES",
    "direction" : "ltr",
    "resources" : {
        "DISPLAY_NAME"      : "ES - Screening TOSS",
        "QUESTION_1"        : "ES - In the past 24 hours, how would you rate your <strong>ITCHY EYES</strong> symptoms?",
        "QUESTION_2"        : "ES - In the past 24 hours, how would you rate your <strong>TEARING EYES</strong> symptoms?",
        "QUESTION_3"        : "ES - In the past 24 hours, how would you rate your <strong>RED EYES</strong> symptoms?",
        "QUESTION_4"        : "ES - In the past 24 hours, how would you rate your <strong>SNEEZING</strong> symptoms?",
        "QUESTION_5"        : "ES - In the past 24 hours, how would you rate your <strong>ITCHY NOSE</strong> symptoms?",
        "ABSENT"            : "ES - Absent",
        "MILD_SYMPTOMS"     : "ES - Mild",
        "MODERATE_SYMPTOMS" : "ES - Moderate",
        "SEVERE_SYMPTOMS"   : "ES - Severe"
    }
}
