{
    "namespace": "CORE",
    "language": "ms",
    "locale": "MY",
    "localized": "Melayu",
    "direction": "ltr",
    "resources": {
        "ACTIVE": "Aktif",
        "ACTIVATE_USER": "Aktifkan Pengguna",
        "ACTIVATE_USER_CANCEL_CONFIRM": "Batalkan Pengaktifan?",
        "ACTIVATE_USER_CANCEL_BODY": "Jika anda batal sekarang, pengguna tapak tidak akan diaktifkan. Adakah anda pasti ingin batalkan?",
        "ACTIVATE_USER_AFF": "Dengan menandatangani di bawah, saya menyatakan bahawa saya dibenarkan untuk mengaktifkan pengguna tapak ini.",
        "ACTIVATE_USER_CONFIRM_INFORMATION": "Sila sahkan bahawa maklumat di bawah milik pengguna tapak yang anda ingin aktifkan.",
        "ADD_PATIENT": "Tambah Pesakit Baharu",
        "ADD_USER": "Tambah Pengguna",
        "AFFIDAVIT": "Pilih OK dan kemudian Berikut apabila bersedia untuk menyimpan respons anda.",
        "AFFIDAVIT_HELP": "Terima kasih. Anda telah memberikan semua respons yang diperlukan. Anda boleh memeriksa dan menukar respons anda dengan memilih Belakang.",
        "ALL_QUESTIONNAIRES_COMPLETED": "Semua Borang Telah Dilengkapkan",
        "APP_NAME": "ERT",
        "APPLICATION_HEADER": "{{{ appHeader }}}",
        "APP_NAME_LBL": "Nama App",
        "APP_VERSION": "Versi App",
        "ASSIGNED_TO": "Ditugaskan Kepada",
        "AVAILABLE": "Tersedia",
        "BACK": "Belakang",
        "BACK_OUT_CONFIRM": "Adakah anda pasti ingin keluar? Respons untuk borang ini akan hilang.",
        "BLUETOOTH_REG_REFRESH_BUTTON": "Segarkan Semula Senarai",
        "CANCEL": "Batal",
        "CHECK_FOR_UPDATES": "Semak Untuk Kemas Kini",
        "CHOOSE_A_SITE": "Tugaskan peranti ini ke tapak tertentu.",
        "COMPLETED": "Diselesaikan",
        "CONFIRM_PASSWORD": "Sahkan Kata Laluan:",
        "CONFIRM_TEMP_PASS": "Sahkan Kata Laluan Sementara:",
        "CONTINUE": "Teruskan",
        "COUNTRY": "Negara",
        "CUSTOM_ENVIRONMENT": "Persekitaran Tersuai",
        "DEACTIVATE_PATIENT": "Nyahaktifkan Pesakit",
        "DEACTIVATE_USER": "Nyahaktifkan Pengguna",
        "DEACTIVATED": "Nyahaktifkan",
        "DEACTIVATE_USER_CANCEL_CONFIRM": "Batal Penyahaktifan?",
        "DEACTIVATE_USER_CANCEL_BODY": "Jika anda batalkan sekarang, pengguna tapak tidak akan dinyahaktifkan. Adakah anda pasti ingin batalkan?",
        "DEACTIVATE_USER_AFF": "Dengan menandatangani di bawah, saya menyatakan bahawa saya dibenarkan untuk menyahaktifkan pengguna tapak ini.",
        "DEACTIVATE_USER_SIG": "<strong>Pengguna untuk menyahaktifkan:</strong> <br />{{{ getSelectedUsername }}}<br /><br /><strong>Tandatangan:</strong> {{{ getActiveUserName }}}",
        "DEACTIVATE_USER_CONFIRM_INFORMATION": "Sila sahkan bahawa maklumat di bawah milik pengguna tapak yang anda ingin nyahaktifkan.",
        "DEVICE_ID": "ID Peranti",
        "DEVICE_REGISTRATION_FAILURE": "Gagal untuk mendaftar peranti.",
        "DEVICE_UUIID": "UUID Peranti",
        "BATTERY_LEVEL": "Paras bateri",
        "DEVICE_INFO": "Maklumat Peranti",
        "DIARY_TIMEOUT": "Masa borang ini telah tamat.",
        "EDIT_MY_INFO": "Edit Info Saya",
        "EDIT_PATIENT": "Edit Pesakit",
        "EDIT_PATIENT_QUESTION_1_MAIN_TITLE": "<div class='question-title-large'>Pengenalan Pesakit </div><div>Julat ID untuk tapak ini:<br /><strong> {{{ patientIDRange }}}</strong></div><div class='edit-patient-id'>ID Pesakit:<br /><strong>{{{ getPatientIdNumber }}} ({{{getPatientInitials}}})</strong</div><br /><br />",
        "EDIT_PATIENT_QUESTION_1": "ID Pesakit:",
        "EDIT_PATIENT_QUESTION_1_EMPTY": "Sila isikan ID pesakit.",
        "EDIT_PATIENT_QUESTION_1_EMPTY_HEADER": "ID Pesakit",
        "EDIT_PATIENT_QUESTION_1_RANGE": "ID Pesakit yang anda masukkan tidak berada dalam julat ID yang dibenarkan: {{{ patientIDRange }}}.  Sila masukkan ID Pesakit yang sah.",
        "EDIT_PATIENT_QUESTION_1_RANGE_HEADER": "ID pesakit berada di luar julat",
        "EDIT_PATIENT_QUESTION_1_UNIQUE": "Pesakit sudah wujud.  Sila masukkan ID Pesakit lain.",
        "EDIT_PATIENT_QUESTION_1_UNIQUE_HEADER": "ID Pesakit ialah pendua",
        "EDIT_PATIENT_QUESTION_2": "Parap Pesakit:",
        "EDIT_PATIENT_QUESTION_2_EMPTY": "Sila isikan parap pesakit dengan minimum 2 aksara.",
        "EDIT_PATIENT_QUESTION_2_EMPTY_HEADER": "Parap Pesakit",
        "EDIT_PATIENT_QUESTION_3_TITLE": "<div class='question-title-large'>Pilih Bahasa</div><div>ID Pesakit:<br /><strong>{{{ getPatientIdNumber }}} ({{{getPatientInitials}}})</strong</div><br /><br />",
        "EDIT_PATIENT_QUESTION_3": "Pilih bahasa untuk pesakit",
        "EDIT_PATIENT_QUESTION_4_TITLE": "<div class='question-title-large'>Edit sebab</div><br /><br />",
        "EDIT_PATIENT_QUESTION_4": "Pilih sebab untuk mengedit pesakit",
        "EDIT_PATIENT_CANCEL_CONFIRM": "Batal perubahan pada Pesakit?",
        "EDIT_PATIENT_CANCEL_BODY": "Jika anda batalkan sekarang, tetapan pesakit tidak akan dikemas kini.  Adakah anda pasti ingin batalkan?",
        "EDIT_PATIENT_NO_CHANGES_CONFIRM": "Tiada Perubahan dibuat pada Pesakit",
        "EDIT_PATIENT_NO_CHANGES_BODY": "Tiada perubahan yang telah dibuat pada pesakit ini. Tetap keluar?",
        "EDIT_PATIENT_REASON_0": "Pembetulan ralat oleh klinisian",
        "EDIT_REASON": "Edit Sebab:",
        "EDIT_SERVICE_URL": "Edit URL Perkhidmatan",
        "EDIT_SERVICE_URL_SUCCESS": "URL perkhidmatan telah dikemas kini.",
        "EDIT_USER": "Edit Pengguna",
        "EDIT_USER_AFF": "Dengan menandatangani di bawah, saya menyatakan bahawa saya dibenarkan untuk mengedit pengguna tapak ini. <br /><br /><strong>Tandatangan:</strong> {{{ getActiveUserName }}}",
        "EDIT_USER_CANCEL_CONFIRM": "Batal Mengedit Pengguna?",
        "EDIT_USER_CANCEL_BODY": "Jika anda batalkan sekarang, perubahan pengguna tapak tidak akan dilaksanakan. Adakah anda pasti ingin batalkan?",
        "EDIT_USER_NO_CHANGES_HEADER": "Tiada Perubahan Dibuat pada Pengguna Tapak",
        "EDIT_USER_NO_CHANGES_BODY": "Tiada perubahan yang telah dibuat pada pengguna tapak ini. Tetap keluar?",
        "EMAIL": "Alamat E-mel",
        "ENTER_PATIENT_INFO": "Masukkan maklumat pesakit",
        "ENTER_UNLOCK_CODE": "Sila masukkan Kod Membuka Kunci",
        "ENTER_USER_INFO": "Masukkan maklumat pengguna tapak baharu",
        "ENVIRONMENT": "Persekitaran",
        "ERROR_CODE": "Kod Ralat:",
        "ERROR_TITLE": "Ralat",
        "FIRST_NAME": "Nama Pertama",
        "FORGOT_PASSWORD": "Terlupa Kata Laluan?",
        "FORM": "Borang",
        "FORM_GATEWAY": "Get laluan Borang",
        "FORM_NAME": "Nama Borang",
        "FULL_NAME": "Nama Penuh:",
        "GO_TO_VISITS": "Lawatan Pesakit",
        "HAND_DEVICE_SITE_TITLE": "Berikan Peranti kepada Pengguna Tapak",
        "HAND_DEVICE_SITE_BODY": "Sila berikan peranti kepada pengguna tapak.",
        "HELP": "Bantuan",
        "HOME": "Laman Utama",
        "IN_PROGRESS": "Sedang Berjalan",
        "INITIALS": "Parap",
        "INVALID_URL": "Sila masukkan URL yang sah.",
        "INVALID_PERMISSION": "Kebenaran Tidak Sah",
        "INVALID_PASSWORD": "Kata laluan tidak sah.",
        "LANGUAGE": "Bahasa:",
        "LAST_LOGIN": "Log Masuk Terakhir",
        "LAST_NAME": "Nama Keluarga",
        "LAST_REFRESH_TIME": "Waktu Segar Semula Terakhir",
        "LOCATION": "Lokasi",
        "LOGIN": "Log masuk",
        "LOGIN_SCREEN": "Log masuk",
        "LOGOUT": "Log keluar",
        "MANAGE_USERS": "Urus Pengguna Tapak",
        "MARK_AS_COMPLETED": "Tandakan sebagai Selesai",
        "SITE_SIGNATURE": "Tandatangan: ",
        "SITE_REPORT_AFF": "Saya telah memasukkan, menyemak dan mengesahkan data sebelum ini.<br /><br /><strong>Tandatangan:</strong> {{{ getActiveUserName }}}",
        "PATIENT_REPORT_AFF": "Saya telah memasukkan, menyemak dan dengan ini mengesahkan data sebelumnya.<br /><br /><strong>Parap:</strong> {{{ getActiveUserName }}}",
        "CLEAR_SIGNATURE": "Padam Tandatangan",
        "MENU": "Menu",
        "MODE": "Mod",
        "NAME": "Nama",
        "NEW_USER": "Tambah Diari Pengguna Baharu",
        "FIRST_SITE_USER": "Tambah Pengguna Tapak Pertama",
        "NEW_USER_CREATED": "Pengguna tapak telah dicipta.",
        "NEW_PATIENT_QUESTION_1_MAIN_TITLE": "<div class='question-title-large'>Masukkan Maklumat Pengenalan Pesakit</div><div>Julat ID untuk tapak ini:<br /><strong> {{{ patientIDRange }}}</strong></div><div><strong>Tapak: {{{ getSiteCode }}}</strong></div><div><strong>Pengguna: {{{ getUserName }}}</strong</div><br /><br />",
        "NEW_PATIENT_HELP_TEXT_1": "",
        "NEW_PATIENT_HELP_TEXT_2": "",
        "NEW_PATIENT_HELP_TEXT_3": "",
        "NEW_PATIENT_QUESTION_1_TITLE": "ID Pesakit",
        "NEW_PATIENT_QUESTION_1": "ID Pesakit:",
        "NEW_PATIENT_QUESTION_1_EMPTY": "Sila isikan ID pesakit.",
        "NEW_PATIENT_QUESTION_1_EMPTY_HEADER": "ID Pesakit",
        "NEW_PATIENT_QUESTION_1_RANGE": "ID Pesakit yang anda masukkan tidak berada dalam julat ID yang dibenarkan: {{{ patientIDRange }}}.  Sila masukkan ID Pesakit yang sah.",
        "NEW_PATIENT_QUESTION_1_RANGE_HEADER": "ID pesakit berada di luar julat",
        "NEW_PATIENT_QUESTION_1_UNIQUE": "Pesakit sudah wujud.  Sila masukkan ID Pesakit lain.",
        "NEW_PATIENT_QUESTION_1_UNIQUE_HEADER": "ID Pesakit ialah pendua",
        "NEW_PATIENT_QUESTION_2": "Parap Pesakit:",
        "NEW_PATIENT_QUESTION_2_EMPTY": "Sila isikan parap pesakit dengan minimum 2 aksara.",
        "NEW_PATIENT_QUESTION_2_EMPTY_HEADER": "Parap Pesakit",
        "NEW_PATIENT_QUESTION_3_TITLE": "<div class='question-title-large'>Pilih Bahasa</div><div><strong>Tapak: {{{ getSiteCode }}}</strong></div><div><strong>Pengguna: {{{ getUserName }}}</strong</div><div><strong>ID Pesakit: {{{ getPatientID }}}</strong></div><br /><br />",
        "NEW_PATIENT_QUESTION_3": "Pilih bahasa untuk pesakit",
        "NEW_PATIENT_CANCEL_CONFIRM": "Batal Menambah Pesakit?",
        "NEW_PATIENT_CANCEL_BODY": "Jika anda batalkan, pesakit tidak akan didaftarkan.  Adakah anda pasti ingin batalkan?",
        "NEW_PATIENT_AFFIDAVIT_HEADER": "<div><strong>Tapak: {{{ getSiteCode }}}</strong><br /><strong>Pengguna: {{{ getUserName }}}</strong><br /><strong>ID Pesakit: {{{ getPatientID }}}</strong></div>",
        "NEXT": "Berikut",
        "NO_RESULTS_FOUND": "Tiada hasil yang ditemui.",
        "NOT_AVAILABLE": "Tidak Tersedia",
        "OK": "OK",
        "ORDER": "Pesanan",
        "PASSWORD": "Kata Laluan:",
        "PATIENT": "Pesakit",
        "PATIENT_ID": "ID Pesakit:",
        "PATIENT_INITIALS": "Parap Pesakit:",
        "PATIENT_DELETED": "Pesakit Tidak Diketahui",
        "PATIENT_DELETED_MSG": "Pesakit tidak dapat ditemui.",
        "PATIENT_DELETED_SUBJECT_MSG": "Pesakit tidak dapat ditemui. Sila kembalikan peranti kepada kakitangan tapak yang berkenaan.",
        "PENDING_TRANSMISSIONS": "Penghantaran Belum Selesai",
        "PLEASE_WAIT": "Sila tunggu",
        "PLEASE_CONFIRM": "Sila sahkan",
        "PLEASE_CONTACT": "Sila hubungi Pusat Sokongan ERT.",
        "PLEASE_TRY_OR_CONTACT_SUPPORT": "Sila cuba lagi atau hubungi Pusat Sokongan ERT.",
        "REASON": "Sebab:",
        "REPORTS_AND_FORMS": "Laporan dan Borang",
        "REPORTS_COMPLETED_MESSAGE": "Anda telah melengkapkan semua borang anda. Sila kembalikan peranti kepada kakitangan tapak yang berkenaan.",
        "REQUIRED_ANSWER": "Sila lengkapkan maklumat yang diminta.",
        "RESET_PIN": "Tetap semula PIN Pesakit",
        "RESET_USER_PASSWORD": "Tetap Semula Kata Laluan Pengguna",
        "ROLES": "Peranan:",
        "SAVE": "Simpan",
        "SEARCH": "Cari",
        "SECURITY_QUESTION_0": "Apakah nama keluarga ibu anda sebelum berkahwin?",
        "SECURITY_QUESTION_1": "Di bandar manakah anda dilahirkan?",
        "SECURITY_QUESTION_2": "Apakah nama haiwan peliharaan pertama anda?",
        "SECURITY_QUESTION_3": "Apakah sukan kegemaran anda?",
        "SECURITY_QUESTION_4": "Pada tahun berapakah anda tamat belajar?",
        "SECURITY_QUESTION_5": "Apakah nama tengah anak sulung anda?",
        "SECURITY_QUESTION_6": "Apakah nama rakan kegemaran anda semasa kecil?",
        "SECURITY_QUESTION_7": "Apakah nama keluarga guru darjah tiga anda?",
        "SECURITY_QUESTION_8": "Di pekan atau bandar manakah anda mula bekerja?",
        "SECRET_ANSWER": "Jawapan Keselamatan:",
        "SECRET_QUESTION": "Soalan Keselamatan:",
        "SECRET_QUESTION_HELP_TEXT": "Pilih soalan keselamatan daripada senarai di bawah. Jawapan tersebut digunakan untuk log masuk jika anda terlupa Kata laluan anda.",
        "SECRET_QUESTION_ANSWER": "Soalan dan Jawapan Keselamatan",
        "SELECT_LANGUAGE": "Sila pilih bahasa yang diutamakan untuk tapak ini.",
        "SET_TIMEZONE_MESSAGE": "Pilih Zon Waktu Anda:",
        "SELECT_SITE_NUMBER": "Sila pilih nombor tapak",
        "SERVICE_URL": "URL Perkhidmatan",
        "SETTINGS": "Tetapan",
        "SETUP_COMPLETE": "Persediaan Selesai",
        "SETUP_COMPLETE_DESC": "Peranti ini sekarang telah disediakan dan bersedia untuk penghantaran.  Sila tekan OK kemudian matikan peranti pada skrin berikutnya.",
        "SETUP_SITE_USER": "Sediakan Pengguna Tapak:",
        "SETUP_SITE_USER_LEGEND": "Sila sediakan pengguna tapak untuk peranti ini.",
        "SITE": "Tapak",
        "SITE_ASSESSMENTS": "Penilaian Tapak",
        "SIGNATURE_DATA_LIMIT_EXCEEDED": "Kotak tandatangan tidak dapat memaparkan tandatangan anda serupa dengan yang ditulis. Sila tandatangan menggunakan parap anda.",
        "SITE_NUMBER": "Nombor Tapak",
        "SITE_ROLE": "Pengguna Tapak",
        "SITE_SELECTION": "Pemilihan Tapak",
        "SKIP_FORM": "Langkau Borang",
        "SKIP_QUESTION": "Adakah anda pasti ingin melangkau respons pada skrin ini?",
        "SKIP_TO_VISIT": "Langkau ke Lawatan",
        "SKIP_VISIT": "Langkau Lawatan",
        "SKIP_VISITS": "Langkau Lawatan",
        "SKIP_VISITS_QUESTION_1": "<div class='question-title-large'><strong>Sebab</strong></div><br /><br /><div>Pilih sebab melangkau lawatan:</div>",
        "SKIP_VISITS_REASON_0": "Lawatan Tamat Tempoh",
        "SKIP_VISITS_REASON_1": "Ralat pentadbiran tapak",
        "SKIP_VISITS_REASON_2": "Subjek tidak hadir janji temu klinikal.",
        "SKIP_VISITS_REASON_3": "Tidak Berkenaan.",
        "SKIP_VISITS_REASON_4": "Lawatan tidak wajib, tidak dilakukan.",
        "SKIP_VISITS_CANCEL_CONFIRM": "Batal Melangkau Lawatan?",
        "SKIP_VISITS_CANCEL_BODY": "Jika anda batal sekarang, lawatan tidak akan dilangkau. Adakah anda pasti ingin batalkan?",
        "SKIPPED" : "Dilangkau",
        "SKIPPED_VISITS": "{{{ skippedVisits }}}",
        "START_FORM": "Borang Mula",
        "START_VISIT": "Lawatan Mula",
        "STATUS": "Status",
        "STATUS_DATE": "Tarikh Status",
        "STUDY": "Kajian",
        "STUDYWORKS_LOGIN": "Log masuk StudyWorks",
        "SUBJECT_ID": "ID Pesakit",
        "SUBJECT_ROLE": "Pesakit",
        "SUBMIT": "Serah",
        "SUPPORT_TOOLS": "Alat Sokongan",
        "SYNC": "Segerak",
        "SYNC_USERS": "Segerakkan Pengguna",
        "SYNC_TO_DEVICE": "Segerakkan Kajian dengan Peranti",
        "TEMPORARY_PASSWORD_MESSAGE": "Sila berikan kata laluan sementara kepada pengguna baharu. Mereka akan diminta untuk membuat kata laluan yang baru selepas log masuk.",
        "TEMP_PASSWORD": "Kata Laluan Sementara: ",
        "UNABLE_TO_GET_SITE_LIST": "Tidak boleh mendapatkan Senarai Tapak",
        "UNLOCK_CODE": "Kod Membuka Kunci",
        "UNLOCK_CODE_HELP": "Kod Membuka Kunci untuk ERT Tablet anda boleh diperoleh daripada StudyWorks dalam 'Kod Membuka Kunci ERT' SmartReport. Sila hubungi Pusat Sokongan ERT untuk bantuan tambahan.",
        "USER": "Pengguna",
        "USER_ALREADY_EXISTS": "Pengguna Sudah Wujud",
        "USER_EDITED": "Pengguna telah dikemas kini.",
        "USER_TO_ACTIVATE": "<strong>Pengguna untuk mengaktifkan:</strong> <br />{{{ getSelectedUsername }}}<br /><br /><strong>Tandatangan:</strong> {{{ getActiveUserName }}}",
        "SUBJECT_ALREADY_EXISTS": "Pesakit dengan ID {{{ getPatientIDForDuplicate }}} sudah wujud",
        "TIME_CONFIRMATION_INSTRUCTIONS": "Peranti perlu mengesahkan waktu tempatan anda. Sila masukkan tarikh dan waktu anda daripada sumber yang boleh dipercayai.",
        "TIME_ZONE_ERROR_HEADER": "Ralat Zon Waktu",
        "TIME_ZONE_ERROR_MSG": "Ralat telah berlaku semasa memperoleh senarai Zon Waktu. Sila hubungi Pusat Sokongan ERT untuk bantuan tambahan.",
        "TIME_ZONE_SET_ERROR_MSG": "Ralat telah berlaku semasa menetapkan Zon Waktu. Sila hubungi Pusat Sokongan ERT untuk bantuan tambahan.",
        "TIME_ZONE_SET_CONFIRM": "Adakah anda pasti mahu menetapkan Zon Waktu kepada {{{selectedTimeZone}}}? <br/> Aplikasi mungkin akan dimulakan semula untuk melaksanakan perubahan tersebut.",
        "TIME_ZONE_SET_CONFIRM_NOCHANGE": "Adakah anda pasti mahu menetapkan Zon Waktu kepada {{{selectedTimeZone}}}?",
        "TIME_ZONE_SET_HEADER": "Pengesahan Tetap Zon Waktu",
        "TRAINER": "Mod Jurulatih",
        "TRAINER_EXIT": "Keluar Mod Jurulatih",
        "TRAINER_EXIT_NOTIFICATION": "Anda sedang keluar daripada Mod Jurulatih",
        "TRAINER_HEADER": "(Jurulatih)",
        "USER_ROLE": "Peranan Pengguna",
        "USERNAME": "Nama Pengguna",
        "USER_NAME": "Nama Pengguna:",
        "VISIT": "Lawatan",
        "VISIT_COMPLETED_MESSAGE": "Tiada borang lain untuk lawatan ini.  Lawatan ini kini selesai.",
        "VISIT_INACTIVE_HEADER": "Lawatan tidak aktif.",
        "VISIT_INACTIVE_MESSAGE": "Lawatan ini tidak aktif lagi.",
        "VISIT_INACTIVE_MESSAGE_SUBJECT": "Lawatan ini tidak aktif lagi. Sila kembalikan peranti kepada kakitangan tapak yang berkenaan.",
        "VISITS": "Lawatan",
        "VISITS_SKIPPED": "Lawatan Dilangkau:",
        "VISIT_NAME": "Nama Lawatan",
        "WELCOME": "Selamat Datang",
        "AF-ZA": "Afrikaans",
        "AR-EG": "Arab",
        "BE-BY": "Belarus",
        "BG-BG": "Bulgaria",
        "BN-IN": "Bengali",
        "BS-BA": "Bosnia",
        "CA-ES": "Catalan",
        "CS-CZ": "Czech",
        "DA-DK": "Denmark",
        "DE-DE": "Jerman (Jerman)",
        "DE-AT": "Jerman (Austria)",
        "EL-GR": "Greek",
        "EN-GB": "Inggeris (UK)",
        "EN-US": "Inggeris (AS)",
        "ES-ES": "Sepanyol (Sepanyol)",
        "ES-US": "Sepanyol (AS)",
        "ES-PY": "Sepanyol (Universal)",
        "ET-EE": "Estonia",
        "FI-FI": "Finland",
        "FR-CA": "Perancis (Kanada)",
        "FR-FR": "Perancis (Perancis)",
        "GD-IE": "Gaelic",
        "GU-IN": "Gujarati",
        "HE-IL": "Ibrani",
        "HI-IN": "Hindi",
        "HR-HR": "Croatia",
        "HU-HU": "Hungari",
        "IT-IT": "Itali",
        "JA-JP": "Jepun",
        "KA-GE": "Georgia",
        "KN-IN": "Kannada",
        "KO-KR": "Korea",
        "LV-LV": "Latvia",
        "LT-LT": "Lithuania",
        "ML-IN": "Malayalam",
        "MR-IN": "Marathi",
        "MS-MY": "Melayu",
        "NB-NO": "Norway",
        "NL-BE": "Belanda (Belgium)",
        "NL-NL": "Belanda (Netherlands)",
        "PA-IN": "Punjabi",
        "PL-PL": "Poland",
        "PT-BR": "Portugis (Brazil)",
        "PT-PT": "Portugis (Portugal)",
        "RO-RO": "Romania",
        "RU-RU": "Rusia",
        "SL-SL": "Slovenia",
        "SK-SK": "Slovak",
        "SR-RS": "Serbia (Latin)",
        "SR-SP": "Serbia (Cyrillic)",
        "ST-ZA": "Sotho",
        "SV-SE": "Sweden",
        "TA-IN": "Tamil",
        "TE-IN": "Telugu",
        "TH-TH": "Thai",
        "TL-PH": "Tagalog",
        "TN-ZA": "Tswana",
        "TR-TR": "Turki",
        "UK-UA": "Ukrain",
        "UR-IN": "Urdu",
        "VI-VN": "Vietnam",
        "XH-ZA": "Xhosa",
        "ZH-CN": "Cina (China)",
        "ZH-TW": "Cina (Taiwan)",
        "ZU-ZU": "Zulu",
        "HAND_DEVICE_SUBJECT_BODY": "Borang yang berikutnya mesti dilengkapkan oleh {{{ patientOrRole }}}. Sila log keluar, kemudian berikan peranti kepada {{{ patientOrRole }}}.",
        "HAND_DEVICE_SUBJECT_TITLE": "Memulakan Borang {{{ formTitle }}}",
        "SKIP_VISIT_TITLE": "Langkau Lawatan?",
        "SKIP_VISIT_TEXT": "Jika anda teruskan, lawatan berikut akan dilangkau:<br/> {{{ skippedVisits }}} Teruskan dan langkau lawatan ini sekarang?",
        "YES":"Ya",
        "NO":"Tidak",
        "TIME_LBL": "Waktu:",
        "SET_TIME": "Tetapkan Waktu",
        "DATE_LBL": "Tarikh:",
        "CREATE_PERMANENT_PASSWORD_TITLE": "Cipta Kata Laluan Kekal",
        "USER_ID": "ID Pengguna:",
        "PHASE": "Fasa",
        "LAST_VISIT": "Lawatan Terakhir Dilengkapkan",
        "CONNECTION_REQUIRED": "Sambungan Internet diperlukan.",
        "RETRY": "Cuba Lagi",
        "UPDATE_FAILURE": "Kemas kini Tidak Lengkap",
        "UPDATE_SUCCESS": "Kemas kini Berjaya",
        "CANCEL_PERMANENT_PASSWORD_TITLE": "Batalkan Penciptaan Kata Laluan Kekal?",
        "CANCEL_PERMANENT_PASSWORD_TEXT": "Jika anda batalkan sekarang, kata laluan anda tidak akan dicipta. Anda perlu memasukkan kata laluan kekal untuk mula menggunakan ERT. Adakah anda pasti ingin batalkan?",
        "ACCOUNT_CONFIGURED_TITLE": "Persediaan akaun selesai",
        "ACCOUNT_CONFIGURED_TEXT": "Anda kini telah melengkapkan penetapan akaun anda, anda kini boleh terus menggunakan sistem eCOA.",
        "LOGGED_IN_AS": "Log masuk sebagai",
        "EDIT_PATIENT_AFFIDAVIT_HEADER": "<p class='question-title-large'>Tandatangan</p><br />",
        "EDIT_PATIENT_AFF": "Dengan menandatangani di bawah, saya menyatakan bahawa saya dibenarkan untuk mengedit pesakit ini.<br /><br />ID Pesakit {{{ getPatientIdNumber }}}<br /><br /><strong>Tandatangan:</strong> {{{ getActiveUserName }}}",
        "PASSWORD_MISMATCH": "Pengesahan kata laluan tidak sama dengan kata laluan",
        "FIRST_USER_AFFIDAVIT": "Dengan menandatangani di bawah, saya menyatakan bahawa saya ialah penyelidik utama atau wakil yang dibenarkan untuk membuat akaun pada sistem ini.<br /><br /><strong>Tandatangan:</strong> {{{ getFirstUsername }}}",
		"INCOMPLETE": "Tidak lengkap",
        "INVALID_ENTRY": "Entri Tidak Sah",
        "PLEASE_ANSWER_SQ": "Sila jawab soalan keselamatan anda:",
        "FORGOT_SECRET_ANSWER": "Terlupa jawapan keselamatan?",
        "CONTACT_STUDY_COORDINATOR": "Hubungi Koordinator Kajian",
        "ENTER_NEW_PASSWORD": "Kata Laluan Baharu:",
        "CONTACT_UNLOCK_CODE": "Sila hubungi Koordinator Kajian anda bagi Kod Membuka Kunci untuk hari ini:",
        "CURRENT_DATE": "{{{ currentDate }}}",
        "TEMPORARY_UNLOCK_CODE": "Masukkan Kod Membuka Kunci yang diberikan oleh Koordinator Kajian.",
        "RESET_SECRET_QUESTION": "Tetapkan Semula Soalan Keselamatan",
        "SECRET_QUESTION_CHANGE_SUCCESS": "Anda telah berjaya mengemas kini kata laluan dan soalan keselamatan anda.",
        "RESET_PASSWORD": "Tetapkan semula Kata Laluan",
        "ANSWER_ATTEMPT_EXCEEDED": "Anda telah terlalu banyak kali memasukkan jawapan yang salah atau mengklik pautan jawapan keselamatan yang dilupai.",
        "PASSWORD_ATTEMPT_EXCEEDED": "Terlalu banyak kali anda memasukkan kata laluan yang salah atau mengklik pada pautan kata laluan yang dilupai.",
        "PASSWORD_CHANGE_SUCCESS": "Anda telah berjaya mengemas kini kata laluan anda.",
        "CHANGE_PASSWORD": "Tukar Kata Laluan",
        "CHANGE_SECRET_QUESTION": "Tukar Soalan Keselamatan",
        "SYNC_COMPLETE": "Penyegerakan Selesai",
        "INCORRECT_ANSWER": "Jawapan Tidak Tepat",
        "INCORRECT_UNLOCK_CODE": "Kod Membuka Kunci tidak tepat",
        "PASSWORD_INVALID": "Kata Laluan Tidak Tepat",
        "SUBJECT": "Pesakit",
        "PATIENT_ADDED": "Pesakit Ditambah",
        "SITE_ADMINISTRATOR": "Pentadbir Tapak",
        "LOW_BATTERY": "Amaran: Paras bateri rendah. Sila masukkan palam peranti untuk mengecas semula.",
        "CRITICAL_BATTERY": "Amaran: Paras bateri amat rendah. Sila masukkan palam peranti untuk mengecas atau ia akan dimatikan.",
        "TIME_CONFIRMATION_HEADER": "Sahkan Tarikh/Waktu",
        "TIMESLIP_ERROR": "Waktu atau tarikh pada peranti anda tidak tepat. Sila pergi ke lokasi dengan ketersambungan internet dan cuba semula. Sekiranya anda masih menghadapi masalah, hubungi Penjagaan Pelanggan ERT.",
        "SUPPORT": "Sokongan Pelanggan",
        "SUPPORT_MESSAGE": "Pengguna di Amerika Syarikat boleh menghubungi Pusat Sokongan ERT di 800-748-5669. Pengguna antarabangsa, sila pilih negara terdekat di bawah:",
        "SUPPORT_DROPDOWN": "Pilih negara anda",
        "SUPPORT_NAME_ARGENTINA": "Argentina",
        "SUPPORT_NUMBER_ARGENTINA": "<bdi>0800 444 0962</bdi>",
        "SUPPORT_NAME_ARMENIA": "Armenia",
        "SUPPORT_NUMBER_ARMENIA": "<bdi>+1 617 681 6306</bdi>",
        "SUPPORT_NAME_AUSTRALIA": "Australia",
        "SUPPORT_NUMBER_AUSTRALIA": "<bdi>1 800 800 051</bdi>",
        "SUPPORT_NAME_AUSTRIA": "Austria",
        "SUPPORT_NUMBER_AUSTRIA": "<bdi>0800 100 405</bdi>",
        "SUPPORT_NAME_BELARUS": "Belarus",
        "SUPPORT_NUMBER_BELARUS": "<bdi>8 820 0321 0036</bdi>",
        "SUPPORT_NAME_BELGIUM": "Belgium",
        "SUPPORT_NUMBER_BELGIUM_1": "(Inggeris) : <bdi>0800 58 016</bdi>",
        "SUPPORT_NUMBER_BELGIUM_2": "(Perancis) : <bdi>0800 71 076</bdi>",
        "SUPPORT_NUMBER_BELGIUM_3": "(Jerman) : <bdi>0800 71 113</bdi>",
        "SUPPORT_NAME_BRAZIL": "Brazil",
        "SUPPORT_NUMBER_BRAZIL": "<bdi>0800 891 5909</bdi>",
        "SUPPORT_NAME_BOSNIA": "Bosnia",
        "SUPPORT_NUMBER_BOSNIA": "<bdi>+1 617 681 6306</bdi>",
        "SUPPORT_NAME_BULGARIA": "Bulgaria",
        "SUPPORT_NUMBER_BULGARIA": "<bdi>00800 0010</bdi>, kemudian <bdi>866 245 4931</bdi>",
        "SUPPORT_NAME_CANADA": "Kanada",
        "SUPPORT_NUMBER_CANADA": "<bdi>1 800 748 5669</bdi>",
        "SUPPORT_NAME_CHILE": "Chile",
        "SUPPORT_NUMBER_CHILE": "<bdi>123 0020 3408</bdi>",
        "SUPPORT_NAME_CHINA": "China",
        "SUPPORT_NUMBER_CHINA_1": "NetCom (Utara) : <bdi>1 0800 74 40 164</bdi>",
        "SUPPORT_NUMBER_CHINA_2": "Telecom (Selatan) : <bdi>1 0800 44 00 158</bdi>",
        "SUPPORT_NAME_COLOMBIA": "Colombia",
        "SUPPORT_NUMBER_COLOMBIA": "<bdi>01 800 911 0010</bdi>, kemudian <bdi>866 310 3707</bdi>",
        "SUPPORT_NAME_COSTA_RICA": "Costa Rica",
        "SUPPORT_NUMBER_COSTA_RICA": "<bdi>0800 013 1210</bdi>",
        "SUPPORT_NAME_CROATIA": "Croatia",
        "SUPPORT_NUMBER_CROATIA": "<bdi>0800 222 953</bdi>",
        "SUPPORT_NAME_CZECH_REPUBLIC": "Republik Czech",
        "SUPPORT_NUMBER_CZECH_REPUBLIC": "<bdi>800 142 150</bdi>",
        "SUPPORT_NAME_DENMARK": "Denmark",
        "SUPPORT_NUMBER_DENMARK": "<bdi>80 60 00 09</bdi>",
        "SUPPORT_NAME_EGYPT": "Mesir",
        "SUPPORT_NUMBER_EGYPT": "<bdi>02 510 0200</bdi>, kemudian <bdi>866 310 3707</bdi>",
        "SUPPORT_NAME_EL_SALVADOR": "El Salvador",
        "SUPPORT_NUMBER_EL_SALVADOR": "<bdi>+1 617 681 6306</bdi>",
        "SUPPORT_NAME_ESTONIA": "Estonia",
        "SUPPORT_NUMBER_ESTONIA": "<bdi>800 00 44 154</bdi>",
        "SUPPORT_NAME_FINLAND": "Finland",
        "SUPPORT_NUMBER_FINLAND": "<bdi>0800 11 6366</bdi>",
        "SUPPORT_NAME_FRANCE": "Perancis",
        "SUPPORT_NUMBER_FRANCE": "<bdi>0800 10 19 79</bdi>",
        "SUPPORT_NAME_GERMANY": "Jerman",
        "SUPPORT_NUMBER_GERMANY": "<bdi>0800 101 28 21</bdi>",
        "SUPPORT_NAME_GREECE": "Greece",
        "SUPPORT_NUMBER_GREECE": "<bdi>00 800 1311</bdi>, kemudian <bdi>866 310 3707</bdi>",
        "SUPPORT_NAME_GUATEMALA": "Guatemala",
        "SUPPORT_NUMBER_GUATEMALA": "<bdi>1 800 624 0079</bdi>",
        "SUPPORT_NAME_HONG_KONG": "Hong Kong",
        "SUPPORT_NUMBER_HONG_KONG": "<bdi>3002 1665</bdi>",
        "SUPPORT_NAME_HUNGARY": "Hungary",
        "SUPPORT_NUMBER_HUNGARY": "<bdi>06 800 14 571</bdi>",
        "SUPPORT_NAME_ICELAND": "Iceland",
        "SUPPORT_NUMBER_ICELAND": "<bdi>800 8544</bdi>",
        "SUPPORT_NAME_INDIA": "India",
        "SUPPORT_NUMBER_INDIA": "<bdi>000 800 440 1125</bdi>",
        "SUPPORT_NAME_INDONESIA": "Indonesia",
        "SUPPORT_NUMBER_INDONESIA": "<bdi>008 800 330 334</bdi>",
        "SUPPORT_NAME_IRELAND": "Ireland",
        "SUPPORT_NUMBER_IRELAND": "<bdi>1 800 946 700</bdi>",
        "SUPPORT_NAME_ISRAEL": "Israel",
        "SUPPORT_NUMBER_ISRAEL": "<bdi>1 809 470 062</bdi>",
        "SUPPORT_NAME_ITALY": "Itali",
        "SUPPORT_NUMBER_ITALY": "<bdi>800 90 56 37</bdi>",
        "SUPPORT_NAME_JAPAN": "Jepun",
        "SUPPORT_NUMBER_JAPAN": "Sila rujuk Panduan Maklumat Kajian ePRO anda untuk nombor bebas tol kajian",
        "SUPPORT_NAME_LATVIA": "Latvia",
        "SUPPORT_NUMBER_LATVIA": "<bdi>8000 2151</bdi>",
        "SUPPORT_NAME_LEBANON": "Lebanon",
        "SUPPORT_NUMBER_LEBANON": "<bdi>01-426-801</bdi> kemudian <bdi>866 310 3707</bdi>",
        "SUPPORT_NAME_LITHUANIA": "Lithuania",
        "SUPPORT_NUMBER_LITHUANIA": "<bdi>8800 30207</bdi>",
        "SUPPORT_NAME_MALAYSIA": "Malaysia",
        "SUPPORT_NUMBER_MALAYSIA": "<bdi>1800 80 59 71</bdi>",
        "SUPPORT_NAME_MEXICO": "Mexico",
        "SUPPORT_NUMBER_MEXICO_1": "(Inggeris) : <bdi>001 800 748 5669</bdi> ",
        "SUPPORT_NUMBER_MEXICO_2": "(Sepanyol) : <bdi>001 855 631 6952</bdi>",
        "SUPPORT_NAME_MOLDOVA": "Moldova",
        "SUPPORT_NUMBER_MOLDOVA": "<bdi>617 681 6306</bdi>",
        "SUPPORT_NAME_NETHERLANDS": "Netherlands",
        "SUPPORT_NUMBER_NETHERLANDS": "<bdi>0800 023 1389</bdi>",
        "SUPPORT_NAME_NEW_ZEALAND": "New Zealand",
        "SUPPORT_NUMBER_NEW_ZEALAND": "<bdi>0800 110 178</bdi>",
        "SUPPORT_NAME_NORWAY": "Norway",
        "SUPPORT_NUMBER_NORWAY": "<bdi>800 62 051</bdi>",
        "SUPPORT_NAME_PAKISTAN": "Pakistan",
        "SUPPORT_NUMBER_PAKISTAN": "<bdi>00 800 0100</bdi>, kemudian <bdi>866 237 9767</bdi>",
        "SUPPORT_NAME_PANAMA": "Panama",
        "SUPPORT_NUMBER_PANAMA": "<bdi>001 800 201 3095</bdi>",
        "SUPPORT_NAME_PERU": "Peru",
        "SUPPORT_NUMBER_PERU": "<bdi>0800 5 0974</bdi>",
        "SUPPORT_NAME_PHILIPPINES": "Filipina",
        "SUPPORT_NUMBER_PHILIPPINES": "<bdi>1 800 1116 0651</bdi>",
        "SUPPORT_NAME_POLAND": "Poland",
        "SUPPORT_NUMBER_POLAND": "<bdi>00800 331 1262</bdi>",
        "SUPPORT_NAME_PORTUGAL": "Portugal",
        "SUPPORT_NUMBER_PORTUGAL": "<bdi>800 206 172</bdi>",
        "SUPPORT_NAME_PUERTO_RICO": "Puerto Rico (Wilayah AS)",
        "SUPPORT_NUMBER_PUERTO_RICO": "<bdi>1 800 748 5669</bdi>",
        "SUPPORT_NAME_ROMANIA": "Romania",
        "SUPPORT_NUMBER_ROMANIA": "<bdi>0800 894492</bdi>",
        "SUPPORT_NAME_RUSSIA": "Rusia",
        "SUPPORT_NUMBER_RUSSIA_1": "(Utama - Bebas Tol) : <bdi>8 10 800 249 13011</bdi>",
        "SUPPORT_NUMBER_RUSSIA_2": "(Dalam Moscow) : <bdi>363-2400</bdi> <br> kemudian <bdi>866 310 3707</bdi>",
        "SUPPORT_NUMBER_RUSSIA_3": "(Luar Moscow) : <bdi>8^(495) 363-2400</bdi> <br> kemudian <bdi>866 310 3707</bdi>",
        "SUPPORT_NUMBER_RUSSIA_4": "(Dalam St. Petersburg) : <bdi>363-2400</bdi> <br> kemudian <bdi>866 310 3707</bdi>",
        "SUPPORT_NUMBER_RUSSIA_5": "(Luar St. Petersburg) : <bdi>8^(495) 363-2400</bdi> <br> kemudian <bdi>866 310 3707</bdi>",
        "SUPPORT_NAME_SAUDI_ARABIA": "Arab Saudi",
        "SUPPORT_NUMBER_SAUDI_ARABIA": "<bdi>+1 617 681 6306</bdi>",
        "SUPPORT_NAME_SERBIA": "Serbia",
        "SUPPORT_NUMBER_SERBIA": "<bdi>+1 617 973 1739</bdi>",
        "SUPPORT_NAME_SINGAPORE": "Singapura",
        "SUPPORT_NUMBER_SINGAPORE": "<bdi>800 616 30 03</bdi>",
        "SUPPORT_NAME_SLOVAKIA": "Slovakia",
        "SUPPORT_NUMBER_SLOVAKIA": "<bdi>0800 0044 65</bdi>",
        "SUPPORT_NAME_SLOVENIA": "Slovenia",
        "SUPPORT_NUMBER_SLOVENIA": "<bdi>+1 617 681 6306</bdi>",
        "SUPPORT_NAME_SOUTH_AFRICA": "Afrika Selatan",
        "SUPPORT_NUMBER_SOUTH_AFRICA": "<bdi>0800 99 5853</bdi>",
        "SUPPORT_NAME_SOUTH_KOREA": "Korea Selatan",
        "SUPPORT_NUMBER_SOUTH_KOREA": "<bdi>00308 33 00 08</bdi>",
        "SUPPORT_NAME_SPAIN": "Sepanyol",
        "SUPPORT_NUMBER_SPAIN": "<bdi>900 90 2541</bdi>",
        "SUPPORT_NAME_SWEDEN": "Sweden",
        "SUPPORT_NUMBER_SWEDEN": "<bdi>020 120 99 69</bdi>",
        "SUPPORT_NAME_SWITZERLAND": "Switzerland",
        "SUPPORT_NUMBER_SWITZERLAND_1": "(Inggeris) : <bdi>0800 199 325</bdi>",
        "SUPPORT_NUMBER_SWITZERLAND_2": "(Perancis) : <bdi>0800 891 183</bdi>",
        "SUPPORT_NUMBER_SWITZERLAND_3": "(Jerman) : <bdi>0800 891 025</bdi>",
        "SUPPORT_NAME_TAIWAN": "Taiwan",
        "SUPPORT_NUMBER_TAIWAN": "<bdi>00801 33 33 42</bdi>",
        "SUPPORT_NAME_THAILAND": "Thailand",
        "SUPPORT_NUMBER_THAILAND": "<bdi>1 800 33 140 353</bdi>",
        "SUPPORT_NAME_TUNISIA": "Tunisia",
        "SUPPORT_NUMBER_TUNISIA": "<bdi>+1 617 681 6306</bdi>",
        "SUPPORT_NAME_TURKEY": "Turki",
        "SUPPORT_NUMBER_TURKEY": "<bdi>00 800 151 1335</bdi>",
        "SUPPORT_NAME_UKRAINE": "Ukraine",
        "SUPPORT_NUMBER_UKRAINE": "<bdi>0^00 11</bdi>, kemudian <bdi>866 245 4931</bdi>",
        "SUPPORT_NAME_UAE": "Emiriah Arab Bersatu",
        "SUPPORT_NUMBER_UAE": "<bdi>8000-021</bdi>, kemudian <bdi>866 310 3707</bdi>",
        "SUPPORT_NAME_UK": "United Kingdom",
        "SUPPORT_NUMBER_UK": "<bdi>0800 015 0408</bdi>",
        "SUPPORT_NAME_US": "Amerika Syarikat",
        "SUPPORT_NUMBER_US_1": "(Utama) : <bdi>1 800 748 5669</bdi>",
        "SUPPORT_NUMBER_US_2": "(Sandaran) : <bdi>1 877 748 5669</bdi>",
        "SUPPORT_NAME_VENEZUELA": "Venezuela",
        "SUPPORT_NUMBER_VENEZUELA_1": "(Inggeris) : <bdi>0 800 552 6288</bdi> <br> kemudian <bdi>866 310 3707</bdi> ",
        "SUPPORT_NUMBER_VENEZUELA_2": "(Sepanyol) : <bdi>0 800 100 3063</bdi> ",
        "STUDY_VERSION": "Versi Kajian: ",
        "STUDY_URL": "URL Kajian:",
        "PROTOCOL": "Protokol:",
        "SPONSOR": "Penaja:",
        "STORED_REPORTS": "Borang yang Disimpan:",
        "CORE_PRODUCT_VERSION_LABEL": "Versi Produk:",
        "ABOUT": "Tentang",
        "P_AFFIDAVIT_HEADER": "<div><strong>Tapak: {{{ getSiteCode }}}</strong><br /><strong>ID Pesakit: {{{ getPatientIdNumber }}}</strong></div>",
		"SET_TIMEZONE": "Tetapkan Zon Waktu",
		"DEVICE_SERIAL_NUMBER": "Nombor Siri Peranti",
		"NONEXISTENT_USER": "Cuba mengemas kini pengguna yang tidak wujud.",
		"SCREENING" : "Saringan",
		"TREATMENT" : "Rawatan",
		"RANDOMIZATION" : "Perawakan",
		"FOLLOWUP" : "Susulan",
		"TERMINATION" : "Pemberhentian",
        "ACCEPT": "Saya Terima",
        "DECLINE": "Saya Tolak",
		"EULA": "LESEN PENGGUNA AKHIR",
        "EULA_TEXT": "<p><strong><span class=\"text-underline\">PENTING</span>:  JANGAN KLIK BUTANG TERIMA SEHINGGA ANDA TELAH MEMBACA PERJANJIAN INI.  DENGAN MENGKLIK BUTANG TERIMA, ANDA MENERIMA SEMUA TERMA PERJANJIAN INI.  JIKA ANDA TIDAK MENERIMA SEMUA TERMA PERJANJIAN INI (1) JANGAN KLIK BUTANG \"SAYA TERIMA\", (2) HENTIKAN PROSES PEMASANGAN DAN PELESENAN DENGAN MENGKLIK BUTANG \"SAYA TOLAK\".</strong></p><p>eResearchTechnology, Inc. (\"Pemberi Lesen\") memberi anda hak tidak eksklusif, tidak boleh dipindah milik untuk menggunakan perisian eResearchTechnology, Inc. yang tersedia pada peranti ini (\"Perisian\") berhubung dengan penyertaan anda dalam perjanjian percubaan klinikal tersebut: <strong>{{{ clinicalTrial }}}</strong>.  Perisian eResearchTechnology, Inc. diliputi oleh paten yang dikeluarkan dan paten lain yang masih belum selesai.  Perjanjian ini tidak memberi anda apa-apa hak pemilikan dalam mana-mana Perisian (atau sebarang salinan) tetapi hanya membentuk lesen untuk menggunakan Perisian mengikut semua terma Perjanjian ini.  Hak milik Perisian tersebut dan semua bahagian daripadanya, dan semua hak harta intelektual dan empunya yang terkandung harus kekal dengan Pemberi lesen pada setiap masa.</p><p>Anda bersetuju untuk tidak, secara langsung atau tidak langsung, (i) membalikkan kejuruteraan, menyahpasang atau menyahkompil Perisian tersebut; (ii) menyalin, mengedar, mengeluarkan, menyesuaikan, mencipta hasil derivatif, menterjemah, menyetempatkan, menempatkan atau mengubah suai Perisian; atau (iii) mengalih keluar atau meminda sebarang notis hak cipta, rahsia perdagangan atau notis undang-undang lain yang terkandung pada atau dalam Perisian tersebut.  ANDA MENGESAHKAN DAN BERSETUJU BAHAWA PERISIAN TERSEBUT MUNGKIN MENGANDUNGI KOD YANG MENCEGAH PENGGUNAAN PERISIAN TANPA KEBENARAN.</p><br><p>JIKA ANDA BERSETUJU DENGAN SEMUA YANG DISEBUT DI ATAS, sila pilih – <strong>Saya Terima</strong> –Mengklik \"Saya Terima\" menandakan penerimaan anda bagi terma lesen tersebut.</p><p>JIKA ANDA TIDAK BERSETUJU DENGAN SEMUA YANG DISEBUT DI ATAS, atau tidak dibenarkan untuk bersetuju, pilih – <strong>Saya Tolak</strong> – yang demikian, akses lanjut kepada Perisian akan disekat.  Jika dibenarkan, anda boleh menerima pada lain masa.</p>",
        "VISIT_EXPIRED_HEADER": "Lawatan tamat tempoh.",
        "VISIT_EXPIRED_MESSAGE": "Lawatan ini tidak lagi tersedia kerana telah tamat tempoh.",
        "VISIT_EXPIRED_MESSAGE_SUBJECT": "Lawatan ini tidak lagi tersedia kerana telah tamat tempoh. Sila kembalikan peranti kepada kakitangan tapak yang berkenaan.",
        "SQ-AL": "Albania",
        "IMAGE_FOLDER": "{{{ imageFolder }}}",
		"MODAL_OK_TEXT": "OK",
        "BROWSER_LOAD_ERROR": "Halaman Tidak Ditemui. Sila periksa sambungan internet anda dan cuba lagi.",
		"NO_USER_OF_ROLE" : "Tiada pengguna dengan peranan itu yang ditemui.",
        "EDIT_PATIENT_REASON_1": "Pembetulan data atribut",
        "EDIT_PATIENT_REASON_2": "Perubahan ID",
        "EDIT_PATIENT_REASON_3": "Bahasa yang salah telah dipilih",
		"START_VISIT_OUTSIDE_WINDOW_MSG": "Masukkan {{{ getVisitName }}} di luar tetingkap masa yang dikonfigurasikan: {{{ startDate }}} - {{{ endDate }}}",
		"START_VISIT_HARD_STOP_MSG" : "Anda tidak dapat memasukkan {{{ getVisitName }}} di luar tetingkap masa yang dikonfigurasikan: {{{ startDate }}} - {{{ endDate }}}",
		"USER_NAME_INVALID_CHARACTERS" : "Jangan gunakan aksara khas",
		"ERROR_PATIENT_SAVE" : "Ralat telah berlaku semasa menambah pesakit baharu",
		"PASSWORD_CHANGE_FAILED" : "Peranti yang berbeza telah diaktifkan untuk mengumpul data kajian anda. Sila tukar kata laluan anda pada peranti tersebut.",
		"ERROR" : "Ralat.  Sila hubungi Pusat Sokongan ERT.",
		"ERROR_AFTER_ACTIVATION_SUCCESSFUL" : "Ralat telah berlaku. Anda perlu memasukkan kod persediaan dan kata laluan anda.",
		"CONNECTION_TIMEOUT" : "Masa Sambungan Tamat.",
		"UPDATE_FAILED" : "Kemas kini ERT tidak lengkap. Sila pastikan peranti ini disambungkan ke Internet dan cuba lagi.",
        "QR_CODE_UNAVAILABLE": "Klik pesakit untuk menyegar semula QR.",
        "QR_MODAL_TITLE": "Kod QR untuk: ",
        "TRANSMIT_FAILED_403_14": "Satu penghantaran atau lebih telah gagal kerana penciptaan pesakit yang tidak lengkap. Sila tunggu dan cuba lagi.",
        "CONSOLE_LOG": "Log Konsol",
		"USER_SELECT_ROLE_VALIDATION": "Pemilihan peranan diperlukan.",
        "USER_SELECT_LANGUAGE_VALIDATION": "Pemilihan bahasa diperlukan."
    },
    "dates": {
        "setDateButtonLabel": "Tetapkan Tarikh",
        "setTimeButtonLabel": "OK",
        "setDurationButtonLabel": "Tetapkan Tempoh",
        "calTodayButtonLabel": "Lompat ke Hari Ini",
        "titleDateDialogLabel": "Tetapkan Tarikh",
        "titleTimeDialogLabel": "Tetapkan Waktu",
        "daysOfWeek": [
            "Ahad",
            "Isnin",
            "Selasa",
            "Rabu",
            "Khamis",
            "Jumaat",
            "Sabtu"
        ],
        "daysOfWeekShort": [
            "Ah",
            "Is",
            "Se",
            "Ra",
            "Kh",
            "Ju",
            "Sa"
        ],
        "monthsOfYear": [
            "Januari",
            "Februari",
            "Mac",
            "April",
            "Mei",
            "Jun",
            "Julai",
            "Ogos",
            "September",
            "Oktober",
            "November",
            "Disember"
        ],
        "monthsOfYearShort": [
            "Jan",
            "Feb",
            "Mac",
            "Apr",
            "Mei",
            "Jun",
            "Jul",
            "Ogo",
            "Sep",
            "Okt",
            "Nov",
            "Dis"
        ],
        "durationLabel": [
            "Hari",
            "Jam",
            "Minit",
            "Saat"
        ],
        "durationDays": [
            "Hari",
            "Hari"
        ],
        "tooltip": "Buka Pemilih Tarikh",
        "nextMonth": "Bulan Hadapan",
        "prevMonth": "Bulan Lepas",
        "clearButton": "Padam",
        "meridiem": [
            "PAGI",
            "PTG"
        ]
    }
}
