{
    "namespace": "CORE",
    "language": "da",
    "locale": "DK",
    "localized": "Dansk",
    "direction": "ltr",
    "resources": {
        "ACTIVE": "Aktiv",
        "ACTIVATE_USER": "Aktivér bruger",
        "ACTIVATE_USER_CANCEL_CONFIRM": "Annuller aktivering?",
        "ACTIVATE_USER_CANCEL_BODY": "Hvis du annullerer nu, bliver centerbrugeren ikke aktiveret. Er du sikker på, du vil annullere?",
        "ACTIVATE_USER_AFF": "Ved at underskrive nedenfor erklærer jeg hermed, at jeg er bemyndiget til at aktivere denne centerbruger.",
        "ACTIVATE_USER_CONFIRM_INFORMATION": "Bekræft, at de nedennævnte oplysninger hører til den centerbruger, du ønsker at aktivere.",
        "ADD_PATIENT": "Tilføj ny patient",
        "ADD_USER": "Tilføj bruger",
        "AFFIDAVIT": "Vælg OK og derefter Næste, når du er klar til at gemme dine svar.",
        "AFFIDAVIT_HELP": "Tak. Du har angivet alle de krævede svar. Du kan tjekke og ændre dine svar ved at vælge Tilbage.",
        "ALL_QUESTIONNAIRES_COMPLETED": "Alle formularer udfyldt",
        "APP_NAME": "ERT",
        "APPLICATION_HEADER": "{{{ appHeader }}}",
        "APP_NAME_LBL": "Appnavn",
        "APP_VERSION": "Appversion",
        "ASSIGNED_TO": "Overdraget til",
        "AVAILABLE": "Tilgængelig",
        "BACK": "Tilbage",
        "BACK_OUT_CONFIRM": "Er du sikker på, du vil afslutte? Svarene for denne formular vil gå tabt.",
        "BLUETOOTH_REG_REFRESH_BUTTON": "Opdater liste",
        "CANCEL": "Annuller",
        "CHECK_FOR_UPDATES": "Kontrollér, om der er opdateringer",
        "CHOOSE_A_SITE": "Overdrag denne enhed til et bestemt center.",
        "COMPLETED": "Fuldført",
        "CONFIRM_PASSWORD": "Bekræft adgangskode:",
        "CONFIRM_TEMP_PASS": "Bekræft midlertidig adgangskode:",
        "CONTINUE": "Fortsæt",
        "COUNTRY": "Land",
        "CUSTOM_ENVIRONMENT": "Brugerdefineret miljø",
        "DEACTIVATE_PATIENT": "Deaktiver patient",
        "DEACTIVATE_USER": "Deaktiver bruger",
        "DEACTIVATED": "Deaktiveret",
        "DEACTIVATE_USER_CANCEL_CONFIRM": "Annuller deaktivering?",
        "DEACTIVATE_USER_CANCEL_BODY": "Hvis du annullerer nu, bliver centerbrugeren ikke deaktiveret. Er du sikker på, du vil annullere?",
        "DEACTIVATE_USER_AFF": "Ved at underskrive nedenfor erklærer jeg hermed, at jeg er bemyndiget til at deaktivere denne centerbruger.",
        "DEACTIVATE_USER_SIG": "<strong>Bruger, der skal deaktiveres:</strong> <br />{{{ getSelectedUsername }}}<br /><br /><strong>Signatur:</strong> {{{ getActiveUserName }}}",
        "DEACTIVATE_USER_CONFIRM_INFORMATION": "Bekræft, at nedennævnte oplysninger hører til den centerbruger, du ønsker at deaktivere.",
        "DEVICE_ID": "Enheds-ID",
        "DEVICE_REGISTRATION_FAILURE": "Registrering af enhed mislykkedes.",
        "DEVICE_UUIID": "Enheds-UUID",
        "BATTERY_LEVEL": "Batteriniveau",
        "DEVICE_INFO": "Enhedsoplysninger",
        "DIARY_TIMEOUT": "Tiden er udløbet for denne formular.",
        "EDIT_MY_INFO": "Rediger min info",
        "EDIT_PATIENT": "Rediger patient",
        "EDIT_PATIENT_QUESTION_1_MAIN_TITLE": "<div class='question-title-large'>Patientidentifikation </div><div>ID-område for dette center:<br /><strong> 0100-0600</strong></div><div class='edit-patient-id'>Patient-ID:<br /><strong>{{{ getPatientIdNumber }}} ({{{getPatientInitials}}})</strong</div><br /><br />",
        "EDIT_PATIENT_QUESTION_1": "Patient-ID:",
        "EDIT_PATIENT_QUESTION_1_EMPTY": "Udfyld patient-ID.",
        "EDIT_PATIENT_QUESTION_1_EMPTY_HEADER": "Patient-ID",
        "EDIT_PATIENT_QUESTION_1_RANGE": "Det patient-ID, du har indtastet, ligger ikke inden for området for tilladte ID'er: {{{ patientIDRange }}}.  Indtast et gyldigt patient-ID.",
        "EDIT_PATIENT_QUESTION_1_RANGE_HEADER": "Patient-ID er uden for området",
        "EDIT_PATIENT_QUESTION_1_UNIQUE": "Patienten findes allerede.  Indtast et andet patient-ID.",
        "EDIT_PATIENT_QUESTION_1_UNIQUE_HEADER": "Patient-ID er en kopi",
        "EDIT_PATIENT_QUESTION_2": "Patientens initialer:",
        "EDIT_PATIENT_QUESTION_2_EMPTY": "Udfyld patientens initialer med to bogstaver som minimum.",
        "EDIT_PATIENT_QUESTION_2_EMPTY_HEADER": "Patientens initialer",
        "EDIT_PATIENT_QUESTION_3_TITLE": "<div class='question-title-large'>Vælg sprog</div><div>Patient-ID:<br /><strong>{{{ getPatientIdNumber }}} ({{{getPatientInitials}}})</strong</div><br /><br />",
        "EDIT_PATIENT_QUESTION_3": "Vælg patientens sprog",
        "EDIT_PATIENT_QUESTION_4_TITLE": "<div class='question-title-large'>Rediger årsag</div><br /><br />",
        "EDIT_PATIENT_QUESTION_4": "Vælg årsag til redigering af en patient",
        "EDIT_PATIENT_CANCEL_CONFIRM": "Annuller ændringer af patient?",
        "EDIT_PATIENT_CANCEL_BODY": "Hvis du annullerer nu, opdateres patientindstillingerne ikke.  Er du sikker på, du vil annullere?",
        "EDIT_PATIENT_NO_CHANGES_CONFIRM": "Ingen ændringer foretaget af patient",
        "EDIT_PATIENT_NO_CHANGES_BODY": "Ingen ændringer foretaget af denne patient. Afslut alligevel?",
        "EDIT_PATIENT_REASON_0": "Korrigering af fejl af kliniker",
        "EDIT_REASON": "Rediger årsag:",
        "EDIT_SERVICE_URL": "Rediger service-URL",
        "EDIT_SERVICE_URL_SUCCESS": "Service-URL er opdateret.",
        "EDIT_USER": "Rediger bruger",
        "EDIT_USER_AFF": "Ved at underskrive nedenfor erklærer jeg hermed, at jeg er bemyndiget til at redigere denne centerbruger. <br /><br /><strong>Signatur:</strong> {{{ getActiveUserName }}}",
        "EDIT_USER_CANCEL_CONFIRM": "Annuller redigering af bruger?",
        "EDIT_USER_CANCEL_BODY": "Hvis du annullerer nu, vil der ikke blive foretaget ændringer af centerbrugeren. Er du sikker på, du vil annullere?",
        "EDIT_USER_NO_CHANGES_HEADER": "Ingen ændringer fortaget af centerbruger",
        "EDIT_USER_NO_CHANGES_BODY": "Ingen ændringer foretaget af denne centerbruger. Afslut alligevel?",
        "EMAIL": "E-mailadresse",
        "ENTER_PATIENT_INFO": "Indtast patientoplysninger",
        "ENTER_UNLOCK_CODE": "Indtast oplåsningskoden.",
        "ENTER_USER_INFO": "Angiv oplysninger om ny centerbruger",
        "ENVIRONMENT": "Miljø",
        "ERROR_CODE": "Fejlkode:",
        "ERROR_TITLE": "Fejl",
        "FIRST_NAME": "Fornavn",
        "FORGOT_PASSWORD": "Glemt adgangskoden?",
        "FORM": "Formular",
        "FORM_GATEWAY": "Gateway for formular",
        "FORM_NAME": "Navn på formular",
        "FULL_NAME": "Fuldt navn:",
        "GO_TO_VISITS": "Patientbesøg",
        "HAND_DEVICE_SITE_TITLE": "Giv enhed til centerbruger",
        "HAND_DEVICE_SITE_BODY": "Giv enheden til centerbrugeren.",
        "HELP": "Hjælp",
        "HOME": "Hjem",
        "IN_PROGRESS": "I gang",
        "INITIALS": "Initialer",
        "INVALID_URL": "Indtast en gyldig internetadresse.",
        "INVALID_PERMISSION": "Ugyldig tilladelse.",
        "INVALID_PASSWORD": "Ugyldig adgangskode.",
        "LANGUAGE": "Sprog:",
        "LAST_LOGIN": "Sidste login",
        "LAST_NAME": "Efternavn",
        "LAST_REFRESH_TIME": "Sidste opdaterede tid",
        "LOCATION": "Placering",
        "LOGIN": "Log ind",
        "LOGIN_SCREEN": "Login",
        "LOGOUT": "Log af",
        "MANAGE_USERS": "Administrer centerbrugere",
        "MARK_AS_COMPLETED": "Markér som fuldført",
        "SITE_SIGNATURE": "Signatur: ",
        "SITE_REPORT_AFF": "Jeg har indtastet og krydstjekket de forudgående data, og jeg bekræfter dem hermed.<br /><br /><strong>Signatur:</strong> {{{ getActiveUserName }}}",
        "PATIENT_REPORT_AFF": "Jeg har indtastet og krydstjekket de forudgående data, og jeg bekræfter dem hermed.<br /><br /><strong>Initialer:</strong> {{{ getActiveUserName }}}",
        "CLEAR_SIGNATURE": "Ryd signatur",
        "MENU": "Menu",
        "MODE": "Tilstand",
        "NAME": "Navn",
        "NEW_USER": "Tilføj ny brugerdagbog",
        "FIRST_SITE_USER": "Tilføj første centerbruger",
        "NEW_USER_CREATED": "Centerbrugeren er oprettet.",
        "NEW_PATIENT_QUESTION_1_MAIN_TITLE": "<div class='question-title-large'>Indtast patientidentifikationsoplysninger</div><div>ID-område for dette center:<br /><strong> {{{ patientIDRange }}}</strong></div><div><strong>Center: {{{ getSiteCode }}}</strong></div><div><strong>Bruger: {{{ getUserName }}}</strong</div><br /><br />",
        "NEW_PATIENT_HELP_TEXT_1": "",
        "NEW_PATIENT_HELP_TEXT_2": "",
        "NEW_PATIENT_HELP_TEXT_3": "",
        "NEW_PATIENT_QUESTION_1_TITLE": "Patient-ID",
        "NEW_PATIENT_QUESTION_1": "Patient-ID:",
        "NEW_PATIENT_QUESTION_1_EMPTY": "Udfyld patient-ID.",
        "NEW_PATIENT_QUESTION_1_EMPTY_HEADER": "Patient-ID",
        "NEW_PATIENT_QUESTION_1_RANGE": "Det patient-ID, du har indtastet, ligger ikke inden for området for tilladte ID'er: {{{ patientIDRange }}}.  Indtast et gyldigt patient-ID.",
        "NEW_PATIENT_QUESTION_1_RANGE_HEADER": "Patient-ID er uden for området",
        "NEW_PATIENT_QUESTION_1_UNIQUE": "Patienten findes allerede.  Indtast et andet patient-ID.",
        "NEW_PATIENT_QUESTION_1_UNIQUE_HEADER": "Patient-ID er en kopi",
        "NEW_PATIENT_QUESTION_2": "Patientens initialer:",
        "NEW_PATIENT_QUESTION_2_EMPTY": "Udfyld patientens initialer med to bogstaver som minimum.",
        "NEW_PATIENT_QUESTION_2_EMPTY_HEADER": "Patientens initialer",
        "NEW_PATIENT_QUESTION_3_TITLE": "<div class='question-title-large'>Vælg sprog</div><div><strong>Center: {{{ getSiteCode }}}</strong></div><div><strong>Bruger: {{{ getUserName }}}</strong</div><div><strong>Patient-ID: {{{ getPatientID }}}</strong></div><br /><br />",
        "NEW_PATIENT_QUESTION_3": "Vælg patientens sprog",
        "NEW_PATIENT_CANCEL_CONFIRM": "Annuller tilføjelse af en patient?",
        "NEW_PATIENT_CANCEL_BODY": "Hvis du annullerer, vil patienten ikke blive registreret.  Er du sikker på, du vil annullere?",
        "NEW_PATIENT_AFFIDAVIT_HEADER": "<div><strong>Center: {{{ getSiteCode }}}</strong><br /><strong>Bruger: {{{ getUserName }}}</strong><br /><strong>Patient-ID: {{{ getPatientID }}}</strong></div>",
        "NEXT": "Næste",
        "NO_RESULTS_FOUND": "Ingen resultater fundet.",
        "NOT_AVAILABLE": "Ikke tilgængelig",
        "OK": "OK",
        "ORDER": "Rækkefølge",
        "PASSWORD": "Adgangskode:",
        "PATIENT": "Patient",
        "PATIENT_ID": "Patient-ID:",
        "PATIENT_INITIALS": "Patientens initialer:",
        "PATIENT_DELETED": "Ukendt patient",
        "PATIENT_DELETED_MSG": "Patient blev ikke fundet.",
        "PATIENT_DELETED_SUBJECT_MSG": "Patient blev ikke fundet. Returner venligst denne enhed til det rette centerpersonale.",
        "PENDING_TRANSMISSIONS": "Ventende overførsler",
        "PLEASE_WAIT": "Vent venligst ...",
        "PLEASE_CONFIRM": "Bekræft",
        "PLEASE_CONTACT": "Kontakt ERT Support Center.",
        "PLEASE_TRY_OR_CONTACT_SUPPORT": "Prøv igen, eller kontakt ERT Support Center.",
        "REASON": "Årsag:",
        "REPORTS_AND_FORMS": "Rapporter og formularer",
        "REPORTS_COMPLETED_MESSAGE": "Du har udfyldt alle dine formularer. Returner venligst denne enhed til det rette centerpersonale.",
        "REQUIRED_ANSWER": "Udfyld de ønskede oplysninger.",
        "RESET_PIN": "Nulstil patientens PIN-kode",
        "RESET_USER_PASSWORD": "Nulstil brugerens adgangskode",
        "ROLES": "Rolle:",
        "SAVE": "Gem",
        "SEARCH": "Søg",
        "SECURITY_QUESTION_0": "Hvad er din mors pigenavn?",
        "SECURITY_QUESTION_1": "I hvilken by er du født?",
        "SECURITY_QUESTION_2": "Hvad hed dit første kæledyr?",
        "SECURITY_QUESTION_3": "Hvad er din yndlingssport?",
        "SECURITY_QUESTION_4": "Hvilket år afsluttede du din uddannelse?",
        "SECURITY_QUESTION_5": "Hvad er dit ældste barns mellemnavn?",
        "SECURITY_QUESTION_6": "Hvad er navnet på din bedste barndomsven?",
        "SECURITY_QUESTION_7": "Hvad var din klasselærer i tredje klasses efternavn?",
        "SECURITY_QUESTION_8": "I hvilken by eller storby havde du dit første job?",
        "SECRET_ANSWER": "Sikkerhedssvar:",
        "SECRET_QUESTION": "Sikkerhedsspørgsmål:",
        "SECRET_QUESTION_HELP_TEXT": "Vælg et sikkerhedsspørgsmål fra listen nedenfor. Svaret anvendes til at tillade login, hvis du glemmer din adgangskode.",
        "SECRET_QUESTION_ANSWER": "Sikkerhedsspørgsmål- og svar",
        "SELECT_LANGUAGE": "Vælg det foretrukne sprog for centret.",
        "SET_TIMEZONE_MESSAGE": "Vælg din tidszone:",
        "SELECT_SITE_NUMBER": "Vælg centernummer",
        "SERVICE_URL": "Service-URL",
        "SETTINGS": "Indstillinger",
        "SETUP_COMPLETE": "Opsætning er fuldført",
        "SETUP_COMPLETE_DESC": "Enheden er nu indstillet og klar til afsendelse.  Tryk OK, og sluk derefter for enheden på næste skærm.",
        "SETUP_SITE_USER": "Opret centerbruger",
        "SETUP_SITE_USER_LEGEND": "Opret centerbrugeren for denne enhed.",
        "SITE": "Center",
        "SITE_ASSESSMENTS": "Centerevalueringer",
        "SIGNATURE_DATA_LIMIT_EXCEEDED": "Signaturfeltet kan ikke gengive din signatur præcist som angivet. Du skal i stedet signere med dine initialer.",
        "SITE_NUMBER": "Centernummer",
        "SITE_ROLE": "Centerbruger",
        "SITE_SELECTION": "Centervalg",
        "SKIP_FORM": "Spring formular over",
        "SKIP_QUESTION": "Vil du springe over svar på denne skærm?",
        "SKIP_TO_VISIT": "Spring over til besøg",
        "SKIP_VISIT": "Spring besøg over",
        "SKIP_VISITS": "Spring besøg over",
        "SKIP_VISITS_QUESTION_1": "<div class='question-title-large'><strong>Årsag</strong></div><br /><br /><div>Vælg årsag til at springe besøgene over:</div>",
        "SKIP_VISITS_REASON_0": "Besøg udløbet",
        "SKIP_VISITS_REASON_1": "Centerfejl i administration",
        "SKIP_VISITS_REASON_2": "Forsøgsperson gik glip af klinikaftale.",
        "SKIP_VISITS_REASON_3": "Ikke relevant.",
        "SKIP_VISITS_REASON_4": "Besøg er ikke obligatorisk, ikke gennemført.",
        "SKIP_VISITS_CANCEL_CONFIRM": "Annuller undladelse af besøg?",
        "SKIP_VISITS_CANCEL_BODY": "Hvis du annullerer nu, vil besøgene ikke blive sprunget over. Er du sikker på, du vil annullere?",
        "SKIPPED" : "Sprunget over",
        "SKIPPED_VISITS": "{{{ skippedVisits }}}",
        "START_FORM": "Start formular",
        "START_VISIT": "Start besøg",
        "STATUS": "Status",
        "STATUS_DATE": "Statusdato",
        "STUDY": "Forsøg",
        "STUDYWORKS_LOGIN": "Login til StudyWorks",
        "SUBJECT_ID": "Patient-ID",
        "SUBJECT_ROLE": "Patient",
        "SUBMIT": "Send",
        "SUPPORT_TOOLS": "Supportværktøjer",
        "SYNC": "Synkronisering",
        "SYNC_USERS": "Synkroniser brugere",
        "SYNC_TO_DEVICE": "Synkroniser forsøg til enhed",
        "TEMPORARY_PASSWORD_MESSAGE": "Giv den midlertidige adgangskode til den nye bruger. Brugeren vil blive bedt om at oprette en ny adgangskode, efter at brugeren har logget på.",
        "TEMP_PASSWORD": "Midlertidig adgangskode: ",
        "UNABLE_TO_GET_SITE_LIST": "Kunne ikke hente centerliste",
        "UNLOCK_CODE": "Oplåsningskode",
        "UNLOCK_CODE_HELP": "Oplåsningskoden for din ERT Tablet kan fås fra StudyWorks i 'ERT-oplåsningskoder' SmartReport. Kontakt ERT Support Center for yderligere assistance.",
        "USER": "Bruger",
        "USER_ALREADY_EXISTS": "Brugeren findes allerede",
        "USER_EDITED": "Brugeren er opdateret.",
        "USER_TO_ACTIVATE": "<strong>Bruger, der skal aktiveres:</strong> <br />{{{ getSelectedUsername }}}<br /><br /><strong>Signatur:</strong> {{{ getActiveUserName }}}",
        "SUBJECT_ALREADY_EXISTS": "En patient med ID {{{ getPatientIDForDuplicate }}} findes allerede",
        "TIME_CONFIRMATION_INSTRUCTIONS": "Enheden skal bekræfte din lokaltid. Indtast din dato og tid fra en pålidelig kilde.",
        "TIME_ZONE_ERROR_HEADER": "Tidszonefejl",
        "TIME_ZONE_ERROR_MSG": "Der opstod en fejl under søgning af tidszoneliste. Kontakt ERT Support Center for yderligere assistance.",
        "TIME_ZONE_SET_ERROR_MSG": "Der opstod en fejl under indstilling af tidszone. Kontakt ERT Support Center for yderligere assistance.",
        "TIME_ZONE_SET_CONFIRM": "Er du sikker på, du vil indstille tidszonen til {{{selectedTimeZone}}}? <br/> Applikationen genstarter muligvis for at anvende ændringen.",
        "TIME_ZONE_SET_CONFIRM_NOCHANGE": "Er du sikker på, du vil indstille tidszonen til {{{selectedTimeZone}}}?",
        "TIME_ZONE_SET_HEADER": "Bekræftelse af indstilling af tidszone",
        "TRAINER": "Trænertilstand",
        "TRAINER_EXIT": "Afslut trænertilstand",
        "TRAINER_EXIT_NOTIFICATION": "Du afslutter trænertilstand",
        "TRAINER_HEADER": "(Træner)",
        "USER_ROLE": "Brugerrolle",
        "USERNAME": "Brugernavn",
        "USER_NAME": "Brugernavn:",
        "VISIT": "Besøg",
        "VISIT_COMPLETED_MESSAGE": "Der er ikke andre formularer for dette besøg.  Dette besøg er nu gennemført.",
        "VISIT_INACTIVE_HEADER": "Inaktivt besøg.",
        "VISIT_INACTIVE_MESSAGE": "Dette besøg er ikke længere aktivt.",
        "VISIT_INACTIVE_MESSAGE_SUBJECT": "Dette besøg er ikke længere aktivt. Returner venligst denne enhed til det rette centerpersonale.",
        "VISITS": "Besøg",
        "VISITS_SKIPPED": "Besøg sprunget over:",
        "VISIT_NAME": "Besøgsbenævnelse",
        "WELCOME": "Velkommen",
        "AF-ZA": "Afrikaans",
        "AR-EG": "Arabisk",
        "BE-BY": "Hviderussisk",
        "BG-BG": "Bulgarsk",
        "BN-IN": "Bengalsk",
        "BS-BA": "Bosnisk",
        "CA-ES": "Catalansk",
        "CS-CZ": "Tjekkisk",
        "DA-DK": "Dansk",
        "DE-DE": "Tysk (Tyskland)",
        "DE-AT": "Tysk (Østrig)",
        "EL-GR": "Græsk",
        "EN-GB": "Engelsk (Storbritannien)",
        "EN-US": "Engelsk (USA)",
        "ES-ES": "Spansk (Spanien)",
        "ES-US": "Spansk (USA)",
        "ES-PY": "Spansk (universelt)",
        "ET-EE": "Estisk",
        "FI-FI": "Finsk",
        "FR-CA": "Fransk (Canada)",
        "FR-FR": "Fransk (Frankrig)",
        "GD-IE": "Gælisk",
        "GU-IN": "Gujarati",
        "HE-IL": "Hebraisk",
        "HI-IN": "Hindi",
        "HR-HR": "Kroatisk",
        "HU-HU": "Ungarsk",
        "IT-IT": "Italiensk",
        "JA-JP": "Japansk",
        "KA-GE": "Georgisk",
        "KN-IN": "Kannada",
        "KO-KR": "Koreansk",
        "LV-LV": "Lettisk",
        "LT-LT": "Litauisk",
        "ML-IN": "Malayalam",
        "MR-IN": "Marathi",
        "MS-MY": "Malajisk",
        "NB-NO": "Norsk",
        "NL-BE": "Hollandsk (Belgien)",
        "NL-NL": "Hollandsk (Holland)",
        "PA-IN": "Punjabi",
        "PL-PL": "Polsk",
        "PT-BR": "Portugisisk (Brasilien)",
        "PT-PT": "Portugisisk (Portugal)",
        "RO-RO": "Rumænsk",
        "RU-RU": "Russisk",
        "SL-SL": "Slovensk",
        "SK-SK": "Slovakisk",
        "SR-RS": "Serbisk (latinsk)",
        "SR-SP": "Serbisk (kyrillisk)",
        "ST-ZA": "Sotho",
        "SV-SE": "Svensk",
        "TA-IN": "Tamilsk",
        "TE-IN": "Telugu",
        "TH-TH": "Thai",
        "TL-PH": "Tagalog",
        "TN-ZA": "Tswana",
        "TR-TR": "Tyrkisk",
        "UK-UA": "Ukrainsk",
        "UR-IN": "Urdu",
        "VI-VN": "Vietnamesisk",
        "XH-ZA": "Xhosa",
        "ZH-CN": "Kinesisk (Kina)",
        "ZH-TW": "Kinesisk (Taiwan)",
        "ZU-ZU": "Zulu",
        "HAND_DEVICE_SUBJECT_BODY": "Næste formular skal udfyldes af {{{ patientOrRole }}}. Log ud, og giv enheden til {{{ patientOrRole }}}.",
        "HAND_DEVICE_SUBJECT_TITLE": "Start formular {{{ formTitle }}}",
        "SKIP_VISIT_TITLE": "Spring besøg over?",
        "SKIP_VISIT_TEXT": "Hvis du fortsætter, vil følgende besøg blive sprunget over:<br/> {{{ skippedVisits }}} Fortsæt, og spring disse besøg over nu?",
        "YES":"Ja",
        "NO":"Nej",
        "TIME_LBL": "Tid:",
        "SET_TIME": "Indstil tid",
        "DATE_LBL": "Dato:",
        "CREATE_PERMANENT_PASSWORD_TITLE": "Opret permanent adgangskode",
        "USER_ID": "Bruger-ID:",
        "PHASE": "Fase",
        "LAST_VISIT": "Sidste gennemførte besøg",
        "CONNECTION_REQUIRED": "Der kræves en internetforbindelse.",
        "RETRY": "Prøv igen",
        "UPDATE_FAILURE": "Opdateringen blev ikke færdiggjort",
        "UPDATE_SUCCESS": "Opdateringen lykkedes",
        "CANCEL_PERMANENT_PASSWORD_TITLE": "Annuller oprettelse af permanent adgangskode?",
        "CANCEL_PERMANENT_PASSWORD_TEXT": "Hvis du annullerer nu, oprettes din permanente adgangskode ikke. Du skal bruge en permanent adgangskode for at begynde at bruge ERT. Er du sikker på, du vil annullere?",
        "ACCOUNT_CONFIGURED_TITLE": "Opsætning af konto fuldført",
        "ACCOUNT_CONFIGURED_TEXT": "Du har gennemført opsætningen af din konto og kan nu fortsætte med at bruge eCOA-systemet.",
        "LOGGED_IN_AS": "Logget på som",
        "EDIT_PATIENT_AFFIDAVIT_HEADER": "<p class='question-title-large'>Signatur</p><br />",
        "EDIT_PATIENT_AFF": "Ved at underskrive nedenfor erklærer jeg hermed, at jeg er bemyndiget til at redigere denne patient.<br /><br />Patient-ID: {{{ getPatientIdNumber }}}<br /><br /><strong>Signatur:</strong> {{{ getActiveUserName }}}",
        "PASSWORD_MISMATCH": "Den bekræftede adgangskode stemmer ikke overens med adgangskoden",
        "FIRST_USER_AFFIDAVIT": "Ved at underskrive nedenfor erklærer jeg hermed, at jeg er hovedinvestigator eller bemyndiget repræsentant til at oprette konti i dette system.<br /><br /><strong>Signatur:</strong> {{{ getFirstUsername }}}",
		"INCOMPLETE": "Ikke fuldført",
        "INVALID_ENTRY": "Ugyldig indtastning",
        "PLEASE_ANSWER_SQ": "Besvar dit sikkerhedsspørgsmål:",
        "FORGOT_SECRET_ANSWER": "Har du glemt sikkerhedssvaret?",
        "CONTACT_STUDY_COORDINATOR": "Kontakt din forsøgskoordinator",
        "ENTER_NEW_PASSWORD": "Ny adgangskode:",
        "CONTACT_UNLOCK_CODE": "Kontakt din forsøgskoordinator for at få dagens oplåsningskode:",
        "CURRENT_DATE": "{{{ currentDate }}}",
        "TEMPORARY_UNLOCK_CODE": "Indtast oplåsningskode tildelt af forsøgskoordinator.",
        "RESET_SECRET_QUESTION": "Nulstil sikkerhedsspørgsmål",
        "SECRET_QUESTION_CHANGE_SUCCESS": "Du har opdateret din adgangskode og dit sikkerhedsspørgsmål.",
        "RESET_PASSWORD": "Nulstil adgangskode",
        "ANSWER_ATTEMPT_EXCEEDED": "Du har indtastet et forkert svar for mange gange eller klikket på linket for glemt sikkerhedssvar.",
        "PASSWORD_ATTEMPT_EXCEEDED": "Du har indtastet en forkert adgangskode for mange gange eller klikket på linket for glemt adgangskode.",
        "PASSWORD_CHANGE_SUCCESS": "Du har opdateret din adgangskode.",
        "CHANGE_PASSWORD": "Skift adgangskode",
        "CHANGE_SECRET_QUESTION": "Skift sikkerhedsspørgsmål",
        "SYNC_COMPLETE": "Synkronisering fuldført",
        "INCORRECT_ANSWER": "Forkert svar",
        "INCORRECT_UNLOCK_CODE": "Forkert oplåsningskode",
        "PASSWORD_INVALID": "Forkert adgangskode",
        "SUBJECT": "Patient",
        "PATIENT_ADDED": "Patient tilføjet",
        "SITE_ADMINISTRATOR": "Centeradministrator",
        "LOW_BATTERY": "Advarsel: Batteriniveauet er lavt. Tilslut enheden for at oplade.",
        "CRITICAL_BATTERY": "Advarsel: Batteriniveauet er kritisk. Du skal tilslutte enheden for at genoplade, da den ellers vil lukke ned.",
        "TIME_CONFIRMATION_HEADER": "Bekræft dato/tid",
        "TIMESLIP_ERROR": "Tid eller dato på din enhed er ikke korrekt. Flyt til et sted med internetforbindelse, og prøv igen. Kontakt ERT's kundeservice, hvis du stadig har problemer.",
		"SUPPORT": "Kundesupport",
        "SUPPORT_MESSAGE": "Brugere i USA kan kontakte ERT Support Center på 800-748-5669. Brugere i andre lande bedes vælge det mest nærliggende land nedenfor:",
        "SUPPORT_DROPDOWN": "Vælg dit land",
        "SUPPORT_NAME_ARGENTINA": "Argentina",
        "SUPPORT_NUMBER_ARGENTINA": "<bdo dir='ltr'>0800 444 0962</bdo>",
        "SUPPORT_NAME_ARMENIA": "Armenien",
        "SUPPORT_NUMBER_ARMENIA": "<bdo dir='ltr'>+1 617 681 6306</bdo>",
        "SUPPORT_NAME_AUSTRALIA": "Australien",
        "SUPPORT_NUMBER_AUSTRALIA": "<bdo dir='ltr'>1 800 800 051</bdo>",
        "SUPPORT_NAME_AUSTRIA": "Østrig",
        "SUPPORT_NUMBER_AUSTRIA": "<bdo dir='ltr'>0800 100 405</bdo>",
        "SUPPORT_NAME_BELARUS": "Hviderusland",
        "SUPPORT_NUMBER_BELARUS": "<bdo dir='ltr'>8 820 0321 0036</bdo>",
        "SUPPORT_NAME_BELGIUM": "Belgien",
        "SUPPORT_NUMBER_BELGIUM_1": "(engelsk): <bdo dir='ltr'>0800 58 016</bdo>",
        "SUPPORT_NUMBER_BELGIUM_2": "(fransk): <bdo dir='ltr'>0800 71 076</bdo>",
        "SUPPORT_NUMBER_BELGIUM_3": "(tysk): <bdo dir='ltr'>0800 71 113</bdo>",
        "SUPPORT_NAME_BRAZIL": "Brasilien",
        "SUPPORT_NUMBER_BRAZIL": "<bdo dir='ltr'>0800 891 5909</bdo>",
        "SUPPORT_NAME_BOSNIA": "Bosnien",
        "SUPPORT_NUMBER_BOSNIA": "<bdo dir='ltr'>+1 617 681 6306</bdo>",
        "SUPPORT_NAME_BULGARIA": "Bulgarien",
        "SUPPORT_NUMBER_BULGARIA": "<bdo dir='ltr'>00800 0010</bdo> og derefter <bdo dir='ltr'>866 245 4931</bdo>",
        "SUPPORT_NAME_CANADA": "Canada",
        "SUPPORT_NUMBER_CANADA": "<bdo dir='ltr'>1 800 748 5669</bdo>",
        "SUPPORT_NAME_CHILE": "Chile",
        "SUPPORT_NUMBER_CHILE": "<bdo dir='ltr'>123 0020 3408</bdo>",
        "SUPPORT_NAME_CHINA": "Kina",
        "SUPPORT_NUMBER_CHINA_1": "NetCom (nord): <bdo dir='ltr'>1 0800 74 40 164</bdo>",
        "SUPPORT_NUMBER_CHINA_2": "Telecom (syd): <bdo dir='ltr'>1 0800 44 00 158</bdo>",
        "SUPPORT_NAME_COLOMBIA": "Colombia",
        "SUPPORT_NUMBER_COLOMBIA": "<bdo dir='ltr'>01 800 911 0010</bdo> og derefter <bdo dir='ltr'>866 310 3707</bdo>",
        "SUPPORT_NAME_COSTA_RICA": "Costa Rica",
        "SUPPORT_NUMBER_COSTA_RICA": "<bdo dir='ltr'>0800 013 1210</bdo>",
        "SUPPORT_NAME_CROATIA": "Kroatien",
        "SUPPORT_NUMBER_CROATIA": "<bdo dir='ltr'>0800 222 953</bdo>",
        "SUPPORT_NAME_CZECH_REPUBLIC": "Tjekkiet",
        "SUPPORT_NUMBER_CZECH_REPUBLIC": "<bdo dir='ltr'>800 142 150</bdo>",
        "SUPPORT_NAME_DENMARK": "Danmark",
        "SUPPORT_NUMBER_DENMARK": "<bdo dir='ltr'>80 60 00 09</bdo>",
        "SUPPORT_NAME_EGYPT": "Egypten",
        "SUPPORT_NUMBER_EGYPT": "<bdo dir='ltr'>02 510 0200</bdo> og derefter <bdo dir='ltr'>866 310 3707</bdo>",
        "SUPPORT_NAME_EL_SALVADOR": "El Salvador",
        "SUPPORT_NUMBER_EL_SALVADOR": "<bdo dir='ltr'>+1 617 681 6306</bdo>",
        "SUPPORT_NAME_ESTONIA": "Estland",
        "SUPPORT_NUMBER_ESTONIA": "<bdo dir='ltr'>800 00 44 154</bdo>",
        "SUPPORT_NAME_FINLAND": "Finland",
        "SUPPORT_NUMBER_FINLAND": "<bdo dir='ltr'>0800 11 6366</bdo>",
        "SUPPORT_NAME_FRANCE": "Frankrig",
        "SUPPORT_NUMBER_FRANCE": "<bdo dir='ltr'>0800 10 19 79</bdo>",
        "SUPPORT_NAME_GERMANY": "Tyskland",
        "SUPPORT_NUMBER_GERMANY": "<bdo dir='ltr'>0800 101 28 21</bdo>",
        "SUPPORT_NAME_GREECE": "Grækenland",
        "SUPPORT_NUMBER_GREECE": "<bdo dir='ltr'>00 800 1311</bdo> og derefter <bdo dir='ltr'>866 310 3707</bdo>",
        "SUPPORT_NAME_GUATEMALA": "Guatemala",
        "SUPPORT_NUMBER_GUATEMALA": "<bdo dir='ltr'>1 800 624 0079</bdo>",
        "SUPPORT_NAME_HONG_KONG": "Hongkong",
        "SUPPORT_NUMBER_HONG_KONG": "<bdo dir='ltr'>3002 1665</bdo>",
        "SUPPORT_NAME_HUNGARY": "Ungarn",
        "SUPPORT_NUMBER_HUNGARY": "<bdo dir='ltr'>06 800 14 571</bdo>",
        "SUPPORT_NAME_ICELAND": "Island",
        "SUPPORT_NUMBER_ICELAND": "<bdo dir='ltr'>800 8544</bdo>",
        "SUPPORT_NAME_INDIA": "Indien",
        "SUPPORT_NUMBER_INDIA": "<bdo dir='ltr'>000 800 440 1125</bdo>",
        "SUPPORT_NAME_INDONESIA": "Indonesien",
        "SUPPORT_NUMBER_INDONESIA": "<bdo dir='ltr'>008 800 330 334</bdo>",
        "SUPPORT_NAME_IRELAND": "Irland",
        "SUPPORT_NUMBER_IRELAND": "<bdo dir='ltr'>1 800 946 700</bdo>",
        "SUPPORT_NAME_ISRAEL": "Israel",
        "SUPPORT_NUMBER_ISRAEL": "<bdo dir='ltr'>1 809 470 062</bdo>",
        "SUPPORT_NAME_ITALY": "Italien",
        "SUPPORT_NUMBER_ITALY": "<bdo dir='ltr'>800 90 56 37</bdo>",
        "SUPPORT_NAME_JAPAN": "Japan",
        "SUPPORT_NUMBER_JAPAN": "Se din ePRO-forsøgsoplysningsguide for at få vist gratisnummeret til dit forsøg",
        "SUPPORT_NAME_LATVIA": "Letland",
        "SUPPORT_NUMBER_LATVIA": "<bdo dir='ltr'>8000 2151</bdo>",
        "SUPPORT_NAME_LEBANON": "Libanon",
        "SUPPORT_NUMBER_LEBANON": "<bdo dir='ltr'>01-426-801</bdo> og derefter <bdo dir='ltr'>866 310 3707</bdo>",
        "SUPPORT_NAME_LITHUANIA": "Litauen",
        "SUPPORT_NUMBER_LITHUANIA": "<bdo dir='ltr'>8800 30207</bdo>",
        "SUPPORT_NAME_MALAYSIA": "Malaysia",
        "SUPPORT_NUMBER_MALAYSIA": "<bdo dir='ltr'>1800 80 59 71</bdo>",
        "SUPPORT_NAME_MEXICO": "Mexico",
        "SUPPORT_NUMBER_MEXICO_1": "(engelsk): <bdo dir='ltr'>001 800 748 5669</bdo> ",
        "SUPPORT_NUMBER_MEXICO_2": "(spansk): <bdo dir='ltr'>001 855 631 6952</bdo>",
        "SUPPORT_NAME_MOLDOVA": "Moldova",
        "SUPPORT_NUMBER_MOLDOVA": "<bdo dir='ltr'>617 681 6306</bdo>",
        "SUPPORT_NAME_NETHERLANDS": "Holland",
        "SUPPORT_NUMBER_NETHERLANDS": "<bdo dir='ltr'>0800 023 1389</bdo>",
        "SUPPORT_NAME_NEW_ZEALAND": "New Zealand",
        "SUPPORT_NUMBER_NEW_ZEALAND": "<bdo dir='ltr'>0800 110 178</bdo>",
        "SUPPORT_NAME_NORWAY": "Norge",
        "SUPPORT_NUMBER_NORWAY": "<bdo dir='ltr'>800 62 051</bdo>",
        "SUPPORT_NAME_PAKISTAN": "Pakistan",
        "SUPPORT_NUMBER_PAKISTAN": "<bdo dir='ltr'>00 800 0100</bdo> og derefter <bdo dir='ltr'>866 237 9767</bdo>",
        "SUPPORT_NAME_PANAMA": "Panama",
        "SUPPORT_NUMBER_PANAMA": "<bdo dir='ltr'>001 800 201 3095</bdo>",
        "SUPPORT_NAME_PERU": "Peru",
        "SUPPORT_NUMBER_PERU": "<bdo dir='ltr'>0800 5 0974</bdo>",
        "SUPPORT_NAME_PHILIPPINES": "Filippinerne",
        "SUPPORT_NUMBER_PHILIPPINES": "<bdo dir='ltr'>1 800 1116 0651</bdo>",
        "SUPPORT_NAME_POLAND": "Polen",
        "SUPPORT_NUMBER_POLAND": "<bdo dir='ltr'>00800 331 1262</bdo>",
        "SUPPORT_NAME_PORTUGAL": "Portugal",
        "SUPPORT_NUMBER_PORTUGAL": "<bdo dir='ltr'>800 206 172</bdo>",
        "SUPPORT_NAME_PUERTO_RICO": "Puerto Rico (amerikansk territorium)",
        "SUPPORT_NUMBER_PUERTO_RICO": "<bdo dir='ltr'>1 800 748 5669</bdo>",
        "SUPPORT_NAME_ROMANIA": "Rumænien",
        "SUPPORT_NUMBER_ROMANIA": "<bdo dir='ltr'>0800 894492</bdo>",
        "SUPPORT_NAME_RUSSIA": "Rusland",
        "SUPPORT_NUMBER_RUSSIA_1": "(hovednummer – gratis): <bdo dir='ltr'>8 10 800 249 13011</bdo>",
        "SUPPORT_NUMBER_RUSSIA_2": "(inden for Moskva): <bdo dir='ltr'>363-2400</bdo> <br> og derefter <bdo dir='ltr'>866 310 3707</bdo>",
        "SUPPORT_NUMBER_RUSSIA_3": "(uden for Moskva): <bdo dir='ltr'>8^(495) 363-2400</bdo> <br> og derefter <bdo dir='ltr'>866 310 3707</bdo>",
        "SUPPORT_NUMBER_RUSSIA_4": "(inden for Sankt Petersborg): <bdo dir='ltr'>363-2400</bdo> <br> og derefter <bdo dir='ltr'>866 310 3707</bdo>",
        "SUPPORT_NUMBER_RUSSIA_5": "(uden for Sankt Petersborg): <bdo dir='ltr'>8^(495) 363-2400</bdo> <br> og derefter <bdo dir='ltr'>866 310 3707</bdo>",
        "SUPPORT_NAME_SAUDI_ARABIA": "Saudi-Arabien",
        "SUPPORT_NUMBER_SAUDI_ARABIA": "<bdo dir='ltr'>+1 617 681 6306</bdo>",
        "SUPPORT_NAME_SERBIA": "Serbien",
        "SUPPORT_NUMBER_SERBIA": "<bdo dir='ltr'>+1 617 973 1739</bdo>",
        "SUPPORT_NAME_SINGAPORE": "Singapore",
        "SUPPORT_NUMBER_SINGAPORE": "<bdo dir='ltr'>800 616 30 03</bdo>",
        "SUPPORT_NAME_SLOVAKIA": "Slovakiet",
        "SUPPORT_NUMBER_SLOVAKIA": "<bdo dir='ltr'>0800 0044 65</bdo>",
        "SUPPORT_NAME_SLOVENIA": "Slovenien",
        "SUPPORT_NUMBER_SLOVENIA": "<bdo dir='ltr'>+1 617 681 6306</bdo>",
        "SUPPORT_NAME_SOUTH_AFRICA": "Sydafrika",
        "SUPPORT_NUMBER_SOUTH_AFRICA": "<bdo dir='ltr'>0800 99 5853</bdo>",
        "SUPPORT_NAME_SOUTH_KOREA": "Sydkorea",
        "SUPPORT_NUMBER_SOUTH_KOREA": "<bdo dir='ltr'>00308 33 00 08</bdo>",
        "SUPPORT_NAME_SPAIN": "Spanien",
        "SUPPORT_NUMBER_SPAIN": "<bdo dir='ltr'>900 90 2541</bdo>",
        "SUPPORT_NAME_SWEDEN": "Sverige",
        "SUPPORT_NUMBER_SWEDEN": "<bdo dir='ltr'>020 120 99 69</bdo>",
        "SUPPORT_NAME_SWITZERLAND": "Schweiz",
        "SUPPORT_NUMBER_SWITZERLAND_1": "(engelsk): <bdo dir='ltr'>0800 199 325</bdo>",
        "SUPPORT_NUMBER_SWITZERLAND_2": "(fransk): <bdo dir='ltr'>0800 891 183</bdo>",
        "SUPPORT_NUMBER_SWITZERLAND_3": "(tysk): <bdo dir='ltr'>0800 891 025</bdo>",
        "SUPPORT_NAME_TAIWAN": "Taiwan",
        "SUPPORT_NUMBER_TAIWAN": "<bdo dir='ltr'>00801 33 33 42</bdo>",
        "SUPPORT_NAME_THAILAND": "Thailand",
        "SUPPORT_NUMBER_THAILAND": "<bdo dir='ltr'>1 800 33 140 353</bdo>",
        "SUPPORT_NAME_TUNISIA": "Tunesien",
        "SUPPORT_NUMBER_TUNISIA": "<bdo dir='ltr'>+1 617 681 6306</bdo>",
        "SUPPORT_NAME_TURKEY": "Tyrkiet",
        "SUPPORT_NUMBER_TURKEY": "<bdo dir='ltr'>00 800 151 1335</bdo>",
        "SUPPORT_NAME_UKRAINE": "Ukraine",
        "SUPPORT_NUMBER_UKRAINE": "<bdo dir='ltr'>0^00 11</bdo> og derefter <bdo dir='ltr'>866 245 4931</bdo>",
        "SUPPORT_NAME_UAE": "Forenede Arabiske Emirater",
        "SUPPORT_NUMBER_UAE": "<bdo dir='ltr'>8000-021</bdo> og derefter <bdo dir='ltr'>866 310 3707</bdo>",
        "SUPPORT_NAME_UK": "Storbritannien",
        "SUPPORT_NUMBER_UK": "<bdo dir='ltr'>0800 015 0408</bdo>",
        "SUPPORT_NAME_US": "USA",
        "SUPPORT_NUMBER_US_1": "(hovednummer): <bdo dir='ltr'>1 800 748 5669</bdo>",
        "SUPPORT_NUMBER_US_2": "(sekundært nummer): <bdo dir='ltr'>1 877 748 5669</bdo>",
        "SUPPORT_NAME_VENEZUELA": "Venezuela",
        "SUPPORT_NUMBER_VENEZUELA_1": "(engelsk): <bdo dir='ltr'>0 800 552 6288</bdo> <br> og derefter <bdo dir='ltr'>866 310 3707</bdo> ",
        "SUPPORT_NUMBER_VENEZUELA_2": "(spansk): <bdo dir='ltr'>0 800 100 3063</bdo> ",
        "STUDY_VERSION": "Forsøgsversion: ",
        "STUDY_URL": "Forsøgets internetadresse:",
        "PROTOCOL": "Protokol:",
        "SPONSOR": "Sponsor:",
        "STORED_REPORTS": "Lagrede formularer:",
        "CORE_PRODUCT_VERSION_LABEL": "Produktversion:",
        "ABOUT": "Om",
        "P_AFFIDAVIT_HEADER": "<div><strong>Center: {{{ getSiteCode }}}</strong><br /><strong>Patient-ID: {{{ getPatientIdNumber }}}</strong></div>",
		"SET_TIMEZONE": "Indstil tidszone",
		"DEVICE_SERIAL_NUMBER": "Enhedens serienummer",
		"NONEXISTENT_USER": "Forsøgte at opdatere en ikke-eksisterende bruger.",
		"SCREENING" : "Screening",
		"TREATMENT" : "Behandling",
		"RANDOMIZATION" : "Randomisering",
		"FOLLOWUP" : "Opfølgning",
		"TERMINATION" : "Afslutning",
        "ACCEPT": "Jeg accepterer",
        "DECLINE": "Jeg afslår",
		"EULA": "SLUTBRUGERLICENS",
        "EULA_TEXT": "<p><strong><span class=\"text-underline\">VIGTIGT</span>:  KLIK IKKE PÅ ACCEPT-KNAPPEN, FØR DU HAR LÆST DENNE AFTALE.  VED AT KLIKKE PÅ ACCEPT-KNAPPEN ACCEPTERER DU ALLE VILKÅR I DENNE AFTALE.  HVIS DU IKKE ACCEPTERER ALLE VILKÅRENE I DENNE AFTALE, (1) SKAL DU IKKE KLIKKE PÅ KNAPPEN \"JEG ACCEPTERER\", (2) AFBRYD INSTALLATION OG LICENSPROCES VED AT KLIKKE PÅ KNAPPEN \"JEG AFSLÅR\".</strong></p><p>eResearchTechnology, Inc. (\"licensgiver\") giver dig en ikke-eksklusiv, uoverdragelig ret til at bruge eResearchTechnology, Inc.-software på denne enhed (\"software\") i forbindelse med din deltagelse i aftalen om klinisk forsøg: <strong>{{{ clinicalTrial }}}</strong>.  eResearchTechnology, Inc.-software er dækket af meddelte patenter og andre anmeldte patenter.  Denne aftale giver dig ikke ejendomsret til softwaren (eller kopier deraf), men udgør kun en licens til brug af softwaren i overensstemmelse med alle vilkårene i denne aftale.  Adkomst til softwaren og alle dele deraf og alle ejendomsrettigheder og immaterielle rettigheder omfattet deraf forbliver til enhver tid licensgivers ejendom.</p><p>Du accepterer, hverken direkte eller indirekte, at (i) foretage reverse engineering, demontering eller dekompilering af softwaren, (ii) kopiere, distribuere, fremstille, tilpasse, skabe afledte værker af, oversætte, lokalisere, overføre eller på anden måde ændre softwaren eller (iii) fjerne eller ændre eventuelle meddelelser om ophavsret, erhvervshemmeligheder eller juridiske meddelelser på eller indeholdt i softwaren.  DU ANERKENDER OG ACCEPTERER, AT SOFTWAREN KAN INDEHOLDE KODE, DER FORHINDRER UAUTORISERET BRUG AF SOFTWAREN.</p><br><p>HVIS DU ACCEPTERER OVENSTÅENDE, skal du vælge – <strong>Jeg accepterer</strong> – Ved at klikke på \"Jeg accepterer\" angiver du, at du accepterer licensvilkårene.</p><p>HVIS DU IKKE ACCEPTERER OVENSTÅENDE eller ikke er bemyndiget til at acceptere, skal du vælge – <strong>Jeg afslår</strong> – i så fald vil yderligere adgang til softwaren blive blokeret.  Hvis du er bemyndiget, kan du acceptere på et andet tidspunkt.</p>",
        "VISIT_EXPIRED_HEADER": "Udløbet besøg.",
        "VISIT_EXPIRED_MESSAGE": "Dette besøg er ikke længere tilgængeligt, da det er udløbet.",
        "VISIT_EXPIRED_MESSAGE_SUBJECT": "Dette besøg er ikke længere tilgængeligt, da det er udløbet. Returner venligst denne enhed til det rette centerpersonale.",
        "SQ-AL": "Albansk",
        "IMAGE_FOLDER": "{{{ imageFolder }}}",
		"MODAL_OK_TEXT": "OK",
        "BROWSER_LOAD_ERROR": "Side ikke fundet. Kontrollér din internetforbindelse, og prøv igen.",
		"NO_USER_OF_ROLE" : "Der blev ikke fundet nogen bruger med denne rolle.",
        "EDIT_PATIENT_REASON_1": "Korrektion af attributdata",
        "EDIT_PATIENT_REASON_2": "Ændring af ID",
        "EDIT_PATIENT_REASON_3": "Forkert sprog valgt",
		"START_VISIT_OUTSIDE_WINDOW_MSG": "Angiv {{{ getVisitName }}} uden for det konfigurerede tidsvindue: {{{ startDate }}} - {{{ endDate }}}",
		"START_VISIT_HARD_STOP_MSG" : "Du kan ikke angive {{{ getVisitName }}} uden for det konfigurerede tidsvindue: {{{ startDate }}} - {{{ endDate }}}",
		"USER_NAME_INVALID_CHARACTERS" : "Brug ikke specialtegn",
		"ERROR_PATIENT_SAVE" : "Der opstod en fejl under tilføjelse af den nye patient",
		"PASSWORD_CHANGE_FAILED" : "En anden enhed er blevet aktiveret for at indsamle dine forsøgsdata. Skift din adgangskode på den pågældende enhed.",
		"ERROR" : "Fejl.  Kontakt ERT Support Center.",
		"ERROR_AFTER_ACTIVATION_SUCCESSFUL" : "Der er opstået en fejl. Du skal indtaste din opsætningskode og adgangskode.",
		"CONNECTION_TIMEOUT" : "Timeout af forbindelse.",
		"UPDATE_FAILED" : "ERT-opdateringen blev ikke færdiggjort. Sørg for, at denne enhed har forbindelse til internettet, og prøv igen.",
        "QR_CODE_UNAVAILABLE": "Klik på patient for at opdatere QR.",
        "QR_MODAL_TITLE": "QR-kode for: ",
        "TRANSMIT_FAILED_403_14": "Én eller flere transmissioner mislykkedes, fordi oprettelse af patient ikke blev fuldført. Vent, og prøv igen.",
        "CONSOLE_LOG": "Konsollog",
		"USER_SELECT_ROLE_VALIDATION": "Valg af rolle er påkrævet.",
        "USER_SELECT_LANGUAGE_VALIDATION": "Valg af sprog er påkrævet."
    },
    "dates": {
        "setDateButtonLabel": "Indstil dato",
        "setTimeButtonLabel": "OK",
        "setDurationButtonLabel": "Indstil varighed",
        "calTodayButtonLabel": "Hop frem til i dag",
        "titleDateDialogLabel": "Indstil dato",
        "titleTimeDialogLabel": "Indstil tid",
        "daysOfWeek": [
            "Søndag",
            "Mandag",
            "Tirsdag",
            "Onsdag",
            "Torsdag",
            "Fredag",
            "Lørdag"
        ],
        "daysOfWeekShort": [
            "Sø",
            "Ma",
            "Ti",
            "On",
            "To",
            "Fr",
            "Lø"
        ],
        "monthsOfYear": [
            "Januar",
            "Februar",
            "Marts",
            "April",
            "Maj",
            "Juni",
            "Juli",
            "August",
            "September",
            "Oktober",
            "November",
            "December"
        ],
        "monthsOfYearShort": [
            "Jan",
            "Feb",
            "Mar",
            "Apr",
            "Maj",
            "Jun",
            "Jul",
            "Aug",
            "Sep",
            "Okt",
            "Nov",
            "Dec"
        ],
        "durationLabel": [
            "Dage",
            "Timer",
            "Minutter",
            "Sekunder"
        ],
        "durationDays": [
            "Dag",
            "Dage"
        ],
        "tooltip": "Åbn datovælger",
        "nextMonth": "Næste måned",
        "prevMonth": "Foregående måned",
        "clearButton": "Ryd",
        "meridiem": [
            "AM",
            "PM"
        ]
    }
}
