{
    "namespace": "CORE",
    "language": "th",
    "locale": "TH",
    "localized": "ภาษาไทย",
    "direction": "ltr",
    "resources": {
        "ACCEPT": "ข้าพเจ้ายอมรับ",
        "ACTIVE": "อยู่ในระบบ",
        "ACTIVATE_USER": "เปิดใช้งานผู้ใช้",
        "ACTIVATE_USER_CANCEL_CONFIRM": "ยกเลิกการเปิดใช้งานหรือไม่",
        "ACTIVATE_USER_CANCEL_BODY": "หากคุณยกเลิกตอนนี้ ผู้ใช้ประจำสถานที่วิจัยจะไม่ถูกเปิดใช้งาน คุณต้องการยกเลิกหรือไม่",
        "ACTIVATE_USER_AFF": "ด้วยการลงชื่อด้านล่าง ข้าพเจ้าขอยืนยันว่าข้าพเจ้ามีสิทธิ์เปิดใช้งานผู้ใช้ประจำสถานที่วิจัยรายนี้",
        "ACTIVATE_USER_CONFIRM_INFORMATION": "โปรดยืนยันว่าข้อมูลด้านล่างเป็นของผู้ใช้ประจำสถานที่วิจัยที่คุณต้องการเปิดใช้งาน",
        "ADD_PATIENT": "เพิ่มผู้ป่วยรายใหม่",
        "ADD_USER": "เพิ่มผู้ใช้",
        "AFFIDAVIT": "เลือก ตกลง และตามด้วย ถัดไป เมื่อพร้อมที่จะบันทึกคำตอบของคุณ",
        "AFFIDAVIT_HELP": "ขอบคุณ คุณได้ให้คำตอบที่ต้องการให้ตอบทั้งหมดแล้ว คุณสามารถตรวจสอบและเปลี่ยนคำตอบขอบคุณโดยเลือก ย้อนกลับ",
        "P_AFFIDAVIT_HEADER": "<div><strong>สถานที่วิจัย: {{{ getSiteCode }}}</strong><br /><strong>หมายเลขประจำตัวผู้ป่วย: {{{ getPatientIdNumber }}}</strong></div>",
        "ALL_QUESTIONNAIRES_COMPLETED": "กรอกแบบฟอร์มทั้งหมดแล้ว",
        "APP_NAME": "ERT",
        "APPLICATION_HEADER": "{{{ appHeader }}}",
        "APP_NAME_LBL": "ชื่อแอพพลิเคชั่น",
        "APP_VERSION": "เวอร์ชันของแอพพลิเคชั่น",
        "ASSIGNED_TO": "มอบหมายให้",
        "AVAILABLE": "มีอยู่",
        "BACK": "ย้อนกลับ",
        "BACK_OUT_CONFIRM": "คุณต้องการออกหรือไม่ คำตอบสำหรับแบบฟอร์มนี้จะหายไป",
        "BLUETOOTH_REG_REFRESH_BUTTON": "รีเฟรชรายการ",
        "CANCEL": "ยกเลิก",
        "CHECK_FOR_UPDATES": "ตรวจสอบการอัพเดตข้อมูล",
        "CHOOSE_A_SITE": "มอบหมายอุปกรณ์นี้ให้กับสถานที่วิจัยที่จำเพาะ",
        "COMPLETED": "เสร็จสมบูรณ์",
        "CONFIRM_PASSWORD": "ยืนยันรหัสผ่าน:",
        "CONFIRM_TEMP_PASS": "ยืนยันรหัสผ่านชั่วคราว:",
        "CONSOLE_LOG": "บันทึกส่วนที่เฝ้าคุม",
        "CONTINUE": "ดำเนินการต่อ",
        "COUNTRY": "ประเทศ",
        "CUSTOM_ENVIRONMENT": "แก้ไขสภาพแวดล้อม",
        "DEACTIVATE_PATIENT": "ปิดใช้งานผู้ป่วย",
        "DEACTIVATE_USER": "ปิดใช้งานผู้ใช้",
        "DEACTIVATED": "ปิดใช้งานแล้ว",
        "DEACTIVATE_USER_CANCEL_CONFIRM": "ยกเลิกการปิดใช้งานหรือไม่",
        "DEACTIVATE_USER_CANCEL_BODY": "หากคุณยกเลิกตอนนี้ ผู้ใช้ประจำสถานที่วิจัยจะไม่ถูกปิดใช้งาน คุณต้องการยกเลิกหรือไม่",
        "DEACTIVATE_USER_AFF": "ด้วยการลงชื่อด้านล่าง ข้าพเจ้าขอยืนยันว่าข้าพเจ้ามีสิทธิ์ปิดใช้งานผู้ใช้ประจำสถานที่วิจัยรายนี้",
        "DEACTIVATE_USER_SIG": "<strong>ปิดใช้งานผู้ใช้:</strong> <br />{{{ getSelectedUsername }}}<br /><br /><strong>ลายเซ็น:</strong> {{{ getActiveUserName }}}",
        "DEACTIVATE_USER_CONFIRM_INFORMATION": "โปรดยืนยันว่าข้อมูลด้านล่างเป็นของผู้ใช้ประจำสถานที่วิจัยที่คุณต้องการปิดใช้งาน",
        "DECLINE": "ข้าพเจ้าปฏิเสธ",
        "DEVICE_ID": "หมายเลขอุปกรณ์",
        "DEVICE_REGISTRATION_FAILURE": "ไม่สามารถลงทะเบียนอุปกรณ์ได้",
        "DEVICE_UUIID": "UUID ของอุปกรณ์",
        "BATTERY_LEVEL": "ระดับแบตเตอรี่",
        "DEVICE_INFO": "ข้อมูลอุปกรณ์",
        "DIARY_TIMEOUT": "หมดเวลาสำหรับแบบฟอร์มนี้แล้ว",
        "EDIT_MY_INFO": "แก้ไขข้อมูลของข้าพเจ้า",
        "EDIT_PATIENT": "แก้ไขข้อมูลผู้ป่วย",
        "EDIT_PATIENT_QUESTION_1_MAIN_TITLE": "<div class='question-title-large'>ระบุข้อมูลประจำตัวผู้ป่วย</div><div>ช่วงหมายเลขประจำตัวสำหรับสถานที่วิจัยแห่งนี้:<br /><strong> {{{ patientIDRange }}}</strong></div><div class='edit-patient-id'>หมายเลขประจำตัวผู้ป่วย:<br /><strong>{{{ getPatientIdNumber }}} ({{{getPatientInitials}}})</strong</div><br /><br />",
        "EDIT_PATIENT_QUESTION_1": "หมายเลขประจำตัวผู้ป่วย:",
        "EDIT_PATIENT_QUESTION_1_EMPTY": "โปรดกรอกหมายเลขประจำตัวผู้ป่วย",
        "EDIT_PATIENT_QUESTION_1_EMPTY_HEADER": "หมายเลขประจำตัวผู้ป่วย",
        "EDIT_PATIENT_QUESTION_1_RANGE": "หมายเลขประจำตัวผู้ป่วยที่คุณป้อนข้อมูลไม่อยู่ในช่วงหมายเลขประจำตัวที่อนุญาต: {{{ patientIDRange }}}.  โปรดกรอกหมายเลขประจำตัวผู้ป่วยที่ถูกต้อง",
        "EDIT_PATIENT_QUESTION_1_RANGE_HEADER": "หมายเลขประจำตัวผู้ป่วยอยู่นอกช่วง",
        "EDIT_PATIENT_QUESTION_1_UNIQUE": "มีผู้ป่วยรายนี้อยู่ในระบบแล้ว  โปรดป้อนข้อมูลหมายเลขประจำตัวผู้ป่วยหมายเลขอื่น",
        "EDIT_PATIENT_QUESTION_1_UNIQUE_HEADER": "หมายเลขประจำตัวผู้ป่วยซ้ำกัน",
        "EDIT_PATIENT_QUESTION_2": "ชื่อย่อผู้ป่วย:",
        "EDIT_PATIENT_QUESTION_2_EMPTY": "โปรดกรอกชื่อย่อผู้ป่วยด้วยตัวอักษรอย่างน้อย 2 ตัว",
        "EDIT_PATIENT_QUESTION_2_EMPTY_HEADER": "ชื่อย่อผู้ป่วย",
        "EDIT_PATIENT_QUESTION_3_TITLE": "<div class='question-title-large'>เลือกภาษา</div><div>หมายเลขประจำตัวผู้ป่วย:<br /><strong>{{{ getPatientIdNumber }}} ({{{getPatientInitials}}})</strong</div><br /><br />",
        "EDIT_PATIENT_QUESTION_3": "เลือกภาษาสำหรับผู้ป่วยรายนี้",
        "EDIT_PATIENT_QUESTION_4_TITLE": "<div class='question-title-large'>เหตุผลในการแก้ไข</div><br /><br />",
        "EDIT_PATIENT_QUESTION_4": "เลือกเหตุผลสำหรับการแก้ไขข้อมูลผู้ป่วย",
        "EDIT_PATIENT_CANCEL_CONFIRM": "ยกเลิกการเปลี่ยนแปลงผู้ป่วยหรือไม่",
        "EDIT_PATIENT_CANCEL_BODY": "หากคุณยกเลิกตอนนี้ จะไม่มีการอัพเดตการตั้งค่าผู้ป่วย  คุณต้องการยกเลิกหรือไม่",
        "EDIT_PATIENT_NO_CHANGES_CONFIRM": "ยังไม่มีการเปลี่ยนแปลงข้อมูลผู้ป่วย",
        "EDIT_PATIENT_NO_CHANGES_BODY": "ยังไม่มีการเปลี่ยนแปลงกับผู้ป่วยรายนี้ ต้องการออกหรือไม่",
        "EDIT_PATIENT_REASON_0": "แก้ไขข้อผิดพลาดโดยแพทย์",
        "EDIT_PATIENT_REASON_1": "แก้ไขข้อมูลเฉพาะ",
        "EDIT_PATIENT_REASON_2": "เปลี่ยนแปลงหมายเลขประจำตัว",
        "EDIT_PATIENT_REASON_3": "เลือกภาษาไม่ถูกต้อง",
        "EDIT_REASON": "เหตุผลในการแก้ไข:",
        "EDIT_SERVICE_URL": "แก้ไข URL ที่ให้บริการ",
        "EDIT_SERVICE_URL_SUCCESS": "การอัพเดต URL ที่ให้บริการถูกยกเลิก",
        "EDIT_USER": "แก้ไขผู้ใช้",
        "EDIT_USER_AFF": "ด้วยการลงชื่อด้านล่าง ข้าพเจ้าขอยืนยันว่าข้าพเจ้ามีสิทธิ์แก้ไขผู้ใช้ประจำสถานที่วิจัยรายนี้ <br /><br /><strong>ลายเซ็น:</strong> {{{ getActiveUserName }}}",
        "EDIT_USER_CANCEL_CONFIRM": "ยกเลิกการแก้ไขผู้ใช้หรือไม่",
        "EDIT_USER_CANCEL_BODY": "หากคุณยกเลิกตอนนี้ การเปลี่ยนแปลงผู้ใช้ประจำสถานที่วิจัยจะไม่ถูกเก็บเข้าระบบ<br> คุณต้องการยกเลิกหรือไม่",
        "EDIT_USER_NO_CHANGES_HEADER": "ยังไม่มีการเปลี่ยนแปลงข้อมูลผู้ใช้ประจำสถานที่วิจัย",
        "EDIT_USER_NO_CHANGES_BODY": "ยังไม่มีการเปลี่ยนแปลงข้อมูลผู้ใช้ประจำสถานที่วิจัยรายนี้ ต้องการออกหรือไม่",
        "EMAIL": "ที่อยู่อีเมล",
        "ENTER_PATIENT_INFO": "ใส่ข้อมูลผู้ป่วย",
        "ENTER_UNLOCK_CODE": "โปรดกรอกรหัสปลดล็อค",
        "ENTER_USER_INFO": "ใส่ข้อมูลผู้ใช้ประจำสถานที่วิจัยรายใหม่",
        "ENVIRONMENT": "สภาพแวดล้อม",
        "ERROR_CODE": "รหัสข้อผิดพลาด:",
        "ERROR_TITLE": "ข้อผิดพลาด",
        "EULA": "การอนุญาตโดยผู้ใช้ปลายทาง",
        "EULA_TEXT": "<p><strong><span class=\"text-underline\">สำคัญ</span>:  ห้ามคลิกปุ่ม ยอมรับ จนกว่าคุณจะได้อ่านข้อตกลงนี้  โดยการคลิกปุ่ม ยอมรับ หมายความว่าคุณได้ยอมรับเงื่อนไขของข้อตกลงนี้ทุกข้อ  หากคุณไม่ยอมรับเงื่อนไขของข้อตกลงนี้ทุกข้อ (1) ห้ามคลิกปุ่ม \"ข้าพเจ้ายอมรับ\" (2) หยุดกระบวนการติดตั้งและการอนุญาตโดยคลิกที่ปุ่ม \"ข้าพเจ้าปฏิเสธ\"</strong></p><p>บริษัท อีรีเสิร์จ เทคโนโลยี จำกัด (\"ผู้ให้การอนุญาต\") ให้สิทธิ์อย่างไม่จำเพาะเจาะจงและไม่สามารถถ่ายโอนได้กับคุณในการใช้ซอฟต์แวร์ของบริษัท อีรีเสิร์จ เทคโนโลยี จำกัด ที่อยู่บนอุปกรณ์นี้ (\"ซอฟต์แวร์\") และเชื่อมโยงกับการเข้าร่วมในข้อตกลงสำหรับการวิจัยทางคลินิก: <strong>{{{ clinicalTrial }}}</strong>.  ซอฟต์แวร์ของบริษัท อีรีเสิร์จ เทคโนโลยี จำกัด ได้รับการคุ้มครองโดยสิทธิบัตรจดทะเบียนและสิทธิบัตรอื่นที่รอการจดทะเบียน  ข้อตกลงนี้ไม่ได้ส่งผ่านสิทธิ์ความเป็นเจ้าของซอฟต์แวร์ใด ๆ (หรือสำเนาของซอฟต์แวร์) แต่มีไว้สำหรับใบอนุญาตให้ใช้ซอฟต์แวร์ตามเงื่อนไขของข้อตกลงนี้ทั้งหมดเท่านั้น  ชื่อซอฟต์แวร์และส่วนทั้งหมดของซอฟต์แวร์ ตลอดจนกรรมสิทธิ์และสิทธิ์ในทรัพย์สินทางปัญญาของซอฟต์แวร์นี้จะยังคงเป็นของผู้ให้การอนุญาตตลอดเวลา</p><p>ไม่ว่าโดยทางตรงหรือทางอ้อม คุณตกลงที่จะไม่ (1) รื้อหรือแยกส่วนประกอบของซอฟต์แวร์ (2) ทำสำเนา เผยแพร่ ผลิต ปรับเปลี่ยน สร้างงานที่เกิดจากการแปล ย้าย หรือแม้แแต่ปรับปรุงแก้ไขซอฟต์แวร์ หรือ (3) ย้ายหรือเปลี่ยนแปลงลิขสิทธิ์ ความลับทางการค้า หรือการแจ้งให้ทราบอื่น ๆ ตามกฎหมายที่มีอยู่ในซอฟต์แวร์  คุณยอมรับและตกลงว่าซอฟต์แวร์อาจประกอบด้วยรหัสซึ่งป้องกันการใช้งานที่ไม่ได้รับอนุญาตของซอฟต์แวร์นี้</p><br><p>หากคุณเห็นด้วยกับสิ่งที่กล่าวมาก่อนหน้านี้ทั้งหมด โปรดเลือก – <strong>ข้าพเจ้ายอมรับ</strong> – การคลิกที่ \"ข้าพเจ้ายอมรับ\" เป็นการระบุว่าคุณยอมรับในเงื่อนไขการอนุญาต</p><p>หากคุณไม่เห็นด้วยกับสิ่งที่กล่าวมาก่อนหน้านี้ทั้งหมดหรือไม่อนุญาตให้มีการตกลงนี้ โปรดเลือก – <strong>ข้าพเจ้าปฏิเสธ</strong> – ในกรณีนี้การเข้าถึงซอฟต์แวร์เพิ่มเติมจะถูกระงับ  ในกรณีที่อนุญาต คุณสามารถให้การยอมรับได้ในภายหลัง</p>",
        "FIRST_NAME": "ชื่อ",
        "FORGOT_PASSWORD": "ลืมรหัสผ่านใช่หรือไม่",
        "FORM": "แบบฟอร์ม",
        "FORM_GATEWAY": "เกตเวย์ของแบบฟอร์ม",
        "FORM_NAME": "ชื่อแบบฟอร์ม",
        "FULL_NAME": "ชื่อและนามสกุล:",
        "GO_TO_VISITS": "การนัดตรวจของผู้ป่วย",
        "HAND_DEVICE_SITE_TITLE": "ให้อุปกรณ์กับผู้ใช้ประจำสถานที่วิจัย",
        "HAND_DEVICE_SITE_BODY": "โปรดให้อุปกรณ์กับผู้ใช้ประจำสถานที่วิจัย",
        "HELP": "ช่วยเหลือ",
        "HOME": "หน้าแรก",
        "IN_PROGRESS": "กำลังดำเนินการ",
        "INITIALS": "ชื่อย่อ",
        "INVALID_URL": "โปรดกรอก URL ที่ถูกต้อง",
        "INVALID_PERMISSION": "การอนุญาตไม่ถูกต้อง",
        "INVALID_PASSWORD": "รหัสผ่านไม่ถูกต้อง",
        "LANGUAGE": "ภาษา:",
        "LAST_LOGIN": "เข้าสู่ระบบครั้งสุดท้าย",
        "LAST_NAME": "นามสกุล",
        "LAST_REFRESH_TIME": "เวลาที่รีเฟรชระบบครั้งสุดท้าย",
        "LOCATION": "สถานที่",
        "LOGIN": "เข้าสู่ระบบ",
        "LOGIN_SCREEN": "เข้าสู่ระบบ",
        "LOGOUT": "ออกจากระบบ",
        "MANAGE_USERS": "จัดการผู้ใช้ประจำสถานที่วิจัย",
        "MARK_AS_COMPLETED": "ระบุว่าเสร็จสิ้นแล้ว",
        "SITE_SIGNATURE": "ลายเซ็น: ",
        "SITE_REPORT_AFF": "ข้าพเจ้าได้กรอกข้อมูล ตรวจสอบ และยืนยันข้อมูลข้างต้นแล้ว<br /><br /><strong>ลายเซ็น:</strong> {{{ getActiveUserName }}}",
        "PATIENT_REPORT_AFF": "ข้าพเจ้าได้ป้อนข้อมูล ตรวจสอบ และยืนยันข้อมูลข้างต้นแล้ว<br /><br /><strong>ชื่อย่อของ:</strong> {{{ getActiveUserName }}}",
        "CLEAR_SIGNATURE": "ลบลายเซ็น",
        "MENU": "เมนู",
        "MODE": "โหมด",
        "NAME": "ชื่อ",
        "NEW_USER": "เพิ่มบันทึกประจำวันสำหรับผู้ใช้รายใหม่",
        "FIRST_SITE_USER": "เพิ่มผู้ใช้ประจำสถานที่วิจัยครั้งแรก",
        "NEW_USER_CREATED": "เพิ่มผู้ใช้ประจำสถานที่วิจัยแล้ว",
        "NEW_PATIENT_QUESTION_1_MAIN_TITLE": "<div class='question-title-large'>ระบุข้อมูลประจำตัวผู้ป่วย</div><div>ช่วงหมายเลขประจำตัวสำหรับสถานที่วิจัยแห่งนี้:<br /><strong> {{{ patientIDRange }}}</strong></div><div><strong>สถานที่วิจัย: {{{ getSiteCode }}}</strong></div><div><strong>ผู้ใช้: {{{ getUserName }}}</strong</div><br /><br />",
        "NEW_PATIENT_HELP_TEXT_1": "",
        "NEW_PATIENT_HELP_TEXT_2": "",
        "NEW_PATIENT_HELP_TEXT_3": "",
        "NEW_PATIENT_QUESTION_1_TITLE": "หมายเลขประจำตัวผู้ป่วย",
        "NEW_PATIENT_QUESTION_1": "หมายเลขประจำตัวผู้ป่วย:",
        "NEW_PATIENT_QUESTION_1_EMPTY": "โปรดกรอกหมายเลขประจำตัวผู้ป่วย",
        "NEW_PATIENT_QUESTION_1_EMPTY_HEADER": "หมายเลขประจำตัวผู้ป่วย",
        "NEW_PATIENT_QUESTION_1_RANGE": "หมายเลขประจำตัวผู้ป่วยที่คุณป้อนข้อมูลไม่อยู่ในช่วงหมายเลขประจำตัวที่อนุญาต: {{{ patientIDRange }}}.  โปรดกรอกหมายเลขประจำตัวผู้ป่วยที่ถูกต้อง",
        "NEW_PATIENT_QUESTION_1_RANGE_HEADER": "หมายเลขประจำตัวผู้ป่วยอยู่นอกช่วง",
        "NEW_PATIENT_QUESTION_1_UNIQUE": "มีผู้ป่วยรายนี้อยู่ในระบบแล้ว  โปรดป้อนข้อมูลหมายเลขประจำตัวผู้ป่วยหมายเลขอื่น",
        "NEW_PATIENT_QUESTION_1_UNIQUE_HEADER": "หมายเลขประจำตัวผู้ป่วยซ้ำกัน",
        "NEW_PATIENT_QUESTION_2": "ชื่อย่อผู้ป่วย:",
        "NEW_PATIENT_QUESTION_2_EMPTY": "โปรดกรอกชื่อย่อผู้ป่วยด้วยตัวอักษรอย่างน้อย 2 ตัว",
        "NEW_PATIENT_QUESTION_2_EMPTY_HEADER": "ชื่อย่อผู้ป่วย",
        "NEW_PATIENT_QUESTION_3_TITLE": "<div class='question-title-large'>เลือกภาษา</div><div><strong>สถานที่วิจัย: {{{ getSiteCode }}}</strong></div><div><strong>ผู้ใช้: {{{ getUserName }}}</strong</div><div><strong>หมายเลขประจำตัวผู้ป่วย: {{{ getPatientID }}}</strong></div><br /><br />",
        "NEW_PATIENT_QUESTION_3": "เลือกภาษาสำหรับผู้ป่วยรายนี้",
        "NEW_PATIENT_CANCEL_CONFIRM": "ยกเลิกการเพิ่มผู้ป่วยหรือไม่",
        "NEW_PATIENT_CANCEL_BODY": "หากคุณยกเลิกตอนนี้ จะไม่มีการลงทะเบียนผู้ป่วย<br> คุณต้องการยกเลิกหรือไม่",
        "NEW_PATIENT_AFFIDAVIT_HEADER": "<div><strong>สถานที่วิจัย: {{{ getSiteCode }}}</strong><br /><strong>ผู้ใช้: {{{ getUserName }}}</strong><br /><strong>หมายเลขประจำตัวผู้ป่วย: {{{ getPatientID }}}</strong></div>",
        "NEXT": "ถัดไป",
        "NO_RESULTS_FOUND": "ไม่พบผลลัพธ์",
        "NOT_AVAILABLE": "ไม่มี",
        "OK": "ตกลง",
        "ORDER": "ลำดับ",
        "PASSWORD": "รหัสผ่าน:",
        "PATIENT": "ผู้ป่วย",
        "PATIENT_ID": "หมายเลขประจำตัวผู้ป่วย:",
        "PATIENT_INITIALS": "ชื่อย่อผู้ป่วย:",
        "PATIENT_DELETED": "ไม่รู้จักผู้ป่วยรายนี้",
        "PATIENT_DELETED_MSG": "ไม่พบผู้ป่วย",
        "PATIENT_DELETED_SUBJECT_MSG": "ไม่พบผู้ป่วย โปรดส่งคืนอุปกรณ์ให้กับเจ้าหน้าที่ประจำสถานที่วิจัย",
        "PENDING_TRANSMISSIONS": "อยู่ระหว่างการส่งผ่านข้อมูล",
        "PLEASE_WAIT": "โปรดรอสักครู่",
        "PLEASE_CONFIRM": "โปรดยืนยัน",
        "PLEASE_CONTACT": "โปรดติดต่อศูนย์สนับสนุนของ ERT",
        "PLEASE_TRY_OR_CONTACT_SUPPORT": "โปรดลองใหม่อีกครั้ง หรือ ติดต่อศูนย์สนับสนุนของ ERT",
        "QR_CODE_UNAVAILABLE": "คลิกที่ผู้ป่วยเพื่อรีเฟรช QR",
        "QR_MODAL_TITLE": "รหัส QR สำหรับ: ",
        "REASON": "เหตุผล:",
        "REPORTS_AND_FORMS": "รายงานและแบบฟอร์ม",
        "REPORTS_COMPLETED_MESSAGE": "คุณได้กรอกแบบฟอร์มทั้งหมดแล้ว โปรดส่งคืนอุปกรณ์ให้กับ<br>เจ้าหน้าที่ประจำสถานที่วิจัย",
        "REQUIRED_ANSWER": "โปรดกรอกข้อมูลที่ร้องขอให้ครบถ้วน",
        "RESET_PIN": "รีเซ็ต PIN ของผู้ป่วย",
        "RESET_USER_PASSWORD": "รีเซ็ตรหัสผ่านผู้ใช้",
        "ROLES": "บทบาท:",
        "SAVE": "บันทึก",
        "SEARCH": "ค้นหา",
        "SECURITY_QUESTION_0": "นามสกุลก่อนแต่งงานของแม่คุณคืออะไร",
        "SECURITY_QUESTION_1": "คุณเกิดที่เมืองอะไร",
        "SECURITY_QUESTION_2": "ชื่อของสัตว์เลี้ยงตัวแรกของคุณคืออะไร",
        "SECURITY_QUESTION_3": "กีฬาโปรดของคุณคืออะไร",
        "SECURITY_QUESTION_4": "คุณจบการศึกษาเมื่อปีใด",
        "SECURITY_QUESTION_5": "ชื่อกลางของลูกคนแรกของคุณคืออะไร",
        "SECURITY_QUESTION_6": "ชื่อของเพื่อนคนโปรดสมัยเด็กของคุณคืออะไร",
        "SECURITY_QUESTION_7": "นามสกุลของคุณครูชั้น ป. 3 ของคุณคืออะไร",
        "SECURITY_QUESTION_8": "จังหวัดหรือเมืองที่คุณทำงานครั้งแรกคือที่ไหน",
        "SECRET_ANSWER": "คำตอบเพื่อรักษาความปลอดภัย:",
        "SECRET_QUESTION": "คำถามรักษาความปลอดภัย:",
        "SECRET_QUESTION_HELP_TEXT": "เลือกคำถามรักษาความปลอดภัยจากรายการด้านล่าง คำตอบจะใช้เพื่อให้เข้าสู่ระบบได้ ในกรณีที่คุณลืมรหัสผ่าน",
        "SECRET_QUESTION_ANSWER": "คำถามและคำตอบเพื่อรักษาความปลอดภัย",
        "SELECT_LANGUAGE": "โปรดเลือกภาษาที่ต้องการสำหรับสถานที่วิจัยนี้",
        "SET_TIMEZONE_MESSAGE": "เลือกเขตเวลาของคุณ:",
        "SELECT_SITE_NUMBER": "โปรดเลือกหมายเลขสถานที่วิจัย:",
        "SERVICE_URL": "URL ที่ให้บริการ",
        "SETTINGS": "การตั้งค่า",
        "SETUP_COMPLETE": "การตั้งค่าเสร็จสมบูรณ์",
        "SETUP_COMPLETE_DESC": "อุปกรณ์ได้รับการตั้งค่าแล้วตอนนี้และพร้อมสำหรับการขนส่ง  โปรดกด ตกลง จากนั้นปิดอุปกรณ์ในหน้าจอถัดไป",
        "SETUP_SITE_USER": "การตั้งค่าผู้ใช้ประจำสถานที่วิจัย",
        "SETUP_SITE_USER_LEGEND": "โปรดตั้งค่าผู้ใช้ประจำสถานที่วิจัยสำหรับอุปกรณ์นี้",
        "SITE": "สถานที่วิจัย",
        "SITE_ASSESSMENTS": "การประเมินสถานที่วิจัย",
        "SIGNATURE_DATA_LIMIT_EXCEEDED": "กล่องลายเซ็นไม่สามารถเป็นตัวแทนลายเซ็นที่คุณเซ็นได้อย่างชัดเจน โปรดเซ็นด้วยอักษรย่อของชื่อคุณแทน",
        "SITE_NUMBER": "หมายเลขสถานที่วิจัย",
        "SITE_ROLE": "ผู้ใช้ประจำสถานที่วิจัย",
        "SITE_SELECTION": "การคัดเลือกสถานที่วิจัย",
        "SKIP_FORM": "ข้ามแบบฟอร์ม",
        "SKIP_QUESTION": "คุณแน่ใจว่าต้องการข้ามการตอบในหน้าจอนี้หรือไม่",
        "SKIP_TO_VISIT": "ข้ามไปยังการนัดตรวจ",
        "SKIP_VISIT": "ข้ามการนัดตรวจ",
        "SKIP_VISITS": "ข้ามการนัดตรวจ",
        "SKIP_VISITS_QUESTION_1": "<div class='question-title-large'><strong>เหตุผล</strong></div><br /><br /><div>เลือกเหตุผลในการข้ามการนัดตรวจ:</div>",
        "SKIP_VISITS_CANCEL_CONFIRM": "ยกเลิกการข้ามการนัดตรวจ",
        "SKIP_VISITS_CANCEL_BODY": "หากคุณยกเลิกตอนนี้ คุณจะยังไม่ข้ามการนัดตรวจ<br> คุณต้องการยกเลิกหรือไม่",
        "SKIPPED": "ถูกข้าม",
        "SKIPPED_VISITS": "{{{ skippedVisits }}}",
        "START_FORM": "เริ่มแบบฟอร์ม",
        "START_VISIT": "เริ่มการนัดตรวจ",
        "STATUS": "สถานะ",
        "STATUS_DATE": "วันที่แสดงสถานะ",
        "STUDY": "การศึกษาวิจัย",
        "STUDYWORKS_LOGIN": "เข้าสู่ระบบ StudyWorks",
        "SUBJECT_ID": "หมายเลขประจำตัวผู้ป่วย",
        "SUBJECT_ROLE": "ผู้ป่วย",
        "SUBMIT": "ส่ง",
        "SUPPORT_TOOLS": "เครื่องมือสนับสนุน",
        "SYNC": "ซิงค์",
        "SYNC_USERS": "รวมข้อมูลผู้ใช้",
        "SYNC_TO_DEVICE": "รวมข้อมูลการศึกษาวิจัยกับอุปกรณ์",
        "TEMPORARY_PASSWORD_MESSAGE": "โปรดให้รหัสผ่านชั่วคราวแก่ผู้ใช้รายใหม่ จะมีการขอให้ผู้ใช้สร้างรหัสผ่านใหม่หลังจากที่ผู้ใช้เข้าสู่ระบบแล้ว",
        "TEMP_PASSWORD": "รหัสผ่านชั่วคราว: ",
        "UNABLE_TO_GET_SITE_LIST": "ไม่สามารถหาข้อมูลรายการสถานที่วิจัยได้",
        "UNLOCK_CODE": "รหัสปลดล็อค",
        "UNLOCK_CODE_HELP": "สามารถรับรหัสปลดล็อคสำหรับ ERT Tablet ของคุณได้จาก StudyWorks ใน SmartReport หัวข้อ 'รหัสปลดล็อคของ ERT' โปรดติดต่อศูนย์สนับสนุนของ ERT เพื่อขอความช่วยเหลือเพิ่มเติม",
        "USER": "ผู้ใช้",
        "USER_ALREADY_EXISTS": "มีผู้ใช้นี้อยู่ในระบบแล้ว",
        "USER_EDITED": "มีการอัพเดตผู้ใช้แล้ว",
        "USER_TO_ACTIVATE": "<strong>เปิดใช้งานผู้ใช้:</strong> <br />{{{ getSelectedUsername }}}<br /><br /><strong>ลายเซ็น:</strong> {{{ getActiveUserName }}}",
        "SUBJECT_ALREADY_EXISTS": "ผู้ป่วยหมายเลข {{{ getPatientIDForDuplicate }}}มีอยู่ในระบบแล้ว",
        "TIME_CONFIRMATION_INSTRUCTIONS": "จำเป็นต้องยืนยันเวลาท้องถิ่นของคุณบนอุปกรณ์ โปรดระบุวันที่และเวลาของคุณจากแหล่งที่เชื่อถือได้",
        "TIME_ZONE_ERROR_HEADER": "ข้อผิดพลาดด้านเขตเวลา",
        "TIME_ZONE_ERROR_MSG": "เกิดข้อผิดพลาดขณะกำลังรับการอัพเดตรายการเขตเวลา โปรดติดต่อศูนย์สนับสนุนของ ERT เพื่อขอความช่วยเหลือเพิ่มเติม",
        "TIME_ZONE_SET_ERROR_MSG": "เกิดข้อผิดพลาดขณะกำลังตั้งค่าเขตเวลา โปรดติดต่อศูนย์สนับสนุนของ ERT เพื่อขอความช่วยเหลือเพิ่มเติม",
        "TIME_ZONE_SET_CONFIRM": "คุณแน่ใจหรือไม่ว่าคุณต้องการตั้งค่าเขตเวลาไว้ที่: <bdo dir='ltr'>{{{selectedTimeZone}}}</bdo>? <br/> แอปพลิเคชั่นอาจเริ่มใหม่อีกครั้งเพื่อนำการเปลี่ยนแปลงมาใช้",
        "TIME_ZONE_SET_CONFIRM_NOCHANGE": "คุณแน่ใจหรือไม่ว่าคุณต้องการตั้งค่าเขตเวลาไว้ที่: <bdo dir='ltr'>{{{selectedTimeZone}}}</bdo>?",
        "TIME_ZONE_SET_HEADER": "การยืนยันการตั้งต่าเขตเวลา",
        "TRAINER": "โหมดฝึกการใช้งาน",
        "TRAINER_EXIT": "ออกจากโหมดฝึกการใช้งาน",
        "TRAINER_EXIT_NOTIFICATION": "คุณกำลังออกจากโหมดฝึกการใช้งาน",
        "TRAINER_HEADER": "(ผู้ดำเนินการฝึกใช้งาน)",
        "USER_ROLE": "บทบาทผู้ใช้",
        "USERNAME": "ชื่อผู้ใช้",
        "USER_NAME": "ชื่อผู้ใช้:",
        "VISIT": "การนัดตรวจ",
        "VISIT_COMPLETED_MESSAGE": "ไม่มีแบบฟอร์มอื่นสำหรับการนัดตรวจนี้  การนัดตรวจนี้เสร็จสมบูรณ์แล้ว",
        "VISIT_INACTIVE_HEADER": "ไม่มีการนัดตรวจนี้แล้ว",
        "VISIT_INACTIVE_MESSAGE": "ไม่ดำเนินการนัดตรวจนี้อีกต่อไป",
        "VISIT_INACTIVE_MESSAGE_SUBJECT": "ไม่ดำเนินการนัดตรวจนี้อีกต่อไป โปรดส่งคืนอุปกรณ์ให้กับ<br>เจ้าหน้าที่ประจำสถานที่วิจัย",
        "VISIT_EXPIRED_HEADER": "การนัดตรวจเกินวันที่กำหนดแล้ว",
        "VISIT_EXPIRED_MESSAGE": "ไม่มีการนัดตรวจนี้อีกต่อไป เนื่องจากเกินวันนัดตรวจที่กำหนดแล้ว",
        "VISIT_EXPIRED_MESSAGE_SUBJECT": "ไม่มีการนัดตรวจนี้อีกต่อไป เนื่องจากเกินวันนัดตรวจที่กำหนดแล้ว<br>โปรดส่งคืนอุปกรณ์ให้กับเจ้าหน้าที่ประจำสถานที่วิจัย",
        "VISITS": "การนัดตรวจ",
        "VISITS_SKIPPED": "การนัดตรวจที่ถูกข้ามไป:",
        "VISIT_NAME": "ชื่อการนัดตรวจ",
        "WELCOME": "ยินดีต้อนรับ",
        "AF-ZA": "ภาษาอัฟริกัน",
        "SQ-AL": "ภาษาอัลบาเนียน",
        "AR-EG": "ภาษาอารบิก",
        "AS-IN": "ภาษาอัสสัม",
        "BE-BY": "ภาษาเบลารุส",
        "BG-BG": "ภาษาบัลแกเรีย",
        "BN-IN": "ภาษาเบงกาลี",
        "BS-BA": "ภาษาบอสเนีย",
        "CA-ES": "ภาษาคาตาลัน",
        "CE-PH": "ภาษาเซบัวโน",
        "CS-CZ": "ภาษาเช็ก",
        "CY-GB": "ภาษาเวลส์",
        "DA-DK": "ภาษาเดนมาร์ก",
        "DE-DE": "ภาษาเยอรมัน (เยอรมนี)",
        "DE-AT": "ภาษาเยอรมัน (ออสเตรีย)",
        "DH-KE": "ภาษาโดลัว",
        "EL-GR": "ภาษากรีก",
        "EN-GB": "ภาษาอังกฤษ (สหราชอณาจักร)",
        "EN-US": "ภาษาอังกฤษ (สหรัฐอเมริกา)",
        "ES-ES": "ภาษาสเปน (สเปน)",
        "ES-US": "ภาษาสเปน (สหรัฐอเมริกา)",
        "ES-PY": "ภาษาสเปน (ทั่วโลก)",
        "ET-EE": "ภาษาเอสโทเนีย",
        "FI-FI": "ภาษาฟินแลนด์",
        "FR-CA": "ภาษาฝรั่งเศส (แคนาดา)",
        "FR-FR": "ภาษาฝรั่งเศส (ฝรั่งเศส)",
        "GD-IE": "ภาษาเกลิค",
        "GU-IN": "ภาษาคุชราต",
        "HE-IL": "ภาษาฮิบรู",
        "HI-IN": "ภาษาฮินดี",
        "HR-HR": "ภาษาโครเอเทีย",
        "HU-HU": "ภาษาฮังการี",
        "IT-IT": "ภาษาอิตาเลียน",
        "JA-JP": "ภาษาญี่ปุ่น",
        "KA-GE": "ภาษาจอร์เจียน",
        "KN-IN": "ภาษากันนาดา",
        "KO-KR": "ภาษาเกาหลี",
        "LG-UG": "ภาษาลูกันดา",
        "LV-LV": "ภาษาลัตเวีย",
        "LT-LT": "ภาษาลิทัวเนีย",
        "MK-MK": "ภาษามาเซโดเนีย",
        "ML-IN": "ภาษามาลายาลัม",
        "MR-IN": "ภาษามราฐี",
        "MS-MY": "ภาษามาเลย์",
        "NB-NO": "ภาษานอร์เวย์",
        "NL-BE": "ภาษาดัทช์ (เบลเยี่ยม)",
        "NL-NL": "ภาษาดัทช์ (เนเธอร์แลนด์)",
        "PA-IN": "ภาษาปัญจาบ",
        "PL-PL": "ภาษาโปแลนด์",
        "PT-BR": "ภาษาโปรตุเกส (บราซิล)",
        "PT-PT": "ภาษาโปรตุเกส (โปรตุเกส)",
        "RO-RO": "ภาษาโรมาเนีย",
        "RU-RU": "ภาษารัสเซีย",
        "SL-SL": "ภาษาสโลวีเนีย",
        "SK-SK": "ภาษาสโลวัค",
        "SR-RS": "ภาษาเซอร์เบีย (ละติน)",
        "SR-SP": "ภาษาเซอร์เบีย (ไซริลิค)",
        "ST-ZA": "ภาษาโซโธ",
        "SV-SE": "ภาษาสวีเดน",
        "SW-KE": "ภาษาสวาฮีลี",
        "TA-IN": "ภาษาทมิฬ",
        "TE-IN": "ภาษาเตลูกู",
        "TH-TH": "ภาษาไทย",
        "TL-PH": "ภาษาตากาล็อก",
        "TN-ZA": "ภาษาสวานา",
        "TR-TR": "ภาษาตุรกี",
        "TW-GH": "ภาษาทวิ",
        "UK-UA": "ภาษายูเครน",
        "UR-IN": "ภาษาเออร์ดู",
        "VI-VN": "ภาษาเวียดนาม",
        "XH-ZA": "ภาษาโคซา",
        "ZH-CN": "ภาษาจีน (จีน)",
        "ZH-TW": "ภาษาจีน (ไต้หวัน)",
        "ZU-ZU": "ภาษาซูลู",
        "HAND_DEVICE_SUBJECT_BODY": "แบบฟอร์มถัดไปต้องกรอกโดย {{{ patientOrRole }}} โปรดออกจากระบบและมอบอุปกรณ์ให้กับ {{{ patientOrRole }}}",
        "HAND_DEVICE_SUBJECT_TITLE": "เริ่มแบบฟอร์ม {{{ formTitle }}}",
        "SKIP_VISIT_TITLE": "ข้ามการนัดตรวจหรือไม่",
        "SKIP_VISIT_TEXT": "หากคุณดำเนินการต่อ การนัดตรวจต่อไปนี้จะถูกข้าม:<br/> {{{ skippedVisits }}} ดำเนินการต่อและข้ามการนัดตรวจเหล่านี้ในตอนนี้หรือไม่",
        "YES": "ใช่",
        "NO": "ไม่",
        "TIME_LBL": "เวลา:",
        "SET_TIME": "ตั้งเวลา",
        "DATE_LBL": "วันที่:",
        "CREATE_PERMANENT_PASSWORD_TITLE": "สร้างรหัสผ่านถาวร",
        "USER_ID": "หมายเลขประจำตัวผู้ใช้:",
        "PHASE": "ระยะ:",
        "LAST_VISIT": "การนัดตรวจสุดท้ายที่เสร็จสมบูรณ์",
        "CONNECTION_REQUIRED": "จำเป็นต้องมีการเชื่อมต่ออินเทอร์เน็ต",
        "RETRY": "ลองอีกครั้ง",
        "UPDATE_FAILURE": "การอัพเดตไม่สมบูรณ์",
        "UPDATE_SUCCESS": "การอัพเดตเสร็จสมบูรณ์",
        "CANCEL_PERMANENT_PASSWORD_TITLE": "ยกเลิกการสร้างรหัสผ่านถาวรหรือไม่",
        "CANCEL_PERMANENT_PASSWORD_TEXT": "หากคุณยกเลิกตอนนี้ รหัสถาวรของคุณจะยังไม่ถูกสร้างขึ้น คุณจะต้องใช้รหัสผ่านถาวรเพื่อเริ่มต้นใช้งาน ERT คุณต้องการยกเลิกหรือไม่",
        "ACCOUNT_CONFIGURED_TITLE": "การตั้งค่าบัญชีเสร็จสมบูรณ์",
        "ACCOUNT_CONFIGURED_TEXT": "ปัจจุบันคุณได้ตั้งค่าบัญชีของคุณเสร็จสมบูรณ์แล้วและคุณสามารถใช้ระบบ eCOA ได้ต่อไปในตอนนี้",
        "LOGGED_IN_AS": "เข้าสู่ระบบในชื่อ",
        "EDIT_PATIENT_AFFIDAVIT_HEADER": "<p class='question-title-large'>ลายเซ็น</p><br />",
        "EDIT_PATIENT_AFF": "ด้วยการลงชื่อด้านล่าง ข้าพเจ้าขอยืนยันว่าข้าพเจ้าได้อนุญาตให้มีการแก้ไขข้อมูลผู้ป่วยรายนี้<br /><br />รหัสประจำตัวผู้ป่วย: {{{ getPatientIdNumber }}} ({{{getPatientInitials}}})<br /><br /><strong>ลายเซ็น:</strong> {{{ getActiveUserName }}}",
        "PASSWORD_MISMATCH": "การยืนยันรหัสผ่านไม่ตรงกับรหัสผ่านที่ตั้งไว้",
        "FIRST_USER_AFFIDAVIT": "ด้วยการลงชื่อด้านล่าง ข้าพเจ้าขอยืนยันว่าข้าพเจ้าเป็นแพทย์ผู้วิจัยหลักหรือผู้รับมอบหมายที่ได้รับอนุญาตให้สร้างบัญชีในระบบนี้<br /><br /><strong>ลายเซ็น:</strong> {{{ getFirstUsername }}}",
        "INCOMPLETE": "ยังไม่เสร็จ",
        "INVALID_ENTRY": "การกรอกข้อมูลไม่ถูกต้อง",
        "PLEASE_ANSWER_SQ": "โปรดตอบคำถามรักษาความปลอดภัยของคุณ:",
        "FORGOT_SECRET_ANSWER": "ลืมคำตอบรักษาความปลอดภัยใช่หรือไม่",
        "CONTACT_STUDY_COORDINATOR": "ติดต่อผู้ประสานงานโครงการวิจัย",
        "ENTER_NEW_PASSWORD": "รหัสผ่านใหม่:",
        "CONTACT_UNLOCK_CODE": "โปรดติดต่อผู้ประสานงานโครงการวิจัยของคุณเพื่อขอรหัสปลดล็อคสำหรับวันนี้:",
        "CURRENT_DATE": "{{{ currentDate }}}",
        "TEMPORARY_UNLOCK_CODE": "ใส่รหัสปลดล็อคที่ได้รับจากผู้ประสานงานโครงการวิจัย",
        "RESET_SECRET_QUESTION": "รีเซ็ตคำถามรักษาความปลอดภัย",
        "SECRET_QUESTION_CHANGE_SUCCESS": "คุณได้อัพเดตรหัสผ่านและคำถามรักษาความปลอดภัยของคุณสำเร็จแล้ว",
        "RESET_PASSWORD": "รีเซ็ตรหัสผ่าน",
        "ANSWER_ATTEMPT_EXCEEDED": "คุณใส่คำตอบไม่ถูกต้องหลายครั้งเกินไป หรือ คุณได้คลิกลิงก์ลืมคำตอบเพื่อรักษาความปลอดภัย",
        "PASSWORD_ATTEMPT_EXCEEDED": "คุณใส่รหัสผ่านไม่ถูกต้องหลายครั้งเกินไป หรือ คุณได้คลิกลิงก์ลืมรหัสผ่าน",
        "PASSWORD_CHANGE_SUCCESS": "คุณได้อัพเดตรหัสผ่านของคุณสำเร็จแล้ว",
        "CHANGE_PASSWORD": "เปลี่ยนรหัสผ่าน",
        "CHANGE_SECRET_QUESTION": "เปลี่ยนคำถามรักษาความปลอดภัย",
        "SYNC_COMPLETE": "การซิงค์เสร็จสมบูรณ์",
        "INCORRECT_ANSWER": "คำตอบไม่ถูกต้อง",
        "INCORRECT_UNLOCK_CODE": "รหัสปลดล็อคไม่ถูกต้อง",
        "PASSWORD_INVALID": "รหัสผ่านไม่ถูกต้อง",
        "SUBJECT": "ผู้ป่วย",
        "PATIENT_ADDED": "เพิ่มผู้ป่วยรายใหม่แล้ว",
        "SITE_ADMINISTRATOR": "ผู้ดูแลจัดการสถานที่วิจัย",
        "LOW_BATTERY": "คำเตือน: ระดับแบตเตอรี่ต่ำ กรุณาเชื่อมต่ออุปกรณ์เพื่อชาร์จอีกครั้ง",
        "CRITICAL_BATTERY": "คำเตือน: ระดับแบตเตอรี่ต่ำมาก กรุณาเชื่อมต่ออุปกรณ์เพื่อชาร์จอีกครั้ง<br>มิฉะนั้นอุปกรณ์จะปิดการทำงาน",
        "TIME_CONFIRMATION_HEADER": "ยืนยันวันที่/เวลา",
        "IMAGE_FOLDER": "{{{ imageFolder }}}",
        "TIMESLIP_ERROR": "เวลาหรือวันที่บนอุปกรณ์ของคุณไม่ถูกต้อง โปรดย้ายไปยังจุดที่สามารถเชื่อมต่ออินเทอร์เน็ตได้แล้วลองใหม่ หากคุณยังคงพบปัญหาอยู่<br>โปรดติดต่อฝ่ายดูแลลูกค้าของ ERT",
        "SUPPORT": "ฝ่ายบริการลูกค้า",
        "SUPPORT_MESSAGE": "ผู้ใช้ในสหรัฐอเมริกาสามารถติดต่อศูนย์สนับสนุนของ ERT ได้ที่ 800-748-5669 ผู้ใช้ในต่างประเทศ โปรดเลือกประเทศที่ใกล้ที่สุดด้านล่างนี้:",
        "SUPPORT_DROPDOWN": "เลือกประเทศของคุณ",
        "SUPPORT_NAME_ARGENTINA": "อาร์เจนตินา",
        "SUPPORT_NUMBER_ARGENTINA": "<bdo dir='ltr'>0800 444 0962</bdo>",
        "SUPPORT_NAME_ARMENIA": "อาร์เมเนีย",
        "SUPPORT_NUMBER_ARMENIA": "<bdo dir='ltr'>+1 617 681 6306</bdo>",
        "SUPPORT_NAME_AUSTRALIA": "ออสเตรเลีย",
        "SUPPORT_NUMBER_AUSTRALIA": "<bdo dir='ltr'>1 800 800 051</bdo>",
        "SUPPORT_NAME_AUSTRIA": "ออสเตรีย",
        "SUPPORT_NUMBER_AUSTRIA": "<bdo dir='ltr'>0800 100 405</bdo>",
        "SUPPORT_NAME_BELARUS": "เบลารุส",
        "SUPPORT_NUMBER_BELARUS": "<bdo dir='ltr'>8 820 0321 0036</bdo>",
        "SUPPORT_NAME_BELGIUM": "เบลเยี่ยม",
        "SUPPORT_NUMBER_BELGIUM_1": "(ภาษาอังกฤษ): <bdo dir='ltr'>0800 58 016</bdo>",
        "SUPPORT_NUMBER_BELGIUM_2": "(ภาษาฝรั่งเศส): <bdo dir='ltr'>0800 71 076</bdo>",
        "SUPPORT_NUMBER_BELGIUM_3": "(ภาษาเยอรมัน): <bdo dir='ltr'>0800 71 113</bdo>",
        "SUPPORT_NAME_BRAZIL": "บราซิล",
        "SUPPORT_NUMBER_BRAZIL": "<bdo dir='ltr'>0800 891 5909</bdo>",
        "SUPPORT_NAME_BOSNIA": "บอสเนีย",
        "SUPPORT_NUMBER_BOSNIA": "<bdo dir='ltr'>+1 617 681 6306</bdo>",
        "SUPPORT_NAME_BULGARIA": "บัลแกเรีย",
        "SUPPORT_NUMBER_BULGARIA": "<bdo dir='ltr'>00800 0010</bdo> ตามด้วย <bdo dir='ltr'>866 245 4931</bdo>",
        "SUPPORT_NAME_CANADA": "แคนาดา",
        "SUPPORT_NUMBER_CANADA": "<bdo dir='ltr'>1 800 748 5669</bdo>",
        "SUPPORT_NAME_CHILE": "ชิลี",
        "SUPPORT_NUMBER_CHILE": "<bdo dir='ltr'>123 0020 3408</bdo>",
        "SUPPORT_NAME_CHINA": "จีน",
        "SUPPORT_NUMBER_CHINA_1": "เน็ทคอม (เหนือ): <bdo dir='ltr'>1 0800 74 40 164</bdo>",
        "SUPPORT_NUMBER_CHINA_2": "เทเลคอม (ใต้): <bdo dir='ltr'>1 0800 44 00 158</bdo>",
        "SUPPORT_NAME_COLOMBIA": "โคลอมเบีย",
        "SUPPORT_NUMBER_COLOMBIA": "<bdo dir='ltr'>01 800 911 0010</bdo> ตามด้วย <bdo dir='ltr'>866 310 3707</bdo>",
        "SUPPORT_NAME_COSTA_RICA": "คอสตาริก้า",
        "SUPPORT_NUMBER_COSTA_RICA": "<bdo dir='ltr'>0800 013 1210</bdo>",
        "SUPPORT_NAME_CROATIA": "โครเอเชีย",
        "SUPPORT_NUMBER_CROATIA": "<bdo dir='ltr'>0800 222 953</bdo>",
        "SUPPORT_NAME_CZECH_REPUBLIC": "สาธารณรัฐเช็ก",
        "SUPPORT_NUMBER_CZECH_REPUBLIC": "<bdo dir='ltr'>800 142 150</bdo>",
        "SUPPORT_NAME_DENMARK": "เดนมาร์ก",
        "SUPPORT_NUMBER_DENMARK": "<bdo dir='ltr'>80 60 00 09</bdo>",
        "SUPPORT_NAME_EGYPT": "อียิปต์",
        "SUPPORT_NUMBER_EGYPT": "<bdo dir='ltr'>02 510 0200</bdo> ตามด้วย <bdo dir='ltr'>866 310 3707</bdo>",
        "SUPPORT_NAME_EL_SALVADOR": "เอลซัลวาดอร์",
        "SUPPORT_NUMBER_EL_SALVADOR": "<bdo dir='ltr'>+1 617 681 6306</bdo>",
        "SUPPORT_NAME_ESTONIA": "เอสโทเนีย",
        "SUPPORT_NUMBER_ESTONIA": "<bdo dir='ltr'>800 00 44 154</bdo>",
        "SUPPORT_NAME_FINLAND": "ฟินแลนด์",
        "SUPPORT_NUMBER_FINLAND": "<bdo dir='ltr'>0800 11 6366</bdo>",
        "SUPPORT_NAME_FRANCE": "ฝรั่งเศส",
        "SUPPORT_NUMBER_FRANCE": "<bdo dir='ltr'>0800 10 19 79</bdo>",
        "SUPPORT_NAME_GERMANY": "เยอรมนี",
        "SUPPORT_NUMBER_GERMANY": "<bdo dir='ltr'>0800 101 28 21</bdo>",
        "SUPPORT_NAME_GREECE": "กรีซ",
        "SUPPORT_NUMBER_GREECE": "<bdo dir='ltr'>00 800 1311</bdo> ตามด้วย <bdo dir='ltr'>866 310 3707</bdo>",
        "SUPPORT_NAME_GUATEMALA": "กัวเตมาลา",
        "SUPPORT_NUMBER_GUATEMALA": "<bdo dir='ltr'>1 800 624 0079</bdo>",
        "SUPPORT_NAME_HONG_KONG": "ฮ่องกง",
        "SUPPORT_NUMBER_HONG_KONG": "<bdo dir='ltr'>3002 1665</bdo>",
        "SUPPORT_NAME_HUNGARY": "ฮังการี",
        "SUPPORT_NUMBER_HUNGARY": "<bdo dir='ltr'>06 800 14 571</bdo>",
        "SUPPORT_NAME_ICELAND": "ไอซ์แลนด์",
        "SUPPORT_NUMBER_ICELAND": "<bdo dir='ltr'>800 8544</bdo>",
        "SUPPORT_NAME_INDIA": "อินเดีย",
        "SUPPORT_NUMBER_INDIA": "<bdo dir='ltr'>000 800 440 1125</bdo>",
        "SUPPORT_NAME_INDONESIA": "อินโดนีเซีย",
        "SUPPORT_NUMBER_INDONESIA": "<bdo dir='ltr'>008 800 330 334</bdo>",
        "SUPPORT_NAME_IRELAND": "ไอร์แลนด์",
        "SUPPORT_NUMBER_IRELAND": "<bdo dir='ltr'>1 800 946 700</bdo>",
        "SUPPORT_NAME_ISRAEL": "อิสราเอล",
        "SUPPORT_NUMBER_ISRAEL": "<bdo dir='ltr'>1 809 470 062</bdo>",
        "SUPPORT_NAME_ITALY": "อิตาลี",
        "SUPPORT_NUMBER_ITALY": "<bdo dir='ltr'>800 90 56 37</bdo>",
        "SUPPORT_NAME_JAPAN": "ญี่ปุ่น",
        "SUPPORT_NUMBER_JAPAN": "โปรดดูเบอร์โทรฟรีสำหรับการศึกษาวิจัยของคุณจากคู่มือข้อมูลการวิจัย ePRO",
        "SUPPORT_NAME_LATVIA": "ลัตเวีย",
        "SUPPORT_NUMBER_LATVIA": "<bdo dir='ltr'>8000 2151</bdo>",
        "SUPPORT_NAME_LEBANON": "เลบานอน",
        "SUPPORT_NUMBER_LEBANON": "<bdo dir='ltr'>01-426-801</bdo> ตามด้วย <bdo dir='ltr'>866 310 3707</bdo>",
        "SUPPORT_NAME_LITHUANIA": "ลิทัวเนีย",
        "SUPPORT_NUMBER_LITHUANIA": "<bdo dir='ltr'>8800 30207</bdo>",
        "SUPPORT_NAME_MALAYSIA": "มาเลเซีย",
        "SUPPORT_NUMBER_MALAYSIA": "<bdo dir='ltr'>1800 80 59 71</bdo>",
        "SUPPORT_NAME_MEXICO": "เม็กซิโก",
        "SUPPORT_NUMBER_MEXICO_1": "(ภาษาอังกฤษ): <bdo dir='ltr'>001 800 748 5669</bdo> ",
        "SUPPORT_NUMBER_MEXICO_2": "(ภาษาสเปน): <bdo dir='ltr'>001 855 631 6952</bdo>",
        "SUPPORT_NAME_MOLDOVA": "มอลโดวา",
        "SUPPORT_NUMBER_MOLDOVA": "<bdo dir='ltr'>617 681 6306</bdo>",
        "SUPPORT_NAME_NETHERLANDS": "เนเธอร์แลนด์",
        "SUPPORT_NUMBER_NETHERLANDS": "<bdo dir='ltr'>0800 023 1389</bdo>",
        "SUPPORT_NAME_NEW_ZEALAND": "นิวซีแลนด์",
        "SUPPORT_NUMBER_NEW_ZEALAND": "<bdo dir='ltr'>0800 110 178</bdo>",
        "SUPPORT_NAME_NORWAY": "นอร์เวย์",
        "SUPPORT_NUMBER_NORWAY": "<bdo dir='ltr'>800 62 051</bdo>",
        "SUPPORT_NAME_PAKISTAN": "ปากีสถาน",
        "SUPPORT_NUMBER_PAKISTAN": "<bdo dir='ltr'>00 800 0100</bdo> ตามด้วย <bdo dir='ltr'>866 237 9767</bdo>",
        "SUPPORT_NAME_PANAMA": "ปานามา",
        "SUPPORT_NUMBER_PANAMA": "<bdo dir='ltr'>001 800 201 3095</bdo>",
        "SUPPORT_NAME_PERU": "เปรู",
        "SUPPORT_NUMBER_PERU": "<bdo dir='ltr'>0800 5 0974</bdo>",
        "SUPPORT_NAME_PHILIPPINES": "ฟิลิปปินส์",
        "SUPPORT_NUMBER_PHILIPPINES": "<bdo dir='ltr'>1 800 1116 0651</bdo>",
        "SUPPORT_NAME_POLAND": "โปแลนด์",
        "SUPPORT_NUMBER_POLAND": "<bdo dir='ltr'>00800 331 1262</bdo>",
        "SUPPORT_NAME_PORTUGAL": "โปรตุเกส",
        "SUPPORT_NUMBER_PORTUGAL": "<bdo dir='ltr'>800 206 172</bdo>",
        "SUPPORT_NAME_PUERTO_RICO": "เปอร์โตริโก้ (เครือรัฐของสหรัฐอเมริกา)",
        "SUPPORT_NUMBER_PUERTO_RICO": "<bdo dir='ltr'>1 800 748 5669</bdo>",
        "SUPPORT_NAME_ROMANIA": "โรมาเนีย",
        "SUPPORT_NUMBER_ROMANIA": "<bdo dir='ltr'>0800 894492</bdo>",
        "SUPPORT_NAME_RUSSIA": "รัสเซีย",
        "SUPPORT_NUMBER_RUSSIA_1": "(เบอร์หลัก - โทรฟรี): <bdo dir='ltr'>8 10 800 249 13011</bdo>",
        "SUPPORT_NUMBER_RUSSIA_2": "(ในมอสโก): <bdo dir='ltr'>363-2400</bdo> <br> ตามด้วย <bdo dir='ltr'>866 310 3707</bdo>",
        "SUPPORT_NUMBER_RUSSIA_3": "(นอกมอสโก): <bdo dir='ltr'>8^(495) 363-2400</bdo> <br> ตามด้วย <bdo dir='ltr'>866 310 3707</bdo>",
        "SUPPORT_NUMBER_RUSSIA_4": "(ในเซนต์ปีเตอร์สเบิร์ก): <bdo dir='ltr'>363-2400</bdo> <br> ตามด้วย <bdo dir='ltr'>866 310 3707</bdo>",
        "SUPPORT_NUMBER_RUSSIA_5": "(นอกเซนต์ปีเตอร์สเบิร์ก): <bdo dir='ltr'>8^(495) 363-2400</bdo> <br> ตามด้วย <bdo dir='ltr'>866 310 3707</bdo>",
        "SUPPORT_NAME_SAUDI_ARABIA": "ซาอุดิอาระเบีย",
        "SUPPORT_NUMBER_SAUDI_ARABIA": "<bdo dir='ltr'>+1 617 681 6306</bdo>",
        "SUPPORT_NAME_SERBIA": "เซอร์เบีย",
        "SUPPORT_NUMBER_SERBIA": "<bdo dir='ltr'>+1 617 973 1739</bdo>",
        "SUPPORT_NAME_SINGAPORE": "สิงคโปร์",
        "SUPPORT_NUMBER_SINGAPORE": "<bdo dir='ltr'>800 616 30 03</bdo>",
        "SUPPORT_NAME_SLOVAKIA": "สโลวาเกีย",
        "SUPPORT_NUMBER_SLOVAKIA": "<bdo dir='ltr'>0800 0044 65</bdo>",
        "SUPPORT_NAME_SLOVENIA": "สโลวีเนีย",
        "SUPPORT_NUMBER_SLOVENIA": "<bdo dir='ltr'>+1 617 681 6306</bdo>",
        "SUPPORT_NAME_SOUTH_AFRICA": "แอฟริกาใต้",
        "SUPPORT_NUMBER_SOUTH_AFRICA": "<bdo dir='ltr'>0800 99 5853</bdo>",
        "SUPPORT_NAME_SOUTH_KOREA": "เกาหลีใต้",
        "SUPPORT_NUMBER_SOUTH_KOREA": "<bdo dir='ltr'>00308 33 00 08</bdo>",
        "SUPPORT_NAME_SPAIN": "สเปน",
        "SUPPORT_NUMBER_SPAIN": "<bdo dir='ltr'>900 90 2541</bdo>",
        "SUPPORT_NAME_SWEDEN": "สวีเดน",
        "SUPPORT_NUMBER_SWEDEN": "<bdo dir='ltr'>020 120 99 69</bdo>",
        "SUPPORT_NAME_SWITZERLAND": "สวิตเซอร์แลนด์",
        "SUPPORT_NUMBER_SWITZERLAND_1": "(ภาษาอังกฤษ): <bdo dir='ltr'>0800 199 325</bdo>",
        "SUPPORT_NUMBER_SWITZERLAND_2": "(ภาษาฝรั่งเศส): <bdo dir='ltr'>0800 891 183</bdo>",
        "SUPPORT_NUMBER_SWITZERLAND_3": "(ภาษาเยอรมัน): <bdo dir='ltr'>0800 891 025</bdo>",
        "SUPPORT_NAME_TAIWAN": "ไต้หวัน",
        "SUPPORT_NUMBER_TAIWAN": "<bdo dir='ltr'>00801 33 33 42</bdo>",
        "SUPPORT_NAME_THAILAND": "ไทย",
        "SUPPORT_NUMBER_THAILAND": "<bdo dir='ltr'>1 800 33 140 353</bdo>",
        "SUPPORT_NAME_TUNISIA": "ตูนิเซีย",
        "SUPPORT_NUMBER_TUNISIA": "<bdo dir='ltr'>+1 617 681 6306</bdo>",
        "SUPPORT_NAME_TURKEY": "ตุรกี",
        "SUPPORT_NUMBER_TURKEY": "<bdo dir='ltr'>00 800 151 1335</bdo>",
        "SUPPORT_NAME_UKRAINE": "ยูเครน",
        "SUPPORT_NUMBER_UKRAINE": "<bdo dir='ltr'>0^00 11</bdo> ตามด้วย <bdo dir='ltr'>866 245 4931</bdo>",
        "SUPPORT_NAME_UAE": "สหรัฐอาหรับเอมิเรตส์",
        "SUPPORT_NUMBER_UAE": "<bdo dir='ltr'>8000-021</bdo> ตามด้วย <bdo dir='ltr'>866 310 3707</bdo>",
        "SUPPORT_NAME_UK": "สหราชอาณาจักร",
        "SUPPORT_NUMBER_UK": "<bdo dir='ltr'>0800 015 0408</bdo>",
        "SUPPORT_NAME_US": "สหรัฐอเมริกา",
        "SUPPORT_NUMBER_US_1": "(เบอร์หลัก): <bdo dir='ltr'>1 800 748 5669</bdo>",
        "SUPPORT_NUMBER_US_2": "(เบอร์สำรอง): <bdo dir='ltr'>1 877 748 5669</bdo>",
        "SUPPORT_NAME_VENEZUELA": "เวเนซุเอลา",
        "SUPPORT_NUMBER_VENEZUELA_1": "(ภาษาอังกฤษ): <bdo dir='ltr'>0 800 552 6288</bdo> <br> ตามด้วย <bdo dir='ltr'>866 310 3707</bdo> ",
        "SUPPORT_NUMBER_VENEZUELA_2": "(ภาษาสเปน): <bdo dir='ltr'>0 800 100 3063</bdo> ",
        "STUDY_VERSION": "เวอร์ชันของการศึกษาวิจัย:",
        "STUDY_URL": "URL ของการศึกษาวิจัย:",
        "DEVICE_SERIAL_NUMBER": "หมายเลขซีเรียลของอุปกรณ์:",
        "PROTOCOL": "โครงการวิจัย:",
        "SPONSOR": "ผู้สนับสนุนการวิจัย:",
        "STORED_REPORTS": "แบบฟอร์มที่เก็บไว้:",
        "CORE_PRODUCT_VERSION_LABEL": "เวอร์ชันผลิตภัณฑ์:",
        "ABOUT": "เกี่ยวกับอุปกรณ์",
        "SET_TIMEZONE": "ตั้งค่าเขตเวลา",
        "NONEXISTENT_USER": "พยายามอัพเดตผู้ใช้ที่ไม่มีข้อมูลในระบบ",
        "SCREENING": "การคัดกรอง",
        "TREATMENT": "การรักษา",
        "RANDOMIZATION": "การสุ่ม",
        "FOLLOWUP": "การติดตามผล",
        "TERMINATION": "การยุติ",
        "MODAL_OK_TEXT": "ตกลง",
        "BROWSER_LOAD_ERROR": "ไม่พบหน้านี้ โปรดตรวจสอบการเชื่อมต่ออินเทอร์เน็ตของคุณและลองอีกครั้ง",
        "NO_USER_OF_ROLE": "ไม่พบผู้ใช้ที่มีบทบาทนี้",
        "START_VISIT_OUTSIDE_WINDOW_MSG": "กรอก {{{ getVisitName }}} นอกช่วงเวลาที่ตั้งค่าไว้: {{{ startDate }}} - {{{ endDate }}}",
        "START_VISIT_HARD_STOP_MSG" : "คุณไม่สามารถกรอก {{{ getVisitName }}} นอกช่วงเวลาที่ตั้งค่าไว้: {{{ startDate }}} - {{{ endDate }}}",
        "USER_NAME_INVALID_CHARACTERS" : "โปรดอย่าใช้ตัวอักษรพิเศษ",
        "ERROR_PATIENT_SAVE" : "เกิดข้อผิดพลาดขณะกำลังเพิ่มข้อมูลผู้ป่วยรายใหม่",
        "PASSWORD_CHANGE_FAILED" : "มีการเปิดใช้งานอุปกรณ์อีกเครื่องหนึ่งเพื่อเก็บข้อมูลการวิจัยของคุณ<br>โปรดเปลี่ยนรหัสผ่านของคุณบนอุปกรณ์นั้น",
        "ERROR" : "ข้อผิดพลาด  โปรดติดต่อศูนย์สนับสนุนของ ERT",
        "ERROR_AFTER_ACTIVATION_SUCCESSFUL" : "เกิดความผิดพลาด คุณจะต้องใส่รหัสการตั้งค่าและรหัสผ่านของคุณ",
        "CONNECTION_TIMEOUT" : "หมดเวลาการเชื่อมต่อ",
        "UPDATE_FAILED" : "การอัพเดต ERT ไม่สมบูรณ์ โปรดตรวจสอบให้แน่ใจว่าอุปกรณ์นี้ได้<br>เชื่อมต่ออินเทอร์เน็ตและลองใหม่อีกครั้ง",
        "TRANSMIT_FAILED_403_14": "การส่งผ่านข้อมูลล้มเหลวมากกว่าหนึ่งครั้ง เนื่องจากการสร้างข้อมูลผู้ป่วยยังไม่เสร็จสมบูรณ์ โปรดรอ แล้วลองใหม่อีกครั้ง",
        "USER_SELECT_ROLE_VALIDATION": "จำเป็นต้องมีการเลือกบทบาท",
        "USER_SELECT_LANGUAGE_VALIDATION": "จำเป็นต้องมีการเลือกภาษา",
        "TRY_AGAIN_ADD_USER": "ลองอีกครั้งหรือเลือก ยกเลิก เพื่อดำเนินการเพิ่มผู้ใช้ในโหมดออฟไลน์",
        "NO_INTERNET_CONNECTION": "ไม่มีการเชื่อมต่ออินเทอร์เน็ต",
        "TRANSMIT_FAILED_404": "การซิงโครไนซ์ไม่เสร็จสมบูรณ์ เนื่องจากปัญหาการเชื่อมต่ออินเทอร์เน็ต โปรดตรวจสอบการเชื่อมต่ออินเทอร์เน็ตของคุณและลองอีกครั้ง",
        "SKIP_VISITS_REASON_0": "การนัดตรวจเกินกว่าวันที่กำหนดไว้",
        "SKIP_VISITS_REASON_1": "สถานที่วิจัยดำเนินการผิดพลาดในด้านการบริหารจัดการ",
        "SKIP_VISITS_REASON_2": "อาสาสมัครไม่มาตามการนัดหมายทางคลินิก",
        "SKIP_VISITS_REASON_3": "ไม่เกี่ยวข้องกับการนัดตรวจนี้",
        "SKIP_VISITS_REASON_4": "การนัดตรวจนี้เป็นทางเลือกและยังไม่เสร็จสิ้น"
    },
    "dates": {
        "setDateButtonLabel": "ตั้งวันที่",
        "setTimeButtonLabel": "ตกลง",
        "setDurationButtonLabel": "ตั้งระยะเวลา",
        "calTodayButtonLabel": "ไปยังวันนี้",
        "titleDateDialogLabel": "ตั้งวันที่",
        "titleTimeDialogLabel": "ตั้งเวลา",
        "daysOfWeek": [
            "อาทิตย์",
            "จันทร์",
            "อังคาร",
            "พุธ",
            "พฤหัสบดี",
            "ศุกร์",
            "เสาร์"
        ],
        "daysOfWeekShort": [
            "อา",
            "จ",
            "อ",
            "พ",
            "พฤ",
            "ศ",
            "ส"
        ],
        "monthsOfYear": [
            "มกราคม",
            "กุมภาพันธ์",
            "มีนาคม",
            "เมษายน",
            "พฤษภาคม",
            "มิถุนายน",
            "กรกฎาคม",
            "สิงหาคม",
            "กันยายน",
            "ตุลาคม",
            "พฤศจิกายน",
            "ธันวาคม"
        ],
        "monthsOfYearShort": [
            "ม.ค.",
            "ก.พ.",
            "มี.ค.",
            "เม.ย.",
            "พ.ค.",
            "มิ.ย.",
            "ก.ค.",
            "ส.ค.",
            "ก.ย.",
            "ต.ค.",
            "พ.ย.",
            "ธ.ค."
        ],
        "durationLabel": [
            "วัน",
            "ชั่วโมง",
            "นาที",
            "วินาที"
        ],
        "durationDays": [
            "วัน",
            "วัน"
        ],
        "tooltip": "เปิดตัวเลือกวันที่",
        "nextMonth": "เดือนถัดไป",
        "prevMonth": "เดือนก่อนหน้า",
        "clearButton": "ลบข้อมูล",
        "meridiem": [
            "AM",
            "PM"
        ]
    }
}
