{
	"namespace": "HHTrainingModule",
	"language": "tr",
	"locale": "TR",
	"direction": "ltr",
	"resources": {
		"DISPLAY_NAME": " Egzersiz Günlüğü",
		"HHTM010_Q1_TEXT": "Aşağıdaki ekranlar yalnızca eğitim amaçlıdır. Doğru veya yanlış cevap yoktur. Girdiğiniz cevaplar kaydedilmeyecektir. Son bölümde, bu elektronik günlüğü nasıl kullanacağınız konusunda eğitim aldığınızı doğrulayacaksınız. Aşağıdaki soruları nasıl cevaplayacağınız konusunda herhangi bir sorunuz olursa, lütfen bu günlüğü şimdi tamamlarken sorun.<br><br>Sonraki ekrana gitmek için İleri düğmesine dokunun.",
		"HHTM010_Q1_TITLE": "",
		"HHTM020_Q1_TEXT": "Aşağıdaki ekranlar, sizden bu çalışma sırasında cevaplamanız istenebilecek soru türleri için talimatları içermektedir. Her ekranda, cevabınızı girmeniz için talimatlarla birlikte farklı bir soru türü sunulmaktadır. Lütfen dikkatli olun ve cevabınızı girmeden önce her talimatı dikkatlice okuyun.<br><br>Sonraki ekrana gitmek için İleri düğmesine dokunun.",
		"HHTM020_Q1_TITLE": "",
		"HHTM030_Q1_TEXT": "Her bir talimatı okurken, bazı kelimeler, genel zaman çerçevesi gibi önemli bilgiler içerdiğinden vurgulanabilir. Metin içinde vurgulanan kelimelere lütfen dikkat edin.<br>Bu kelimeler şu şekilde vurgulanabilir:<br>&nbsp;<br><u>Altı çizili</u>, BÜYÜK HARFLİ veya <b>kalın</b>.<br>&nbsp;<br>Sonraki ekrana gitmek için İleri düğmesine dokunun.",
		"HHTM030_Q1_TITLE": "",
		"HHTM050_CUSTOM_Q1_TEXT": "Bazı sorularda kendinizi nasıl hissettiğinize en yakın cevabı seçmeniz istenir. İstediğiniz cevaba dokunarak seçim yapın. Ardından sonraki ekrana gitmek için İleri düğmesine dokunun.",
		"HHTM050_CUSTOM_Q1_TITLE": "",
		"HHTM060_Q1_TEXT": "Bazı sorularda sizden listeden bir değer seçmeniz istenmektedir. Listeyi görmek için altındaki kutuya dokunun ve istediğiniz yanıtı seçin. Ardından sonraki ekrana gitmek için İleri düğmesine dokunun.",
		"HHTM060_Q1_TITLE": "",
		"HHTM080_BOT_Q1_TEXT": "Bazı sorularda, aşağıdakiler gibi bir sayı aralığında bir rakamı seçerek kendinizi nasıl hissettiğinizi derecelendirmeniz istenmektedir. Kendinizi nasıl hissettiğinizi en iyi tanımlayan rakama dokunun. Ardından sonraki ekrana gitmek için İleri düğmesine dokunun.",
		"HHTM080_BOT_Q1_TITLE": "",
		"HHTM090_POST_Q1_TEXT": "Bazı sorularda, aşağıdaki görülen ölçekte kendinizi nasıl hissettiğinizi derecelendirmeniz istenecektir. Kendinizi nasıl hissettiğinizi en iyi gösteren yerde  çizgiye dokunun. Çizgi kendinizi nasıl hissettiğinizi en iyi gösteren yere gelene kadar işaretçiyi hareket ettirebilirsiniz. Ardından sonraki ekrana gitmek için İleri düğmesine dokunun.",
		"HHTM090_POST_Q1_TITLE": "",
		"HHTM140_lead_Q1_TEXT": "<div>Sonraki ekranda sizden bir tarih ve saat seçmeniz istenecektir. Alıştırma yapmak için ilk kutuya dokunun ve takvimden dünün tarihini seçerek Tamam düğmesine basın. İkinci kutuya dokunun ve saati 10:20’ye getirerek Tamam düğmesine dokunun. Ardından sonraki ekrana gitmek için İleri düğmesine dokunun.</div>",
		"HHTM140_lead_Q1_TITLE": "",
		"HHTM140_Q1_TEXT": "Talimatlara geri gitmek isterseniz, Geri düğmesine dokunun.&nbsp;&nbsp;",
		"HHTM140_Q1_TITLE": "",
		"HHTM160_Q1_TEXT": "Bazı sorularda sizden bir sayı girmeniz istenmektedir. Alıştırma yapmak için aşağıdaki kutuya dokunun. Sayıyı 14 olarak girmek için tuş takımını kullanın. Ardından sonraki ekrana gitmek için İleri düğmesine dokunun.",
		"HHTM160_Q1_TITLE": "",
		"HHTM161_Q1_TEXT": "Sonraki ekranda sizden bir yeri belirtmek için bir alan seçmeniz istenecektir. Alıştırma yapmak için ekrandaki bir alana ve sonra da diğerine dokunun. Seçili alana ikinci kez dokunarak bu alandaki seçimi kaldırabilirsiniz.</div><div>Sonraki ekrana gitmek için İleri düğmesine dokunun.</div>",
		"HHTM161_Q1_TITLE": "",
		"HHTM162_Q1_TEXT": "Şekil üzerinde lütfen ağrıyı hissettiğiniz alanları seçin.",
		"HHTM162_Q1_TITLE": "",
		"HHTM163_Q1_TEXT": "Ağrıyı hissettiğiniz alanları seçin.",
		"HHTM163_Q1_TITLE": "",
		"HHTM164_Q1_TEXT": "Ağrıyı hissettiğiniz alanları seçin.",
		"HHTM164_Q1_TITLE": "",
		"HHTM165_Q1_TEXT": "Ağrıyı hissettiğiniz alanları seçin.",
		"HHTM165_Q1_TITLE": "",
		"HHTM166_Q1_TEXT": "Ağrıyı hissettiğiniz alanları seçin.",
		"HHTM166_Q1_TITLE": "",
		"HHTM190_Q1_TEXT": "Bazı ekranlarda, günlüğe girdikten sonra girişlerinizi incelemeniz istenecektir. Aşağıdaki ekran, temsili verilerle bu türde bir ekran örneğidir. Çalışma sırasında tamamlayacağınız günlükte, ekranın alt bölümündeki düğmeler yeni girişler eklemenizi, girişleri düzenlemenizi veya silmenizi sağlayacaktır. Sonraki ekrana gitmek için İleri düğmesine dokunun.",
		"HHTM190_Q1_TITLE": "",
		"HHTM200_1_Q1_TEXT": "Girişleriniz:",
		"HHTM200_1_Q1_EDIT_INSTRUCTIONS": "Bu ekranla etkileşimi bitirdiğinizde, sonraki ekrana ilerlemek için Sonraki düğmesine dokunun.",
		"HHTM200_1_Q1_TITLE": "",
		"HHTM200_5_Q1_TEXT": "Ağrı kesiciyi seçin:",
		"HHTM200_5_Q1_TITLE": "",
		"HHTM200_2_Q1_TEXT": "Bu alım için bir tarih ve saat seçin:",
		"HHTM200_2_Q1_TITLE": "",
		"HHTM200_3_Q1_TEXT": "Bu alım için tabletlerin sayısını seçin:",
		"HHTM200_3_Q1_TITLE": "",
		"HHTM200_4_Q1_TEXT": "<div>Bu girişi gerçekten silmek istediğinizden emin misiniz?</div><div>&nbsp;</div><div>&nbsp;</div>{{{HHTM200_4_MED}}}",
		"HHTM200_4_Q1_TITLE": "",
		"HHTM980_Q1_TEXT": "Bazen önceki sorulardaki cevaplarınıza tekrar bakmak isteyebilirsiniz. Geri düğmesine dokunarak bunu yapabilirsiniz. Birkaç ekran için Geri düğmesine dokunmayı deneyin. Daha sonra bu ekrana geri gelene kadar İleri düğmesine dokunun. Ardından sonraki ekrana gitmek için İleri düğmesine tekrar dokunun.",
		"HHTM980_Q1_TITLE": "",
		"HHTM990_Q1_TEXT": "Bu çalışma sırasında görebileceğiniz farklı ekran türlerini incelediniz. Ne yapmak istersiniz?",
		"HHTM990_Q1_TITLE": "",
		"HHTM080_BOT_Q1_W0_DisplayText": "NRS",
		"HHTM080_BOT_Q1_W0_LeftMarker": "Ağrı Yok",
		"HHTM080_BOT_Q1_W0_RightMarker": "Aklınıza gelebi-<br>lecek en kötü ağrı",
		"HHTM090_POST_Q1_W0_LEFT": "Düşünülebilecek en kötü sağlık durumu",
		"HHTM090_POST_Q1_W0_RIGHT": "Düşünülebilecek en iyi sağlık durumu",
		"HHTM160_Q1_W0_label": " ",
		"HHTM160_Q1_W0_placeHolder": " ",
		"HHTM050_CUSTOM_Q1_W0_A0": "Mutlu",
		"HHTM050_CUSTOM_Q1_W0_A1": "Üzgün",
		"HHTM050_CUSTOM_Q1_W0_A2": "Yorgun",
		"HHTM050_CUSTOM_Q1_W0_A3": "Şaşırmış",
		"HHTM060_Q1_W0_A0": "Seçenek 1",
		"HHTM060_Q1_W0_A1": "Seçenek 2",
		"HHTM060_Q1_W0_A2": "Seçenek 3",
		"HHTM060_Q1_W0_A3": "Seçenek 4",
		"HHTM060_Q1_W0_A4": "Seçenek 5",
		"HHTM080_BOT_Q1_W0_A0": "0",
		"HHTM080_BOT_Q1_W0_A1": "1",
		"HHTM080_BOT_Q1_W0_A2": "2",
		"HHTM080_BOT_Q1_W0_A3": "3",
		"HHTM080_BOT_Q1_W0_A4": "4",
		"HHTM080_BOT_Q1_W0_A5": "5",
		"HHTM080_BOT_Q1_W0_A6": "6",
		"HHTM080_BOT_Q1_W0_A7": "7",
		"HHTM080_BOT_Q1_W0_A8": "8",
		"HHTM080_BOT_Q1_W0_A9": "9",
		"HHTM080_BOT_Q1_W0_A10": "10",
		"HHTM200_5_Q1_W0_A0": "Ağrı Kesici 1",
		"HHTM200_5_Q1_W0_A1": "Diğer Ağrı Kesiciler",
		"HHTM200_3_Q1_W0_A0": "1",
		"HHTM200_3_Q1_W0_A1": "2",
		"HHTM200_3_Q1_W0_A2": "3",
		"HHTM200_3_Q1_W0_A3": "4",
		"HHTM200_4_Q1_W0_A0": "Hayır",
		"HHTM200_4_Q1_W0_A1": "Evet",
		"HHTM990_Q1_W0_A0": "Eğitim modülünü bitir. Elektronik günlüğün nasıl kullanılacağını anladım.",
		"HHTM990_Q1_W0_A1": "Bu modül eğitimini yeniden başlat.",
        "HHTM162_Q1_1": "Ön",
        "HHTM162_Q1_2": "Sağ",
        "HHTM162_Q1_3": "Sol",
        "HHTM162_Q1_4": "Arka",
        "HHTM162_Q1_5": "Sol",
        "HHTM162_Q1_6": "Sağ",
        "HHTM162_Q2_A1" : "Ağrı Yok",
        "HHTM163_Q1_1": "Ön",
        "HHTM163_Q1_2": "Sol",
        "HHTM163_Q1_3": "Sağ",
        "HHTM164_Q1_1": "Ön",
        "HHTM164_Q1_2": "Sol",
        "HHTM164_Q1_3": "Sağ",
        "HHTM165_Q1_1": "Arka",
        "HHTM165_Q1_2": "Sol",
        "HHTM165_Q1_3": "Sağ",
        "HHTM166_Q1_1": "Arka",
        "HHTM166_Q1_2": "Sol",
        "HHTM166_Q1_3": "Sağ",
        "HHTM200_ReviewScreen_Header1": "Date/Saat",
        "HHTM200_ReviewScreen_Header2": "Değerleri",
        "HHTM200_ReviewScreen_AddButton": "Yeni Giriş Ekle",
        "HHTM200_ReviewScreen_EditButton": "Bu Girişi Düzenle",
        "HHTM200_ReviewScreen_DeleteButton": "Bu Girişi Sil",
        "PILLS": "pills"
	}
}
