{
    "namespace" : "BPID",
    "language" : "tr",
    "locale" : "TR",
    "direction" : "ltr",
    "resources" : {
        "DISPLAY_NAME" : "BPI-SF",

        "BPID_BPID010_Q0_TEXT"  : "Yaşamımız boyunca çoğumuzun zaman zaman ağrısı olmuştur. (hafif baş ağrıları, burkulmalar ve diş ağrıları gibi). Bugün, belirtilen bu günlük ağrı türleri dışında ağrınız oldu mu?",
        "BPID_BPID010_Q0_TITLE" : "",
        "BPID_BPID010_Q0_W0_A0" : "Evet",
        "BPID_BPID010_Q0_W0_A1" : "No",

        "BPID_BPID020_Q0_TEXT"  : "Lütfen bu şekil üzerinde ağrı hissettiğiniz alanları seçin.",
        "BPID_BPID020_Q0_TITLE" : "",
        "BPI020_Q2_1" : " ",
        "BPI020_Q1_2": "Ön",
        "BPI020_Q1_3": "sol",
        "BPI020_Q1_4": "sağ",
        "BPI020_Q1_5": "Arka",
        "BPI020_Q1_6": "sol",
        "BPI020_Q1_7": "sağ",
        "BPI020_Q2_A1" : "Ağrı Yok",

        "BPID_BPID030_Q0_TEXT": "Ağrı hissettiğiniz alanları seçin",
        "BPID_BPID030_Q0_TITLE": "",
        "BPI030_Q1_2": "Ön",
        "BPI030_Q1_3": "sol",
        "BPI030_Q1_4": "sağ",

        "BPID_BPID045_Q0_TEXT": "Ağrı hissettiğiniz alanları seçin",
        "BPID_BPID045_Q0_TITLE": "",
        "BPI045_Q1_2": "Ön",
        "BPI045_Q1_3": "sol",
        "BPI045_Q1_4": "sağ",

        "BPID_BPID050_Q0_TEXT": "Ağrı hissettiğiniz alanları seçin",
        "BPID_BPID050_Q0_TITLE": "",
        "BPI050_Q1_2": "Arka",
        "BPI050_Q1_3": "sol",
        "BPI050_Q1_4": "sağ",

        "BPID_BPID065_Q0_TEXT": "Ağrı hissettiğiniz alanları seçin",
        "BPID_BPID065_Q0_TITLE": "",
        "BPI065_Q1_2": "Arka",
        "BPI065_Q1_3": "sol",
        "BPI065_Q1_4": "sağ",

        "BPID_BPID100_Q0_TEXT": "Şekil üzerinde, <u>en çok</u> acıyan alanı işaretleyin.",
        "BPID_BPID100_Q0_TITLE": "",
        "BPI100_Q1_2": "Ön",
        "BPI100_Q1_3": "sol",
        "BPI100_Q1_4": "sağ",
        "BPI100_Q1_5": "Arka",
        "BPI100_Q1_6": "sol",
        "BPI100_Q1_7": "sağ",

        "BPID_BPID110_Q0_TEXT": "<u>En çok</u> ağrıyan alanı işaretleyin.",
        "BPID_BPID110_Q0_TITLE": "",
        "BPI110_Q1_2": "Ön",
        "BPI110_Q1_3": "sol",
        "BPI110_Q1_4": "sağ",

        "BPID_BPID125_Q0_TEXT": "<u>En çok</u> ağrıyan alanı işaretleyin.",
        "BPID_BPID125_Q0_TITLE": "",
        "BPI125_Q1_2": "Ön",
        "BPI125_Q1_3": "sol",
        "BPI125_Q1_4": "sağ",

        "BPID_BPID130_Q0_TEXT": "<u>En çok</u> ağrıyan alanı işaretleyin.",
        "BPID_BPID130_Q0_TITLE": "",
        "BPI130_Q1_2": "Arka",
        "BPI130_Q1_3": "sol",
        "BPI130_Q1_4": "sağ",

        "BPID_BPID145_Q0_TEXT": "<u>En çok</u> ağrıyan alanı işaretleyin.",
        "BPID_BPID145_Q0_TITLE": "",
        "BPI145_Q1_2": "Arka",
        "BPI145_Q1_3": "sol",
        "BPI145_Q1_4": "sağ",

        "BPID_BPID200_Q0_TEXT": "Bu şekil üzerinde birden fazla alanı işaretlediniz.<br/><br/>Lütfen geri gidin ve <u>en çok</u> ağrıyan tek bir alanı işaretleyin.",
        "BPID_BPID200_Q0_TITLE": "",

        "BPID_BPID210_Q0_TEXT": "En çok ağrıyan alan olarak seçtiğiniz alan, ağrı hissettiğiniz alanları gösteren ilk şekilde seçilmemişti.<br/><br/>En çok ağrı için seçtiğiniz alanın doğru olduğundan emin misiniz?",
        "BPID_BPID210_Q0_TITLE": "",
        "BPID_BPID210_Q0_W0_A0": "Hayır, girişi düzeltmek için geri gidin",
        "BPID_BPID210_Q0_W0_A1": "Evet",

        "BPID_BPID300_Q0_TEXT": "Lütfen son 24 saat içinde, ağrınızın <U>EN ŞİDDETLİ</U> olduğu seviyeyi en iyi belirten sayıyı seçerek ağrınızı derecelendirin.",
        "BPID_BPID300_Q0_TITLE": "",
        "BPID_BPID300_Q0_W0_LeftMarker": "Ağrı Yok",
        "BPID_BPID300_Q0_W0_RightMarker": "Düşünebileceğiniz en kötü ağrı",
        "BPID_BPID300_Q0_W0_A0": "0",
        "BPID_BPID300_Q0_W0_A1": "1",
        "BPID_BPID300_Q0_W0_A2": "2",
        "BPID_BPID300_Q0_W0_A3": "3",
        "BPID_BPID300_Q0_W0_A4": "4",
        "BPID_BPID300_Q0_W0_A5": "5",
        "BPID_BPID300_Q0_W0_A6": "6",
        "BPID_BPID300_Q0_W0_A7": "7",
        "BPID_BPID300_Q0_W0_A8": "8",
        "BPID_BPID300_Q0_W0_A9": "9",
        "BPID_BPID300_Q0_W0_A10": "10",

        "BPID_BPID310_Q0_TEXT": "Lütfen son 24 içinde, ağrınızın <U>EN HAFİF</U> olduğu seviyeyi en iyi belirten sayıyı seçerek ağrınızı derecelendirin.",
        "BPID_BPID310_Q0_TITLE": "",
        "BPID_BPID310_Q0_W0_LeftMarker": "Ağrı Yok",
        "BPID_BPID310_Q0_W0_RightMarker": "Düşünebileceğiniz en kötü ağrı",
        "BPID_BPID310_Q0_W0_A0": "0",
        "BPID_BPID310_Q0_W0_A1": "1",
        "BPID_BPID310_Q0_W0_A2": "2",
        "BPID_BPID310_Q0_W0_A3": "3",
        "BPID_BPID310_Q0_W0_A4": "4",
        "BPID_BPID310_Q0_W0_A5": "5",
        "BPID_BPID310_Q0_W0_A6": "6",
        "BPID_BPID310_Q0_W0_A7": "7",
        "BPID_BPID310_Q0_W0_A8": "8",
        "BPID_BPID310_Q0_W0_A9": "9",
        "BPID_BPID310_Q0_W0_A10": "10",

        "BPID_BPID320_Q0_TEXT": "Lütfen ağrınızın <U>ORTALAMA</U> şiddetini en iyi belirten sayıyı seçerek ağrınızı derecelendirin.",
        "BPID_BPID320_Q0_TITLE": "",
        "BPID_BPID320_Q0_W0_LeftMarker": "Ağrı Yok",
        "BPID_BPID320_Q0_W0_RightMarker": "Düşünebileceğiniz en kötü ağrı",
        "BPID_BPID320_Q0_W0_A0": "0",
        "BPID_BPID320_Q0_W0_A1": "1",
        "BPID_BPID320_Q0_W0_A2": "2",
        "BPID_BPID320_Q0_W0_A3": "3",
        "BPID_BPID320_Q0_W0_A4": "4",
        "BPID_BPID320_Q0_W0_A5": "5",
        "BPID_BPID320_Q0_W0_A6": "6",
        "BPID_BPID320_Q0_W0_A7": "7",
        "BPID_BPID320_Q0_W0_A8": "8",
        "BPID_BPID320_Q0_W0_A9": "9",
        "BPID_BPID320_Q0_W0_A10": "10",

        "BPID_BPID330_Q0_TEXT": "Lütfen <U>ŞU ANDA</U> hissettiğiniz ağrının şiddetini belirten sayıyı seçerek ağrınızı derecelendirin.",
        "BPID_BPID330_Q0_TITLE": "",
        "BPID_BPID330_Q0_W0_LeftMarker": "Ağrı Yok",
        "BPID_BPID330_Q0_W0_RightMarker": "Düşünebileceğiniz en kötü ağrı",
        "BPID_BPID330_Q0_W0_A0": "0",
        "BPID_BPID330_Q0_W0_A1": "1",
        "BPID_BPID330_Q0_W0_A2": "2",
        "BPID_BPID330_Q0_W0_A3": "3",
        "BPID_BPID330_Q0_W0_A4": "4",
        "BPID_BPID330_Q0_W0_A5": "5",
        "BPID_BPID330_Q0_W0_A6": "6",
        "BPID_BPID330_Q0_W0_A7": "7",
        "BPID_BPID330_Q0_W0_A8": "8",
        "BPID_BPID330_Q0_W0_A9": "9",
        "BPID_BPID330_Q0_W0_A10": "10",

        "BPID_BPID340_Q0_TEXT": "Son 24 saat içinde, ağrı için gördüğünüz tedavi veya aldığınız ilaçlar size ne kadar rahatlama sağladı? Lütfen ne kadar <U>RAHATLADIĞINIZI</U> en iyi gösteren yüzdeyi seçin.",
        "BPID_BPID340_Q0_TITLE": "",
        "BPID_BPID340_Q0_W0_LeftMarker": "İyileşme yok",
        "BPID_BPID340_Q0_W0_RightMarker": "Tamamen iyileşme",
        "BPID_BPID340_Q0_W0_A0": "0%",
        "BPID_BPID340_Q0_W0_A1": "10%",
        "BPID_BPID340_Q0_W0_A2": "20%",
        "BPID_BPID340_Q0_W0_A3": "30%",
        "BPID_BPID340_Q0_W0_A4": "40%",
        "BPID_BPID340_Q0_W0_A5": "50%",
        "BPID_BPID340_Q0_W0_A6": "60%",
        "BPID_BPID340_Q0_W0_A7": "70%",
        "BPID_BPID340_Q0_W0_A8": "80%",
        "BPID_BPID340_Q0_W0_A9": "90%",
        "BPID_BPID340_Q0_W0_A10": "100%",

        "BPID_BPID350_Q0_TEXT": "Son 24 saat içinde, ağrının <U>GENEL AKTİVİTENİZİ</U> ne kadar etkilediğini gösteren sayıyı seçin",
        "BPID_BPID350_Q0_TITLE": "",
        "BPID_BPID350_Q0_W0_LeftMarker": "Hiç etkilemedi",
        "BPID_BPID350_Q0_W0_RightMarker": "Tamamen engelledi",
        "BPID_BPID350_Q0_W0_A0": "0",
        "BPID_BPID350_Q0_W0_A1": "1",
        "BPID_BPID350_Q0_W0_A2": "2",
        "BPID_BPID350_Q0_W0_A3": "3",
        "BPID_BPID350_Q0_W0_A4": "4",
        "BPID_BPID350_Q0_W0_A5": "5",
        "BPID_BPID350_Q0_W0_A6": "6",
        "BPID_BPID350_Q0_W0_A7": "7",
        "BPID_BPID350_Q0_W0_A8": "8",
        "BPID_BPID350_Q0_W0_A9": "9",
        "BPID_BPID350_Q0_W0_A10": "10",

        "BPID_BPID360_Q0_TEXT": "Son 24 saat içinde, ağrının <U>RUH HALİNİZİ</U> ne kadar etkilediğini gösteren sayıyı seçin",
        "BPID_BPID360_Q0_TITLE": "",
        "BPID_BPID360_Q0_W0_LeftMarker": "Hiç etkilemedi",
        "BPID_BPID360_Q0_W0_RightMarker": "Tamamen engelledi",
        "BPID_BPID360_Q0_W0_A0": "0",
        "BPID_BPID360_Q0_W0_A1": "1",
        "BPID_BPID360_Q0_W0_A2": "2",
        "BPID_BPID360_Q0_W0_A3": "3",
        "BPID_BPID360_Q0_W0_A4": "4",
        "BPID_BPID360_Q0_W0_A5": "5",
        "BPID_BPID360_Q0_W0_A6": "6",
        "BPID_BPID360_Q0_W0_A7": "7",
        "BPID_BPID360_Q0_W0_A8": "8",
        "BPID_BPID360_Q0_W0_A9": "9",
        "BPID_BPID360_Q0_W0_A10": "10",

        "BPID_BPID370_Q0_TEXT": "Son 24 saat içinde, ağrının <U>YÜRÜME BECERİNİZİ</U> ne kadar etkilediğini gösteren sayıyı seçin",
        "BPID_BPID370_Q0_TITLE": "",
        "BPID_BPID370_Q0_W0_LeftMarker": "Hiç etkilemedi",
        "BPID_BPID370_Q0_W0_RightMarker": "Tamamen engelledi",
        "BPID_BPID370_Q0_W0_A0": "0",
        "BPID_BPID370_Q0_W0_A1": "1",
        "BPID_BPID370_Q0_W0_A2": "2",
        "BPID_BPID370_Q0_W0_A3": "3",
        "BPID_BPID370_Q0_W0_A4": "4",
        "BPID_BPID370_Q0_W0_A5": "5",
        "BPID_BPID370_Q0_W0_A6": "6",
        "BPID_BPID370_Q0_W0_A7": "7",
        "BPID_BPID370_Q0_W0_A8": "8",
        "BPID_BPID370_Q0_W0_A9": "9",
        "BPID_BPID370_Q0_W0_A10": "10",

        "BPID_BPID380_Q0_TEXT": "Son 24 saat içinde, ağrının <U>NORMAL ÇALIŞMANIZI</U> <u>(hem ev dışındaki işleri, hem de ev işlerini içermektedir)</u> ne kadar etkilediğini gösteren sayıyı seçin",
        "BPID_BPID380_Q0_TITLE": "",
        "BPID_BPID380_Q0_W0_LeftMarker": "Hiç etkilemedi",
        "BPID_BPID380_Q0_W0_RightMarker": "Tamamen engelledi",
        "BPID_BPID380_Q0_W0_A0": "0",
        "BPID_BPID380_Q0_W0_A1": "1",
        "BPID_BPID380_Q0_W0_A2": "2",
        "BPID_BPID380_Q0_W0_A3": "3",
        "BPID_BPID380_Q0_W0_A4": "4",
        "BPID_BPID380_Q0_W0_A5": "5",
        "BPID_BPID380_Q0_W0_A6": "6",
        "BPID_BPID380_Q0_W0_A7": "7",
        "BPID_BPID380_Q0_W0_A8": "8",
        "BPID_BPID380_Q0_W0_A9": "9",
        "BPID_BPID380_Q0_W0_A10": "10",

        "BPID_BPID390_Q0_TEXT": "Son 24 saat içinde, ağrının <U>DİĞER İNSANLARLA OLAN İLİŞKİLERİNİZİ</U> ne kadar etkilediğini gösteren sayıyı seçin",
        "BPID_BPID390_Q0_TITLE": "",
        "BPID_BPID390_Q0_W0_LeftMarker": "Hiç etkilemedi",
        "BPID_BPID390_Q0_W0_RightMarker": "Tamamen engelledi",
        "BPID_BPID390_Q0_W0_A0": "0",
        "BPID_BPID390_Q0_W0_A1": "1",
        "BPID_BPID390_Q0_W0_A2": "2",
        "BPID_BPID390_Q0_W0_A3": "3",
        "BPID_BPID390_Q0_W0_A4": "4",
        "BPID_BPID390_Q0_W0_A5": "5",
        "BPID_BPID390_Q0_W0_A6": "6",
        "BPID_BPID390_Q0_W0_A7": "7",
        "BPID_BPID390_Q0_W0_A8": "8",
        "BPID_BPID390_Q0_W0_A9": "9",
        "BPID_BPID390_Q0_W0_A10": "10",

        "BPID_BPID400_Q0_TEXT": "Son 24 saat içinde, ağrının <U>UYKUNUZU</U> ne kadar etkilediğini gösteren sayıyı seçin",
        "BPID_BPID400_Q0_TITLE": "",
        "BPID_BPID400_Q0_W0_LeftMarker": "Hiç etkilemedi",
        "BPID_BPID400_Q0_W0_RightMarker": "Tamamen engelledi",
        "BPID_BPID400_Q0_W0_A0": "0",
        "BPID_BPID400_Q0_W0_A1": "1",
        "BPID_BPID400_Q0_W0_A2": "2",
        "BPID_BPID400_Q0_W0_A3": "3",
        "BPID_BPID400_Q0_W0_A4": "4",
        "BPID_BPID400_Q0_W0_A5": "5",
        "BPID_BPID400_Q0_W0_A6": "6",
        "BPID_BPID400_Q0_W0_A7": "7",
        "BPID_BPID400_Q0_W0_A8": "8",
        "BPID_BPID400_Q0_W0_A9": "9",
        "BPID_BPID400_Q0_W0_A10": "10",

        "BPID_BPID410_Q0_TEXT": "Son 24 saat içinde, ağrının <U>HAYATTAN ALDIĞINIZ ZEVKİ</u> ne kadar etkilediğini gösteren sayıyı seçin",
        "BPID_BPID410_Q0_TITLE": "",
        "BPID_BPID410_Q0_W0_LeftMarker": "Hiç etkilemedi",
        "BPID_BPID410_Q0_W0_RightMarker": "Tamamen engelledi",
        "BPID_BPID410_Q0_W0_A0": "0",
        "BPID_BPID410_Q0_W0_A1": "1",
        "BPID_BPID410_Q0_W0_A2": "2",
        "BPID_BPID410_Q0_W0_A3": "3",
        "BPID_BPID410_Q0_W0_A4": "4",
        "BPID_BPID410_Q0_W0_A5": "5",
        "BPID_BPID410_Q0_W0_A6": "6",
        "BPID_BPID410_Q0_W0_A7": "7",
        "BPID_BPID410_Q0_W0_A8": "8",
        "BPID_BPID410_Q0_W0_A9": "9",
        "BPID_BPID410_Q0_W0_A10": "10",

        "BPID_BPID420_Q0_TEXT": "Copysağ 1991 Charles S. Cleeland, PhD<br/>Ağrı Araştırma Grubu<br/>Tüm hakkı saklıdır",
        "BPID_BPID420_Q0_TITLE": ""

    }
}
