
{
	"namespace": "STUDY",
	"language": "tr",
	"locale": "TR",
	"direction": "ltr",
	"dateConfigs": {
		"headerFormat": "%A, %B %-d, %Y",
		"dateFormat": "%d-%b-%Y",
        "timeOutput": "%k:%M",
        "timeFormat": 24,
		"durationFormat": "%Dd %DA, %Dl:%DM:%DS",
		"durationOrder": [
			"d",
			"h",
			"i",
			"s"
		],
		"dateFieldOrder": [
			"m",
			"d",
			"y"
		],
		"timeFieldOrder": [
			"h",
			"i",
			"a"
		],
		"slideFieldOrder": [
			"y",
			"m",
			"d"
		],
		"dayOfWeek": "%A",
		"indicatorFormat": "%d %b %Y",
		"calStartDay": 0,
		"useArabicIndic": false
	},
	"resources": {
        "EN-US": "English (United States)",
        "JA-JP": "Japanese (Japan)",
        "ZH-US" : "Simplified Chinese (United States)",
        "ES-US" : "Spanish (United States)",
        "EN-AU" : "English (Australia)",
        "EN-CA" : "English (Canada)",
        "CS-CZ" : "Czech (Czech Republic)",
        "EN-GB" : "English (United Kingdom)",
        "TR-TR" : "Turkish (Turkey)",
        "STUDY_DATE_TIME_FORMAT": "DD-MMM-YYYY HH:mm",
        "STUDY_DATE_FORMAT": "DD-MMM-YYYY",
        "STUDY_TIME_FORMAT": "HH:mm",
        "SPACE"             : " ",
        "MEDLOOP_0100_TITLE"    : "Tıbbi Bilgiler",
        "MEDLOOP_0100_MED_FORMAT"    : "<span>{MEDAMT1N}</span> <span>{MEDFRM2L}</span> - <span>{SBJALS1C}</span>",
        "MEDLOOP_0100_TIME_FORMAT"    : "Saat: <span>{MEDTKN1S}</span>",
        "DEFAULT_MED_FORMAT"    : "<span>{SBJALS1C}</span> <span>({MEDFRM1L})</span>",
        "MEDLOOP_0100_ADD"      : "Yeni Bir Doz/Saat Ekle",
        "MEDLOOP_0100_EDIT"     : "Bu Dozu/Saati Düzenle",
        "MEDLOOP_0100_Q_DELETE" : "Bu Dozu/Saati Sil",
        "OTHER_MEDICATION"      : "Diğer İlaçlar",
        "NO_MEDS"               : "İlaç Yok",
        "MEDLOOP_0100_ADD_EDIT": "Gri renkli olmayan bir dozu, üzerine dokunarak düzenleyebilir veya silebilirsiniz",
        "MEDLOOP_0700_Q_TEXT"    : "Lütfen aldığınız/kullandığınız ağrı kesici ilaçları seçin (tek seferde yalnızca bir ilaç seçin):",
        "MEDLOOP_0800_Q_TEXT"    : "Aşağıdaki ağrı kesici ilaçları aldığınız/kullandığınız tarih ve saati girin<br><br><b>{{{ selectedMedNameForm }}}</b>",
        "MEDLOOP_0900_Q_TEXT"    : "{{{ selectedMedNameForm }}}<br>{{{ selectedMedDate }}}<br><br>Bu dozla halihazırda girmiş olduğunuz bir doz arasında 15 dakikadan az zaman var:<br><br>{{{ conflictedMedNameForm }}}<br>{{{ conflictedMedDate }}}<br><br>Ne yapmak istiyorsunuz?",
        "MEDLOOP_0900_A1"       : "Bu doz için tarihi/saati değiştir",
        "MEDLOOP_0900_A2"       : "Bu dozu sil, iki kez girilmiş",
        "MEDLOOP_0900_A3"       : "Bu dozu tut, doğru girilmiş",
        "MEDLOOP_0910_Q_TEXT"    : "Lütfen girdiğiniz veriyi silmek istediğinizi onaylayın.",
        "MEDLOOP_0910_A1"       : "Evet, silme işlemini tamamla",
        "MEDLOOP_0910_A2"       : "Hayır, bir önceki ekrana dön",
        "MEDLOOP_1000_Q_TEXT"   : "Lütfen ilacın adını ve ne kadar aldığınızı Günlüğünüz dışındaki bir kağıt parçasının üzerine not edin.<br><br>Bu konu ile ilgili çalışma doktorunuzu en kısa sürede bilgilendirmek için kendisi ile irtibata geçin.",
        "MEDLOOP_1100_Q_TEXT"   : "Aşağıdaki ağrı kesici ilaçtan kaç doz ({{{ selectedMEDFRM2L }}}) aldınız/kullandınız?<br><br><strong>{{{ selectedMedNameForm }}}</strong>",
        "MEDLOOP_1100_FORM"     : "{{{ selectedMEDFRM2L }}}",
        "MEDLOOP_1100_OK"       : "Tamam",
        "MEDLOOP_1200_Q_TEXT"   : "Bir sonraki adımda ne yapmak istiyorsunuz?",
        "MEDLOOP_1200_A1"       : "Şu ilaç için yeni bir doz gir: {{{ selectedMedNameForm }}}",
        "MEDLOOP_1200_A2"       : "Yeni bir ilaç seç",
        "MEDLOOP_1200_A3"       : "Gözden geçirme ekranına geri dön",
        "MEDLOOP_1300_Q_TEXT"   : "Tek bir günlükte kaydedilebilecek azami ilaç sayısına ulaştınız.<br><br>İlave ilaç dozu kaydetmeniz gerekiyorsa, lütfen ilave bir {{{ getQuestionnaireName }}} doldurun.",
        "MEDLOOP_1400_Q_TEXT"   : "Gerçekten bu İlaç Dozunu/Saatini silmeyi istiyor musunuz?<br><br>{{{ selectedMedNameForm }}}<br>{{{ selectedMedDate }}}",
        "MEDLOOP_1400_A1"       : "Hayır",
        "MEDLOOP_1400_A2"       : "Evet",

        "MEDUNT1L1"               : "ug",
        "MEDUNT1L2"               : "mg",
        "MEDUNT1L3"               : "g",
        "MEDUNT1L4"               : "ug/mL",
        "MEDUNT1L5"               : "mg/mL",
        "MEDUNT1L6"               : "g/mL",
        "MEDUNT1L7"               : "ug/5 mL",
        "MEDUNT1L8"               : "mg/5 mL",
        "MEDUNT1L9"               : "g/5 mL",
        "MEDUNT1L10"              : "ug/15 mL",
        "MEDUNT1L11"              : "mg/15 mL",
        "MEDUNT1L12"              : "g/15 mL",
        "MEDUNT1L13"              : "IU",

        "MEDRTE1L1"               : "Ağızdan",
        "MEDRTE1L2"               : "Burundan",
        "MEDRTE1L3"               : "Optik",
        "MEDRTE1L4"               : "Öncü belirti",
        "MEDRTE1L5"               : "Deri içinden",
        "MEDRTE1L6"               : "Rektal",
        "MEDRTE1L7"               : "Enjekte edilebilen (Kas içi)",
        "MEDRTE1L8"               : "Enjekte edilebilen (Damar içi)",
        "MEDRTE1L9"               : "Enjekte edilebilen (Deri altı)",
        "MEDRTE1L10"              : "Enjekte edilebilen",

        "MEDFRM1L1"               : "hap",
        "MEDFRM1L2"               : "toz",
        "MEDFRM1L3"               : "sıvı",
        "MEDFRM1L4"               : "solunum spreyi",
        "MEDFRM1L5"               : "film",
        "MEDFRM1L6"               : "sprey",
        "MEDFRM1L7"               : "merhem",
        "MEDFRM1L8"               : "bant",
        "MEDFRM1L9"               : "fitil",
        "MEDFRM1L10"              : "enjeksiyon",
		"MEDFRM1L11"              : "damla",

        "MEDFRM2L1"               : "ilaç",
        "MEDFRM2L2"               : "paket",
        "MEDFRM2L3"               : "mL",
        "MEDFRM2L4"               : "5 mL - tatlı kaşığı",
        "MEDFRM2L5"               : "15 mL - çorba kaşığı",
        "MEDFRM2L6"               : "damla",
        "MEDFRM2L7"               : "film",
        "MEDFRM2L8"               : "sprey",
        "MEDFRM2L9"               : "ug",
        "MEDFRM2L10"              : "mg",
        "MEDFRM2L11"              : "g",
        "MEDFRM2L12"              : "parmak ucu",
        "MEDFRM2L13"              : "bant",
        "MEDFRM2L14"              : "fitil",
        "MEDFRM2L15"              : "nefes",

        "BPI_SF_ALERT_HEADER": " ",
        "BPI_SF_ALERT": "<b>Lütfen Dikkat:</b> Herhangi bir belirti, sağlık sorunu veya başka endişeler yaşıyorsanız, lütfen bunu doktorunuzla veya hemşirenizle görüştüğünüzden emin olun. Bu sorulara verdiğiniz yanıtlar yalnızca araştırma amaçlı olup, sağlık ekibinizle düzenli bir şekilde paylaşılmamaktadır. Ancak, doktorunuzla, bu ankete vereceğiniz yanıtlarla ilgili bilgiler de dahil olmak üzere, güvenlik endişelerinize değinmenize yardımcı olabilecek her türlü bilgiyi rahatlıkla paylaşabileceğinizi unutmayın.",

        "NEXT_ASSESSMENT_INDICATOR": "{{{ NEXT_ASSESSMENT_INDICATOR }}}<br/>Hazır Olan Sonraki Değerlendirmeler",
        "BPID_UPCOMING": "BPI-SF<br/> Bugün {{{ BPID_TIME }}}'de Doldurulmalı",
        "BPID_DUE_NOW": "BPI-SF<br/> ŞİMDİ Doldurulmalı",
        "ASSESSMENT_NOW_INDICATOR": "ŞİMDİ Hazır Olan<br/> Anket(ler)",
        "MED_QTY_INPUT_ERR_HEADER": " ",
        "MED_QTY_INPUT_ERR_1_T0_99": "Girmiş olduğunuz değer aralığın dışındadır. Lütfen 1 - 99 arası bir değer girin",
        "MED_QTY_INPUT_ERR_1_T0_9": "Girmiş olduğunuz değer aralığın dışındadır. Lütfen 1 - 9 arası bir değer girin",
        "DAILY_ALARM_FOR_ASSESSMENTS": "Değerlendirmeler için Günlük Alarm"
	}
}
