{
    "namespace" : "STUDY",
    "language"  : "es",
    "locale"    : "ES",
    "direction" : "ltr",
    "resources" : {
        "PASSWORD_RULES"            : "ES-Your password must be 4 - 20 characters long.",
        "TAKE_PILL"                 : "ES-Take pill",
        "PILL_IMAGE"                : "{{{ imageFolder }}}takePill.svg",
        "TEST_INDICATOR"            : "ES-Ditto",
        "CREATE_PERMANENT_PASSWORD" : "ES-Enter your new password. Your password must contain a minimum of 4 digits and a maximum of 8 digits."
    }
}
