{
    "namespace": "CORE",
    "language": "zh",
    "locale": "TW",
    "localized": "繁體中文 (台灣)",
    "direction": "ltr",
    "resources": {
        "ACTIVE": "啟用",
        "ACTIVATE_USER": "啟動使用者",
        "ADD_PATIENT": "新增新病患",
        "ADD_USER": "新增使用者",
        "AFFIDAVIT": "要儲存您的回應時，請先選取「確定」，然後選取「下一步」。",
        "AFFIDAVIT_HELP": "感謝您。 您已提供所有必要的回應。 您可選取「返回」，檢查或變更您的回應。",
        "ALL_QUESTIONNAIRES_COMPLETED": "所有表單已經完成",
        "APP_NAME": "ERT",
        "APPLICATION_HEADER": "{{{ appHeader }}}",
        "APP_NAME_LBL": "App 名稱",
        "APP_VERSION": "App 版本",
        "ASSIGNED_TO": "接受指派者",
        "AVAILABLE": "可用",
        "BACK": "返回",
        "BACK_OUT_CONFIRM": "您確定要結束嗎？ 將會遺失有關此表單的回應。",
        "BLUETOOTH_REG_REFRESH_BUTTON": "更新清單",
        "CANCEL": "取消",
        "CHECK_FOR_UPDATES": "檢查更新",
        "CHOOSE_A_SITE": "指派此裝置至特定研究單位。",
        "COMPLETED": "已完成",
        "CONFIRM_PASSWORD": "確認密碼:",
        "CONFIRM_TEMP_PASS": "確認暫時性密碼：",
        "CONTINUE": "繼續",
        "COUNTRY": "國家/地區",
        "CUSTOM_ENVIRONMENT": "自訂環境",
        "DEACTIVATE_PATIENT": "停用病患",
        "DEACTIVATE_USER": "停用使用者",
        "DEACTIVATED": "已經停用",
        "DEVICE_ID": "裝置識別碼",
        "DEVICE_REGISTRATION_FAILURE": "無法登記該裝置。",
        "DEVICE_UUIID": "裝置 UUID",
        "BATTERY_LEVEL": "電池電量",
        "DEVICE_INFO": "裝置資訊",
        "EDIT_MY_INFO": "編輯我的資訊",
        "EDIT_PATIENT": "編輯病患",
        "EDIT_SERVICE_URL": "編輯服務 URL",
        "EDIT_SERVICE_URL_SUCCESS": "服務 URL 已更新。",
        "EDIT_USER": "編輯使用者",
        "EMAIL": "電子郵件地址",
        "ENTER_PATIENT_INFO": "輸入病患資訊",
        "ENTER_UNLOCK_CODE": "請輸入解鎖碼",
        "ENTER_USER_INFO": "輸入新的研究單位使用者資訊",
        "ENVIRONMENT": "環境",
        "FIRST_NAME": "名字",
        "FORGOT_PASSWORD": "忘記密碼？",
        "FORM": "表單",
        "FORM_GATEWAY": "表單閘道",
        "FORM_NAME": "表單名稱",
        "FULL_NAME": "全名:",
        "GO_TO_VISITS": "病患回診",
        "HAND_DEVICE_SITE_TITLE": "將裝置交給研究單位使用者",
        "HAND_DEVICE_SITE_BODY": "請將裝置交給研究單位使用者。",
        "HELP": "說明",
        "HOME": "首頁",
        "IN_PROGRESS": "進行中",
        "INITIALS": "姓名字首",
        "INVALID_URL": "請輸入有效 URL。",
        "INVALID_PERMISSION": "權限無效。",
        "INVALID_PASSWORD": "密碼無效。",
        "LANGUAGE": "語言：",
        "LAST_LOGIN": "上一次登入",
        "LAST_NAME": "姓氏",
        "LAST_REFRESH_TIME": "上一次更新時間",
        "LOCATION": "位置",
        "LOGIN": "登入",
        "LOGIN_SCREEN": "登入",
        "LOGOUT": "登出",
        "MANAGE_USERS": "管理研究單位使用者",
        "MARK_AS_COMPLETED": "標為已完成",
        "SITE_SIGNATURE": "簽名者： ",
        "SITE_REPORT_AFF": "我已經輸入、再三檢查，並確認前述資料無誤。<br /><br /><strong>簽名者：</strong>{{{ getActiveUserName }}}",
        "PATIENT_REPORT_AFF": "我已經輸入、再三檢查，並確認前述資料無誤。<br /><br /><strong>使用姓名字首者：</strong> {{{ getActiveUserName }}}",
        "CLEAR_SIGNATURE": "清除簽名",
        "MENU": "功能表",
        "MODE": "模式",
        "NAME": "姓名",
        "NEW_USER": "新增新的使用者日記",
        "NEW_USER_CREATED": "該研究單位使用者已建立。",
        "NEXT": "下一步",
        "NO_RESULTS_FOUND": "找不到結果。",
        "NOT_AVAILABLE": "無法使用",
        "OK": "確定",
        "ORDER": "順序",
        "PASSWORD": "密碼:",
        "PATIENT": "病患",
        "PATIENT_ID": "病患識別碼：",
        "PENDING_TRANSMISSIONS": "傳輸擱置中",
        "PLEASE_WAIT": "請稍候",
        "PLEASE_CONFIRM": "請確認",
        "REPORTS_AND_FORMS": "報告與表單",
        "REPORTS_COMPLETED_MESSAGE": "您已經完成您所有的表單。 請將裝置交還給適當的研究單位人員。",
        "REQUIRED_ANSWER": "請填妥所要求的資訊。",
        "RESET_PIN": "重設病患 PIN 碼",
        "RESET_USER_PASSWORD": "重設使用者密碼",
        "ROLES": "角色：",
        "SAVE": "儲存",
        "SEARCH": "搜尋",
        "SECURITY_QUESTION_0": "你的母親姓什麼？",
        "SECURITY_QUESTION_1": "你在哪個城市出生？",
        "SECURITY_QUESTION_2": "你的第一隻寵物叫什麼名字？",
        "SECURITY_QUESTION_3": "你最喜歡哪種運動？",
        "SECURITY_QUESTION_4": "你哪一年最高學歷畢業？",
        "SECURITY_QUESTION_5": "你最大的孩子叫什麼名字？",
        "SECURITY_QUESTION_6": "你小時候最喜歡的朋友叫什麼名字？",
        "SECURITY_QUESTION_7": "你小學三年級的老師姓什麼？",
        "SECURITY_QUESTION_8": "你第一個工作在哪個城市或鄉鎮？",
        "SECRET_ANSWER": "密碼防護答案：",
        "SECRET_QUESTION": "密碼防護問題：",
        "SECRET_QUESTION_HELP_TEXT": "請從下列清單中選取一個密碼防護問題。 萬一您忘記密碼，這個答案可用來讓您登入。",
        "SECRET_QUESTION_ANSWER": "密碼防護問題和答案",
        "SELECT_LANGUAGE": "請選擇研究單位偏好的語言。",
        "SELECT_SITE_NUMBER": "請選擇研究單位號碼",
        "SERVICE_URL": "服務 URL",
        "SETTINGS": "設定",
        "SETUP_COMPLETE": "安裝完成",
        "SETUP_COMPLETE_DESC": "此裝置現在已安裝完畢且準備好進行運送。  請在下一個畫面中，按一下「確定」，然後關閉裝置。",
        "SETUP_SITE_USER": "設定研究單位使用者",
        "SETUP_SITE_USER_LEGEND": "請設定本裝置的研究單位使用者。",
        "SITE": "研究單位",
        "SITE_ASSESSMENTS": "研究單位評估",
        "SIGNATURE_DATA_LIMIT_EXCEEDED": "簽名欄位無法按照所簽方式精準呈現您的簽名。 請改簽您的姓名字首。",
        "SITE_NUMBER": "研究單位號碼",
        "SITE_ROLE": "研究單位使用者",
        "SITE_SELECTION": "研究單位選擇",
        "SKIP_FORM": "略過表單",
        "SKIP_QUESTION": "您確定要略過畫面上的回應嗎？",
        "SKIP_TO_VISIT": "跳至回診",
        "SKIP_VISIT": "略過回診",
        "SKIPPED" : "已略過",
        "START_FORM": "開始表單",
        "START_VISIT": "開始回診",
        "STATUS": "狀態",
        "STATUS_DATE": "狀態日期",
        "STUDY": "試驗",
        "STUDYWORKS_LOGIN": "StudyWorks 登入",
        "SUBJECT_ID": "病患識別碼",
        "SUBJECT_ROLE": "病患",
        "SUBMIT": "提交",
        "SUPPORT_TOOLS": "支援工具",
        "SYNC": "同步",
        "SYNC_USERS": "同步使用者",
        "SYNC_TO_DEVICE": "將試驗與裝置同步",
        "TEMPORARY_PASSWORD_MESSAGE": "請提供新使用者暫時性密碼。 新使用者在登入後將必須建立新密碼。",
        "TEMP_PASSWORD": "暫時性密碼： ",
        "UNABLE_TO_GET_SITE_LIST": "無法取得研究單位清單",
        "UNLOCK_CODE": "解鎖碼",
        "UNLOCK_CODE_HELP": "ERT Tablet 的解鎖碼可以從 StudyWorks (在「ERT 解鎖碼」SmartReport 中) 取得。 如需更多幫助，請連絡 ERT 支援中心。",
        "USER": "使用者",
        "USER_ALREADY_EXISTS": "使用者已存在",
        "SUBJECT_ALREADY_EXISTS": "識別碼為 {{{ getPatientIDForDuplicate }}} 的病患已存在",
        "USER_ROLE": "使用者角色",
        "USERNAME": "使用者姓名",
        "USER_NAME": "使用者姓名：",
        "VISIT": "回診",
        "VISIT_COMPLETED_MESSAGE": "本次回診沒有其他表單。  本次回診現在已經完成。",
        "VISITS": "回診",
        "VISITS_SKIPPED": "略過的回診：",
        "VISIT_NAME": "回診名稱",
        "WELCOME": "歡迎",
        "AF-ZA": "南非荷蘭語",
        "AR-EG": "阿拉伯語",
        "BE-BY": "白俄羅斯語",
        "BG-BG": "保加利亞語",
        "BN-IN": "孟加拉語",
        "BS-BA": "波士尼亞語",
        "CA-ES": "加泰隆語",
        "CS-CZ": "捷克語",
        "DA-DK": "丹麥語",
        "DE-DE": "德語 (德國)",
        "DE-AT": "德語 (奧地利)",
        "EL-GR": "希臘語",
        "EN-GB": "英語 (英國)",
        "EN-US": "英語 (美國)",
        "ES-ES": "西班牙語 (西班牙)",
        "ES-US": "西班牙語 (美國)",
        "ES-PY": "西班牙語 (通用)",
        "ET-EE": "愛沙尼亞語",
        "FI-FI": "芬蘭語",
        "FR-CA": "法語 (加拿大)",
        "FR-FR": "法語 (法國)",
        "GD-IE": "蓋爾語",
        "GU-IN": "古吉拉特語",
        "HE-IL": "希伯來語",
        "HI-IN": "印度語",
        "HR-HR": "克羅埃西亞語",
        "HU-HU": "匈牙利語",
        "IT-IT": "義大利語",
        "JA-JP": "日語",
        "KA-GE": "喬治亞語",
        "KN-IN": "康納達語",
        "KO-KR": "韓語",
        "LV-LV": "拉脫維亞語",
        "LT-LT": "立陶宛語",
        "ML-IN": "馬拉亞拉姆語",
        "MR-IN": "馬拉提語",
        "MS-MY": "馬來語",
        "NB-NO": "挪威語",
        "NL-BE": "荷蘭語 (比利時)",
        "NL-NL": "荷蘭語 (荷蘭)",
        "PA-IN": "旁遮普語",
        "PL-PL": "波蘭語",
        "PT-BR": "葡萄牙語 (巴西)",
        "PT-PT": "葡萄牙語 (葡萄牙)",
        "RO-RO": "羅馬尼亞語",
        "RU-RU": "俄語",
        "SL-SL": "斯洛維尼亞語",
        "SK-SK": "斯洛伐克語",
        "SR-RS": "塞爾維亞語 (拉丁)",
        "SR-SP": "塞爾維亞語 (西里爾)",
        "ST-ZA": "梭蘇語",
        "SV-SE": "瑞典語",
        "TA-IN": "坦米爾語",
        "TE-IN": "德拉威語",
        "TH-TH": "泰語",
        "TL-PH": "塔加拉語",
        "TN-ZA": "茨瓦納語",
        "TR-TR": "土耳其語",
        "UK-UA": "烏克蘭語",
        "UR-IN": "烏爾都語",
        "VI-VN": "越南語",
        "XH-ZA": "科薩語",
        "ZH-CN": "中文 (簡體)",
        "ZH-TW": "中文 (繁體)",
        "ZU-ZU": "祖魯語",
        "HAND_DEVICE_SUBJECT_BODY": "下一份表單必須由{{{ patientOrRole }}}填妥。 請登出，然後將裝置交給{{{ patientOrRole }}}。",
        "HAND_DEVICE_SUBJECT_TITLE": "開始使用{{{ formTitle }}}表單",
        "SKIP_VISIT_TITLE": "略過回診？",
        "SKIP_VISIT_TEXT": "如果您繼續，將會略過以下回診：<br/> {{{ skippedVisits }}} 現在繼續進行，並略過這些回診？",
        "YES":"是",
        "NO":"否",
        "TIME_LBL": "時間：",
        "SET_TIME": "設定時間",
        "DATE_LBL": "日期：",
        "CREATE_PERMANENT_PASSWORD_TITLE": "建立密碼",
        "USER_ID": "使用者 ID：",
        "PHASE": "階段",
        "LAST_VISIT": "上一次完成的回診",
        "CONNECTION_REQUIRED": "需要網際網路連線。",
        "RETRY": "再試一次",
        "UPDATE_FAILURE": "未完成更新",
        "UPDATE_SUCCESS": "更新成功",
        "CANCEL_PERMANENT_PASSWORD_TITLE": "取消建立密碼？",
        "CANCEL_PERMANENT_PASSWORD_TEXT": "如果現在取消，將不會建立您的密碼。 您將需要密碼，才能開始使用 ERT。 您確定要取消嗎？",
        "ACCOUNT_CONFIGURED_TITLE": "帳戶設定完成",
        "ACCOUNT_CONFIGURED_TEXT": "您現在已完成帳戶的設定，現在可以繼續使用 eCOA 系統。",
        "LOGGED_IN_AS": "已登入身分",
        "EDIT_PATIENT_AFFIDAVIT_HEADER": "<p class='question-title-large'>簽名</p><br />",
        "EDIT_PATIENT_AFF": "我特此聲明，在此處簽名即表示我已獲授權編輯此病患。<br /><br />病患識別碼： {{{ getPatientIdNumber }}}<br /><br /><strong>簽名者：</strong>{{{ getActiveUserName }}}",
        "PASSWORD_MISMATCH": "密碼確認的內容與密碼不符",
        "FIRST_USER_AFFIDAVIT": "我特此聲明，在此處簽名即表示我是主要主持人或授權代表，可以在此系統上建立帳戶。<br /><br /><strong>簽名者：</strong>{{{ getFirstUsername }}}",
		"INCOMPLETE": "未完成",
        "INVALID_ENTRY": "無效輸入",
        "PLEASE_ANSWER_SQ": "請回答密碼防護問題：",
        "FORGOT_SECRET_ANSWER": "忘記密碼防護答案？",
        "CONTACT_STUDY_COORDINATOR": "請連絡研究專員",
        "ENTER_NEW_PASSWORD": "新密碼：",
        "CONTACT_UNLOCK_CODE": "如需要今日的解鎖碼，請洽詢您的研究專員：",
        "CURRENT_DATE": "{{{ currentDate }}}",
        "TEMPORARY_UNLOCK_CODE": "請輸入由研究專員提供的解鎖碼。",
        "RESET_SECRET_QUESTION": "重設密碼防護問題",
        "SECRET_QUESTION_CHANGE_SUCCESS": "您已成功更新密碼與密碼防護問題。",
        "RESET_PASSWORD": "重設密碼",
        "ANSWER_ATTEMPT_EXCEEDED": "您輸入了太多次錯誤的答案，或是按了忘記密碼防護答案的連結。",
        "PASSWORD_ATTEMPT_EXCEEDED": "您輸入了太多次錯誤的密碼，或是按了忘記密碼的連結。",
        "PASSWORD_CHANGE_SUCCESS": "您已成功更新密碼。",
        "CHANGE_PASSWORD": "變更密碼",
        "CHANGE_SECRET_QUESTION": "變更密碼防護問題",
        "SYNC_COMPLETE": "同步完成",
        "INCORRECT_ANSWER": "答案有誤",
        "INCORRECT_UNLOCK_CODE": "解鎖碼有誤",
        "PASSWORD_INVALID": "密碼有誤",
        "SUBJECT": "病患",
        "PATIENT_ADDED": "病患已新增",
        "TIME_ZONE": "時區:",
        "ACTIVATE_USER_CANCEL_CONFIRM":"是否取消啟動？",
        "ACTIVATE_USER_CANCEL_BODY":"如果現在取消，將不會啟動該研究單位使用者。您確定要取消嗎？",
        "ACTIVATE_USER_AFF":"我特此聲明，在此處簽名即表示我已獲授權啟動此研究單位使用者。",
        "ACTIVATE_USER_CONFIRM_INFORMATION":"請確認以下資訊屬於您要啟動的研究單位使用者。",
        "DEACTIVATE_USER_CANCEL_CONFIRM":"是否取消停用？",
        "DEACTIVATE_USER_CANCEL_BODY":"如果現在取消，將不會停用該研究單位使用者。您確定要取消嗎？",
        "DEACTIVATE_USER_AFF":"我特此聲明，在此處簽名即表示我已獲授權停用此研究單位使用者。",
        "DEACTIVATE_USER_SIG":"<strong>要停用的使用者：</strong><br />{{{ getSelectedUsername }}}<br /><br /><strong>簽名者：</strong>{{{ getActiveUserName }}}",
        "DEACTIVATE_USER_CONFIRM_INFORMATION":"請確認以下資訊屬於您要停用的研究單位使用者。",
        "DIARY_TIMEOUT":"此表單已逾時。",
        "EDIT_PATIENT_QUESTION_1_MAIN_TITLE":"<div class='question-title-large'>病患身分</div><div>本研究單位的識別碼範圍：<br /><strong>{{{ patientIDRange }}}</strong></div><div class='edit-patient-id'>病患識別碼：<br /><strong>{{{ getPatientIdNumber }}}({{{getPatientInitials}}})</strong</div><br /><br />",
        "EDIT_PATIENT_QUESTION_1":"病患識別碼：",
        "EDIT_PATIENT_QUESTION_1_EMPTY":"請填寫病患識別碼。",
        "EDIT_PATIENT_QUESTION_1_EMPTY_HEADER":"病患識別碼",
        "EDIT_PATIENT_QUESTION_1_RANGE":"您輸入的病患識別碼，不在可用識別碼範圍內：{{{ patientIDRange }}}。請輸入有效的病患識別碼。",
        "EDIT_PATIENT_QUESTION_1_RANGE_HEADER":"病患識別碼超出範圍",
        "EDIT_PATIENT_QUESTION_1_UNIQUE":"病患已存在。請輸入另一個病患識別碼。",
        "EDIT_PATIENT_QUESTION_1_UNIQUE_HEADER":"病患識別碼重複",
        "EDIT_PATIENT_QUESTION_2":"病患姓名字首：",
        "EDIT_PATIENT_QUESTION_2_EMPTY":"請填寫病患姓名字首，至少 2 個字元。",
        "EDIT_PATIENT_QUESTION_2_EMPTY_HEADER":"病患姓名字首",
        "EDIT_PATIENT_QUESTION_3_TITLE":"<div class='question-title-large'>選取語言</div><div>病患識別碼：<br /><strong>{{{ getPatientIdNumber }}}({{{getPatientInitials}}})</strong</div><br /><br />",
        "EDIT_PATIENT_QUESTION_3":"選取該病患的語言",
        "EDIT_PATIENT_QUESTION_4_TITLE":"<div class='question-title-large'>編輯原因</div><br /><br />",
        "EDIT_PATIENT_QUESTION_4":"選取編輯病患的原因",
        "EDIT_PATIENT_CANCEL_CONFIRM":"是否取消對病患的變更？",
        "EDIT_PATIENT_CANCEL_BODY":"如果現在取消，將不會更新病患設定。您確定要取消嗎？",
        "EDIT_PATIENT_NO_CHANGES_CONFIRM":"未對病患做出變更",
        "EDIT_PATIENT_NO_CHANGES_BODY":"未曾對此病患做出變更。仍然要結束嗎？",
        "EDIT_PATIENT_REASON_0":"由臨床醫師更正錯誤",
        "EDIT_REASON":"編輯原因：",
        "EDIT_USER_AFF":"我特此聲明，在此處簽名即表示我已獲授權編輯此研究單位使用者。<br /><br /><strong>簽名者：</strong>{{{ getActiveUserName }}}",
        "EDIT_USER_CANCEL_CONFIRM":"是否取消編輯使用者？",
        "EDIT_USER_CANCEL_BODY":"如果現在取消，將不會對研究單位使用者做出變更。您確定要取消嗎？",
        "EDIT_USER_NO_CHANGES_HEADER":"未對研究單位使用者做出變更",
        "EDIT_USER_NO_CHANGES_BODY":"未曾對此研究單位使用者做出變更。仍然要結束嗎？",
        "ERROR_CODE":"錯誤碼：",
        "ERROR_TITLE":"錯誤",
        "FIRST_SITE_USER":"新增第一位研究單位使用者",
        "NEW_PATIENT_QUESTION_1_MAIN_TITLE":"<div class='question-title-large'>輸入病患身分資訊</div><div>本研究單位的識別碼範圍：<br /><strong>{{{ patientIDRange }}}</strong></div><div><strong>研究單位：{{{ getSiteCode }}}</strong></div><div><strong>使用者：{{{ getUserName }}}</strong</div><br /><br />",
        "NEW_PATIENT_HELP_TEXT_1":"",
        "NEW_PATIENT_HELP_TEXT_2":"",
        "NEW_PATIENT_HELP_TEXT_3":"",
        "NEW_PATIENT_QUESTION_1_TITLE":"病患識別碼",
        "NEW_PATIENT_QUESTION_1":"病患識別碼：",
        "NEW_PATIENT_QUESTION_1_EMPTY":"請填寫病患識別碼。",
        "NEW_PATIENT_QUESTION_1_EMPTY_HEADER":"病患識別碼",
        "NEW_PATIENT_QUESTION_1_RANGE":"您輸入的病患識別碼，不在可用識別碼範圍內：{{{ patientIDRange }}}。請輸入有效的病患識別碼。",
        "NEW_PATIENT_QUESTION_1_RANGE_HEADER":"病患識別碼超出範圍",
        "NEW_PATIENT_QUESTION_1_UNIQUE":"病患已存在。請輸入另一個病患識別碼。",
        "NEW_PATIENT_QUESTION_1_UNIQUE_HEADER":"病患識別碼重複",
        "NEW_PATIENT_QUESTION_2":"病患姓名字首：",
        "NEW_PATIENT_QUESTION_2_EMPTY":"請填寫病患姓名字首，至少 2 個字元。",
        "NEW_PATIENT_QUESTION_2_EMPTY_HEADER":"病患姓名字首",
        "NEW_PATIENT_QUESTION_3_TITLE":"<div class='question-title-large'>選取語言</div><div><strong>研究單位：{{{ getSiteCode }}}</strong></div><div><strong>使用者：{{{ getUserName }}}</strong</div><div><strong>病患識別碼：{{{ getPatientID }}}</strong></div><br /><br />",
        "NEW_PATIENT_QUESTION_3":"選取該病患的語言",
        "NEW_PATIENT_CANCEL_CONFIRM":"是否取消新增病患？",
        "NEW_PATIENT_CANCEL_BODY":"如果現在取消，將不會登記病患。您確定要取消嗎？",
        "NEW_PATIENT_AFFIDAVIT_HEADER":"<div><strong>研究單位：{{{ getSiteCode }}}</strong><br /><strong>使用者：{{{ getUserName }}}</strong><br /><strong>病患識別碼：{{{ getPatientID }}}</strong></div>",
        "PATIENT_INITIALS":"病患姓名字首：",
        "PATIENT_DELETED":"不明病患",
        "PATIENT_DELETED_MSG":"找不到病患。",
        "PATIENT_DELETED_SUBJECT_MSG":"找不到病患。請將裝置交還給適當的研究單位人員。",
        "PLEASE_CONTACT":"請連絡 ERT 研究支援中心。",
        "PLEASE_TRY_OR_CONTACT_SUPPORT":"請再試一次，或者連絡 ERT 研究支援中心。",
        "REASON":"原因：",
        "SET_TIMEZONE_MESSAGE":"選取您的時區：",
        "SKIP_VISITS":"略過回診",
        "SKIP_VISITS_QUESTION_1":"<div class='question-title-large'><strong>原因</strong></div><br /><br /><div>選取略過該等回診的原因：</div>",
        "SKIP_VISITS_REASON_0":"回診已過期",
        "SKIP_VISITS_REASON_1":"研究單位發生系統管理上的錯誤",
        "SKIP_VISITS_REASON_2":"受試者錯過臨床約診。",
        "SKIP_VISITS_REASON_3":"不適用。",
        "SKIP_VISITS_REASON_4":"回診非必須，未進行。",
        "SKIP_VISITS_CANCEL_CONFIRM":"取消略過回診？",
        "SKIP_VISITS_CANCEL_BODY":"如果現在取消，將不會略過該等回診。您確定要取消嗎？",
        "SKIPPED_VISITS":"{{{ skippedVisits }}}",
		"USER_EDITED":"該使用者已更新。",
        "USER_TO_ACTIVATE":"<strong>要啟動的使用者：</strong><br />{{{ getSelectedUsername }}}<br /><br /><strong>簽名者：</strong>{{{ getActiveUserName }}}",
        "TIME_CONFIRMATION_INSTRUCTIONS":"本裝置需要確認您的當地時間。請根據可靠的來源輸入日期和時間。",
        "TIME_ZONE_ERROR_HEADER":"時區錯誤",
        "TIME_ZONE_ERROR_MSG":"取得時區清單時發生錯誤。如需更多幫助，請連絡 ERT 支援中心。",
        "TIME_ZONE_SET_ERROR_MSG":"設定時區時發生錯誤。如需更多幫助，請連絡 ERT 支援中心。",
        "TIME_ZONE_SET_CONFIRM":"您確定要設定時區為{{{selectedTimeZone}}}嗎？<br/>本應用程式可能會重新啟動以套用本次變更。",
        "TIME_ZONE_SET_CONFIRM_NOCHANGE":"您確定要設定時區為{{{selectedTimeZone}}}嗎？",
        "TIME_ZONE_SET_HEADER":"確認時區設定",
        "TRAINER":"訓練者模式",
        "TRAINER_EXIT":"結束訓練者模式",
        "TRAINER_EXIT_NOTIFICATION":"您正在結束訓練者模式",
        "TRAINER_HEADER":"(訓練者)",
		"VISIT_INACTIVE_HEADER":"未啟用的回診。",
        "VISIT_INACTIVE_MESSAGE":"本回診並非為作用中狀態。",
        "VISIT_INACTIVE_MESSAGE_SUBJECT":"本回診並非為作用中狀態。請將裝置交還給適當的研究單位人員。",
        "SITE_ADMINISTRATOR":"研究單位管理員",
        "LOW_BATTERY":"警告：電池處於低電力狀態。請將本裝置插入電源以重新充電。",
        "CRITICAL_BATTERY":"警告：電池處於嚴重低電力狀態。請將本裝置插入電源以重新充電，否則裝置將關機。",
        "TIME_CONFIRMATION_HEADER":"確認日期/時間",
        "TIMESLIP_ERROR":"您裝置上的時間或日期有誤。請移動到有網際網路連線的位置，然後再試一次。如果您持續遇到問題，請洽詢 ERT 客戶服務。",
        "SUPPORT": "客戶支援",
        "SUPPORT_MESSAGE": "美國的使用者可以撥打 800-748-5669 與 ERT 支援中心聯繫。世界各國的使用者請選擇以下最近的國家：",
        "SUPPORT_DROPDOWN": "請選擇您的國家",
        "SUPPORT_NAME_ARGENTINA": "阿根廷",
        "SUPPORT_NUMBER_ARGENTINA": "<bdi>0800 444 0962</bdi>",
        "SUPPORT_NAME_ARMENIA": "亞美尼亞",
        "SUPPORT_NUMBER_ARMENIA": "<bdi>+1 617 681 6306</bdi>",
        "SUPPORT_NAME_AUSTRALIA": "澳洲",
        "SUPPORT_NUMBER_AUSTRALIA": "<bdi>1 800 800 051</bdi>",
        "SUPPORT_NAME_AUSTRIA": "奧地利",
        "SUPPORT_NUMBER_AUSTRIA": "<bdi>0800 100 405</bdi>",
        "SUPPORT_NAME_BELARUS": "白俄羅斯",
        "SUPPORT_NUMBER_BELARUS": "<bdi>8 820 0321 0036</bdi>",
        "SUPPORT_NAME_BELGIUM": "比利時",
        "SUPPORT_NUMBER_BELGIUM_1": "(英語)：<bdi>0800 58 016</bdi>",
        "SUPPORT_NUMBER_BELGIUM_2": "(法語)：<bdi>0800 71 076</bdi>",
        "SUPPORT_NUMBER_BELGIUM_3": "(德語)：<bdi>0800 71 113</bdi>",
        "SUPPORT_NAME_BRAZIL": "巴西",
        "SUPPORT_NUMBER_BRAZIL": "<bdi>0800 891 5909</bdi>",
        "SUPPORT_NAME_BOSNIA": "波士尼亞",
        "SUPPORT_NUMBER_BOSNIA": "<bdi>+1 617 681 6306</bdi>",
        "SUPPORT_NAME_BULGARIA": "保加利亞",
        "SUPPORT_NUMBER_BULGARIA": "<bdi>00800 0010</bdi>，接著撥 <bdi>866 245 4931</bdi>",
        "SUPPORT_NAME_CANADA": "加拿大",
        "SUPPORT_NUMBER_CANADA": "<bdi>1 800 748 5669</bdi>",
        "SUPPORT_NAME_CHILE": "智利",
        "SUPPORT_NUMBER_CHILE": "<bdi>123 0020 3408</bdi>",
        "SUPPORT_NAME_CHINA": "中國",
        "SUPPORT_NUMBER_CHINA_1": "NetCom (北方)：<bdi>1 0800 74 40 164</bdi>",
        "SUPPORT_NUMBER_CHINA_2": "Telecom (南方)：<bdi>1 0800 44 00 158</bdi>",
        "SUPPORT_NAME_COLOMBIA": "哥倫比亞",
        "SUPPORT_NUMBER_COLOMBIA": "<bdi>01 800 911 0010</bdi>，接著撥 <bdi>866 310 3707</bdi>",
        "SUPPORT_NAME_COSTA_RICA": "哥斯大黎加",
        "SUPPORT_NUMBER_COSTA_RICA": "<bdi>0800 013 1210</bdi>",
        "SUPPORT_NAME_CROATIA": "克羅埃西亞",
        "SUPPORT_NUMBER_CROATIA": "<bdi>0800 222 953</bdi>",
        "SUPPORT_NAME_CZECH_REPUBLIC": "捷克",
        "SUPPORT_NUMBER_CZECH_REPUBLIC": "<bdi>800 142 150</bdi>",
        "SUPPORT_NAME_DENMARK": "丹麥",
        "SUPPORT_NUMBER_DENMARK": "<bdi>80 60 00 09</bdi>",
        "SUPPORT_NAME_EGYPT": "埃及",
        "SUPPORT_NUMBER_EGYPT": "<bdi>02 510 0200</bdi>，接著撥 <bdi>866 310 3707</bdi>",
        "SUPPORT_NAME_EL_SALVADOR": "薩爾瓦多",
        "SUPPORT_NUMBER_EL_SALVADOR": "<bdi>+1 617 681 6306</bdi>",
        "SUPPORT_NAME_ESTONIA": "愛沙尼亞",
        "SUPPORT_NUMBER_ESTONIA": "<bdi>800 00 44 154</bdi>",
        "SUPPORT_NAME_FINLAND": "芬蘭",
        "SUPPORT_NUMBER_FINLAND": "<bdi>0800 11 6366</bdi>",
        "SUPPORT_NAME_FRANCE": "法國",
        "SUPPORT_NUMBER_FRANCE": "<bdi>0800 10 19 79</bdi>",
        "SUPPORT_NAME_GERMANY": "德國",
        "SUPPORT_NUMBER_GERMANY": "<bdi>0800 101 28 21</bdi>",
        "SUPPORT_NAME_GREECE": "希臘",
        "SUPPORT_NUMBER_GREECE": "<bdi>00 800 1311</bdi>，接著撥 <bdi>866 310 3707</bdi>",
        "SUPPORT_NAME_GUATEMALA": "瓜地馬拉",
        "SUPPORT_NUMBER_GUATEMALA": "<bdi>1 800 624 0079</bdi>",
        "SUPPORT_NAME_HONG_KONG": "香港",
        "SUPPORT_NUMBER_HONG_KONG": "<bdi>3002 1665</bdi>",
        "SUPPORT_NAME_HUNGARY": "匈牙利",
        "SUPPORT_NUMBER_HUNGARY": "<bdi>06 800 14 571</bdi>",
        "SUPPORT_NAME_ICELAND": "冰島",
        "SUPPORT_NUMBER_ICELAND": "<bdi>800 8544</bdi>",
        "SUPPORT_NAME_INDIA": "印度",
        "SUPPORT_NUMBER_INDIA": "<bdi>000 800 440 1125</bdi>",
        "SUPPORT_NAME_INDONESIA": "印尼",
        "SUPPORT_NUMBER_INDONESIA": "<bdi>008 800 330 334</bdi>",
        "SUPPORT_NAME_IRELAND": "愛爾蘭",
        "SUPPORT_NUMBER_IRELAND": "<bdi>1 800 946 700</bdi>",
        "SUPPORT_NAME_ISRAEL": "以色列",
        "SUPPORT_NUMBER_ISRAEL": "<bdi>1 809 470 062</bdi>",
        "SUPPORT_NAME_ITALY": "義大利",
        "SUPPORT_NUMBER_ITALY": "<bdi>800 90 56 37</bdi>",
        "SUPPORT_NAME_JAPAN": "日本",
        "SUPPORT_NUMBER_JAPAN": "如果要查詢您的試驗免費專線，請參閱您的 ePRO 試驗資訊指南。",
        "SUPPORT_NAME_LATVIA": "拉脫維亞",
        "SUPPORT_NUMBER_LATVIA": "<bdi>8000 2151</bdi>",
        "SUPPORT_NAME_LEBANON": "黎巴嫩",
        "SUPPORT_NUMBER_LEBANON": "<bdi>01-426-801</bdi> 接著撥 <bdi>866 310 3707</bdi>",
        "SUPPORT_NAME_LITHUANIA": "立陶宛",
        "SUPPORT_NUMBER_LITHUANIA": "<bdi>8800 30207</bdi>",
        "SUPPORT_NAME_MALAYSIA": "馬來西亞",
        "SUPPORT_NUMBER_MALAYSIA": "<bdi>1800 80 59 71</bdi>",
        "SUPPORT_NAME_MEXICO": "墨西哥",
        "SUPPORT_NUMBER_MEXICO_1": "(英語)：<bdi>001 800 748 5669</bdi>",
        "SUPPORT_NUMBER_MEXICO_2": "(西班牙語)：<bdi>001 855 631 6952</bdi>",
        "SUPPORT_NAME_MOLDOVA": "摩爾多瓦",
        "SUPPORT_NUMBER_MOLDOVA": "<bdi>617 681 6306</bdi>",
        "SUPPORT_NAME_NETHERLANDS": "荷蘭",
        "SUPPORT_NUMBER_NETHERLANDS": "<bdi>0800 023 1389</bdi>",
        "SUPPORT_NAME_NEW_ZEALAND": "紐西蘭",
        "SUPPORT_NUMBER_NEW_ZEALAND": "<bdi>0800 110 178</bdi>",
        "SUPPORT_NAME_NORWAY": "挪威",
        "SUPPORT_NUMBER_NORWAY": "<bdi>800 62 051</bdi>",
        "SUPPORT_NAME_PAKISTAN": "巴基斯坦",
        "SUPPORT_NUMBER_PAKISTAN": "<bdi>00 800 0100</bdi>，接著撥 <bdi>866 237 9767</bdi>",
        "SUPPORT_NAME_PANAMA": "巴拿馬",
        "SUPPORT_NUMBER_PANAMA": "<bdi>001 800 201 3095</bdi>",
        "SUPPORT_NAME_PERU": "秘魯",
        "SUPPORT_NUMBER_PERU": "<bdi>0800 5 0974</bdi>",
        "SUPPORT_NAME_PHILIPPINES": "菲律賓",
        "SUPPORT_NUMBER_PHILIPPINES": "<bdi>1 800 1116 0651</bdi>",
        "SUPPORT_NAME_POLAND": "波蘭",
        "SUPPORT_NUMBER_POLAND": "<bdi>00800 331 1262</bdi>",
        "SUPPORT_NAME_PORTUGAL": "葡萄牙",
        "SUPPORT_NUMBER_PORTUGAL": "<bdi>800 206 172</bdi>",
        "SUPPORT_NAME_PUERTO_RICO": "波多黎各 (美屬)",
        "SUPPORT_NUMBER_PUERTO_RICO": "<bdi>1 800 748 5669</bdi>",
        "SUPPORT_NAME_ROMANIA": "羅馬尼亞",
        "SUPPORT_NUMBER_ROMANIA": "<bdi>0800 894492</bdi>",
        "SUPPORT_NAME_RUSSIA": "俄羅斯",
        "SUPPORT_NUMBER_RUSSIA_1": "(主要 - 免費)：<bdi>8 10 800 249 13011</bdi>",
        "SUPPORT_NUMBER_RUSSIA_2": "(莫斯科內)：<bdi>363-2400</bdi><br> 接著撥 <bdi>866 310 3707</bdi>",
        "SUPPORT_NUMBER_RUSSIA_3": "(莫斯科外)：<bdi>8^(495) 363-2400</bdi><br> 接著撥 <bdi>866 310 3707</bdi>",
        "SUPPORT_NUMBER_RUSSIA_4": "(聖彼得堡內)：<bdi>363-2400</bdi><br> 接著撥 <bdi>866 310 3707</bdi>",
        "SUPPORT_NUMBER_RUSSIA_5": "(聖彼得堡外)：<bdi>8^(495) 363-2400</bdi><br> 接著撥 <bdi>866 310 3707</bdi>",
        "SUPPORT_NAME_SAUDI_ARABIA": "沙烏地阿拉伯",
        "SUPPORT_NUMBER_SAUDI_ARABIA": "<bdi>+1 617 681 6306</bdi>",
        "SUPPORT_NAME_SERBIA": "塞爾維亞",
        "SUPPORT_NUMBER_SERBIA": "<bdi>+1 617 973 1739</bdi>",
        "SUPPORT_NAME_SINGAPORE": "新加坡",
        "SUPPORT_NUMBER_SINGAPORE": "<bdi>800 616 30 03</bdi>",
        "SUPPORT_NAME_SLOVAKIA": "斯洛伐克",
        "SUPPORT_NUMBER_SLOVAKIA": "<bdi>0800 0044 65</bdi>",
        "SUPPORT_NAME_SLOVENIA": "斯洛維尼亞",
        "SUPPORT_NUMBER_SLOVENIA": "<bdi>+1 617 681 6306</bdi>",
        "SUPPORT_NAME_SOUTH_AFRICA": "南非",
        "SUPPORT_NUMBER_SOUTH_AFRICA": "<bdi>0800 99 5853</bdi>",
        "SUPPORT_NAME_SOUTH_KOREA": "南韓",
        "SUPPORT_NUMBER_SOUTH_KOREA": "<bdi>00308 33 00 08</bdi>",
        "SUPPORT_NAME_SPAIN": "西班牙",
        "SUPPORT_NUMBER_SPAIN": "<bdi>900 90 2541</bdi>",
        "SUPPORT_NAME_SWEDEN": "瑞典",
        "SUPPORT_NUMBER_SWEDEN": "<bdi>020 120 99 69</bdi>",
        "SUPPORT_NAME_SWITZERLAND": "瑞士",
        "SUPPORT_NUMBER_SWITZERLAND_1": "(英語)：<bdi>0800 199 325</bdi>",
        "SUPPORT_NUMBER_SWITZERLAND_2": "(法語)：<bdi>0800 891 183</bdi>",
        "SUPPORT_NUMBER_SWITZERLAND_3": "(德語)：<bdi>0800 891 025</bdi>",
        "SUPPORT_NAME_TAIWAN": "台灣",
        "SUPPORT_NUMBER_TAIWAN": "<bdi>00801 33 33 42</bdi>",
        "SUPPORT_NAME_THAILAND": "泰國",
        "SUPPORT_NUMBER_THAILAND": "<bdi>1 800 33 140 353</bdi>",
        "SUPPORT_NAME_TUNISIA": "突尼西亞",
        "SUPPORT_NUMBER_TUNISIA": "<bdi>+1 617 681 6306</bdi>",
        "SUPPORT_NAME_TURKEY": "土耳其",
        "SUPPORT_NUMBER_TURKEY": "<bdi>00 800 151 1335</bdi>",
        "SUPPORT_NAME_UKRAINE": "烏克蘭",
        "SUPPORT_NUMBER_UKRAINE": "<bdi>0^00 11</bdi>，接著撥 <bdi>866 245 4931</bdi>",
        "SUPPORT_NAME_UAE": "阿拉伯聯合大公國",
        "SUPPORT_NUMBER_UAE": "<bdi>8000-021</bdi>，接著撥 <bdi>866 310 3707</bdi>",
        "SUPPORT_NAME_UK": "英國",
        "SUPPORT_NUMBER_UK": "<bdi>0800 015 0408</bdi>",
        "SUPPORT_NAME_US": "美國",
        "SUPPORT_NUMBER_US_1": "(主要)：<bdi>1 800 748 5669</bdi>",
        "SUPPORT_NUMBER_US_2": "(備用)：<bdi>1 877 748 5669</bdi>",
        "SUPPORT_NAME_VENEZUELA": "委內瑞拉",
        "SUPPORT_NUMBER_VENEZUELA_1": "(英語)：<bdi>0 800 552 6288</bdi><br> 接著撥 <bdi>866 310 3707</bdi>",
        "SUPPORT_NUMBER_VENEZUELA_2": "(西班牙語)：<bdi>0 800 100 3063</bdi>",
        "ABOUT": "關於",
        "CORE_PRODUCT_VERSION_LABEL": "產品版本：",
        "PROTOCOL": "試驗計畫書：",
        "SPONSOR": "委託者：",
        "STORED_REPORTS": "儲存的表單：",
        "STUDY_VERSION": "試驗版本：",
        "STUDY_URL": "試驗 URL：",
        "P_AFFIDAVIT_HEADER":"<div><strong>研究單位：{{{ getSiteCode }}}</strong><br /><strong>病患識別碼：{{{ getPatientIdNumber }}}</strong></div>",
		"SET_TIMEZONE":"設定時區",
		"DEVICE_SERIAL_NUMBER":"裝置序號",
		"NONEXISTENT_USER":"嘗試更新不存在的使用者。",
		"SCREENING" :"篩選",
		"TREATMENT" :"治療",
		"RANDOMIZATION" :"隨機分配",
		"FOLLOWUP" :"後續追蹤",
		"TERMINATION" :"終止",
        "ACCEPT":"我同意",
        "DECLINE":"我拒絕",
		"EULA":"終端使用者授權",
        "EULA_TEXT":"<p><strong><span class=\"text-underline\">重要</span>：閱讀完此協議前，請勿按下同意按鈕。按下同意按鈕，表示您同意此協議的所有規定。若您不同意本協議的所有規定，(1) 請勿按下「我同意」按鈕，(2) 請按一下「我拒絕」按鈕中止安裝及授權程序。</strong></p><p>eResearchTechnology, Inc. (「授權人」) 授予您非專屬、不可移轉的權利，得就參加下列臨床試驗協議，使用此裝置內的 eResearchTechnology, Inc. 軟體 (「軟體」)：<strong>{{{ clinicalTrial }}}</strong>。eResearchTechnology, Inc. 軟體受已獲准之專利及其他申請中專利保護。本協議未授予您任何軟體 (或其任何副本) 的任何所有權，僅授權您依本協議所有規定使用本軟體。本軟體及其所有部分的所有權，以及其附帶的一切專有財產及智慧財產權，不論何時皆屬授權人所有。</p><p>您同意不直接或間接：(i) 對本軟體進行反向工程、拆解或解編譯；(ii) 對本軟體進行複製、散布、製造、改寫、創造衍生作品、翻譯、本地化、移植或以其他方式加以修改；(iii) 刪除或變更本軟體內的著作權聲明、商業機密聲明或其他法律聲明。您承認並同意，軟體內可能包含避免未授權使用的程式碼。</p><br><p>若您同意上述所有規定，請選取「<strong>我同意</strong>」。按一下「我同意」表示您同意授權條款。</p><p>若您不同意上述全部規定，或未獲授權可表示同意，請選取「<strong>我拒絕</strong>」，此情況下將無法進一步存取本軟體。獲得授權後，您可以重新表示同意。</p>",
        "VISIT_EXPIRED_HEADER":"回診已過期。",
        "VISIT_EXPIRED_MESSAGE":"本回診已因為過期所以無法使用。",
        "VISIT_EXPIRED_MESSAGE_SUBJECT":"本回診已因為過期所以無法使用。請將裝置交還給適當的研究單位人員。",
        "SQ-AL":"阿爾巴尼亞語",
        "IMAGE_FOLDER":"{{{ imageFolder }}}",
		"MODAL_OK_TEXT":"確定",
        "BROWSER_LOAD_ERROR":"找不到網頁。請檢查您的網路連線，然後再試一次。",
		"NO_USER_OF_ROLE" :"找不到具備該角色的使用者。",
        "EDIT_PATIENT_REASON_1":"屬性資料更正",
        "EDIT_PATIENT_REASON_2":"識別碼變更",
        "EDIT_PATIENT_REASON_3":"選擇的語言不正確",
		"START_VISIT_OUTSIDE_WINDOW_MSG":"在下列設定時間範圍外進入{{{ getVisitName }}}：{{{ startDate }}} - {{{ endDate }}}",
		"START_VISIT_HARD_STOP_MSG" :"您無法在下列設定時間範圍外進入{{{ getVisitName }}}：{{{ startDate }}} - {{{ endDate }}}",
		"USER_NAME_INVALID_CHARACTERS" :"請勿使用特殊字元",
		"ERROR_PATIENT_SAVE" :"新增該位新病患時發生錯誤",
		"PASSWORD_CHANGE_FAILED" :"已啟動其他裝置來收集您的試驗資料。請在該裝置上變更您的密碼。",
		"ERROR" :"錯誤。請連絡 ERT 研究支援中心。",
		"ERROR_AFTER_ACTIVATION_SUCCESSFUL" :"發生錯誤。您將需要輸入您的設定碼與密碼。",
		"CONNECTION_TIMEOUT" :"連線逾時。",
		"UPDATE_FAILED" :"並未完成 ERT 更新。請確定裝置已連線到網際網路，並再試一次。",
        "QR_CODE_UNAVAILABLE":"按一下病患以更新 QR 碼。",
        "QR_MODAL_TITLE":"下列病患的 QR 碼：",
        "TRANSMIT_FAILED_403_14":"建立病患未完成，導致一次或多次傳輸失敗。請稍候並再試一次。",
        "CONSOLE_LOG":"主控台記錄",
		"USER_SELECT_ROLE_VALIDATION":"需要選取角色。",
        "USER_SELECT_LANGUAGE_VALIDATION":"需要選取語言。"
    },
    "dates": {
        "setDateButtonLabel": "設定日期",
        "setTimeButtonLabel": "確定",
        "setDurationButtonLabel": "設定期間",
        "calTodayButtonLabel": "跳到今日",
        "titleDateDialogLabel": "設定日期",
        "titleTimeDialogLabel": "設定時間",
        "daysOfWeek": [
            "星期日",
            "星期一",
            "星期二",
            "星期三",
            "星期四",
            "星期五",
            "星期六"
        ],
        "daysOfWeekShort": [
            "週日",
            "週一",
            "週二",
            "週三",
            "週四",
            "週五",
            "週六"
        ],
        "monthsOfYear": [
            "1 月",
            "2 月",
            "3 月",
            "4 月",
            "5 月",
            "6 月",
            "7 月",
            "8 月",
            "9 月",
            "10 月",
            "11 月",
            "12 月"
        ],
        "monthsOfYearShort": [
            "1 月",
            "2 月",
            "3 月",
            "4 月",
            "5 月",
            "6 月",
            "7 月",
            "8 月",
            "9 月",
            "10 月",
            "11 月",
            "12 月"
        ],
        "durationLabel": [
            "日",
            "時",
            "分",
            "秒"
        ],
        "durationDays": [
            "日",
            "日"
        ],
        "tooltip": "開啟日期選擇器",
        "nextMonth": "下一月份",
        "prevMonth": "上一月份",
        "clearButton": "清除",
        "meridiem": [
            "上午",
            "下午"
        ]
    }
}
