{
    "namespace" : "P_Toss_Diary",
    "language"  : "fr",
    "locale"    : "FR",
    "direction" : "ltr",
    "resources" : {
        "DISPLAY_NAME"      : "FR - TOSS",
        "HELP_TEXT"         : "FR - Please <strong>indicate</strong> which symptoms you've experineced in the last 24 hours. If none, select \"None\".",
        "QUESTION_0"        : "FR - Which of the following symptoms have you experienced in the last 24 hours?",
        "QUESTION_1"        : "FR - In the past 24 hours, how would you rate your <strong>ITCHY EYES</strong> symptoms?",
        "QUESTION_2"        : "FR - In the past 24 hours, how would you rate your <strong>TEARING EYES</strong> symptoms?",
        "QUESTION_3"        : "FR - In the past 24 hours, how would you rate your <strong>RED EYES</strong> symptoms?",
        "QUESTION_4"        : "FR - In the past 24 hours, how would you rate your <strong>SNEEZING</strong> symptoms?",
        "QUESTION_5"        : "FR - In the past 24 hours, how would you rate your <strong>ITCHY NOSE</strong> symptoms?",
        "QUESTION_6"        : "FR - In the past 24 hours, how would you rate your <strong>RUNNY NOSE</strong> symptoms?",
        "QUESTION_7"        : "FR - In the past 24 hours, how would you rate your <strong>BLOCKED NOSE</strong> symptoms?",
        "ITCHY_EYES"        : "FR - Itchy Eyes",
        "TEARING_EYES"      : "FR - Tearing Eyes",
        "RED_EYES"          : "FR - Red Eyes",
        "SNEEZING"          : "FR - Sneezing",
        "ITCHY_NOSE"        : "FR - Itchy Nose",
        "RUNNY_NOSE"        : "FR - Runny Nose",
        "BLOCKED_NOSE"      : "FR - Blocked Nose",
        "NONE"              : "FR - None",
        "ABSENT"            : "FR - Absent",
        "MILD_SYMPTOMS"     : "FR - Mild",
        "MODERATE_SYMPTOMS" : "FR - Moderate",
        "SEVERE_SYMPTOMS"   : "FR - Severe"
    }
}
