{
    "namespace": "CORE",
    "language": "fi",
    "locale": "FI",
    "localized": "Suomi (Suomi)",
    "direction": "ltr",
    "resources": {
        "ABOUT": "Tietoa",
        "ACTIVATED_ELSEWHERE": "Toinen laite on jo aktivoitu tutkimustietojesi keruuta varten. Jos uskot tämän johtuvan erehdyksestä, ota yhteys tutkimuskoordinaattoriin.",
        "ACTIVATION_CODE": "Asetuskoodi:",
        "AFFIDAVIT": "Valitse OK ja kun olet valmis tallentamaan vastauksesi, Seuraava.",
        "AFFIDAVIT_HELP": "Kiitos. Olet antanut kaikki tarvittavat tiedot. Voit tarkistaa ja korjata vastauksia valitsemalla Takaisin.",
        "ANSWER_ATTEMPT_EXCEEDED": "Olet antanut virheellisen vastauksen liian monta kertaa tai napsauttanut unohtuiko suojausvastaus ‑linkkiä.",
        "APPLICATION_HEADER": "{{{ appHeader }}}",
        "BACK": "Takaisin",
        "BACK_OUT_CONFIRM": "Haluatko varmasti poistua? Jos poistut, tähän lomakkeeseen antamasi vastaukset häviävät.",
        "CANCEL": "Peruuta",
        "CANCEL_UPDATE": "Peruuta päivitys",
        "CHANGE_PASSWORD": "Vaihda salasana",
        "CHANGE_SECRET_QUESTION": "Vaihda suojauskysymys",
        "CODE_ENTRY_NO_SERVER": "Palvelin ei ole käytettävissä",
        "CONNECTION_REQUIRED": "Tarvitset internet-yhteyden.",
        "CONNECTION_TIMEOUT": "Yhteyden aikakatkaisu.",
        "CONFIRM_PASSWORD": "Vahvista salasana:",
        "CONTACT_STUDY_COORDINATOR": "Ota yhteys tutkimuskoordinaattoriin",
        "CONTACT_UNLOCK_CODE": "Pyydä tämänpäiväinen avainkoodi tutkimuskoordinaattorilta:",
        "CORE_PRODUCT_VERSION_LABEL": "Tuoteversio:",
        "CURRENT_DATE": "{{{ currentDate }}}",
        "CURRENT_PASSWORD": "Nykyinen salasana:",
        "DATE_LBL": "Päiväys:",
        "DEACTIVATED_LABEL": "ERT käyttösi tätä tutkimusta varten on päättynyt. Jos näin ei ole, ota yhteys tutkimuskoordinaattoriin.",
        "DEVICE_ACTIVATION": "Asetukset",
        "DEVICE_NOT_SUPPORTED": "Tätä laitemallia ei tueta. Kysy tutkimuskoordinaattorilta, mitkä laitteet tutkimuskäyttöön on hyväksytty.",
        "DEVICE_REACTIVATION": "Laitteen asetukset",
        "DIARY_TIMEOUT": "Tämä lomake on aikakatkaistu.",
        "DOWNLOAD_FAILED": "Sovelluksen lataus keskeytyi. Yritä uudelleen, kun internet-yhteys toimii, tai ota yhteys ERT:n tukikeskukseen.",
        "DOWNLOAD_FAILURE": "Lataus keskeytyi",
        "ENTER_NEW_PASSWORD": "Uusi salasana:",
        "ERROR": "Virhe.  Ota yhteys ERT:n tukikeskukseen.",
        "ERROR_AFTER_ACTIVATION_SUCCESSFUL": "Tapahtui virhe. Sinun on annettava asetuskoodi ja salasana.",
        "ERROR_CODE": "Virhekoodi:",
        "ERROR_TITLE": "Virhe",
        "FORGOT_PASSWORD": "Unohtuiko salasana?",
        "FORGOT_SECRET_ANSWER": "Unohtuiko suojausvastaus?",
        "INCORRECT_ANSWER": "Väärä vastaus",
        "INCORRECT_UNLOCK_CODE": "Väärä avainkoodi",
        "INSTALLING": "Sovellusta asennetaan",
        "INVALID_CODE": "Väärä asetuskoodi",
        "LOCAL_STORAGE_FAILURE": "Paikallinen tallennusvirhe",
        "LOG_IN": "Kirjaudu sisään",
        "LOG_LEVEL": "Lokitaso:",
        "LOGOUT": "Kirjaudu ulos",
        "LOGOUT_CONFIRM": "Haluatko varmasti kirjautua ulos?",
        "NEXT": "Seuraava",
        "NEXT_ACTION": " On seuraavan ERT -kirjauksen aika ",
        "NO_DIARIES_TITLE": "Ei kirjattavia raportteja",
        "OK": "OK",
        "PASSWORD": "Salasana:",
        "PASSWORD_ATTEMPT_EXCEEDED": "Olet antanut virheellisen salasanan liian monta kertaa tai napsauttanut unohtuiko salasana ‑linkkiä.",
        "PASSWORD_CHANGE_FAILED": "Toinen laite on jo aktivoitu tutkimustietojesi keruuta varten. Vaihda salasana tuolla laitteella.",
        "PASSWORD_CHANGE_SUCCESS": "Salasanan vaihto onnistui.",
        "PASSWORD_INVALID": "Väärä salasana",
        "PLEASE_ANSWER_SQ": "Vastaa suojauskysymykseen:",
        "PLEASE_CONFIRM": "Vahvista",
        "PLEASE_CONTACT": "Ota yhteys ERT:n tukikeskukseen.",
        "PLEASE_TRY_OR_CONTACT_SUPPORT": "Yritä uudelleen tai ota yhteys ERT:n tukikeskukseen.",
        "PLEASE_WAIT": "Odota hetki...",
        "PORTRAIT_ONLY": "Pidä laitetta pystyasennossa.",
        "PRIVATE_BROWSING_ON": "Kytke pois selauksen yksityinen tila. Jos ongelma ei ratkea, ota yhteys tutkimuskoordinaattoriin.",
        "PRIVACY_POLICY": "Tietosuojatiedot",
        "PRIVACY_POLICY_APPLICATION_UNAVAILABILITY": "ERT:n tietosuojatiedot ovat tilapäisesti pois käytöstä.",
        "PRIVACY_POLICY_ACTIVATION_UNAVAILABILITY": "ERT:n tietosuojatiedot ovat tilapäisesti pois käytöstä. ERT:n tietosuojatiedot löytyvät aktivoinnin jälkeen Asetukset-sivulta.",
        "PROTOCOL": "Tutkimussuunnitelma:",
        "REQUIRED_ANSWER": "Anna vastauksesi",
        "RETRY": "Yritä uudelleen",
        "RESET_PASSWORD": "Vaihda salasana",
        "RESET_SECRET_QUESTION": "Vaihda suojauskysymys",
        "SECRET_ANSWER": "Suojausvastaus:",
        "SECRET_QUESTION": "Suojauskysymys:",
        "SECRET_QUESTION_CHANGE_FAILED": "Toinen laite on jo aktivoitu tutkimustietojesi keruuta varten. Vaihda suojauskysymys tuolla laitteella.",
        "SECRET_QUESTION_CHANGE_SUCCESS": "Salasanan ja suojauskysymyksen vaihto onnistui.",
        "SETTINGS": "Asetukset",
        "SITE": "Tutkimuspaikka:",
        "SKIP_QUESTION": "Haluatko varmasti ohittaa tämän sivun vastaukset?",
        "SPONSOR": "Toimeksiantaja:",
        "STORED_REPORTS": "Tallennetut lomakkeet:",
        "STUDY_VERSION": "Tutkimusversio: ",
        "STUDY_URL": "Tutkimuksen URL:",
        "SUBJECT_ID": "Potilaskoodi:",
        "TEMPORARY_UNLOCK_CODE": "syötä tutkimuskoordinaattorin antama avainkoodi.",
        "TRANSMIT_REPORTS": "Päivitys",
        "UPDATE_CACHED_DELETED": "ERT ei päivittynyt. Tarvitset internet-yhteyden voidaksesi käyttää ERT. Ota yhteys ERT:n tukikeskukseen.",
        "UPDATE_FAILED": "ERT ei päivittynyt. Varmista, että internet-yhteys on käytössä, ja yritä uudelleen.",
        "UPDATE_FAILURE": "Päivitys kesken",
        "UPDATE_SUCCESS": "Päivitys onnistui",
        "WELCOME": "Tervetuloa",
        "ALARM_OFF_LBL": "Pois",
        "ALARM_TURN_OFF": "Sammuta",
        "SET_ALARMS": "Aseta hälytys",
        "SCHED_NO_DIARIES_AVAILABLE": "Raporttien määräaikoja ei juuri nyt ole",
        "TRAINER": "Harjoittelutila",
        "TRAINER_EXIT": "Poistu harjoittelutilasta",
        "TRAINER_EXIT_NOTIFICATION": "Olet poistumassa harjoittelutilasta",
        "TRAINER_HEADER": "(Harjoitus)",
        "ELPU_FAILURE": "Tämän ERT-laitteen käyttö on päättynyt kohdaltasi, mutta virhe on tapahtunut. Yritä uudelleen.",
        "ELPU_ON_REPLACED_DEVICE": "Tämän ERT-laitteen käyttö on päättynyt kohdaltasi. Käytä varalaitettasi.",
        "SECURITY_QUESTION_0": "Mikä on äitisi tyttönimi?",
        "SECURITY_QUESTION_1": "Missä kaupungissa olet syntynyt?",
        "SECURITY_QUESTION_2": "Mikä oli ensimmäisen lemmikkisi nimi?",
        "SECURITY_QUESTION_3": "Mikä on suosikkiurheilulajisi?",
        "SECURITY_QUESTION_4": "Minä vuonna valmistuit?",
        "SECURITY_QUESTION_5": "Mikä on vanhimman lapsesi keskimmäinen nimi?",
        "SECURITY_QUESTION_6": "Mikä on parhaan lapsuudenystäväsi nimi?",
        "SECURITY_QUESTION_7": "Mikä oli kolmannen luokan opettajasi sukunimi?",
        "SECURITY_QUESTION_8": "Missä kaupungissa oli ensimmäinen työpaikkasi?",
        "SELECT_SITE_USER": "Valitse tutkimuspaikan käyttäjän nimi",
        "SITE_USER_NAME": "Tutkimuspaikan käyttäjänimi:",
        "ADD_SITE_USER": "Lisää tutkimuspaikan käyttäjä",
        "INVALID_ENTRY": "Virheellinen arvo",
        "HANDOFF_MESSAGE": "<strong>Potilaan on täytettävä tiedot seuraavissa näytöissä, jotta he saavat lomakkeen pääsykoodinsa.</strong>",
        "REVERSE_HANDOFF_CONFIRM": "Jos valitset OK, aktivointiprosessi alkaa uudelleen. Haluatko varmasti aloittaa aktivoinnin uudelleen?",
        "SITE_GATEWAY_TITLE": "Tutkimuspaikan yhdyskäytävä",
        "USER_ALREADY_EXISTS": "Käyttäjä on jo olemassa",
        "SITE_SIGNATURE": "Allekirjoitus: ",
        "SITE_REPORT_AFF": "Olen antanut, tarkastanut ja täten vahvistan edellä olevat tiedot.<br /><br /><strong>Allekirjoitus:</strong> {{{ getActiveUserName }}}",
        "PATIENT_REPORT_AFF": "Olen antanut, tarkastanut ja täten vahvistan edellä olevat tiedot.<br /><br /><strong>Nimikirjaimet:</strong> {{{ getActiveUserName }}}",
        "CLEAR_SIGNATURE": "Tyhjennä allekirjoitus",
        "STUDY_ALIAS": "{{{ studyAlias }}}",
        "SITE_ACTIVATED_ELSEWHERE": "Toinen laite on jo aktivoitu potilaan tutkimustietojen keruuta varten. Jos uskot tämän johtuvan erehdyksestä, ota yhteys tutkimuskoordinaattoriin.",
        "SITE_DEACTIVATED_LABEL": "Potilaan ERT -sovelluksen käyttö tätä tutkimusta varten on päättynyt. Jos näin ei ole, ota yhteys tutkimuskoordinaattoriin.",
        "SIGNATURE_DATA_LIMIT_EXCEEDED": "Allekirjoitusruutu ei pystynyt esittämään allekirjoitustasi täsmälleen kirjoittamassasi muodossa. Anna allekirjoitukseksi sen sijaan nimikirjaimesi.",
        "PAIRED": "Paritettu",
        "BLUETOOTH_REG_TITLE": "eSense-laitteen laiteparin muodostus",
        "BLUETOOTH_REG_REFRESH_BUTTON": "Päivitä lista",
        "BLUETOOTH_PAIR_DEVICE": "Muodosta laiteparin valitun laitteen kanssa",
        "BLUETOOTH_PAIRING_FAILED": "Laiteparin muodostus valitun laitteen kanssa epäonnistui. Yritä uudelleen.",
        "BLUETOOTH_PAIRING_SUCCESS": "Laiteparin muodostus valitun laitteen kanssa onnistui.",
        "BLUETOOTH_REG_NO_DEVICES_FOUND": "Laitteita ei löytynyt. Varmista, että laite on ERTin lähellä ja lähetystilassa.",
        "SYNC_FAILED": "Synkronointi palvelimen kanssa epäonnistui.",
        "DIARY_REQUIRES_E_SENSE_SUPPORT": "eSenseä ei tueta. Tämä lomake edellyttää eSense-tukea.",
        "ERROR_E_SENSE_ENABLE": "eSenseä ei voitu ottaa käyttöön.",
        "E_SENSE_NOT_PAIRED": "Mitään eSense-laitetta ei ole muodostettu laitepariksi. Tämä lomake edellyttää laitepariksi liitettyä eSense-laitetta.",
        "BLUETOOTH_SYNC_FAILURE_TOP": "ERT ei voinut muodostaa yhteyttä {{{ eSenseDeviceName }}} -laitteeseen.",
        "BLUETOOTH_SYNC_FAILURE_MIDDLE": "Varmista, että {{{ eSenseDeviceName }}} -laite, jonka numero on {{{ eSenseSerialNumber }}}, on ERTin lähellä ja lähetystilassa.",
        "PLUGIN_MISSING": "Vaadittua laajennusta ei voitu ladata.",
        "WRAPPER_VERSION": "Kääreen versio:",
        "SUPPORT": "Asiakastuki",
        "SUPPORT_MESSAGE": "Yhdysvalloissa olevat käyttäjät voivat ottaa yhteyden ERT-tukikeskukseen soittamalla numeroon 800-748-5669. Kansainväliset käyttäjät voivat valita lähimmän maansa yhteystiedot alta:",
        "SUPPORT_DROPDOWN": "Valitse maasi",
        "SUPPORT_NAME_ARGENTINA": "Argentiina",
        "SUPPORT_NUMBER_ARGENTINA": "<bdi>0800 444 0962</bdi>",
        "SUPPORT_NAME_ARMENIA": "Armenia",
        "SUPPORT_NUMBER_ARMENIA": "<bdi>+1 617 681 6306</bdi>",
        "SUPPORT_NAME_AUSTRALIA": "Australia",
        "SUPPORT_NUMBER_AUSTRALIA": "<bdi>1 800 800 051</bdi>",
        "SUPPORT_NAME_AUSTRIA": "Itävalta",
        "SUPPORT_NUMBER_AUSTRIA": "<bdi>0800 100 405</bdi>",
        "SUPPORT_NAME_BELARUS": "Valkovenäjä",
        "SUPPORT_NUMBER_BELARUS": "<bdi>8 820 0321 0036</bdi>",
        "SUPPORT_NAME_BELGIUM": "Belgia",
        "SUPPORT_NUMBER_BELGIUM_1": "(englanninkielinen): <bdi>0800 58 016</bdi>",
        "SUPPORT_NUMBER_BELGIUM_2": "(ranskankielinen): <bdi>0800 71 076</bdi>",
        "SUPPORT_NUMBER_BELGIUM_3": "(saksankielinen): <bdi>0800 71 113</bdi>",
        "SUPPORT_NAME_BRAZIL": "Brasilia",
        "SUPPORT_NUMBER_BRAZIL": "<bdi>0800 891 5909</bdi>",
        "SUPPORT_NAME_BOSNIA": "Bosnia",
        "SUPPORT_NUMBER_BOSNIA": "<bdi>+1 617 681 6306</bdi>",
        "SUPPORT_NAME_BULGARIA": "Bulgaria",
        "SUPPORT_NUMBER_BULGARIA": "<bdi>00800 0010</bdi>, sitten <bdi>866 245 4931</bdi>",
        "SUPPORT_NAME_CANADA": "Kanada",
        "SUPPORT_NUMBER_CANADA": "<bdi>1 800 748 5669</bdi>",
        "SUPPORT_NAME_CHILE": "Chile",
        "SUPPORT_NUMBER_CHILE": "<bdi>123 0020 3408</bdi>",
        "SUPPORT_NAME_CHINA": "Kiina",
        "SUPPORT_NUMBER_CHINA_1": "NetCom (pohjoinen): <bdi>1 0800 74 40 164</bdi>",
        "SUPPORT_NUMBER_CHINA_2": "Telecom (etelä): <bdi>1 0800 44 00 158</bdi>",
        "SUPPORT_NAME_COLOMBIA": "Kolumbia",
        "SUPPORT_NUMBER_COLOMBIA": "<bdi>01 800 911 0010</bdi>, sitten <bdi>866 310 3707</bdi>",
        "SUPPORT_NAME_COSTA_RICA": "Costa Rica",
        "SUPPORT_NUMBER_COSTA_RICA": "<bdi>0800 013 1210</bdi>",
        "SUPPORT_NAME_CROATIA": "Kroatia",
        "SUPPORT_NUMBER_CROATIA": "<bdi>0800 222 953</bdi>",
        "SUPPORT_NAME_CZECH_REPUBLIC": "Tšekin tasavalta",
        "SUPPORT_NUMBER_CZECH_REPUBLIC": "<bdi>800 142 150</bdi>",
        "SUPPORT_NAME_DENMARK": "Tanska",
        "SUPPORT_NUMBER_DENMARK": "<bdi>80 60 00 09</bdi>",
        "SUPPORT_NAME_EGYPT": "Egypti",
        "SUPPORT_NUMBER_EGYPT": "<bdi>02 510 0200</bdi>, sitten <bdi>866 310 3707</bdi>",
        "SUPPORT_NAME_EL_SALVADOR": "El Salvador",
        "SUPPORT_NUMBER_EL_SALVADOR": "<bdi>+1 617 681 6306</bdi>",
        "SUPPORT_NAME_ESTONIA": "Viro",
        "SUPPORT_NUMBER_ESTONIA": "<bdi>800 00 44 154</bdi>",
        "SUPPORT_NAME_FINLAND": "Suomi",
        "SUPPORT_NUMBER_FINLAND": "<bdi>0800 11 6366</bdi>",
        "SUPPORT_NAME_FRANCE": "Ranska",
        "SUPPORT_NUMBER_FRANCE": "<bdi>0800 10 19 79</bdi>",
        "SUPPORT_NAME_GERMANY": "Saksa",
        "SUPPORT_NUMBER_GERMANY": "<bdi>0800 101 28 21</bdi>",
        "SUPPORT_NAME_GREECE": "Kreikka",
        "SUPPORT_NUMBER_GREECE": "<bdi>00 800 1311</bdi>, sitten <bdi>866 310 3707</bdi>",
        "SUPPORT_NAME_GUATEMALA": "Guatemala",
        "SUPPORT_NUMBER_GUATEMALA": "<bdi>1 800 624 0079</bdi>",
        "SUPPORT_NAME_HONG_KONG": "Hongkong",
        "SUPPORT_NUMBER_HONG_KONG": "<bdi>3002 1665</bdi>",
        "SUPPORT_NAME_HUNGARY": "Unkari",
        "SUPPORT_NUMBER_HUNGARY": "<bdi>06 800 14 571</bdi>",
        "SUPPORT_NAME_ICELAND": "Islanti",
        "SUPPORT_NUMBER_ICELAND": "<bdi>800 8544</bdi>",
        "SUPPORT_NAME_INDIA": "Intia",
        "SUPPORT_NUMBER_INDIA": "<bdi>000 800 440 1125</bdi>",
        "SUPPORT_NAME_INDONESIA": "Indonesia",
        "SUPPORT_NUMBER_INDONESIA": "<bdi>008 800 330 334</bdi>",
        "SUPPORT_NAME_IRELAND": "Irlanti",
        "SUPPORT_NUMBER_IRELAND": "<bdi>1 800 946 700</bdi>",
        "SUPPORT_NAME_ISRAEL": "Israel",
        "SUPPORT_NUMBER_ISRAEL": "<bdi>1 809 470 062</bdi>",
        "SUPPORT_NAME_ITALY": "Italia",
        "SUPPORT_NUMBER_ITALY": "<bdi>800 90 56 37</bdi>",
        "SUPPORT_NAME_JAPAN": "Japani",
        "SUPPORT_NUMBER_JAPAN": "Tarkista tutkimuksesi maksuton numero ePRO-tutkimusoppaasta.",
        "SUPPORT_NAME_LATVIA": "Latvia",
        "SUPPORT_NUMBER_LATVIA": "<bdi>8000 2151</bdi>",
        "SUPPORT_NAME_LEBANON": "Libanon",
        "SUPPORT_NUMBER_LEBANON": "<bdi>01-426-801</bdi>, sitten <bdi>866 310 3707</bdi>",
        "SUPPORT_NAME_LITHUANIA": "Liettua",
        "SUPPORT_NUMBER_LITHUANIA": "<bdi>8800 30207</bdi>",
        "SUPPORT_NAME_MALAYSIA": "Malesia",
        "SUPPORT_NUMBER_MALAYSIA": "<bdi>1800 80 59 71</bdi>",
        "SUPPORT_NAME_MEXICO": "Meksiko",
        "SUPPORT_NUMBER_MEXICO_1": "(englanninkielinen): <bdi>001 800 748 5669</bdi> ",
        "SUPPORT_NUMBER_MEXICO_2": "(espanjankielinen): <bdi>001 855 631 6952</bdi>",
        "SUPPORT_NAME_MOLDOVA": "Moldova",
        "SUPPORT_NUMBER_MOLDOVA": "<bdi>617 681 6306</bdi>",
        "SUPPORT_NAME_NETHERLANDS": "Alankomaat",
        "SUPPORT_NUMBER_NETHERLANDS": "<bdi>0800 023 1389</bdi>",
        "SUPPORT_NAME_NEW_ZEALAND": "Uusi-Seelanti",
        "SUPPORT_NUMBER_NEW_ZEALAND": "<bdi>0800 110 178</bdi>",
        "SUPPORT_NAME_NORWAY": "Norja",
        "SUPPORT_NUMBER_NORWAY": "<bdi>800 62 051</bdi>",
        "SUPPORT_NAME_PAKISTAN": "Pakistan",
        "SUPPORT_NUMBER_PAKISTAN": "<bdi>00 800 0100</bdi>, sitten <bdi>866 237 9767</bdi>",
        "SUPPORT_NAME_PANAMA": "Panama",
        "SUPPORT_NUMBER_PANAMA": "<bdi>001 800 201 3095</bdi>",
        "SUPPORT_NAME_PERU": "Peru",
        "SUPPORT_NUMBER_PERU": "<bdi>0800 5 0974</bdi>",
        "SUPPORT_NAME_PHILIPPINES": "Filippiinit",
        "SUPPORT_NUMBER_PHILIPPINES": "<bdi>1 800 1116 0651</bdi>",
        "SUPPORT_NAME_POLAND": "Puola",
        "SUPPORT_NUMBER_POLAND": "<bdi>00800 331 1262</bdi>",
        "SUPPORT_NAME_PORTUGAL": "Portugali",
        "SUPPORT_NUMBER_PORTUGAL": "<bdi>800 206 172</bdi>",
        "SUPPORT_NAME_PUERTO_RICO": "Puerto Rico (Yhdysvaltain territorio)",
        "SUPPORT_NUMBER_PUERTO_RICO": "<bdi>1 800 748 5669</bdi>",
        "SUPPORT_NAME_ROMANIA": "Romania",
        "SUPPORT_NUMBER_ROMANIA": "<bdi>0800 894492</bdi>",
        "SUPPORT_NAME_RUSSIA": "Venäjä",
        "SUPPORT_NUMBER_RUSSIA_1": "(ensisijainen – maksuton): <bdi>8 10 800 249 13011</bdi>",
        "SUPPORT_NUMBER_RUSSIA_2": "(Moskovassa): <bdi>363-2400</bdi> <br> sitten <bdi>866 310 3707</bdi>",
        "SUPPORT_NUMBER_RUSSIA_3": "(Moskovan ulkopuolella): <bdi>8^(495) 363-2400</bdi> <br> sitten <bdi>866 310 3707</bdi>",
        "SUPPORT_NUMBER_RUSSIA_4": "(Pietarissa): <bdi>363-2400</bdi> <br> sitten <bdi>866 310 3707</bdi>",
        "SUPPORT_NUMBER_RUSSIA_5": "(Pietarin ulkopuolella): <bdi>8^(495) 363-2400</bdi> <br> sitten <bdi>866 310 3707</bdi>",
        "SUPPORT_NAME_SAUDI_ARABIA": "Saudi-Arabia",
        "SUPPORT_NUMBER_SAUDI_ARABIA": "<bdi>+1 617 681 6306</bdi>",
        "SUPPORT_NAME_SERBIA": "Serbia",
        "SUPPORT_NUMBER_SERBIA": "<bdi>+1 617 973 1739</bdi>",
        "SUPPORT_NAME_SINGAPORE": "Singapore",
        "SUPPORT_NUMBER_SINGAPORE": "<bdi>800 616 30 03</bdi>",
        "SUPPORT_NAME_SLOVAKIA": "Slovakia",
        "SUPPORT_NUMBER_SLOVAKIA": "<bdi>0800 0044 65</bdi>",
        "SUPPORT_NAME_SLOVENIA": "Slovenia",
        "SUPPORT_NUMBER_SLOVENIA": "<bdi>+1 617 681 6306</bdi>",
        "SUPPORT_NAME_SOUTH_AFRICA": "Etelä-Afrikka",
        "SUPPORT_NUMBER_SOUTH_AFRICA": "<bdi>0800 99 5853</bdi>",
        "SUPPORT_NAME_SOUTH_KOREA": "Etelä-Korea",
        "SUPPORT_NUMBER_SOUTH_KOREA": "<bdi>00308 33 00 08</bdi>",
        "SUPPORT_NAME_SPAIN": "Espanja",
        "SUPPORT_NUMBER_SPAIN": "<bdi>900 90 2541</bdi>",
        "SUPPORT_NAME_SWEDEN": "Ruotsi",
        "SUPPORT_NUMBER_SWEDEN": "<bdi>020 120 99 69</bdi>",
        "SUPPORT_NAME_SWITZERLAND": "Sveitsi",
        "SUPPORT_NUMBER_SWITZERLAND_1": "(englanninkielinen): <bdi>0800 199 325</bdi>",
        "SUPPORT_NUMBER_SWITZERLAND_2": "(ranskankielinen): <bdi>0800 891 183</bdi>",
        "SUPPORT_NUMBER_SWITZERLAND_3": "(saksankielinen): <bdi>0800 891 025</bdi>",
        "SUPPORT_NAME_TAIWAN": "Taiwan",
        "SUPPORT_NUMBER_TAIWAN": "<bdi>00801 33 33 42</bdi>",
        "SUPPORT_NAME_THAILAND": "Thaimaa",
        "SUPPORT_NUMBER_THAILAND": "<bdi>1 800 33 140 353</bdi>",
        "SUPPORT_NAME_TUNISIA": "Tunisia",
        "SUPPORT_NUMBER_TUNISIA": "<bdi>+1 617 681 6306</bdi>",
        "SUPPORT_NAME_TURKEY": "Turkki",
        "SUPPORT_NUMBER_TURKEY": "<bdi>00 800 151 1335</bdi>",
        "SUPPORT_NAME_UKRAINE": "Ukraina",
        "SUPPORT_NUMBER_UKRAINE": "<bdi>0^00 11</bdi>, sitten <bdi>866 245 4931</bdi>",
        "SUPPORT_NAME_UAE": "Arabiemiirikunnat",
        "SUPPORT_NUMBER_UAE": "<bdi>8000-021</bdi>, sitten <bdi>866 310 3707</bdi>",
        "SUPPORT_NAME_UK": "Yhdistynyt kuningaskunta",
        "SUPPORT_NUMBER_UK": "<bdi>0800 015 0408</bdi>",
        "SUPPORT_NAME_US": "Yhdysvallat",
        "SUPPORT_NUMBER_US_1": "(pää): <bdi>1 800 748 5669</bdi>",
        "SUPPORT_NUMBER_US_2": "(vara): <bdi>1 877 748 5669</bdi>",
        "SUPPORT_NAME_VENEZUELA": "Venezuela",
        "SUPPORT_NUMBER_VENEZUELA_1": "(englanninkielinen): <bdi>0 800 552 6288</bdi> <br>, sitten <bdi>866 310 3707</bdi> ",
        "SUPPORT_NUMBER_VENEZUELA_2": "(espanjankielinen): <bdi>0 800 100 3063</bdi> ",
        "USER_NAME": "Käyttäjänimi:",
        "SUBJECT_ROLE": "Potilaskoodi: {{{ getParticipantCode }}}",
        "SITE_ROLE": "Tutkimuspaikka",
        "TEMPORARY_PASSWORD_MESSAGE": "Anna uudelle käyttäjälle väliaikainen salasana. Häntä pyydetään luomaan uusi salasana, kun hän kirjautuu sisään.",
        "SHARED_PASSWORD_MESSAGE": "Uuden käyttäjän salasana on haettava StudyWorks -järjestelmästä.",
        "TEMP_PASSWORD": "Väliaikainen salasana: ",
        "ROLES": "Rooli:",
        "LANGUAGE": "Kieli:",
        "FULL_NAME": "Koko nimi:",
        "CONFIRM_TEMP_PASS": "Vahvista väliaikainen salasana:",
        "PASSWORD_MISMATCH": "Salasanan vahvistus ei vastaa salasanaa.",
        "PASSWORD_INVALID_CHARACTERS": "Käytä vain numeroita",
        "USER_NAME_INVALID_CHARACTERS": "Älä käytä erikoismerkkejä",
        "USER_NAME_MORE_THAN_25": "Käytä enintään 25 merkkiä",
        "PRIVACY_POLICY_VERSION_LABEL": "Versio: ",
        "PRIVACY_POLICY_VERSION": "1.6.0",
        "PRIVACY_POLICY_LAST_UPDATED_LABEL": "Viimeksi päivitetty: ",
        "PRIVACY_POLICY_LAST_UPDATED": "21 Jan 2014",
        "PRIVACY_POLICY_TEXT_LABEL": "Tietosuojatiedot: ",
        "PRIVACY_POLICY_TEXT": "Asennettavan sovelluksen tarjoaa ERT. ERT toimii yhteistyössä tutkimuspaikkasi kanssa taatakseen, ettei henkilöllisyytesi tule kenenkään tietoon ilman tutkimuspaikan lupaa. Sinulla on oikeus tarkistaa itseäsi koskevat tiedot sopimalla asiasta tutkimuspaikan kanssa.",
        "SUBJECT_REPORT_AFF": "Täten ilmoitan, että olen vastannut kaikkiin kysymyksiin parhaan kykyni mukaan.",
        "SUBJECT_INITIALS_LABEL": "Potilaan nimikirjaimet:",
        "SUBJECT": "Potilas",
        "SET_TIMEZONE": "Määritä aikavyöhyke",
        "SET_TIMEZONE_MESSAGE": "Valitse aikavyöhykkeesi:",
        "SET_TIMEZONE_BUTTON": "Määritä",
        "TIME_ZONE_CONFIRM_HEADER": "Aikavyöhykkeen vaihdon vahvistus",
        "TIME_ZONE_CONFIRM": "Haluatko varmasti vaihtaa aikavyöhykettä? Sovellus käynnistyy uudelleen, jotta muutos tulee voimaan.",
        "TIME_ZONE_EUROPE_KALININGRAD": "Eurooppa/Kaliningrad",
        "TIME_ZONE_EUROPE_MOSCOW": "Eurooppa/Moskova",
        "TIME_ZONE_ASIA_KARACHI": "Aasia/Karachi",
        "TIME_ZONE_ASIA_YEKATERINBURG": "Aasia/Jekaterinburg",
        "TIME_ZONE_ASIA_NOVOSIBIRSK": "Aasia/Novosibirsk",
        "TIME_ZONE_ASIA_KRASNOYARSK": "Aasia/Krasnoyarsk",
        "TIME_ZONE_ASIA_IRKUTSK": "Aasia/Irkutsk",
        "TIME_ZONE_ASIA_YAKUTSK": "Aasia/Jakutsk",
        "TIME_ZONE_ASIA_VLADIVOSTOK": "Aasia/Vladivostok",
        "TIME_ZONE_ASIA_KAMCHATKA": "Aasia/Kamchatka",
        "AF-ZA": "afrikaans",
        "AR-EG": "arabia",
        "BE-BY": "valkovenäjä",
        "BG-BG": "bulgaria",
        "BN-IN": "bengali",
        "BS-BA": "bosnia",
        "CA-ES": "katalaani",
        "CS-CZ": "tšekki",
        "DA-DK": "tanska",
        "DE-DE": "saksa (Saksa)",
        "DE-AT": "saksa (Itävalta)",
        "EL-GR": "kreikka",
        "EN-GB": "englanti (Yhdistynyt kuningaskunta)",
        "EN-US": "englanti (Yhdysvallat)",
        "ES-ES": "espanja (Espanja)",
        "ES-US": "espanja (Yhdysvallat)",
        "ES-PY": "espanja (yleinen)",
        "ET-EE": "eesti",
        "FI-FI": "suomi",
        "FR-CA": "ranska (Kanada)",
        "FR-FR": "ranska (Ranska)",
        "GD-IE": "gaeli",
        "GU-IN": "gujarati",
        "HE-IL": "heprea",
        "HI-IN": "hindi",
        "HR-HR": "kroatia",
        "HU-HU": "unkari",
        "IT-IT": "italia",
        "JA-JP": "japani",
        "KA-GE": "georgia",
        "KN-IN": "kannada",
        "KO-KR": "korea",
        "LV-LV": "latvia",
        "LT-LT": "liettua",
        "ML-IN": "malayalaam",
        "MR-IN": "marathi",
        "MS-MY": "malaiji",
        "NB-NO": "norja",
        "NL-BE": "hollanti (Belgia)",
        "NL-NL": "hollanti (Alankomaat)",
        "PA-IN": "punjabi",
        "PL-PL": "puola",
        "PT-BR": "portugali (Brasilia)",
        "PT-PT": "portugali (Portugali)",
        "RO-RO": "romania",
        "RU-RU": "venäjä",
        "SL-SL": "slovenia",
        "SK-SK": "slovakki",
        "SR-RS": "serbia (latinalainen)",
        "SR-SP": "serbia (kyrillinen)",
        "ST-ZA": "sotho",
        "SV-SE": "ruotsi",
        "TA-IN": "tamili",
        "TE-IN": "telugu",
        "TH-TH": "thai",
        "TL-PH": "tagalog",
        "TN-ZA": "tswana",
        "TR-TR": "turkki",
        "UK-UA": "ukraina",
        "UR-IN": "urdu",
        "VI-VN": "Vietnam",
        "XH-ZA": "xhosa",
        "ZH-CN": "kiina (Kiina)",
        "ZH-TW": "kiina (Taiwan)",
        "ZU-ZU": "zulu",
        "NO_RESULTS_FOUND": "Tuloksia ei löytynyt.",
        "USER": "Käyttäjä",
        "SYNC": "Synkronoi",
        "TIME_LBL": "Kellonaika:",
        "SET_TIME": "Aseta kellonaika",
        "NEW_USER": "Lisää uusi käyttäjän päiväkirja",
        "NEW_USER_CREATED": "Uusi käyttäjä on luotu.",
        "TIME_ZONE_SET_CONFIRM": "Haluatko varmasti asettaa aikavyöhykkeeksi {{{selectedTimeZone}}}? <br/> Sovellus voi käynnistyä uudelleen, jotta muutos tulee voimaan.",
        "TIME_ZONE_SET_CONFIRM_NOCHANGE": "Haluatko varmasti asettaa aikavyöhykkeeksi {{{selectedTimeZone}}}?",
        "TIME_ZONE_SET_HEADER": "Aikavyöhykkeen asetuksen vahvistus",
        "TIME_ZONE_ERROR_HEADER": "Aikavyöhykevirhe",
        "TIME_ZONE_ERROR_MSG": "Aikavyöhykeluetteloa haettaessa tapahtui virhe. Jos tarvitset apua, ota yhteys ERT:n tukikeskukseen.",
        "TIME_ZONE_SET_ERROR_MSG": "Aikavyöhykettä asetettaessa tapahtui virhe. Jos tarvitset apua, ota yhteys ERT:n tukikeskukseen.",
        "TIME_CONFIRMATION_INSTRUCTIONS": "Laitteen pitää vahvistaa paikallinen aikasi. Anna päivämäärä ja aika luotettavasta lähteestä.",
        "LOW_BATTERY": "Varoitus: Akun varaus on erittäin alhainen. Kytke laite lataukseen.",
        "CRITICAL_BATTERY": "Varoitus: Akun varaus on äärimmäisen alhainen. Liitä laite ladattavaksi. Jos laitetta ei ladata, se sammuu.",
        "SITE_ADMINISTRATOR": "Tutkimuspaikan pääkäyttäjä",
        "TIME_CONFIRMATION_HEADER": "Vahvista päiväys ja kellonaika",
        "TIMESLIP_ERROR": "Laitteesi kellonaika tai päivämäärä on virheellinen. Siirry sijaintiin, jossa on internetyhteys, ja yritä uudelleen. Jos ongelma ei ratkea, ota yhteys ERT:n asiakastukeen.",
        "P_AFFIDAVIT_HEADER": "<div><strong>Tutkimuspaikka: {{{ getSiteCodeForSubject }}}</strong><br /><strong>Potilastunnus: {{{ getParticipantCodeForSubject }}}</strong></div>",
        "RESTART_NOTIFICATION_HEADER": "Uudelleenkäynnistys on tehtävä",
        "RESTART_NOTIFICATION_MSG": "Aikavyöhyke on vaihdettu. Sovellus käynnistyy uudelleen. Uudelleenkäynnistymiseen on aikaa {{{ timeZoneChangeRestartCountdown }}}.",
        "RESTART_NOW": "Käynnistä uudelleen nyt",
        "SECONDS": "sekuntia",
        "MINUTES": "minuuttia",
        "SELECT_LANGUAGE": "Valitse tutkittavan ensisijainen kieli.",
        "ACCEPT": "Hyväksyn",
        "DECLINE": "En hyväksy",
        "EULA": "LOPPUKÄYTTÄJÄN LISENSSI",
        "EULA_TEXT": "<p><strong><span class=\"text-underline\">TÄRKEÄÄ</span>:  ÄLÄ NAPSAUTA HYVÄKSY-PAINIKETTA, ENNEN KUIN OLET LUKENUT TÄMÄN SOPIMUKSEN.  NAPSAUTTAMALLA HYVÄKSY-PAINIKETTA HYVÄKSYT KAIKKI TÄMÄN SOPIMUKSEN EHDOT.  JOS ET HYVÄKSY KAIKKIA TÄMÄN SOPIMUKSEN EHTOJA, (1) ÄLÄ NAPSAUTA \"HYVÄKSYN\"-PAINIKETTA, (2) LOPETA ASENNUS- JA LISENSOINTIPROSESSI NAPSAUTTAMALLA \"EN HYVÄKSY\" -PAINIKETTA.</strong></p><p>eResearchTechnology, Inc. (\"lisenssin antaja\") myöntää sinulle tämän ei-yksinomaisen, ei-siirrettävän oikeuden käyttää eResearchTechnology, Inc:n tähän laitteeseen sisältyvää ohjelmistoa (\"ohjelmisto\") kliinisen tutkimuksen sopimukseen osallistumiseesi liittyen: <strong>{{{ clinicalTrial }}}</strong>.  Myönnetyt patentit ja muut vireillä olevat patentit suojaavat eResearchTechnology, Inc:n ohjelmistoa.  Tämä sopimus ei siirrä sinulle mitään ohjelmiston (tai minkään sen kopioiden) omistusoikeutta, vaan muodostaa pelkästään lisenssin, jonka nojalla saat käyttää ohjelmistoa tämän sopimuksen kaikkien ehtojen mukaisesti.  Ohjelmiston ja sen kaikkien osien omistusoikeus sekä kaikki siihen sisältyvät yksinoikeudelliset ja immateriaalioikeudet pysyvät aina lisenssin antajalla.</p><p>Tämän sopimuksen mukaisesti suostut olemaan – suoraan tai epäsuoraan – (i) takaisinmallintamatta, purkamatta tai takaisinkääntämättä ohjelmistoa; (ii) kopioimatta, jakelematta, valmistamatta, muuntelematta, kääntämättä, lokalisoimatta, porttaamatta tai muutoin muokkaamatta ohjelmistoa tai luomatta siihen perustuvia teoksia tai (iii) poistamatta tai muuttamatta mitään ohjelmistossa olevaa tai siihen sisältyvää tekijänoikeus-, liikesalaisuus- tai muuta oikeudellista ilmoitusta.  SALLIT JA HYVÄKSYT, ETTÄ OHJELMISTO VOI SISÄLTÄÄ OHJELMISTON LUVATTOMAN KÄYTÖN ESTÄVÄN KOODIN.</p><br><p>JOS HYVÄKSYT KAIKEN EDELLÄ OLEVAN, valitse – <strong>Hyväksyn</strong> – \"Hyväksyn\"-painiketta napsauttamalla ilmaiset hyväksyneesi lisenssiehdot.</p><p>JOS ET HYVÄKSY KAIKKEA EDELLÄ MAINITTUA tai sinulla ei ole oikeutta hyväksyä kaikkea edellä mainittua, valitse – <strong>En hyväksy</strong> – missä tapauksessa ohjelmiston käyttösi estetään.  Jos sinulla on oikeus hyväksyä edellä mainittu, voit hyväksyä sen myöhemmin.</p>",
        "HAND_DEVICE_SITE_TITLE": "Anna laite tutkimuspaikan käyttäjälle",
        "HAND_DEVICE_SITE_BODY": "Anna laite tutkimuspaikan käyttäjälle.",
        "SQ-AL": "albania",
        "IMAGE_FOLDER": "{{{ imageFolder }}}",
        "MODAL_OK_TEXT": "OK",
        "BROWSER_LOAD_ERROR": "Sivua ei löydy. Tarkista internetyhteys ja yritä uudelleen.",
		"NONEXISTENT_USER" : "Käyttäjää ei löydy.",
		"NO_USER_OF_ROLE" : "Tässä roolissa olevaa käyttäjää ei löytynyt.",
		"START_VISIT_OUTSIDE_WINDOW_MSG": "Siirry käynnille {{{ getVisitName }}} määritetyn aikavälin ulkopuolella: {{{ startDate }}} - {{{ endDate }}}",
		"START_VISIT_HARD_STOP_MSG" : "Et voi siirtyä käynnille {{{ getVisitName }}} määritetyn aikavälin ulkopuolella: {{{ startDate }}} - {{{ endDate }}}",
		"YES" : "Kyllä",
		"NO" : "EI"
    },
    "dates": {
        "setDateButtonLabel": "OK",
        "setTimeButtonLabel": "OK",
        "setDurationButtonLabel": "Aseta kesto",
        "calTodayButtonLabel": "Siirry tähän päivään",
        "titleDateDialogLabel": "Aseta päiväys",
        "titleTimeDialogLabel": "Aseta kellonaika",
        "daysOfWeek": [
			"sunnuntai",
			"maanantai",
			"tiistai",
			"keskiviikko",
			"torstai",
			"perjantai",
			"lauantai"
        ],
        "daysOfWeekShort": [
			"su",
			"ma",
			"ti",
			"ke",
			"to",
			"pe",
			"la"
        ],
        "monthsOfYear": [
			"tammikuuta",
			"helmikuuta",
			"maaliskuuta",
			"huhtikuuta",
			"toukokuuta",
			"kesäkuuta",
			"heinäkuuta",
			"elokuuta",
			"syyskuuta",
			"lokakuuta",
			"marraskuuta",
			"joulukuuta"
        ],
        "monthsOfYearShort": [
			"tammi",
			"helmi",
			"maalis",
			"huhti",
			"touko",
			"kesä",
			"heinä",
			"elo",
			"syys",
			"loka",
			"marras",
			"joulu"
        ],
        "durationLabel": [
			"päivää",
			"tuntia",
			"minuuttia",
			"sekuntia"
        ],
        "durationDays": [
			"päivä",
			"päivää"
        ],
        "tooltip": "Avaa päivämäärän valitsin",
        "nextMonth": "Ensi kuu",
        "prevMonth": "Viime kuu",
        "clearButton": "Tyhjennä",
        "meridiem": [
			"aamupv",
			"iltapv"
        ]
    }
}
