^C:\USERS\COREY\PHT-DEV-SYNDICATION-WINDOWS\TARGET\SITEPAD\PLUGINS\CORDOVA-SQLITE-STORAGE\SRC\WINDOWS\SQLITE3-WIN-RT\SQLITE3\PCH.CPP
/c /I"C:\USERS\COREY\PHT-DEV-SYNDICATION-WINDOWS\TARGET\SITEPAD\PLUGINS\CORDOVA-SQLITE-STORAGE\SRC\WINDOWS\SQLITE3-WIN-RT\SQLITE3\SQLITE3.UWP\\" /I"GENERATED FILES\\" /IX64\DEBUG\ /I"C:\USERS\COREY\PHT-DEV-SYNDICATION-WINDOWS\TARGET\SITEPAD\PLUGINS\CORDOVA-SQLITE-STORAGE\SRC\WINDOWS\SQLITE3-WIN-RT\SQLITE3\\" /I"C:\USERS\COREY\PHT-DEV-SYNDICATION-WINDOWS\TARGET\SITEPAD\PLUGINS\CORDOVA-SQLITE-STORAGE\SRC\WINDOWS\SQLITE3-WIN-RT\SQLITE3\..\..\..\..\NODE_MODULES\CORDOVA-SQLITE-STORAGE-DEPENDENCIES" /ZI /ZW /ZW:nostdlib /nologo /W3 /WX- /sdl /Od /Oy- /D _WINRT_DLL /D _WINDLL /D _UNICODE /D UNICODE /D _DEBUG /D WINAPI_FAMILY=WINAPI_FAMILY_APP /D __WRL_NO_DEFAULT_LIB__ /Gm- /EHsc /RTC1 /MDd /GS /fp:precise /Zc:wchar_t /Zc:forScope /Zc:inline /Yc"pch.h" /Fp"X64\DEBUG\PCH.PCH" /Fo"X64\DEBUG\\" /Fd"X64\DEBUG\VC140.PDB" /Gd /TP /wd28204 /FU"C:\PROGRAM FILES (X86)\MICROSOFT VISUAL STUDIO 14.0\VC\LIB\STORE\REFERENCES\PLATFORM.WINMD" /FU"C:\PROGRAM FILES (X86)\WINDOWS KITS\10\REFERENCES\WINDOWS.APPLICATIONMODEL.CALLS.CALLSVOIPCONTRACT\1.0.0.0\WINDOWS.APPLICATIONMODEL.CALLS.CALLSVOIPCONTRACT.WINMD" /FU"C:\PROGRAM FILES (X86)\WINDOWS KITS\10\REFERENCES\WINDOWS.DEVICES.PRINTERS.PRINTERSCONTRACT\1.0.0.0\WINDOWS.DEVICES.PRINTERS.PRINTERSCONTRACT.WINMD" /FU"C:\PROGRAM FILES (X86)\WINDOWS KITS\10\REFERENCES\WINDOWS.FOUNDATION.FOUNDATIONCONTRACT\2.0.0.0\WINDOWS.FOUNDATION.FOUNDATIONCONTRACT.WINMD" /FU"C:\PROGRAM FILES (X86)\WINDOWS KITS\10\REFERENCES\WINDOWS.FOUNDATION.UNIVERSALAPICONTRACT\2.0.0.0\WINDOWS.FOUNDATION.UNIVERSALAPICONTRACT.WINMD" /FU"C:\PROGRAM FILES (X86)\WINDOWS KITS\10\REFERENCES\WINDOWS.GRAPHICS.PRINTING3D.PRINTING3DCONTRACT\2.0.0.0\WINDOWS.GRAPHICS.PRINTING3D.PRINTING3DCONTRACT.WINMD" /FU"C:\PROGRAM FILES (X86)\WINDOWS KITS\10\REFERENCES\WINDOWS.NETWORKING.CONNECTIVITY.WWANCONTRACT\1.0.0.0\WINDOWS.NETWORKING.CONNECTIVITY.WWANCONTRACT.WINMD" /analyze- /bigobj /DSQLITE_TEMP_STORE=2 /DSQLITE_THREADSAFE=2 /DSQLITE_ENABLE_FTS3 /DSQLITE_ENABLE_FTS3_PARENTHESIS /DSQLITE_ENABLE_FTS4 /DSQLITE_ENABLE_COLUMN_METADATA /DSQLITE_ENABLE_RTREE /DSQLITE_OS_WINRT  C:\USERS\COREY\PHT-DEV-SYNDICATION-WINDOWS\TARGET\SITEPAD\PLUGINS\CORDOVA-SQLITE-STORAGE\SRC\WINDOWS\SQLITE3-WIN-RT\SQLITE3\PCH.CPP
^C:\USERS\COREY\PHT-DEV-SYNDICATION-WINDOWS\TARGET\SITEPAD\PLUGINS\CORDOVA-SQLITE-STORAGE\SRC\WINDOWS\SQLITE3-WIN-RT\SQLITE3\CONSTANTS.CPP
/c /I"C:\USERS\COREY\PHT-DEV-SYNDICATION-WINDOWS\TARGET\SITEPAD\PLUGINS\CORDOVA-SQLITE-STORAGE\SRC\WINDOWS\SQLITE3-WIN-RT\SQLITE3\SQLITE3.UWP\\" /I"GENERATED FILES\\" /IX64\DEBUG\ /I"C:\USERS\COREY\PHT-DEV-SYNDICATION-WINDOWS\TARGET\SITEPAD\PLUGINS\CORDOVA-SQLITE-STORAGE\SRC\WINDOWS\SQLITE3-WIN-RT\SQLITE3\\" /I"C:\USERS\COREY\PHT-DEV-SYNDICATION-WINDOWS\TARGET\SITEPAD\PLUGINS\CORDOVA-SQLITE-STORAGE\SRC\WINDOWS\SQLITE3-WIN-RT\SQLITE3\..\..\..\..\NODE_MODULES\CORDOVA-SQLITE-STORAGE-DEPENDENCIES" /ZI /ZW /ZW:nostdlib /nologo /W3 /WX- /sdl /Od /Oy- /D _WINRT_DLL /D _WINDLL /D _UNICODE /D UNICODE /D _DEBUG /D WINAPI_FAMILY=WINAPI_FAMILY_APP /D __WRL_NO_DEFAULT_LIB__ /Gm- /EHsc /RTC1 /MDd /GS /fp:precise /Zc:wchar_t /Zc:forScope /Zc:inline /Fo"X64\DEBUG\\" /Fd"X64\DEBUG\VC140.PDB" /Gd /TP /wd28204 /FU"C:\PROGRAM FILES (X86)\MICROSOFT VISUAL STUDIO 14.0\VC\LIB\STORE\REFERENCES\PLATFORM.WINMD" /FU"C:\PROGRAM FILES (X86)\WINDOWS KITS\10\REFERENCES\WINDOWS.APPLICATIONMODEL.CALLS.CALLSVOIPCONTRACT\1.0.0.0\WINDOWS.APPLICATIONMODEL.CALLS.CALLSVOIPCONTRACT.WINMD" /FU"C:\PROGRAM FILES (X86)\WINDOWS KITS\10\REFERENCES\WINDOWS.DEVICES.PRINTERS.PRINTERSCONTRACT\1.0.0.0\WINDOWS.DEVICES.PRINTERS.PRINTERSCONTRACT.WINMD" /FU"C:\PROGRAM FILES (X86)\WINDOWS KITS\10\REFERENCES\WINDOWS.FOUNDATION.FOUNDATIONCONTRACT\2.0.0.0\WINDOWS.FOUNDATION.FOUNDATIONCONTRACT.WINMD" /FU"C:\PROGRAM FILES (X86)\WINDOWS KITS\10\REFERENCES\WINDOWS.FOUNDATION.UNIVERSALAPICONTRACT\2.0.0.0\WINDOWS.FOUNDATION.UNIVERSALAPICONTRACT.WINMD" /FU"C:\PROGRAM FILES (X86)\WINDOWS KITS\10\REFERENCES\WINDOWS.GRAPHICS.PRINTING3D.PRINTING3DCONTRACT\2.0.0.0\WINDOWS.GRAPHICS.PRINTING3D.PRINTING3DCONTRACT.WINMD" /FU"C:\PROGRAM FILES (X86)\WINDOWS KITS\10\REFERENCES\WINDOWS.NETWORKING.CONNECTIVITY.WWANCONTRACT\1.0.0.0\WINDOWS.NETWORKING.CONNECTIVITY.WWANCONTRACT.WINMD" /analyze- /bigobj /DSQLITE_TEMP_STORE=2 /DSQLITE_THREADSAFE=2 /DSQLITE_ENABLE_FTS3 /DSQLITE_ENABLE_FTS3_PARENTHESIS /DSQLITE_ENABLE_FTS4 /DSQLITE_ENABLE_COLUMN_METADATA /DSQLITE_ENABLE_RTREE /DSQLITE_OS_WINRT  C:\USERS\COREY\PHT-DEV-SYNDICATION-WINDOWS\TARGET\SITEPAD\PLUGINS\CORDOVA-SQLITE-STORAGE\SRC\WINDOWS\SQLITE3-WIN-RT\SQLITE3\CONSTANTS.CPP
^C:\USERS\COREY\PHT-DEV-SYNDICATION-WINDOWS\TARGET\SITEPAD\PLUGINS\CORDOVA-SQLITE-STORAGE\SRC\WINDOWS\SQLITE3-WIN-RT\SQLITE3\DATABASE.CPP
/c /I"C:\USERS\COREY\PHT-DEV-SYNDICATION-WINDOWS\TARGET\SITEPAD\PLUGINS\CORDOVA-SQLITE-STORAGE\SRC\WINDOWS\SQLITE3-WIN-RT\SQLITE3\SQLITE3.UWP\\" /I"GENERATED FILES\\" /IX64\DEBUG\ /I"C:\USERS\COREY\PHT-DEV-SYNDICATION-WINDOWS\TARGET\SITEPAD\PLUGINS\CORDOVA-SQLITE-STORAGE\SRC\WINDOWS\SQLITE3-WIN-RT\SQLITE3\\" /I"C:\USERS\COREY\PHT-DEV-SYNDICATION-WINDOWS\TARGET\SITEPAD\PLUGINS\CORDOVA-SQLITE-STORAGE\SRC\WINDOWS\SQLITE3-WIN-RT\SQLITE3\..\..\..\..\NODE_MODULES\CORDOVA-SQLITE-STORAGE-DEPENDENCIES" /ZI /ZW /ZW:nostdlib /nologo /W3 /WX- /sdl /Od /Oy- /D _WINRT_DLL /D _WINDLL /D _UNICODE /D UNICODE /D _DEBUG /D WINAPI_FAMILY=WINAPI_FAMILY_APP /D __WRL_NO_DEFAULT_LIB__ /Gm- /EHsc /RTC1 /MDd /GS /fp:precise /Zc:wchar_t /Zc:forScope /Zc:inline /Fo"X64\DEBUG\\" /Fd"X64\DEBUG\VC140.PDB" /Gd /TP /wd28204 /FU"C:\PROGRAM FILES (X86)\MICROSOFT VISUAL STUDIO 14.0\VC\LIB\STORE\REFERENCES\PLATFORM.WINMD" /FU"C:\PROGRAM FILES (X86)\WINDOWS KITS\10\REFERENCES\WINDOWS.APPLICATIONMODEL.CALLS.CALLSVOIPCONTRACT\1.0.0.0\WINDOWS.APPLICATIONMODEL.CALLS.CALLSVOIPCONTRACT.WINMD" /FU"C:\PROGRAM FILES (X86)\WINDOWS KITS\10\REFERENCES\WINDOWS.DEVICES.PRINTERS.PRINTERSCONTRACT\1.0.0.0\WINDOWS.DEVICES.PRINTERS.PRINTERSCONTRACT.WINMD" /FU"C:\PROGRAM FILES (X86)\WINDOWS KITS\10\REFERENCES\WINDOWS.FOUNDATION.FOUNDATIONCONTRACT\2.0.0.0\WINDOWS.FOUNDATION.FOUNDATIONCONTRACT.WINMD" /FU"C:\PROGRAM FILES (X86)\WINDOWS KITS\10\REFERENCES\WINDOWS.FOUNDATION.UNIVERSALAPICONTRACT\2.0.0.0\WINDOWS.FOUNDATION.UNIVERSALAPICONTRACT.WINMD" /FU"C:\PROGRAM FILES (X86)\WINDOWS KITS\10\REFERENCES\WINDOWS.GRAPHICS.PRINTING3D.PRINTING3DCONTRACT\2.0.0.0\WINDOWS.GRAPHICS.PRINTING3D.PRINTING3DCONTRACT.WINMD" /FU"C:\PROGRAM FILES (X86)\WINDOWS KITS\10\REFERENCES\WINDOWS.NETWORKING.CONNECTIVITY.WWANCONTRACT\1.0.0.0\WINDOWS.NETWORKING.CONNECTIVITY.WWANCONTRACT.WINMD" /analyze- /bigobj /DSQLITE_TEMP_STORE=2 /DSQLITE_THREADSAFE=2 /DSQLITE_ENABLE_FTS3 /DSQLITE_ENABLE_FTS3_PARENTHESIS /DSQLITE_ENABLE_FTS4 /DSQLITE_ENABLE_COLUMN_METADATA /DSQLITE_ENABLE_RTREE /DSQLITE_OS_WINRT  C:\USERS\COREY\PHT-DEV-SYNDICATION-WINDOWS\TARGET\SITEPAD\PLUGINS\CORDOVA-SQLITE-STORAGE\SRC\WINDOWS\SQLITE3-WIN-RT\SQLITE3\DATABASE.CPP
^C:\USERS\COREY\PHT-DEV-SYNDICATION-WINDOWS\TARGET\SITEPAD\PLUGINS\CORDOVA-SQLITE-STORAGE\SRC\WINDOWS\SQLITE3-WIN-RT\SQLITE3\STATEMENT.CPP
/c /I"C:\USERS\COREY\PHT-DEV-SYNDICATION-WINDOWS\TARGET\SITEPAD\PLUGINS\CORDOVA-SQLITE-STORAGE\SRC\WINDOWS\SQLITE3-WIN-RT\SQLITE3\SQLITE3.UWP\\" /I"GENERATED FILES\\" /IX64\DEBUG\ /I"C:\USERS\COREY\PHT-DEV-SYNDICATION-WINDOWS\TARGET\SITEPAD\PLUGINS\CORDOVA-SQLITE-STORAGE\SRC\WINDOWS\SQLITE3-WIN-RT\SQLITE3\\" /I"C:\USERS\COREY\PHT-DEV-SYNDICATION-WINDOWS\TARGET\SITEPAD\PLUGINS\CORDOVA-SQLITE-STORAGE\SRC\WINDOWS\SQLITE3-WIN-RT\SQLITE3\..\..\..\..\NODE_MODULES\CORDOVA-SQLITE-STORAGE-DEPENDENCIES" /ZI /ZW /ZW:nostdlib /nologo /W3 /WX- /sdl /Od /Oy- /D _WINRT_DLL /D _WINDLL /D _UNICODE /D UNICODE /D _DEBUG /D WINAPI_FAMILY=WINAPI_FAMILY_APP /D __WRL_NO_DEFAULT_LIB__ /Gm- /EHsc /RTC1 /MDd /GS /fp:precise /Zc:wchar_t /Zc:forScope /Zc:inline /Fo"X64\DEBUG\\" /Fd"X64\DEBUG\VC140.PDB" /Gd /TP /wd28204 /FU"C:\PROGRAM FILES (X86)\MICROSOFT VISUAL STUDIO 14.0\VC\LIB\STORE\REFERENCES\PLATFORM.WINMD" /FU"C:\PROGRAM FILES (X86)\WINDOWS KITS\10\REFERENCES\WINDOWS.APPLICATIONMODEL.CALLS.CALLSVOIPCONTRACT\1.0.0.0\WINDOWS.APPLICATIONMODEL.CALLS.CALLSVOIPCONTRACT.WINMD" /FU"C:\PROGRAM FILES (X86)\WINDOWS KITS\10\REFERENCES\WINDOWS.DEVICES.PRINTERS.PRINTERSCONTRACT\1.0.0.0\WINDOWS.DEVICES.PRINTERS.PRINTERSCONTRACT.WINMD" /FU"C:\PROGRAM FILES (X86)\WINDOWS KITS\10\REFERENCES\WINDOWS.FOUNDATION.FOUNDATIONCONTRACT\2.0.0.0\WINDOWS.FOUNDATION.FOUNDATIONCONTRACT.WINMD" /FU"C:\PROGRAM FILES (X86)\WINDOWS KITS\10\REFERENCES\WINDOWS.FOUNDATION.UNIVERSALAPICONTRACT\2.0.0.0\WINDOWS.FOUNDATION.UNIVERSALAPICONTRACT.WINMD" /FU"C:\PROGRAM FILES (X86)\WINDOWS KITS\10\REFERENCES\WINDOWS.GRAPHICS.PRINTING3D.PRINTING3DCONTRACT\2.0.0.0\WINDOWS.GRAPHICS.PRINTING3D.PRINTING3DCONTRACT.WINMD" /FU"C:\PROGRAM FILES (X86)\WINDOWS KITS\10\REFERENCES\WINDOWS.NETWORKING.CONNECTIVITY.WWANCONTRACT\1.0.0.0\WINDOWS.NETWORKING.CONNECTIVITY.WWANCONTRACT.WINMD" /analyze- /bigobj /DSQLITE_TEMP_STORE=2 /DSQLITE_THREADSAFE=2 /DSQLITE_ENABLE_FTS3 /DSQLITE_ENABLE_FTS3_PARENTHESIS /DSQLITE_ENABLE_FTS4 /DSQLITE_ENABLE_COLUMN_METADATA /DSQLITE_ENABLE_RTREE /DSQLITE_OS_WINRT  C:\USERS\COREY\PHT-DEV-SYNDICATION-WINDOWS\TARGET\SITEPAD\PLUGINS\CORDOVA-SQLITE-STORAGE\SRC\WINDOWS\SQLITE3-WIN-RT\SQLITE3\STATEMENT.CPP
^C:\USERS\COREY\PHT-DEV-SYNDICATION-WINDOWS\TARGET\SITEPAD\PLUGINS\CORDOVA-SQLITE-STORAGE\NODE_MODULES\CORDOVA-SQLITE-STORAGE-DEPENDENCIES\SQLITE3.C
/c /I"C:\USERS\COREY\PHT-DEV-SYNDICATION-WINDOWS\TARGET\SITEPAD\PLUGINS\CORDOVA-SQLITE-STORAGE\SRC\WINDOWS\SQLITE3-WIN-RT\SQLITE3\SQLITE3.UWP\\" /I"GENERATED FILES\\" /IX64\DEBUG\ /I"C:\USERS\COREY\PHT-DEV-SYNDICATION-WINDOWS\TARGET\SITEPAD\PLUGINS\CORDOVA-SQLITE-STORAGE\SRC\WINDOWS\SQLITE3-WIN-RT\SQLITE3\\" /I"C:\USERS\COREY\PHT-DEV-SYNDICATION-WINDOWS\TARGET\SITEPAD\PLUGINS\CORDOVA-SQLITE-STORAGE\SRC\WINDOWS\SQLITE3-WIN-RT\SQLITE3\..\..\..\..\NODE_MODULES\CORDOVA-SQLITE-STORAGE-DEPENDENCIES" /ZI /nologo /W3 /WX- /sdl /Od /Oy- /D _WINRT_DLL /D _WINDLL /D _UNICODE /D UNICODE /D _DEBUG /D WINAPI_FAMILY=WINAPI_FAMILY_APP /D __WRL_NO_DEFAULT_LIB__ /Gm- /EHsc /RTC1 /MDd /GS /fp:precise /Zc:wchar_t /Zc:forScope /Zc:inline /Fo"X64\DEBUG\\" /Fd"X64\DEBUG\VC140.PDB" /Gd /TC /wd28204 /FU"C:\PROGRAM FILES (X86)\MICROSOFT VISUAL STUDIO 14.0\VC\LIB\STORE\REFERENCES\PLATFORM.WINMD" /analyze- /bigobj /DSQLITE_TEMP_STORE=2 /DSQLITE_THREADSAFE=2 /DSQLITE_ENABLE_FTS3 /DSQLITE_ENABLE_FTS3_PARENTHESIS /DSQLITE_ENABLE_FTS4 /DSQLITE_ENABLE_COLUMN_METADATA /DSQLITE_ENABLE_RTREE /DSQLITE_OS_WINRT  C:\USERS\COREY\PHT-DEV-SYNDICATION-WINDOWS\TARGET\SITEPAD\PLUGINS\CORDOVA-SQLITE-STORAGE\NODE_MODULES\CORDOVA-SQLITE-STORAGE-DEPENDENCIES\SQLITE3.C
