{
    "namespace" : "P_Loop3",
    "language"  : "fr",
    "locale"    : "CA",
    "direction" : "ltr",
    "resources" : {
        "DISPLAY_NAME"  : "CA-Symptoms - Nested Loop",
        "QUESTION_1"    : "CA-Select a symptom you are experiencing",
        "QUESTION_2"    : "CA-What is the severity of this symptom?",
        "QUESTION_3"    : "CA-Does your symptom still occur?",
        "QUESTION_4"    : "CA-Add all remedies you took for this symptom.",
        "QUESTION_5"    : "CA-Which remedy did you take for this symptom?",
        "QUESTION_6"    : "CA-How much did you take?",
        "QUESTION_7"    : "CA-Add other symptoms you are experiencing or proceed.",
        "COUGH"         : "CA-Cough",
        "HEADACHE"      : "CA-Headache",
        "ITCHY_EYES"    : "CA-Itchy eyes",
        "RUNNY_NOSE"    : "CA-Runny nose",
        "SINUS_PRESSURE": "CA-Sinus pressure",
        "SORE_THROAT"   : "CA-Sore throat",
        "STUFFY_NOSE"   : "CA-Stuffy nose",
        "WATERY_EYES"   : "CA-Watery eyes",
        "ABSENT"        : "CA-Absent",
        "MILD_SYMPTOMS" : "CA-Mild",
        "MOD_SYMPTOMS"  : "CA-Moderate",
        "SEV_SYMPTOMS"  : "CA-Severe",
        "YES"           : "CA-Yes",
        "NO"            : "CA-No",
        "COUGH_DROPS"   : "CA-Cough drops",
        "DECONGESTANT"  : "CA-Decongestant",
        "EXPECTORANT"   : "CA-Expectorant",
        "EYE_DROPS"     : "CA-Eye drops",
        "NOSE_SPRAY"    : "CA-Nose spray",
        "THROAT_SPRAY"  : "CA-Throat spray",
        "ADD_REM"       : "CA-Add Remedy",
        "EDIT_REM"      : "CA-Edit Remedy",
        "DELETE_REM"    : "CA-Delete Remedy",
        "ADD_SYMP"      : "CA-Add Symptom",
        "EDIT_SYMP"     : "CA-Edit Symptom",
        "DELETE_SYMP"   : "CA-Delete Symptom"
    }
}
