{
    "namespace" : "P_Pairing_Diary",
    "language"  : "fr",
    "locale"    : "CA",
    "direction" : "ltr",
    "resources" : {
        "DISPLAY_NAME" : "CA-fr: AM1+ Pairing Diary",
        "YES" : "CA-fr: Yes",
        "NO" : "CA-fr: No",
        "IS_REPLACEMENT"      : "CA-fr: Are you replacing an AM1+ device?",
        "REPLACEMENT_REASON_Q"  : "CA-fr: Please select the reason for device replacement.",
        "REPLACEMENT_REASON_1"  : "CA-fr: Lost",
        "REPLACEMENT_REASON_2"  : "CA-fr: Damaged",
        "REPLACEMENT_REASON_3"  : "CA-fr: Malfunction",
        "REPLACEMENT_REASON_4"  : "CA-fr: Other",
        "NO_PAIRED_DEVICE"      : "CA-fr: An AM1+ device must be paired to continue.",
        "BLUETOOTH_REG_PREPARATION" : "CA-fr: To prepare for registration, put your AM1+ device into its transmission ready mode as you have been taught. When the device is ready to transmit, tap the refresh button.",
        "PAIRED"                    : "CA-fr: Paired"
    }
}
