{
    "namespace" : "P_Meds_SitePad",
    "language"  : "en",
    "locale"    : "US",
    "direction" : "ltr",
    "resources" : {
        "DISPLAY_NAME"  : "Pain Medication Consumption",
        "QUESTION_1"    : "How many pills did you consume?",
        "QUESTION_2A"   : "You consumed {{{ getPills }}} {{{ pills }}}.",
        "QUESTION_2B"   : "{{ CONFIRM_MEDS }}",
        "HALF_PILL"     : "<strong>HALF</strong> of a pill",
        "ONE_PILL"      : "<strong>ONE</strong> pill",
        "TWO_PILLS"     : "<strong>TWO</strong> pills",
        "PILL"          : "pill",
        "PILLS"         : "pills",
        "CONFIRM_MEDS"  : "If this is correct {{{ medsImage }}} please proceed.",
        "QUESTION_3A" : "Review Screen to test order of buttons",
        "QUESTION_4A" : "Review Screen to test editing answers",
        "ADD" : "Add answer",
        "EDIT" : "Edit selected answer",
        "DELETE" : "Delete selected answer",
        "ALERT" : "Alert!",
        "ALERT_MESSAGE" : "You have clicked Alert button",
        "ADD_MESSAGE" : "You have clicked Add button",
        "EDIT_MESSAGE" : "You have clicked Edit button",
        "DELETE_MESSAGE" : "You have clicked Delete button"
    }
}
