{
    "namespace" : "SPSiteDemo2",
    "language"  : "en",
    "locale"    : "US",
    "direction" : "ltr",
    "resources" : {
        "DISPLAY_NAME"  : "Site User Demo Diary 2",
        "QUESTION_1"    : "How many pills did you consume?",
        "HALF_PILL"     : "<strong>HALF</strong> of a pill",
        "ONE_PILL"      : "<strong>ONE</strong> pill",
        "TWO_PILLS"     : "<strong>TWO</strong> pills",
        "PILL"          : "pill",
        "PILLS"         : "pills"
    }
}
