{
    "namespace" : "P_EQ5D_Diary",
    "language"  : "es",
    "locale"    : "ES",
    "direction" : "ltr",
    "resources" : {
        "DISPLAY_NAME"      : "EQ5D Diario",
        "EQ5D_Q1_TITLE"  : "Pregunta 1",
        "EQ5D_Q2_TITLE"  : "Pregunta 2",
        "EQ5D_Q3_TITLE"  : "Pregunta 3",
        "EQ5D_Q4_TITLE"  : "Pregunta 4",
        "EQ5D_Q0_TEXT"      : "EQ5D de mano Otro - Valores por Defecto: 0-100 min y max | garrapatas cada 10 en el lado derecho de la línea del conducto deferente | No mostrar las marcas menores | Mostrar valores de garrapatas a los 0, 50 y 100 | casilla de respuesta negro | fuente en la caja respuesta es 36 píxeles, Arial y blanco, tamaño de los márgenes por defecto = 20.",
        "EQ5D_Q1_TEXT"      : " ",
        "EQ5D_Q2_TEXT"      : "EQ5D para Tablet - Valores por Defecto: 0-100 min y max | garrapatas cada 10 en el lado izquierdo de la línea del conducto deferente | Qué muestran las marcas menores | casilla de respuesta azul | fuente en la caja respuesta es 50px, Arial y el rojo, el tamaño del margen es de 40.",
        "EQ5D_LOGPAD_INSTRUCTION" : "Por favor, pulse sobre la escala de <br /> indicar cómo nuestra salud es <br /> HOY.",
        "EQ5D_ANSWER_LABEL_TEXT" : "Su salud hoy <br /> demostrar envolver algún texto",
        "EQ5D_SITEPAD_INSTRUCTION" : "Nos gustaría saber lo bueno o malo que su salud es <br /> HOY. <br /> <br /> Esta escala está numerado de 0 a 100 <br /> <br /> 100 significa el mejor estado de salud que se pueda imaginar. <br /> 0 significa el peor estado de salud que se pueda imaginar <br /> <br /> por favor, pulse sobre la escala para indicar cómo es su salud <br /> HOY.",
        "QUESTION"          : "Toque la línea para indicar su dolor en las últimas 24 horas.",
        "VAS_HELP"          : "Si usted está experimentando dolor extremo, por favor, póngase en contacto con su profesional de la salud.",
        "BEST_HEALTH"       : "La mejor <br /> la salud se puede imaginar.",
        "WORST_HEALTH"      : "La peor <br /> la salud se puede imaginar.",
        "SUMMARY_TITLE" : "<strong>Pregunta Resumen:</strong>",
        "SUMMARY_QUESTION" : "{{{ getQuestionnaireAnswers }}}"
    }
}
