{
    "namespace": "P_Matrix_Diary",
    "language": "en",
    "locale": "US",
    "direction": "ltr",
    "resources": {
        "DISPLAY_NAME": "Matrix Test Diary",
        "MATRIX_DIARY_Q1_TTILE": "Please answer the questions below.",
        "MATRIX_DIARY_Q1": "1) Please answer the questions below.  Standard header and row colors and question column width.",
        "MATRIX_DIARY_Q2": "2) Please answer the questions below.  These questions have a different header color, and a larger question column width.  <strong>This screen is specific to the tablet.</strong>",
        "MATRIX_DIARY_Q3": "3) Please answer the long questions below.  <strong>This screen is specific to the tablet.</strong>",
        "MATRIX_DIARY_Q4": "4) Pretty please answer the questions below.  Custom CSS for radio buttons, and long text and columns.  <strong>This screen is specific to the tablet.</strong>",
        "MD_RB_Q1_TITLE": "Do you ever sleep in really late?",
        "MD_RB_Q2_TITLE": "Do you ever stay up too late at night?",
        "MD_RB_Q3_TITLE": "How often to eat at a restaurant?",
        "MD_RB_Q4_TITLE": "How often do you go running?",
        "MD_RB_Q5_TITLE": "How often do you lift weights?",
        "MATRIX_ANSWER_1": "Always",
        "MATRIX_ANSWER_2": "Never",
        "MATRIX_ANSWER_3": "Sometimes",
        "MD_S2_Q1_TITLE": "Do you eat lots of pizza?",
        "MD_S2_Q2_TITLE": "Do you eat lots of tacos?",
        "MD_S2_Q3_TITLE": "Do you eat lots of steak?",
        "MD_S3_Q1_TITLE": "Do you enjoy eating in restaurants as much as possible?",
        "MD_S3_Q2_TITLE": "Do you often have multiple cups of coffee with your breakfast?  How about lots of tea?",
        "MD_S3_Q3_TITLE": "Do you have more than one glass of wine each day of the week?  Or maybe some other form of alchohol?",
        "MATRIX_ANSWER_SETB_1": "Yes",
        "MATRIX_ANSWER_SETB_2": "No",
        "MATRIX_ANSWER_SETB_3": "Never",
        "MATRIX_ANSWER_SETB_4": "Maybe, Sometimes",
        "MD_S4_Q1_TITLE": "Do you eat pizza?",
        "MD_S4_Q2_TITLE": "Do you eat calzones?",
        "MD_S4_Q3_TITLE": "How about lasagna?",
        "MD_S4_Q4_TITLE": "Or maybe spaghetti and meatballs?",
        "MD_S4_Q5_TITLE": "I bet you like sausage, though, right?",
        "MD_S4_Q6_TITLE": "Or what about Polish food?",
        "MD_S4_Q7_TITLE": "How about pierogies?",
        "MATRIX_ANSWER_SETC_1": "Yes, Absolutely, Why?",
        "MATRIX_ANSWER_SETC_2": "No, Are You Crazy?",
        "MATRIX_ANSWER_SETC_3": "Never in a Million Years",
        "MATRIX_ANSWER_SETC_4": "Maybe, Sometimes",
        "MATRIX_DIARY_Q5_TITLE": "Answers below.",
        "MATRIX_DIARY_Q5": "{{{ getMatrixRadioButtonAnswers }}}"
    }
}
