{
    "namespace" : "STUDY",
    "language"  : "uk",
    "locale"    : "UA",
    "direction" : "ltr",
    "dateConfigs" : {

        "headerFormat"           : "%A, %-d %B %Y",
        "dateFormat"             : "%A, %d %B %Y",
        "shortDateFormat"        : "%d %b %Y",
        "timeOutput"             : "%k:%M",
        "durationFormat"         : "%Dd %DA, %Dl:%DM:%DS",
        "durationOrder"          : ["d", "h", "i", "s"],
        "dateFieldOrder"         : ["m", "d", "y"],
        "timeFieldOrder"         : ["h", "i", "a"],
        "slideFieldOrder"        : ["y", "m", "d"],
        "timeFormat"             : 24,
        "calStartDay"            : 0,
        "useArabicIndic"         : false
    }
}
