{
    "namespace": "CORE",
    "language": "vi",
    "locale": "VN",
    "localized": "Tiếng Việt",
    "direction": "ltr",
    "resources": {
        "ABOUT": "Giới thiệu",
        "ACTIVATED_ELSEWHERE": "Một thiết bị khác đã được kích hoạt để thu thập dữ liệu nghiên cứu của bạn. Vui lòng liên hệ với Điều phối viên Nghiên cứu của bạn nếu bạn cho rằng điều này là do lỗi.",
        "ACTIVATION_CODE": "Mã Thiết lập:",
        "AFFIDAVIT": "Chọn OK, rồi chọn Tiếp khi bạn sẵn sàng lưu câu trả lời của mình.",
        "AFFIDAVIT_HELP": "Xin cảm ơn. Bạn đã cung cấp tất cả câu trả lời được yêu cầu. Bạn có thể kiểm tra và thay đổi câu trả lời bằng cách chọn Quay lại.",
        "ANSWER_ATTEMPT_EXCEEDED": "Bạn đã nhập câu trả lời không chính xác quá nhiều lần hoặc đã nhấp vào liên kết quên câu trả lời bảo mật.",
        "APPLICATION_HEADER": "ERT",
        "BACK": "Quay lại",
        "BACK_OUT_CONFIRM": "Bạn có chắc chắn muốn thoát không? Câu trả lời cho biểu mẫu này sẽ bị mất.",
        "CANCEL": "Hủy",
        "CANCEL_UPDATE": "Hủy Cập nhật",
        "CHANGE_PASSWORD": "Thay đổi Mật khẩu",
        "CHANGE_SECRET_QUESTION": "Thay đổi Câu hỏi Bảo mật",
        "CODE_ENTRY_NO_SERVER": "Máy chủ Không sẵn sàng",
        "CONNECTION_REQUIRED": "Cần có kết nối Internet.",
        "CONNECTION_TIMEOUT": "Kết nối Hết Thời gian Chờ.",
        "CONFIRM_PASSWORD": "Xác nhận Mật khẩu:",
        "CONTACT_STUDY_COORDINATOR": "Liên hệ với Điều phối viên Nghiên cứu",
        "CONTACT_UNLOCK_CODE": "Vui lòng liên hệ với Điều phối viên Nghiên cứu của bạn để biết Mã Mở khóa cho hôm nay:",
        "CORE_PRODUCT_VERSION_LABEL": "Phiên bản Sản phẩm:",
        "CURRENT_DATE": "{{{ currentDate }}}",
        "CURRENT_PASSWORD": "Mật khẩu Hiện tại:",
        "DATE_LBL": "Ngày:",
        "DEACTIVATED_LABEL": "Bạn không còn quyền sử dụng ERT cho nghiên cứu này. Vui lòng liên hệ với Điều phối viên Nghiên cứu của bạn nếu điều này không chính xác.",
        "DEVICE_ACTIVATION": "Thiết lập",
        "DEVICE_NOT_SUPPORTED": "Thiết bị này không được hỗ trợ. Vui lòng liên hệ với Điều phối viên Nghiên cứu của bạn để biết thông tin về các thiết bị được phê duyệt sử dụng trong nghiên cứu này.",
        "DEVICE_REACTIVATION": "Thiết lập Thiết bị",
        "DIARY_TIMEOUT": "Biểu mẫu này đã hết thời gian chờ.",
        "DOWNLOAD_FAILED": "Quá trình tải về Ứng dụng bị gián đoạn. Vui lòng thử lại khi bạn có kết nối Internet hoặc liên hệ với Trung tâm Hỗ trợ của ERT.",
        "DOWNLOAD_FAILURE": "Quá trình tải về bị Gián đoạn",
        "ENTER_NEW_PASSWORD": "Mật khẩu Mới:",
        "ERROR": "Lỗi.  Vui lòng liên hệ với Trung tâm Hỗ trợ ERT.",
        "ERROR_AFTER_ACTIVATION_SUCCESSFUL": "Đã xảy ra lỗi. Bạn sẽ cần nhập mã thiết lập và mật khẩu của mình.",
        "ERROR_CODE": "Mã Lỗi:",
        "ERROR_TITLE": "Lỗi",
        "FORGOT_PASSWORD": "Quên Mật khẩu?",
        "FORGOT_SECRET_ANSWER": "Quên câu trả lời bảo mật?",
        "INCORRECT_ANSWER": "Câu trả lời không chính xác",
        "INCORRECT_UNLOCK_CODE": "Mã Mở khóa Không chính xác",
        "INSTALLING": "Cài đặt Ứng dụng",
        "INVALID_CODE": "Mã Thiết lập Không hợp lệ",
        "LOCAL_STORAGE_FAILURE": "Lỗi Bộ nhớ Cục bộ",
        "LOG_IN": "Đăng nhập",
        "LOG_LEVEL": "Mức độ Ghi:",
        "LOGOUT": "Đăng xuất",
        "LOGOUT_CONFIRM": "Bạn có chắc chắn muốn đăng xuất không?",
        "NEXT": "Tiếp",
        "NEXT_ACTION": " Đã đến lúc bạn thực hiện hành động tiếp theo trong ERT ",
        "NO_DIARIES_TITLE": "Không có Báo cáo để Nhập",
        "OK": "OK",
        "PASSWORD": "Mật khẩu:",
        "PASSWORD_ATTEMPT_EXCEEDED": "Bạn đã nhập mật khẩu không chính xác quá nhiều lần hoặc nhấp vào liên kết quên mật khẩu.",
        "PASSWORD_CHANGE_FAILED": "Một thiết bị khác đã được kích hoạt để thu thập dữ liệu nghiên cứu của bạn. Vui lòng thay đổi mật khẩu của bạn trên thiết bị đó.",
        "PASSWORD_CHANGE_SUCCESS": "Bạn đã cập nhật thành công mật khẩu của mình.",
        "PASSWORD_INVALID": "Mật khẩu Không chính xác",
        "PLEASE_ANSWER_SQ": "Vui lòng trả lời câu hỏi bảo mật của bạn:",
        "PLEASE_CONFIRM": "Vui lòng Xác nhận",
        "PLEASE_CONTACT": "Vui lòng liên hệ với Trung tâm Hỗ trợ ERT.",
        "PLEASE_TRY_OR_CONTACT_SUPPORT": "Vui lòng thử lại hoặc liên hệ với Trung tâm Hỗ trợ ERT.",
        "PLEASE_WAIT": "Vui lòng đợi...",
        "PORTRAIT_ONLY": "Vui lòng giữ thẳng thiết bị của bạn.",
        "PRIVATE_BROWSING_ON": "Vui lòng tắt tính năng duyệt riêng tư. Nếu bạn tiếp tục gặp sự cố, vui lòng liên hệ với Điều phối viên Nghiên cứu của bạn.",
        "PRIVACY_POLICY": "Chính sách về Quyền riêng tư",
        "PRIVACY_POLICY_APPLICATION_UNAVAILABILITY": "Chính sách về quyền riêng tư của ERT tạm thời không khả dụng.",
        "PRIVACY_POLICY_ACTIVATION_UNAVAILABILITY": "Chính sách về quyền riêng tư của ERT tạm thời không khả dụng. Chính sách về quyền riêng tư của ERT xuất hiện ngay trên trang cài đặt sau khi kích hoạt.",
        "PROTOCOL": "Phác đồ:",
        "REQUIRED_ANSWER": "Vui lòng trả lời",
        "RETRY": "Thử lại",
        "RESET_PASSWORD": "Đặt lại Mật khẩu",
        "RESET_SECRET_QUESTION": "Đặt lại Câu hỏi Bảo mật",
        "SECRET_ANSWER": "Câu trả lời Bảo mật:",
        "SECRET_QUESTION": "Câu hỏi Bảo mật:",
        "SECRET_QUESTION_CHANGE_FAILED": "Một thiết bị khác đã được kích hoạt để thu thập dữ liệu nghiên cứu của bạn. Vui lòng thay đổi câu hỏi bảo mật của bạn trên thiết bị đó.",
        "SECRET_QUESTION_CHANGE_SUCCESS": "Bạn đã cập nhật thành công mật khẩu và câu hỏi bảo mật của mình.",
        "SETTINGS": "Cài đặt",
        "SITE": "Trung tâm nghiên cứu:",
        "SKIP_QUESTION": "Bạn có chắc chắn muốn bỏ qua câu trả lời trên màn hình này không?",
        "SPONSOR": "Nhà tài trợ:",
        "STORED_REPORTS": "Biểu mẫu Đã lưu trữ:",
        "STUDY_VERSION": "Phiên bản Nghiên cứu: ",
        "STUDY_URL": "URL Nghiên cứu:",
        "SUBJECT_ID": "Mã Bệnh nhân:",
        "TEMPORARY_UNLOCK_CODE": "Nhập Mã Mở khóa do Điều phối viên Nghiên cứu cung cấp.",
        "TRANSMIT_REPORTS": "Cập nhật",
        "UPDATE_CACHED_DELETED": "Quá trình cập nhật ERT chưa hoàn tất. Bạn sẽ cần kết nối Internet để sử dụng ứng dụng ERT. Vui lòng liên hệ với Trung tâm Hỗ trợ ERT của bạn.",
        "UPDATE_FAILED": "Quá trình cập nhật ERT chưa hoàn tất. Hãy đảm bảo thiết bị này được kết nối Internet và thử lại.",
        "UPDATE_FAILURE": "Cập nhật chưa Hoàn tất",
        "UPDATE_SUCCESS": "Cập nhật Thành công",
        "WELCOME": "Chào mừng",
        "ALARM_OFF_LBL": "Tắt",
        "ALARM_TURN_OFF": "Tắt",
        "SET_ALARMS": "Đặt Cảnh báo",
        "SCHED_NO_DIARIES_AVAILABLE": "Không có báo cáo nào hết hạn vào thời điểm này",
        "TRAINER": "Chế độ Đào tạo",
        "TRAINER_EXIT": "Thoát khỏi Chế độ Đào tạo",
        "TRAINER_EXIT_NOTIFICATION": "Bạn đang thoát khỏi Chế độ Đào tạo",
        "TRAINER_HEADER": "(Người hướng dẫn)",
        "ELPU_FAILURE": "Bạn không còn quyền sử dụng thiết bị ERT này; tuy nhiên đã xảy ra lỗi. Vui lòng thử lại.",
        "ELPU_ON_REPLACED_DEVICE": "Bạn không còn quyền sử dụng thiết bị ERT này. Vui lòng sử dụng thiết bị thay thế của bạn.",
        "SECURITY_QUESTION_0": "Tên thời con gái của mẹ bạn là gì?",
        "SECURITY_QUESTION_1": "Bạn sinh ra ở thành phố nào?",
        "SECURITY_QUESTION_2": "Tên thú nuôi đầu tiên của bạn là gì?",
        "SECURITY_QUESTION_3": "Môn thể thao yêu thích của bạn là gì?",
        "SECURITY_QUESTION_4": "Bạn tốt nghiệp vào năm nào?",
        "SECURITY_QUESTION_5": "Tên đệm của đứa con đầu lòng của bạn là gì?",
        "SECURITY_QUESTION_6": "Tên của người bạn thân thiết thời thơ ấu của bạn là gì?",
        "SECURITY_QUESTION_7": "Họ của cô giáo lớp ba của bạn là gì?",
        "SECURITY_QUESTION_8": "Bạn làm công việc đầu tiên tại thành phố hoặc thị trấn nào?",
        "SELECT_SITE_USER": "Chọn Tên của Người dùng tại Trung tâm",
        "SITE_USER_NAME": "Tên Người dùng tại Trung tâm:",
        "ADD_SITE_USER": "Thêm Người dùng tại Trung tâm",
        "INVALID_ENTRY": "Mục nhập Không hợp lệ",
        "HANDOFF_MESSAGE": "<strong>Bệnh nhân phải hoàn thành các chuỗi màn hình tiếp theo để đặt mã truy cập biểu mẫu của họ.</strong>",
        "REVERSE_HANDOFF_CONFIRM": "Nếu bạn chọn OK, quá trình kích hoạt sẽ khởi động lại. Bạn có chắc chắn muốn khởi động lại quá trình kích hoạt không?",
        "SITE_GATEWAY_TITLE": "Cổng Trung tâm",
        "USER_ALREADY_EXISTS": "Người dùng Đã Tồn tại",
        "SITE_SIGNATURE": "Chữ ký của: ",
        "SITE_REPORT_AFF": "Tôi đã nhập, kiểm tra lại và xác nhận dữ liệu trước.<p><strong>Chữ ký của: {{{ getActiveUserName }}}</strong></p>",
        "PATIENT_REPORT_AFF": "<hr />Tôi đã nhập, kiểm tra lại và xác nhận dữ liệu trước.<p class={{{ showPatientInitials }}}><strong>Tên viết tắt của: {{{ getActiveUserName }}}</strong></p>",
        "CLEAR_SIGNATURE": "Xóa Chữ ký",
        "STUDY_ALIAS": "{{{ studyAlias }}}",
        "SITE_ACTIVATED_ELSEWHERE": "Một thiết bị khác đã được kích hoạt để thu thập dữ liệu nghiên cứu của bệnh nhân. Vui lòng liên hệ với Điều phối viên Nghiên cứu nếu bạn cho rằng điều này là do lỗi.",
        "SITE_DEACTIVATED_LABEL": "Bệnh nhân không còn quyền sử dụng ERT cho nghiên cứu này. Vui lòng liên hệ với Điều phối viên Nghiên cứu nếu điều này không chính xác.",
        "SIGNATURE_DATA_LIMIT_EXCEEDED": "Ô chữ ký không thể hiển thị chính xác chữ ký của bạn như đã viết. Vui lòng đăng nhập bằng tên viết tắt của bạn.",
        "PAIRED": "Đã ghép đôi",
        "BLUETOOTH_REG_TITLE": "Ghép đôi Thiết bị eSense",
        "BLUETOOTH_REG_REFRESH_BUTTON": "Làm mới Danh sách",
        "BLUETOOTH_PAIR_DEVICE": "Ghép đôi thiết bị đã chọn",
        "BLUETOOTH_PAIRING_FAILED": "Ghép đôi với thiết bị đã chọn không thành công. Vui lòng thử lại.",
        "BLUETOOTH_PAIRING_SUCCESS": "Ghép đôi với thiết bị đã chọn thành công.",
        "BLUETOOTH_REG_NO_DEVICES_FOUND": "Không tìm thấy thiết bị nào. Vui lòng đảm bảo thiết bị ở gần ERT và đang ở trong chế độ truyền.",
        "SYNC_FAILED": "Đồng bộ hóa với máy chủ không thành công.",
        "DIARY_REQUIRES_E_SENSE_SUPPORT": "eSense không được hỗ trợ. Yêu cầu có hỗ trợ eSense cho biểu mẫu này.",
        "ERROR_E_SENSE_ENABLE": "Không thể bật eSense.",
        "E_SENSE_NOT_PAIRED": "Không có thiết bị eSense nào được ghép đôi. Yêu cầu có thiết bị eSense đã ghép đôi cho biểu mẫu này.",
        "BLUETOOTH_SYNC_FAILURE_TOP": "ERT này không thể giao tiếp với thiết bị {{{ eSenseDeviceName }}}.",
        "BLUETOOTH_SYNC_FAILURE_MIDDLE": "Vui lòng đảm bảo thiết bị {{{ eSenseDeviceName }}} có số {{{ eSenseSerialNumber }}} ở gần ERT và đang ở trong chế độ truyền.",
        "PLUGIN_MISSING": "Không thể tải trình cắm được yêu cầu.",
        "WRAPPER_VERSION": "Phiên bản Wrapper:",
        "SUPPORT": "Hỗ trợ Khách hàng",
        "SUPPORT_MESSAGE": "Người dùng tại Hoa Kỳ có thể liên hệ với Trung tâm Hỗ trợ ERT theo số 800-748-5669. Đối với người dùng nước ngoài, vui lòng chọn quốc gia gần nhất bên dưới:",
        "SUPPORT_DROPDOWN": "Chọn quốc gia của bạn",
        "SUPPORT_NAME_ARGENTINA": "Argentina",
        "SUPPORT_NUMBER_ARGENTINA": "<bdi>0800 444 0962</bdi>",
        "SUPPORT_NAME_ARMENIA": "Armenia",
        "SUPPORT_NUMBER_ARMENIA": "<bdi>+1 617 681 6306</bdi>",
        "SUPPORT_NAME_AUSTRALIA": "Úc",
        "SUPPORT_NUMBER_AUSTRALIA": "<bdi>1 800 800 051</bdi>",
        "SUPPORT_NAME_AUSTRIA": "Áo",
        "SUPPORT_NUMBER_AUSTRIA": "<bdi>0800 100 405</bdi>",
        "SUPPORT_NAME_BELARUS": "Belarus",
        "SUPPORT_NUMBER_BELARUS": "<bdi>8 820 0321 0036</bdi>",
        "SUPPORT_NAME_BELGIUM": "Bỉ",
        "SUPPORT_NUMBER_BELGIUM_1": "(Tiếng Anh): <bdi>0800 58 016</bdi>",
        "SUPPORT_NUMBER_BELGIUM_2": "(Tiếng Pháp) : <bdi>0800 71 076</bdi>",
        "SUPPORT_NUMBER_BELGIUM_3": "(Tiếng Đức): <bdi>0800 71 113</bdi>",
        "SUPPORT_NAME_BRAZIL": "Braxin",
        "SUPPORT_NUMBER_BRAZIL": "<bdi>0800 891 5909</bdi>",
        "SUPPORT_NAME_BOSNIA": "Bosnia",
        "SUPPORT_NUMBER_BOSNIA": "<bdi>+1 617 681 6306</bdi>",
        "SUPPORT_NAME_BULGARIA": "Bulgari",
        "SUPPORT_NUMBER_BULGARIA": "<bdi>00800 0010</bdi>, sau đó bấm <bdi>866 245 4931</bdi>",
        "SUPPORT_NAME_CANADA": "Canada",
        "SUPPORT_NUMBER_CANADA": "<bdi>1 800 748 5669</bdi>",
        "SUPPORT_NAME_CHILE": "Chile",
        "SUPPORT_NUMBER_CHILE": "<bdi>123 0020 3408</bdi>",
        "SUPPORT_NAME_CHINA": "Trung Quốc",
        "SUPPORT_NUMBER_CHINA_1": "NetCom (Phía Bắc): <bdi>1 0800 74 40 164</bdi>",
        "SUPPORT_NUMBER_CHINA_2": "Telecom (Phía Nam): <bdi>1 0800 44 00 158</bdi>",
        "SUPPORT_NAME_COLOMBIA": "Colombia",
        "SUPPORT_NUMBER_COLOMBIA": "<bdi>01 800 911 0010</bdi>, sau đó bấm <bdi>866 310 3707</bdi>",
        "SUPPORT_NAME_COSTA_RICA": "Costa Rica",
        "SUPPORT_NUMBER_COSTA_RICA": "<bdi>0800 013 1210</bdi>",
        "SUPPORT_NAME_CROATIA": "Croatia",
        "SUPPORT_NUMBER_CROATIA": "<bdi>0800 222 953</bdi>",
        "SUPPORT_NAME_CZECH_REPUBLIC": "Cộng hòa Séc",
        "SUPPORT_NUMBER_CZECH_REPUBLIC": "<bdi>800 142 150</bdi>",
        "SUPPORT_NAME_DENMARK": "Đan Mạch",
        "SUPPORT_NUMBER_DENMARK": "<bdi>80 60 00 09</bdi>",
        "SUPPORT_NAME_EGYPT": "Ai Cập",
        "SUPPORT_NUMBER_EGYPT": "<bdi>02 510 0200</bdi>, sau đó bấm <bdi>866 310 3707</bdi>",
        "SUPPORT_NAME_EL_SALVADOR": "El Salvador",
        "SUPPORT_NUMBER_EL_SALVADOR": "<bdi>+1 617 681 6306</bdi>",
        "SUPPORT_NAME_ESTONIA": "Estonia",
        "SUPPORT_NUMBER_ESTONIA": "<bdi>800 00 44 154</bdi>",
        "SUPPORT_NAME_FINLAND": "Phần Lan",
        "SUPPORT_NUMBER_FINLAND": "<bdi>0800 11 6366</bdi>",
        "SUPPORT_NAME_FRANCE": "Pháp",
        "SUPPORT_NUMBER_FRANCE": "<bdi>0800 10 19 79</bdi>",
        "SUPPORT_NAME_GERMANY": "Đức",
        "SUPPORT_NUMBER_GERMANY": "<bdi>0800 101 28 21</bdi>",
        "SUPPORT_NAME_GREECE": "Hy Lạp",
        "SUPPORT_NUMBER_GREECE": "<bdi>00 800 1311</bdi>, sau đó bấm <bdi>866 310 3707</bdi>",
        "SUPPORT_NAME_GUATEMALA": "Guatemala",
        "SUPPORT_NUMBER_GUATEMALA": "<bdi>1 800 624 0079</bdi>",
        "SUPPORT_NAME_HONG_KONG": "Hồng Kông",
        "SUPPORT_NUMBER_HONG_KONG": "<bdi>3002 1665</bdi>",
        "SUPPORT_NAME_HUNGARY": "Hungary",
        "SUPPORT_NUMBER_HUNGARY": "<bdi>06 800 14 571</bdi>",
        "SUPPORT_NAME_ICELAND": "Iceland",
        "SUPPORT_NUMBER_ICELAND": "<bdi>800 8544</bdi>",
        "SUPPORT_NAME_INDIA": "Ấn Độ",
        "SUPPORT_NUMBER_INDIA": "<bdi>000 800 440 1125</bdi>",
        "SUPPORT_NAME_INDONESIA": "Indonesia",
        "SUPPORT_NUMBER_INDONESIA": "<bdi>008 800 330 334</bdi>",
        "SUPPORT_NAME_IRELAND": "Ireland",
        "SUPPORT_NUMBER_IRELAND": "<bdi>1 800 946 700</bdi>",
        "SUPPORT_NAME_ISRAEL": "Israel",
        "SUPPORT_NUMBER_ISRAEL": "<bdi>1 809 470 062</bdi>",
        "SUPPORT_NAME_ITALY": "Ý",
        "SUPPORT_NUMBER_ITALY": "<bdi>800 90 56 37</bdi>",
        "SUPPORT_NAME_JAPAN": "Nhật Bản",
        "SUPPORT_NUMBER_JAPAN": "Vui lòng tham khảo Hướng dẫn Thông tin Nghiên cứu ePRO của bạn để biết số điện thoại miễn phí cho nghiên cứu của bạn",
        "SUPPORT_NAME_LATVIA": "Latvia",
        "SUPPORT_NUMBER_LATVIA": "<bdi>8000 2151</bdi>",
        "SUPPORT_NAME_LEBANON": "Li-băng",
        "SUPPORT_NUMBER_LEBANON": "<bdi>01-426-801</bdi> sau đó bấm <bdi>866 310 3707</bdi>",
        "SUPPORT_NAME_LITHUANIA": "Lithuania",
        "SUPPORT_NUMBER_LITHUANIA": "<bdi>8800 30207</bdi>",
        "SUPPORT_NAME_MALAYSIA": "Malaysia",
        "SUPPORT_NUMBER_MALAYSIA": "<bdi>1800 80 59 71</bdi>",
        "SUPPORT_NAME_MEXICO": "Mexico",
        "SUPPORT_NUMBER_MEXICO_1": "(Tiếng Anh): <bdi>001 800 748 5669</bdi> ",
        "SUPPORT_NUMBER_MEXICO_2": "(Tiếng Tây Ban Nha): <bdi>001 855 631 6952</bdi>",
        "SUPPORT_NAME_MOLDOVA": "Moldova",
        "SUPPORT_NUMBER_MOLDOVA": "<bdi>617 681 6306</bdi>",
        "SUPPORT_NAME_NETHERLANDS": "Hà Lan",
        "SUPPORT_NUMBER_NETHERLANDS": "<bdi>0800 023 1389</bdi>",
        "SUPPORT_NAME_NEW_ZEALAND": "New Zealand",
        "SUPPORT_NUMBER_NEW_ZEALAND": "<bdi>0800 110 178</bdi>",
        "SUPPORT_NAME_NORWAY": "Na Uy",
        "SUPPORT_NUMBER_NORWAY": "<bdi>800 62 051</bdi>",
        "SUPPORT_NAME_PAKISTAN": "Pakistan",
        "SUPPORT_NUMBER_PAKISTAN": "<bdi>00 800 0100</bdi>, sau đó bấm <bdi>866 237 9767</bdi>",
        "SUPPORT_NAME_PANAMA": "Panama",
        "SUPPORT_NUMBER_PANAMA": "<bdi>001 800 201 3095</bdi>",
        "SUPPORT_NAME_PERU": "Peru",
        "SUPPORT_NUMBER_PERU": "<bdi>0800 5 0974</bdi>",
        "SUPPORT_NAME_PHILIPPINES": "Philippin",
        "SUPPORT_NUMBER_PHILIPPINES": "<bdi>1 800 1116 0651</bdi>",
        "SUPPORT_NAME_POLAND": "Ba Lan",
        "SUPPORT_NUMBER_POLAND": "<bdi>00800 331 1262</bdi>",
        "SUPPORT_NAME_PORTUGAL": "Bồ Đào Nha",
        "SUPPORT_NUMBER_PORTUGAL": "<bdi>800 206 172</bdi>",
        "SUPPORT_NAME_PUERTO_RICO": "Puerto Rico (Lãnh thổ Hoa Kỳ)",
        "SUPPORT_NUMBER_PUERTO_RICO": "<bdi>1 800 748 5669</bdi>",
        "SUPPORT_NAME_ROMANIA": "Rumani",
        "SUPPORT_NUMBER_ROMANIA": "<bdi>0800 894492</bdi>",
        "SUPPORT_NAME_RUSSIA": "Nga",
        "SUPPORT_NUMBER_RUSSIA_1": "(Chính – Số điện thoại Miễn phí): <bdi>8 10 800 249 13011</bdi>",
        "SUPPORT_NUMBER_RUSSIA_2": "(Trong Mát-xcơ-va): <bdi>363-2400</bdi> <br> sau đó bấm <bdi>866 310 3707</bdi>",
        "SUPPORT_NUMBER_RUSSIA_3": "(Ngoài Mát-xcơ-va): <bdi>8^(495) 363-2400</bdi> <br> sau đó bấm <bdi>866 310 3707</bdi>",
        "SUPPORT_NUMBER_RUSSIA_4": "(Trong St. Petersburg): <bdi>363-2400</bdi> <br> sau đó bấm <bdi>866 310 3707</bdi>",
        "SUPPORT_NUMBER_RUSSIA_5": "(Ngoài St. Petersburg): <bdi>8^(495) 363-2400</bdi> <br> sau đó bấm <bdi>866 310 3707</bdi>",
        "SUPPORT_NAME_SAUDI_ARABIA": "Ả-Rập Xê-Út",
        "SUPPORT_NUMBER_SAUDI_ARABIA": "<bdi>+1 617 681 6306</bdi>",
        "SUPPORT_NAME_SERBIA": "Serbia",
        "SUPPORT_NUMBER_SERBIA": "<bdi>+1 617 973 1739</bdi>",
        "SUPPORT_NAME_SINGAPORE": "Singapore",
        "SUPPORT_NUMBER_SINGAPORE": "<bdi>800 616 30 03</bdi>",
        "SUPPORT_NAME_SLOVAKIA": "Slovakia",
        "SUPPORT_NUMBER_SLOVAKIA": "<bdi>0800 0044 65</bdi>",
        "SUPPORT_NAME_SLOVENIA": "Slovenia",
        "SUPPORT_NUMBER_SLOVENIA": "<bdi>+1 617 681 6306</bdi>",
        "SUPPORT_NAME_SOUTH_AFRICA": "Nam Phi",
        "SUPPORT_NUMBER_SOUTH_AFRICA": "<bdi>0800 99 5853</bdi>",
        "SUPPORT_NAME_SOUTH_KOREA": "Hàn Quốc",
        "SUPPORT_NUMBER_SOUTH_KOREA": "<bdi>00308 33 00 08</bdi>",
        "SUPPORT_NAME_SPAIN": "Tây Ban Nha",
        "SUPPORT_NUMBER_SPAIN": "<bdi>900 90 2541</bdi>",
        "SUPPORT_NAME_SWEDEN": "Thụy Điển",
        "SUPPORT_NUMBER_SWEDEN": "<bdi>020 120 99 69</bdi>",
        "SUPPORT_NAME_SWITZERLAND": "Thụy Sĩ",
        "SUPPORT_NUMBER_SWITZERLAND_1": "(Tiếng Anh): <bdi>0800 199 325</bdi>",
        "SUPPORT_NUMBER_SWITZERLAND_2": "(Tiếng Pháp) : <bdi>0800 891 183</bdi>",
        "SUPPORT_NUMBER_SWITZERLAND_3": "(Tiếng Đức): <bdi>0800 891 025</bdi>",
        "SUPPORT_NAME_TAIWAN": "Đài Loan",
        "SUPPORT_NUMBER_TAIWAN": "<bdi>00801 33 33 42</bdi>",
        "SUPPORT_NAME_THAILAND": "Thái Lan",
        "SUPPORT_NUMBER_THAILAND": "<bdi>1 800 33 140 353</bdi>",
        "SUPPORT_NAME_TUNISIA": "Tunisia",
        "SUPPORT_NUMBER_TUNISIA": "<bdi>+1 617 681 6306</bdi>",
        "SUPPORT_NAME_TURKEY": "Thổ Nhĩ Kỳ",
        "SUPPORT_NUMBER_TURKEY": "<bdi>00 800 151 1335</bdi>",
        "SUPPORT_NAME_UKRAINE": "Ukraina",
        "SUPPORT_NUMBER_UKRAINE": "<bdi>0^00 11</bdi>, sau đó bấm <bdi>866 245 4931</bdi>",
        "SUPPORT_NAME_UAE": "Các Tiểu Vương Quốc Ả Rập Thống nhất",
        "SUPPORT_NUMBER_UAE": "<bdi>8000-021</bdi>, sau đó bấm <bdi>866 310 3707</bdi>",
        "SUPPORT_NAME_UK": "Vương Quốc Anh",
        "SUPPORT_NUMBER_UK": "<bdi>0800 015 0408</bdi>",
        "SUPPORT_NAME_US": "Hoa Kỳ",
        "SUPPORT_NUMBER_US_1": "(Chính): <bdi>1 800 748 5669</bdi>",
        "SUPPORT_NUMBER_US_2": "(Hỗ trợ): <bdi>1 877 748 5669</bdi>",
        "SUPPORT_NAME_VENEZUELA": "Venezuela",
        "SUPPORT_NUMBER_VENEZUELA_1": "(Tiếng Anh): <bdi>0 800 552 6288</bdi> <br> sau đó bấm <bdi>866 310 3707</bdi> ",
        "SUPPORT_NUMBER_VENEZUELA_2": "(Tiếng Tây Ban Nha): <bdi>0 800 100 3063</bdi> ",
        "USER_NAME": "Tên người dùng:",
        "SUBJECT_ROLE": "Mã Bệnh nhân: {{{ getParticipantCode }}}",
        "SITE_ROLE": "Người dùng tại Trung tâm",
        "TEMPORARY_PASSWORD_MESSAGE": "Vui lòng cung cấp mật khẩu tạm thời cho người dùng mới. Họ sẽ được yêu cầu tạo mật khẩu mới sau khi đăng nhập.",
        "SHARED_PASSWORD_MESSAGE": "Mật khẩu cho người dùng mới phải được truy xuất từ Study Works.",
        "TEMP_PASSWORD": "Mật khẩu Tạm thời: ",
        "ROLES": "Vai trò:",
        "LANGUAGE": "Ngôn ngữ:",
        "FULL_NAME": "Tên Đầy đủ:",
        "CONFIRM_TEMP_PASS": "Xác nhận Mật khẩu Tạm thời:",
        "PASSWORD_MISMATCH": "Xác nhận mật khẩu không khớp với mật khẩu",
        "PASSWORD_INVALID_CHARACTERS": "Vui lòng chỉ sử dụng số",
        "USER_NAME_INVALID_CHARACTERS": "Vui lòng không sử dụng các ký tự đặc biệt",
        "USER_NAME_MORE_THAN_25": "Vui lòng sử dụng 25 ký tự hoặc ít hơn",
        "PRIVACY_POLICY_VERSION_LABEL": "Phiên bản: ",
        "PRIVACY_POLICY_VERSION": "1.6.0",
        "PRIVACY_POLICY_LAST_UPDATED_LABEL": "Lần cập nhật Gần nhất: ",
        "PRIVACY_POLICY_LAST_UPDATED": "21/01/2014",
        "PRIVACY_POLICY_TEXT_LABEL": "Giới thiệu về Quyền riêng tư: ",
        "PRIVACY_POLICY_TEXT": "ERT cung cấp phần mềm bạn sắp cài đặt. ERT hợp tác với trung tâm thử nghiệm y tế của bạn để đảm bảo không ai biết được thông tin về bạn khi trung tâm chưa cho phép. Bạn có quyền xem lại hồ sơ của mình bằng cách đặt lịch hẹn với trung tâm.",
        "SUBJECT_REPORT_AFF": "Tôi cam kết là tôi đã trả lời tất cả các câu hỏi theo khả năng tốt nhất của mình.",
        "SUBJECT_INITIALS_LABEL": "Tên viết tắt của Bệnh nhân:",
        "SUBJECT": "Bệnh nhân",
        "SET_TIMEZONE": "Đặt Múi Giờ",
        "SET_TIMEZONE_MESSAGE": "Chọn Múi giờ của Bạn:",
        "SET_TIMEZONE_BUTTON": "Đặt",
        "TIME_ZONE_CONFIRM_HEADER": "Xác nhận Thay đổi Múi Giờ",
        "TIME_ZONE_CONFIRM": "Bạn có chắc chắn muốn thay đổi Múi Giờ không? Ứng dụng sẽ khởi động lại để áp dụng thay đổi.",
        "TIME_ZONE_EUROPE_KALININGRAD": "Châu Âu/Kaliningrad",
        "TIME_ZONE_EUROPE_MOSCOW": "Châu Âu/Mát-xcơ-va",
        "TIME_ZONE_ASIA_KARACHI": "Châu Á/Karachi",
        "TIME_ZONE_ASIA_YEKATERINBURG": "Châu Á/Yekaterinburg",
        "TIME_ZONE_ASIA_NOVOSIBIRSK": "Châu Á/Novosibirsk",
        "TIME_ZONE_ASIA_KRASNOYARSK": "Châu Á/Krasnoyarsk",
        "TIME_ZONE_ASIA_IRKUTSK": "Châu Á/Irkutsk",
        "TIME_ZONE_ASIA_YAKUTSK": "Châu Á/Yakutsk",
        "TIME_ZONE_ASIA_VLADIVOSTOK": "Châu Á/Vladivostok",
        "TIME_ZONE_ASIA_KAMCHATKA": "Châu Á/Kamchatka",
        "AF-ZA": "Tiếng Hà Lan ở Nam Phi",
        "AR-EG": "Tiếng Ả Rập",
        "BE-BY": "Tiếng Belarus",
        "BG-BG": "Tiếng Bulgari",
        "BN-IN": "Tiếng Bengal",
        "BS-BA": "Tiếng Bosnia",
        "CA-ES": "Tiếng Catalan",
        "CS-CZ": "Tiếng Séc",
        "DA-DK": "Tiếng Đan Mạch",
        "DE-DE": "Tiếng Đức (Đức)",
        "DE-AT": "Tiếng Đức (Áo)",
        "EL-GR": "Tiếng Hy Lạp",
        "EN-GB": "Tiếng Anh (Anh)",
        "EN-US": "Tiếng Anh (Mỹ)",
        "ES-ES": "Tiếng Tây Ban Nha (Tây Ban Nha)",
        "ES-US": "Tiếng Tây Ban Nha (Mỹ)",
        "ES-PY": "Tiếng Tây Ban Nha (Toàn cầu)",
        "ET-EE": "Tiếng Estonia",
        "FI-FI": "Tiếng Phần Lan",
        "FR-CA": "Tiếng Pháp (Canada)",
        "FR-FR": "Tiếng Pháp (Pháp)",
        "GD-IE": "Tiếng Gael",
        "GU-IN": "Tiếng Gujarati",
        "HE-IL": "Tiếng Do Thái",
        "HI-IN": "Tiếng Hindi",
        "HR-HR": "Tiếng Croatia",
        "HU-HU": "Tiếng Hungary",
        "IT-IT": "Tiếng Ý",
        "JA-JP": "Tiếng Nhật",
        "KA-GE": "Tiếng Georgia",
        "KN-IN": "Tiếng Kannada",
        "KO-KR": "Tiếng Hàn",
        "LV-LV": "Tiếng Latvia",
        "LT-LT": "Tiếng Lithuania",
        "ML-IN": "Tiếng Malayalam",
        "MR-IN": "Tiếng Maratha",
        "MS-MY": "Tiếng Mã Lai",
        "NB-NO": "Tiếng Na Uy",
        "NL-BE": "Tiếng Hà Lan (Bỉ)",
        "NL-NL": "Tiếng Hà Lan (Hà Lan)",
        "PA-IN": "Tiếng Punjab",
        "PL-PL": "Tiếng Ba Lan",
        "PT-BR": "Tiếng Bồ Đào Nha (Braxin)",
        "PT-PT": "Tiếng Bồ Đào Nha (Bồ Đào Nha)",
        "RO-RO": "Tiếng Rumani",
        "RU-RU": "Tiếng Nga",
        "SL-SL": "Tiếng Slovenia",
        "SK-SK": "Tiếng Slovak",
        "SR-RS": "Tiếng Serbia (La tinh)",
        "SR-SP": "Tiếng Serbia (Chữ Kirin)",
        "ST-ZA": "Tiếng Sotho",
        "SV-SE": "Tiếng Thụy Điển",
        "TA-IN": "Tiếng Tamil",
        "TE-IN": "Tiếng Telugu",
        "TH-TH": "Tiếng Thái",
        "TL-PH": "Tiếng Tagalog",
        "TN-ZA": "Tiếng Tswana",
        "TR-TR": "Tiếng Thổ Nhĩ Kỳ",
        "UK-UA": "Tiếng Ukraina",
        "UR-IN": "Tiếng Urdu",
        "VI-VN": "Tiếng Việt",
        "XH-ZA": "Tiếng Xhosa",
        "ZH-CN": "Tiếng Trung (Trung Quốc)",
        "ZH-TW": "Tiếng Trung (Đài Loan)",
        "ZU-ZU": "Tiếng Zulu",
        "NO_RESULTS_FOUND": "Không tìm thấy kết quả nào.",
        "USER": "Người dùng",
        "SYNC": "Đồng bộ hóa",
        "TIME_LBL": "Giờ:",
        "SET_TIME": "Đặt Giờ",
        "NEW_USER": "Thêm Nhật ký Người dùng Mới",
        "NEW_USER_CREATED": "Đã tạo người dùng mới.",
        "TIME_ZONE_SET_CONFIRM": "Bạn có chắc chắn muốn đặt Múi Giờ thành: <bdi>{{{ selectedTimeZone }}}</bdi>? <br/> Ứng dụng có thể khởi động lại để áp dụng thay đổi.",
        "TIME_ZONE_SET_CONFIRM_NOCHANGE": "Bạn có chắc chắn muốn đặt Múi Giờ thành: <bdi>{{{ selectedTimeZone }}}</bdi>?",
        "TIME_ZONE_SET_HEADER": "Xác nhận Đặt Múi Giờ",
        "TIME_ZONE_ERROR_HEADER": "Lỗi Múi Giờ",
        "TIME_ZONE_ERROR_MSG": "Đã xảy ra lỗi trong khi nhận danh sách Múi Giờ. Vui lòng liên hệ với Trung tâm Hỗ trợ ERT để được trợ giúp thêm.",
        "TIME_ZONE_SET_ERROR_MSG": "Đã xảy ra lỗi trong khi đặt Múi Giờ. Vui lòng liên hệ với Trung tâm Hỗ trợ ERT để được trợ giúp thêm.",
        "TIME_CONFIRMATION_INSTRUCTIONS": "Thiết bị này cần xác nhận giờ địa phương của bạn. Vui lòng nhập ngày và giờ của bạn từ nguồn đáng tin cậy.",
        "LOW_BATTERY": "Cảnh báo: Mức pin thấp. Vui lòng sạc lại thiết bị.",
        "CRITICAL_BATTERY": "Cảnh báo: Mức pin cực thấp. Vui lòng sạc lại thiết bị nếu không thiết bị sẽ tắt.",
        "SITE_ADMINISTRATOR": "Quản trị viên Trung tâm",
        "TIME_CONFIRMATION_HEADER": "Xác nhận Ngày/Giờ",
        "TIMESLIP_ERROR": "Ngày hoặc giờ trên thiết bị của bạn không chính xác. Vui lòng di chuyển đến vị trí có kết nối Internet và thử lại. Nếu bạn tiếp tục gặp sự cố, vui lòng liên hệ với bộ phận Chăm sóc Khách hàng của ERT.",
        "RESTART_NOTIFICATION_HEADER": "Yêu cầu khởi động lại",
        "RESTART_NOTIFICATION_MSG": "Đã thay đổi múi giờ. Ứng dụng sẽ khởi động lại sau {{{ timeZoneChangeRestartCountdown }}}.",
        "RESTART_NOW": "Khởi động lại ngay bây giờ",
        "SECONDS": "giây",
        "MINUTES": "phút",
        "SELECT_LANGUAGE": "Vui lòng chọn một ngôn ngữ ưu thích cho đối tượng này.",
        "P_AFFIDAVIT_HEADER": "<div><strong>Trung tâm nghiên cứu: {{{ getSiteCodeForSubject }}}</strong><br /><strong>ID bệnh nhân: {{{ getParticipantCodeForSubject }}}</strong></div>",
        "ACCEPT": "Tôi Chấp nhận",
        "DECLINE": "Tôi Từ chối",
        "EULA": "GIẤY PHÉP NGƯỜI DÙNG CUỐI",
        "EULA_TEXT": "<p><strong><span class=\"text-underline\">QUAN TRỌNG</span>:  KHÔNG NHẤP VÀO NÚT CHẤP NHẬN CHO TỚI KHI BẠN ĐÃ ĐỌC THỎA THUẬN NÀY.  BẰNG VIỆC NHẤP VÀO NÚT CHẤP NHẬN, BẠN CHẤP NHẬN TẤT CẢ CÁC ĐIỀU KHOẢN CỦA THỎA THUẬN NÀY.  NẾU BẠN KHÔNG CHẤP NHẬN TẤT CẢ CÁC ĐIỀU KHOẢN CỦA THỎA THUẬN NÀY, THÌ: (1) KHÔNG NHẤP VÀO NÚT \"TÔI CHẤP NHẬN\", (2) DỪNG QUÁ TRÌNH CÀI ĐẶT VÀ CẤP PHÉP BẰNG CÁCH NHẤP VÀO NÚT \"TÔI TỪ CHỐI\".</strong></p><p>eResearchTechnology, Inc. (\"Bên cấp phép\") cấp cho bạn quyền không độc quyền và không thể chuyển nhượng được để sử dụng phần mềm eResearchTechnology, Inc. xuất hiện trên thiết bị này (\"Phần mềm\") liên quan đến việc bạn tham gia thỏa thuận khám lâm sàng này: <strong>{{{ clinicalTrial }}}</strong>.  Phần mềm của eResearchTechnology, Inc. được bảo hộ theo các bằng sáng chế đã được cấp và các bằng sáng chế khác đang chờ cấp.  Thỏa thuận này không chuyển cho bạn bất kỳ quyền sở hữu nào đối với Phần mềm bất kỳ (hoặc bất kỳ bản sao nào), mà chỉ cấu thành giấy phép sử dụng Phần mềm tuân theo tất cả các điều khoản của Thỏa thuận này.  Quyền sở hữu Phần mềm và tất cả các phần của phần mềm này cũng như tất cả quyền sở hữu và quyền sở hữu trí tuệ được thể hiện trong đó, sẽ vẫn được cấp cho Bên cấp phép mọi lúc.</p><p>Bạn đồng ý không, trực tiếp hoặc gián tiếp, (i) thiết kế đối chiếu, phân tách hoặc biên dịch lại Phần mềm; (ii) sao chép, phân phối, sản xuất, điều chỉnh, tạo ra các sản phẩm phái sinh, dịch, bản địa hóa, truy nhập hoặc thậm chí sửa đổi Phần mềm; hoặc (iii) xóa bỏ hoặc thay đổi bất kỳ bản quyền, bí mật thương mại hoặc các thông báo pháp lý nào khác có trong hoặc trên Phần mềm.  BẠN CÔNG NHẬN VÀ ĐỒNG Ý RẰNG PHẦN MỀM CÓ THỂ CHỨA MÃ NGĂN CHẶN VIỆC SỬ DỤNG TRÁI PHÉP PHẦN MỀM.</p><br><p>NẾU BẠN ĐỒNG Ý VỚI TẤT CẢ CÁC ĐIỀU NÓI TRÊN, vui lòng chọn – <strong>Tôi Chấp nhận</strong> –Việc nhấp vào \"Tôi Chấp nhận\" chỉ ra bạn chấp nhận các điều khoản giấy phép này.</p><p>NẾU BẠN KHÔNG ĐỒNG Ý VỚI TẤT CẢ CÁC ĐIỀU NÓI TRÊN, hoặc không được ủy quyền đồng ý, hãy chọn – <strong>Tôi Từ chối</strong> – trong trường hợp đó, việc tiếp tục truy cập vào Phần mềm sẽ bị chặn.  Nếu được ủy quyền, bạn có thể chấp nhận vào một thời điểm khác.</p>",
        "HAND_DEVICE_SITE_TITLE": "Cung cấp Thiết bị cho Người dùng tại Trung tâm",
        "HAND_DEVICE_SITE_BODY": "Vui lòng cung cấp thiết bị cho người dùng tại trung tâm.",
        "SQ-AL": "Tiếng Albania",
        "IMAGE_FOLDER": "{{{ imageFolder }}}",
        "MODAL_OK_TEXT": "OK",
        "BROWSER_LOAD_ERROR": "Không Tìm thấy Trang. Vui lòng kiểm tra kết nối Internet của bạn và thử lại.",
        "NONEXISTENT_USER" : "Không tìm thấy người dùng.",
        "NO_USER_OF_ROLE" : "Không tìm thấy người dùng nào có vai trò đó.",
        "START_VISIT_OUTSIDE_WINDOW_MSG" : "Nhập {{{ getVisitName }}} bên ngoài khoảng thời gian được cấu hình: {{{ startDate }}} - {{{ endDate }}}",
        "START_VISIT_HARD_STOP_MSG" : "Bạn không thể nhập {{{ getVisitName }}} bên ngoài khoảng thời gian được cấu hình: {{{ startDate }}} - {{{ endDate }}}",
        "YES" : "Có",
        "NO" : "KHÔNG"
    },
    "dates": {
        "setDateButtonLabel": "OK",
        "setTimeButtonLabel": "OK",
        "setDurationButtonLabel": "Đặt Khoảng thời gian",
        "calTodayButtonLabel": "Chuyển đến Hôm nay",
        "titleDateDialogLabel": "Đặt Ngày",
        "titleTimeDialogLabel": "Đặt Giờ",
        "daysOfWeek": [
            "Chủ Nhật",
            "Thứ Hai",
            "Thứ Ba",
            "Thứ Tư",
            "Thứ Năm",
            "Thứ Sáu",
            "Thứ Bảy"
        ],
        "daysOfWeekShort": [
            "CN",
            "T2",
            "T3",
            "T4",
            "T5",
            "T6",
            "T7"
        ],
        "monthsOfYear": [
            "Tháng Một",
            "Tháng Hai",
            "Tháng Ba",
            "Tháng Tư",
            "Tháng Năm",
            "Tháng Sáu",
            "Tháng Bảy",
            "Tháng Tám",
            "Tháng Chín",
            "Tháng Mười",
            "Tháng Mười Một",
            "Tháng Mười Hai"
        ],
        "monthsOfYearShort": [
            "Th. 1",
            "Th. 2",
            "Th. 3",
            "Th. 4",
            "Th.5",
            "Th. 6",
            "Th. 7",
            "Th. 8",
            "Th. 9",
            "Th. 10",
            "Th. 11",
            "Th. 12"
        ],
        "durationLabel": [
            "Ngày",
            "Giờ",
            "Phút",
            "Giây"
        ],
        "durationDays": [
            "Ngày",
            "Ngày"
        ],
        "tooltip": "Mở Bộ chọn Ngày",
        "nextMonth": "Tháng Sau",
        "prevMonth": "Tháng Trước",
        "clearButton": "Xóa",
        "meridiem": [
            "Sáng",
            "Chiều"
        ]
    }
}
