{
	"namespace": "SubjectTrainingQuiz",
	"language": "it",
	"locale": "IT",
	"direction": "ltr",
	"resources": {
		"DISPLAY_NAME": "Quiz formativo del soggetto",
		"SubjectTrainingQuiz_STQ010_Q1_TEXT": "Facendo clic sul riquadro sottostante, si conferma di aver completato il modulo formativo (video).",
		"SubjectTrainingQuiz_STQ010_Q1_TEXT_W0_A0": "Ho completato il modulo formativo"
	}
}
