{
	"namespace": "SubjectTrainingQuiz",
	"language": "es",
	"locale": "CL",
	"direction": "ltr",
	"resources": {
		"DISPLAY_NAME": "Cuestionario de capacitación del sujeto",
		"SubjectTrainingQuiz_STQ010_Q1_TEXT": "Al marcar la casilla de abajo, usted confirma que ha completado el módulo de capacitación (video).",
		"SubjectTrainingQuiz_STQ010_Q1_TEXT_W0_A0": "He completado el módulo de capacitación"
	}
}
