{
    "namespace": "CORE",
    "language": "uk",
    "locale": "UA",
    "localized": "Українська",
    "direction": "ltr",
    "resources": {
        "ACTIVE": "Активний",
        "ACTIVATE_USER": "Активувати користувача",
        "ADD_PATIENT": "Додати пацієнта",
        "ADD_USER": "Додати користувача",
        "AFFIDAVIT": "Щоб зберегти відповіді, натисніть кнопку \"ОК\", а потім – \"Далі\".",
        "AFFIDAVIT_HELP": "Дякуємо. Ви надали всі необхідні відповіді. Ви можете перевірити та змінити відповіді, натиснувши кнопку \"Назад\".",
        "ALL_QUESTIONNAIRES_COMPLETED": "Усі форми заповнено",
        "APP_NAME": "ERT",
        "APPLICATION_HEADER": "{{{ appHeader }}}",
        "APP_NAME_LBL": "Назва програми",
        "APP_VERSION": "Версія програми",
        "ASSIGNED_TO": "Кому призначено",
        "AVAILABLE": "Доступно",
        "BACK": "Назад",
        "BACK_OUT_CONFIRM": "Дійсно вийти? Відповіді у формі не збережуться.",
        "BLUETOOTH_REG_REFRESH_BUTTON": "Оновити список",
        "CANCEL": "Скасувати",
        "CHECK_FOR_UPDATES": "Шукати оновлення",
        "CHOOSE_A_SITE": "Пов’яжіть цей пристрій із конкретним центром.",
        "COMPLETED": "Завершено",
        "CONFIRM_PASSWORD": "Підтвердити пароль:",
        "CONFIRM_TEMP_PASS": "Підтвердьте тимчасовий пароль:",
        "CONTINUE": "Продовжити",
        "COUNTRY": "Країна",
        "CUSTOM_ENVIRONMENT": "Особливе оточення",
        "DEACTIVATE_PATIENT": "Вимкнути пацієнта",
        "DEACTIVATE_USER": "Вимкнути користувача",
        "DEACTIVATED": "Вимкнуто",
        "DEVICE_ID": "Ідентифікатор пристрою",
        "DEVICE_REGISTRATION_FAILURE": "Не вдалося зареєструвати пристрій.",
        "DEVICE_UUIID": "Універсальний унікальний ідентифікатор пристрою",
        "BATTERY_LEVEL": "Рівень заряду акумулятора",
        "DEVICE_INFO": "Інформація про пристрій",
        "EDIT_MY_INFO": "Редагувати мою інформацію",
        "EDIT_PATIENT": "Редагувати пацієнта",
        "EDIT_SERVICE_URL": "Редагувати URL-адресу служби",
        "EDIT_SERVICE_URL_SUCCESS": "URL-адресу служби оновлено.",
        "EDIT_USER": "Редагувати користувача",
        "EMAIL": "Адреса електронної пошти",
        "ENTER_PATIENT_INFO": "Ввести інформацію про пацієнта",
        "ENTER_UNLOCK_CODE": "Введіть код розблокування",
        "ENTER_USER_INFO": "Ввести інформацію про нового користувача центру",
        "ENVIRONMENT": "Оточення",
        "FIRST_NAME": "Ім’я",
        "FORGOT_PASSWORD": "Забули пароль?",
        "FORM": "Форма",
        "FORM_GATEWAY": "Шлюз форми",
        "FORM_NAME": "Назва форми",
        "FULL_NAME": "Повне ім’я:",
        "GO_TO_VISITS": "Візити пацієнта",
        "HAND_DEVICE_SITE_TITLE": "Надати пристрій користувачеві центру",
        "HAND_DEVICE_SITE_BODY": "Надайте пристрій користувачеві центру.",
        "HELP": "Довідка",
        "HOME": "Головна",
        "IN_PROGRESS": "Операція триває",
        "INITIALS": "Ініціали",
        "INVALID_URL": "Укажіть дійсну URL-адресу.",
        "INVALID_PERMISSION": "Недійсний дозвіл.",
        "INVALID_PASSWORD": "Недійсний пароль.",
        "LANGUAGE": "Мова:",
        "LAST_LOGIN": "Останній вхід",
        "LAST_NAME": "Прізвище",
        "LAST_REFRESH_TIME": "Час останнього оновлення",
        "LOCATION": "Розташування",
        "LOGIN": "Увійти",
        "LOGIN_SCREEN": "Вхід",
        "LOGOUT": "Вийти",
        "MANAGE_USERS": "Керувати користувачами центру",
        "MARK_AS_COMPLETED": "Позначити як завершені",
        "SITE_SIGNATURE": "Підпис: ",
        "SITE_REPORT_AFF": "Я підтверджую повноту та правильність указаних мною вище даних.<br /><br /><strong>Підпис:</strong> {{{ getActiveUserName }}}",
        "PATIENT_REPORT_AFF": "Я підтверджую повноту та правильність указаних мною вище даних.<br /><br /><strong>Ініціали:</strong> {{{ getActiveUserName }}}",
        "CLEAR_SIGNATURE": "Очистити підпис",
        "MENU": "Меню",
        "MODE": "Режим",
        "NAME": "Назва",
        "NEW_USER": "Додати нового користувача щоденника",
        "NEW_USER_CREATED": "Користувача центру створено.",
        "NEXT": "Далі",
        "NO_RESULTS_FOUND": "Немає результатів.",
        "NOT_AVAILABLE": "Недоступно",
        "OK": "ОК",
        "ORDER": "Порядок",
        "PASSWORD": "Пароль:",
        "PATIENT": "Пацієнт",
        "PATIENT_ID": "Ідентифікатор пацієнта:",
        "PENDING_TRANSMISSIONS": "Передачі в черзі",
        "PLEASE_WAIT": "Зачекайте",
        "PLEASE_CONFIRM": "Підтвердьте",
        "REPORTS_AND_FORMS": "Звіти й форми",
        "REPORTS_COMPLETED_MESSAGE": "Ви заповнили всі форми. Поверніть пристрій уповноваженому працівнику центру.",
        "REQUIRED_ANSWER": "Укажіть необхідну інформацію.",
        "RESET_PIN": "Скинути PIN-код пацієнта",
        "RESET_USER_PASSWORD": "Скинути пароль користувача",
        "ROLES": "Роль:",
        "SAVE": "Зберегти",
        "SEARCH": "Пошук",
        "SECURITY_QUESTION_0": "Яке дівоче прізвище вашої матері?",
        "SECURITY_QUESTION_1": "У якому місті ви народилися?",
        "SECURITY_QUESTION_2": "Як звали вашу першу домашню тварину?",
        "SECURITY_QUESTION_3": "Який ваш улюблений вид спорту?",
        "SECURITY_QUESTION_4": "У якому році ви закінчили навчання?",
        "SECURITY_QUESTION_5": "Яке ім’я вашої найстаршої дитини?",
        "SECURITY_QUESTION_6": "Яке ім’я вашого найкращого друга дитинства?",
        "SECURITY_QUESTION_7": "Яке прізвище вашого вчителя молодших класів?",
        "SECURITY_QUESTION_8": "У якому місті ви отримали першу роботу?",
        "SECRET_ANSWER": "Відповідь на таємне запитання:",
        "SECRET_QUESTION": "Таємне запитання:",
        "SECRET_QUESTION_HELP_TEXT": "Виберіть у списку нижче таємне запитання. Вам потрібно буде відповісти на це запитання для входу в обліковий запис, якщо ви забудете свій пароль.",
        "SECRET_QUESTION_ANSWER": "Таємне запитання й відповідь на нього",
        "SELECT_LANGUAGE": "Виберіть мову для центру.",
        "SELECT_SITE_NUMBER": "Виберіть номер центру",
        "SERVICE_URL": "URL-адреса служби",
        "SETTINGS": "Параметри",
        "SETUP_COMPLETE": "Настроювання завершено",
        "SETUP_COMPLETE_DESC": "Пристрій настроєний і готовий до відправки.  Натисніть кнопку \"ОК\" і на наступному екрані вимкніть пристрій.",
        "SETUP_SITE_USER": "Настроїти користувача центру",
        "SETUP_SITE_USER_LEGEND": "Настройте користувача центру для цього пристрою.",
        "SITE": "Центр",
        "SITE_ASSESSMENTS": "Оцінювання центру",
        "SIGNATURE_DATA_LIMIT_EXCEEDED": "Не вдалося точно відобразити ваш підпис. Використайте свої ініціали замість підпису.",
        "SITE_NUMBER": "Номер центру",
        "SITE_ROLE": "Користувач центру",
        "SITE_SELECTION": "Вибір центру",
        "SKIP_FORM": "Пропустити форму",
        "SKIP_QUESTION": "Дійсно пропустити відповіді на цьому екрані?",
        "SKIP_TO_VISIT": "Перейти до візиту",
        "SKIP_VISIT": "Пропустити візит",
        "SKIPPED" : "Пропущено",
        "START_FORM": "Відкрити форму",
        "START_VISIT": "Почати візит",
        "STATUS": "Стан",
        "STATUS_DATE": "Дата стану",
        "STUDY": "Дослідження",
        "STUDYWORKS_LOGIN": "Вхід у StudyWorks",
        "SUBJECT_ID": "Ідентифікатор пацієнта",
        "SUBJECT_ROLE": "Пацієнт",
        "SUBMIT": "Надіслати",
        "SUPPORT_TOOLS": "Засоби підтримки",
        "SYNC": "Синхронізувати",
        "SYNC_USERS": "Синхронізувати користувачів",
        "SYNC_TO_DEVICE": "Синхронізувати дослідження з пристроєм",
        "TEMPORARY_PASSWORD_MESSAGE": "Дайте новому користувачеві тимчасовий пароль. Коли користувач увійде в систему, йому буде запропоновано створити новий пароль.",
        "TEMP_PASSWORD": "Тимчасовий пароль: ",
        "UNABLE_TO_GET_SITE_LIST": "Не вдалось отримати список центрів",
        "UNLOCK_CODE": "Код розблокування",
        "UNLOCK_CODE_HELP": "Код розблокування програми ERT Tablet можна отримати в StudyWorks (звіт SmartReport, розділ \"Коди розблокування ERT\"). По додаткову допомогу звертайтесь у Центр підтримки ERT.",
        "USER": "Користувач",
        "USER_ALREADY_EXISTS": "Користувач уже існує",
        "SUBJECT_ALREADY_EXISTS": "Пацієнт з ідентифікатором {{{ getPatientIDForDuplicate }}} уже існує.",
        "USER_ROLE": "Роль користувача",
        "USERNAME": "Ім’я користувача",
        "USER_NAME": "Ім’я користувача:",
        "VISIT": "Візит",
        "VISIT_COMPLETED_MESSAGE": "Немає інших форм для цього візиту.  Цей візит завершений.",
        "VISITS": "Візити",
        "VISITS_SKIPPED": "Пропущено візитів:",
        "VISIT_NAME": "Назва візиту",
        "WELCOME": "Вітаємо",
        "AF-ZA": "Африкаанс",
        "AR-EG": "Арабська",
        "BE-BY": "Білоруська",
        "BG-BG": "Болгарська",
        "BN-IN": "Бенгальська",
        "BS-BA": "Боснійська",
        "CA-ES": "Каталонська",
        "CS-CZ": "Чеська",
        "DA-DK": "Данська",
        "DE-DE": "Німецька (Німеччина)",
        "DE-AT": "Німецька (Австрія)",
        "EL-GR": "Грецька",
        "EN-GB": "Англійська (Велика Британія)",
        "EN-US": "Англійська (США)",
        "ES-ES": "Іспанська (Іспанія)",
        "ES-US": "Іспанська (США)",
        "ES-PY": "Іспанська (універсальна)",
        "ET-EE": "Естонська",
        "FI-FI": "Фінська",
        "FR-CA": "Французька (Канада)",
        "FR-FR": "Французька (Франція)",
        "GD-IE": "Гельська",
        "GU-IN": "Гуджараті",
        "HE-IL": "Іврит",
        "HI-IN": "Хінді",
        "HR-HR": "Хорватська",
        "HU-HU": "Угорська",
        "IT-IT": "Італійська",
        "JA-JP": "Японська",
        "KA-GE": "Грузинська",
        "KN-IN": "Каннада",
        "KO-KR": "Корейська",
        "LV-LV": "Латиська",
        "LT-LT": "Литовська",
        "ML-IN": "Малаялам",
        "MR-IN": "Маратхі",
        "MS-MY": "Малайська",
        "NB-NO": "Норвезька",
        "NL-BE": "Нідерландська (Бельгія)",
        "NL-NL": "Нідерландська (Нідерланди)",
        "PA-IN": "Панджабі",
        "PL-PL": "Польська",
        "PT-BR": "Португальська (Бразилія)",
        "PT-PT": "Португальська (Португалія)",
        "RO-RO": "Румунська",
        "RU-RU": "Російська",
        "SL-SL": "Словенська",
        "SK-SK": "Словацька",
        "SR-RS": "Сербська (латиниця)",
        "SR-SP": "Сербська (кирилиця)",
        "ST-ZA": "Сото",
        "SV-SE": "Шведська",
        "TA-IN": "Тамільська",
        "TE-IN": "Телугу",
        "TH-TH": "Тайська",
        "TL-PH": "Тагальська",
        "TN-ZA": "Тсвана",
        "TR-TR": "Турецька",
        "UK-UA": "Українська",
        "UR-IN": "Урду",
        "VI-VN": "В’єтнамська",
        "XH-ZA": "Коса",
        "ZH-CN": "Китайська (Китай)",
        "ZH-TW": "Китайська (Тайвань)",
        "ZU-ZU": "Зулу",
        "HAND_DEVICE_SUBJECT_BODY": "Наступну форму має заповнювати {{{ patientOrRole }}}. Виконайте вихід і передайте пристрій користувачу ({{{ patientOrRole }}}).",
        "HAND_DEVICE_SUBJECT_TITLE": "Початок роботи з формою \"{{{ formTitle }}}\"",
        "SKIP_VISIT_TITLE": "Пропустити візити?",
        "SKIP_VISIT_TEXT": "Якщо продовжити, буде пропущено такі візити:<br/> {{{ skippedVisits }}} Продовжити та пропустити візити?",
        "YES":"Так",
        "NO":"Ні",
        "TIME_LBL": "Час:",
        "SET_TIME": "Установити час",
        "DATE_LBL": "Дата:",
        "CREATE_PERMANENT_PASSWORD_TITLE": "Створити пароль",
        "USER_ID": "Ідентифікатор користувача:",
        "PHASE": "Стадія",
        "LAST_VISIT": "Останній завершений візит",
        "CONNECTION_REQUIRED": "Необхідне підключення до Інтернету.",
        "RETRY": "Повторити спробу",
        "UPDATE_FAILURE": "Оновлення не завершено",
        "UPDATE_SUCCESS": "Оновлення виконано",
        "CANCEL_PERMANENT_PASSWORD_TITLE": "Скасувати створення пароля?",
        "CANCEL_PERMANENT_PASSWORD_TEXT": "Якщо скасувати, пароль не буде створено. Щоб почати роботу із ERT, потрібен пароль. Дійсно скасувати?",
        "ACCOUNT_CONFIGURED_TITLE": "Настроювання облікового запису завершено",
        "ACCOUNT_CONFIGURED_TEXT": "Обліковий запис настроєно. Ви можете продовжити роботу із системою eCOA.",
        "LOGGED_IN_AS": "Ви ввійшли як",
        "EDIT_PATIENT_AFFIDAVIT_HEADER": "<p class='question-title-large'>Підпис</p><br />",
        "EDIT_PATIENT_AFF": "Своїм підписом нижче я засвідчую, що маю повноваження редагувати цього пацієнта.<br /><br />Ідентифікатор пацієнта: {{{ getPatientIdNumber }}}<br /><br /><strong>Підпис:</strong> {{{ getActiveUserName }}}",
        "PASSWORD_MISMATCH": "Введені паролі не збігаються",
        "FIRST_USER_AFFIDAVIT": "Своїм підписом нижче я засвідчую, що я керівник дослідження або маю повноваження створювати облікові записи в цій системі.<br /><br /><strong>Підпис:</strong> {{{ getFirstUsername }}}",
		"INCOMPLETE": "Не завершено",
        "INVALID_ENTRY": "Недійсні дані",
        "PLEASE_ANSWER_SQ": "Дайте відповідь на таємне запитання:",
        "FORGOT_SECRET_ANSWER": "Забули відповідь на таємне запитання?",
        "CONTACT_STUDY_COORDINATOR": "Зверніться до координатора",
        "ENTER_NEW_PASSWORD": "Новий пароль:",
        "CONTACT_UNLOCK_CODE": "Зверніться до координатора дослідження, щоб отримати код розблокування на сьогодні:",
        "CURRENT_DATE": "{{{ currentDate }}}",
        "TEMPORARY_UNLOCK_CODE": "Введіть код розблокування, наданий координатором дослідження.",
        "RESET_SECRET_QUESTION": "Скинути таємне запитання",
        "SECRET_QUESTION_CHANGE_SUCCESS": "Пароль і таємне запитання оновлено.",
        "RESET_PASSWORD": "Скинути пароль",
        "ANSWER_ATTEMPT_EXCEEDED": "Ви ввели неправильну відповідь забагато разів або натиснули посилання \"Забули відповідь на таємне запитання?\".",
        "PASSWORD_ATTEMPT_EXCEEDED": "Ви ввели неправильний пароль забагато разів або натиснули посилання \"Забули пароль?\".",
        "PASSWORD_CHANGE_SUCCESS": "Пароль оновлено.",
        "CHANGE_PASSWORD": "Змінити пароль",
        "CHANGE_SECRET_QUESTION": "Змінити таємне запитання",
        "SYNC_COMPLETE": "Синхронізацію завершено",
        "INCORRECT_ANSWER": "Неправильна відповідь",
        "INCORRECT_UNLOCK_CODE": "Неправильний код розблокування",
        "PASSWORD_INVALID": "Неправильний пароль",
        "SUBJECT": "Пацієнт",
        "PATIENT_ADDED": "Пацієнта додано",
        "TIME_ZONE": "Часовий пояс:",
        "ACTIVATE_USER_CANCEL_CONFIRM": "Скасувати активацію?",
        "ACTIVATE_USER_CANCEL_BODY": "Якщо скасувати, користувача центру не буде активовано. Дійсно скасувати?",
        "ACTIVATE_USER_AFF": "Своїм підписом нижче я засвідчую, що маю повноваження активувати цього користувача центру.",
        "ACTIVATE_USER_CONFIRM_INFORMATION": "Підтвердьте, що нижченаведена інформація стосується користувача, якого ви хочете активувати.",
        "DEACTIVATE_USER_CANCEL_CONFIRM": "Скасувати вимкнення?",
        "DEACTIVATE_USER_CANCEL_BODY": "Якщо скасувати, користувача центру не буде вимкнуто. Дійсно скасувати?",
        "DEACTIVATE_USER_AFF": "Своїм підписом нижче я засвідчую, що маю повноваження вимкнути цього користувача центру.",
        "DEACTIVATE_USER_SIG": "<strong>Користувач, якого слід вимкнути:</strong> <br />{{{ getSelectedUsername }}}<br /><br /><strong>Підпис:</strong> {{{ getActiveUserName }}}",
        "DEACTIVATE_USER_CONFIRM_INFORMATION": "Підтвердьте, що нижченаведена інформація стосується користувача, якого ви хочете вимкнути.",
        "DIARY_TIMEOUT": "Час заповнення форми минув.",
        "EDIT_PATIENT_QUESTION_1_MAIN_TITLE": "<div class='question-title-large'>Ідентифікація пацієнта </div><div>Діапазон ідентифікаторів для центру:<br /><strong> {{{ patientIDRange }}}</strong></div><div class='edit-patient-id'>Ідентифікатор пацієнта:<br /><strong>{{{ getPatientIdNumber }}} ({{{getPatientInitials}}})</strong</div><br /><br />",
        "EDIT_PATIENT_QUESTION_1": "Ідентифікатор пацієнта:",
        "EDIT_PATIENT_QUESTION_1_EMPTY": "Укажіть ідентифікатор пацієнта.",
        "EDIT_PATIENT_QUESTION_1_EMPTY_HEADER": "Ідентифікатор пацієнта",
        "EDIT_PATIENT_QUESTION_1_RANGE": "Указаний ідентифікатор пацієнта за межами допустимого діапазону. {{{ patientIDRange }}}.  Укажіть дійсний ідентифікатор пацієнта.",
        "EDIT_PATIENT_QUESTION_1_RANGE_HEADER": "Ідентифікатор пацієнта за межами діапазону",
        "EDIT_PATIENT_QUESTION_1_UNIQUE": "Пацієнт уже існує.  Укажіть інший ідентифікатор пацієнта.",
        "EDIT_PATIENT_QUESTION_1_UNIQUE_HEADER": "Ідентифікатор пацієнта дублює інший ідентифікатор",
        "EDIT_PATIENT_QUESTION_2": "Ініціали пацієнта:",
        "EDIT_PATIENT_QUESTION_2_EMPTY": "Укажіть ініціали пацієнта (мінімум 2 символи).",
        "EDIT_PATIENT_QUESTION_2_EMPTY_HEADER": "Ініціали пацієнта",
        "EDIT_PATIENT_QUESTION_3_TITLE": "<div class='question-title-large'>Вибір мови</div><div>Ідентифікатор пацієнта:<br /><strong>{{{ getPatientIdNumber }}} ({{{getPatientInitials}}})</strong</div><br /><br />",
        "EDIT_PATIENT_QUESTION_3": "Виберіть мову пацієнта",
        "EDIT_PATIENT_QUESTION_4_TITLE": "<div class='question-title-large'>Причина редагування</div><br /><br />",
        "EDIT_PATIENT_QUESTION_4": "Укажіть причину редагування пацієнта",
        "EDIT_PATIENT_CANCEL_CONFIRM": "Скасувати зміни в параметрах пацієнта?",
        "EDIT_PATIENT_CANCEL_BODY": "Якщо скасувати, параметри пацієнта не буде оновлено.  Дійсно скасувати?",
        "EDIT_PATIENT_NO_CHANGES_CONFIRM": "Параметри пацієнта не змінено",
        "EDIT_PATIENT_NO_CHANGES_BODY": "Параметри цього пацієнта не змінено. Дійсно вийти?",
        "EDIT_PATIENT_REASON_0": "Виправлення помилки клінічного лікаря",
        "EDIT_REASON": "Причина редагування:",
        "EDIT_USER_AFF": "Своїм підписом нижче я засвідчую, що маю повноваження редагувати цього користувача центру. <br /><br /><strong>Підпис:</strong> {{{ getActiveUserName }}}",
        "EDIT_USER_CANCEL_CONFIRM": "Скасувати редагування користувача?",
        "EDIT_USER_CANCEL_BODY": "Якщо скасувати, зміни в параметрах користувача центру не буде застосовано. Дійсно скасувати?",
        "EDIT_USER_NO_CHANGES_HEADER": "Параметри користувача центру не змінено",
        "EDIT_USER_NO_CHANGES_BODY": "Параметри цього користувача центру не змінено. Дійсно вийти?",
        "ERROR_CODE": "Код помилки:",
        "ERROR_TITLE": "Помилка",
        "FIRST_SITE_USER": "Додати першого користувача центру",
        "NEW_PATIENT_QUESTION_1_MAIN_TITLE": "<div class='question-title-large'>Укажіть ідентифікаційну інформацію пацієнта</div><div>Діапазон ідентифікаторів для центру:<br /><strong> {{{ patientIDRange }}}</strong></div><div><strong>Центр: {{{ getSiteCode }}}</strong></div><div><strong>Користувач: {{{ getUserName }}}</strong</div><br /><br />",
        "NEW_PATIENT_HELP_TEXT_1": "",
        "NEW_PATIENT_HELP_TEXT_2": "",
        "NEW_PATIENT_HELP_TEXT_3": "",
        "NEW_PATIENT_QUESTION_1_TITLE": "Ідентифікатор пацієнта",
        "NEW_PATIENT_QUESTION_1": "Ідентифікатор пацієнта:",
        "NEW_PATIENT_QUESTION_1_EMPTY": "Укажіть ідентифікатор пацієнта.",
        "NEW_PATIENT_QUESTION_1_EMPTY_HEADER": "Ідентифікатор пацієнта",
        "NEW_PATIENT_QUESTION_1_RANGE": "Указаний ідентифікатор пацієнта за межами допустимого діапазону. {{{ patientIDRange }}}.  Укажіть дійсний ідентифікатор пацієнта.",
        "NEW_PATIENT_QUESTION_1_RANGE_HEADER": "Ідентифікатор пацієнта за межами діапазону",
        "NEW_PATIENT_QUESTION_1_UNIQUE": "Пацієнт уже існує.  Укажіть інший ідентифікатор пацієнта.",
        "NEW_PATIENT_QUESTION_1_UNIQUE_HEADER": "Ідентифікатор пацієнта дублює інший ідентифікатор",
        "NEW_PATIENT_QUESTION_2": "Ініціали пацієнта:",
        "NEW_PATIENT_QUESTION_2_EMPTY": "Укажіть ініціали пацієнта (мінімум 2 символи).",
        "NEW_PATIENT_QUESTION_2_EMPTY_HEADER": "Ініціали пацієнта",
        "NEW_PATIENT_QUESTION_3_TITLE": "<div class='question-title-large'>Вибір мови</div><div><strong>Центр: {{{ getSiteCode }}}</strong></div><div><strong>Користувач: {{{ getUserName }}}</strong</div><div><strong>Ідентифікатор пацієнта: {{{ getPatientID }}}</strong></div><br /><br />",
        "NEW_PATIENT_QUESTION_3": "Виберіть мову пацієнта",
        "NEW_PATIENT_CANCEL_CONFIRM": "Скасувати додавання пацієнта?",
        "NEW_PATIENT_CANCEL_BODY": "Якщо скасувати, пацієнта не буде зареєстровано.  Дійсно скасувати?",
        "NEW_PATIENT_AFFIDAVIT_HEADER": "<div><strong>Центр: {{{ getSiteCode }}}</strong><br /><strong>Користувач: {{{ getUserName }}}</strong><br /><strong>Ідентифікатор пацієнта: {{{ getPatientID }}}</strong></div>",
        "PATIENT_INITIALS": "Ініціали пацієнта:",
        "PATIENT_DELETED": "Невідомий пацієнт",
        "PATIENT_DELETED_MSG": "Не вдається знайти пацієнта.",
        "PATIENT_DELETED_SUBJECT_MSG": "Не вдається знайти пацієнта. Поверніть пристрій уповноваженому працівнику центру.",
        "PLEASE_CONTACT": "Зверніться до Центру підтримки ERT.",
        "PLEASE_TRY_OR_CONTACT_SUPPORT": "Повторіть спробу або зверніться до Центру підтримки ERT.",
        "REASON": "Причина:",
        "SET_TIMEZONE_MESSAGE": "Виберіть свій часовий пояс:",
        "SKIP_VISITS": "Пропустити візити",
        "SKIP_VISITS_QUESTION_1": "<div class='question-title-large'><strong>Причина</strong></div><br /><br /><div>Виберіть причину пропуску візитів:</div>",
        "SKIP_VISITS_REASON_0": "Час візиту минув",
        "SKIP_VISITS_REASON_1": "Помилка в адміністрації центру",
        "SKIP_VISITS_REASON_2": "Пацієнт не прийшов на візит у клініку.",
        "SKIP_VISITS_REASON_3": "Незастосовно.",
        "SKIP_VISITS_REASON_4": "Візит необов'язковий; не виконано.",
        "SKIP_VISITS_CANCEL_CONFIRM": "Скасувати пропуск візитів?",
        "SKIP_VISITS_CANCEL_BODY": "Якщо скасувати, візити не буде пропущено. Дійсно скасувати?",
        "SKIPPED_VISITS": "{{{ skippedVisits }}}",
		"USER_EDITED": "Користувача оновлено.",
        "USER_TO_ACTIVATE": "<strong>Користувач, якого слід активувати:</strong> <br />{{{ getSelectedUsername }}}<br /><br /><strong>Підпис:</strong> {{{ getActiveUserName }}}",
        "TIME_CONFIRMATION_INSTRUCTIONS": "Приладу потрібно підтвердити місцевий час. Уведіть свою дату та час, користуючись надійним джерелом.",
        "TIME_ZONE_ERROR_HEADER": "Помилка часового поясу",
        "TIME_ZONE_ERROR_MSG": "Під час отримання списку часових поясів сталася помилка. По додаткову допомогу звертайтеся до Центру підтримки ERT.",
        "TIME_ZONE_SET_ERROR_MSG": "Під час установлення часового поясу сталася помилка. По додаткову допомогу звертайтеся до Центру підтримки ERT.",
        "TIME_ZONE_SET_CONFIRM": "Дійсно встановити такий часовий пояс: {{{selectedTimeZone}}}? <br/> Програма може перезапуститися, щоб застосувати зміни.",
        "TIME_ZONE_SET_CONFIRM_NOCHANGE": "Дійсно встановити такий часовий пояс: {{{selectedTimeZone}}}?",
        "TIME_ZONE_SET_HEADER": "Підтвердження встановлення часового поясу",
        "TRAINER": "Режим навчання",
        "TRAINER_EXIT": "Вийти з режиму навчання",
        "TRAINER_EXIT_NOTIFICATION": "Ви виходите з режиму навчання",
        "TRAINER_HEADER": "(Навчання)",
		"VISIT_INACTIVE_HEADER": "Неактивний візит.",
        "VISIT_INACTIVE_MESSAGE": "Цей візит більше не активний.",
        "VISIT_INACTIVE_MESSAGE_SUBJECT": "Цей візит більше не активний. Поверніть пристрій уповноваженому працівнику центру.",
        "SITE_ADMINISTRATOR": "Адміністратор центру",
        "LOW_BATTERY": "Попередження. Низький рівень батареї. Для заряджання вставте пристрій в електричну розетку.",
        "CRITICAL_BATTERY": "Попередження. Надзвичайно низький рівень батареї. Для заряджання вставте пристрій в електричну розетку, або він вимкнеться.",
        "TIME_CONFIRMATION_HEADER": "Підтвердити дату/час",
        "TIMESLIP_ERROR": "У пристрої неправильні час і дата. Перейдіть у місце, де є з'єднання з Інтернетом, і повторіть спробу. Якщо проблема й надалі виникає, зверніться до Центру підтримки ERT.",
        "SUPPORT": "Підтримка клієнтів",
        "SUPPORT_MESSAGE": "Користувачі в США: зверніться в Центр підтримки ERT за телефоном 800-748-5669. Інші користувачі: виберіть найближчу країну в списку.",
        "SUPPORT_DROPDOWN": "Виберіть країну",
        "SUPPORT_NAME_ARGENTINA": "Аргентина",
        "SUPPORT_NUMBER_ARGENTINA": "<bdi>0800 444 0962</bdi>",
        "SUPPORT_NAME_ARMENIA": "Вірменія",
        "SUPPORT_NUMBER_ARMENIA": "<bdi>+1 617 681 6306</bdi>",
        "SUPPORT_NAME_AUSTRALIA": "Австралія",
        "SUPPORT_NUMBER_AUSTRALIA": "<bdi>1 800 800 051</bdi>",
        "SUPPORT_NAME_AUSTRIA": "Австрія",
        "SUPPORT_NUMBER_AUSTRIA": "<bdi>0800 100 405</bdi>",
        "SUPPORT_NAME_BELARUS": "Білорусь",
        "SUPPORT_NUMBER_BELARUS": "<bdi>8 820 0321 0036</bdi>",
        "SUPPORT_NAME_BELGIUM": "Бельгія",
        "SUPPORT_NUMBER_BELGIUM_1": "(англійська): <bdi>0800 58 016</bdi>",
        "SUPPORT_NUMBER_BELGIUM_2": "(французька): <bdi>0800 71 076</bdi>",
        "SUPPORT_NUMBER_BELGIUM_3": "(німецька): <bdi>0800 71 113</bdi>",
        "SUPPORT_NAME_BRAZIL": "Бразілія",
        "SUPPORT_NUMBER_BRAZIL": "<bdi>0800 891 5909</bdi>",
        "SUPPORT_NAME_BOSNIA": "Боснія",
        "SUPPORT_NUMBER_BOSNIA": "<bdi>+1 617 681 6306</bdi>",
        "SUPPORT_NAME_BULGARIA": "Болгарія",
        "SUPPORT_NUMBER_BULGARIA": "<bdi>00800 0010</bdi>, потім <bdi>866 245 4931</bdi>",
        "SUPPORT_NAME_CANADA": "Канада",
        "SUPPORT_NUMBER_CANADA": "<bdi>1 800 748 5669</bdi>",
        "SUPPORT_NAME_CHILE": "Чілі",
        "SUPPORT_NUMBER_CHILE": "<bdi>123 0020 3408</bdi>",
        "SUPPORT_NAME_CHINA": "Китай",
        "SUPPORT_NUMBER_CHINA_1": "NetCom (північ): <bdi>1 0800 74 40 164</bdi>",
        "SUPPORT_NUMBER_CHINA_2": "Telecom (південь): <bdi>1 0800 44 00 158</bdi>",
        "SUPPORT_NAME_COLOMBIA": "Колумбія",
        "SUPPORT_NUMBER_COLOMBIA": "<bdi>01 800 911 0010</bdi>, потім <bdi>866 310 3707</bdi>",
        "SUPPORT_NAME_COSTA_RICA": "Коста-Ріка",
        "SUPPORT_NUMBER_COSTA_RICA": "<bdi>0800 013 1210</bdi>",
        "SUPPORT_NAME_CROATIA": "Хорватія",
        "SUPPORT_NUMBER_CROATIA": "<bdi>0800 222 953</bdi>",
        "SUPPORT_NAME_CZECH_REPUBLIC": "Чехія",
        "SUPPORT_NUMBER_CZECH_REPUBLIC": "<bdi>800 142 150</bdi>",
        "SUPPORT_NAME_DENMARK": "Данія",
        "SUPPORT_NUMBER_DENMARK": "<bdi>80 60 00 09</bdi>",
        "SUPPORT_NAME_EGYPT": "Єгипет",
        "SUPPORT_NUMBER_EGYPT": "<bdi>02 510 0200</bdi>, потім <bdi>866 310 3707</bdi>",
        "SUPPORT_NAME_EL_SALVADOR": "Сальвадор",
        "SUPPORT_NUMBER_EL_SALVADOR": "<bdi>+1 617 681 6306</bdi>",
        "SUPPORT_NAME_ESTONIA": "Естонія",
        "SUPPORT_NUMBER_ESTONIA": "<bdi>800 00 44 154</bdi>",
        "SUPPORT_NAME_FINLAND": "Фінляндія",
        "SUPPORT_NUMBER_FINLAND": "<bdi>0800 11 6366</bdi>",
        "SUPPORT_NAME_FRANCE": "Франція",
        "SUPPORT_NUMBER_FRANCE": "<bdi>0800 10 19 79</bdi>",
        "SUPPORT_NAME_GERMANY": "Німеччина",
        "SUPPORT_NUMBER_GERMANY": "<bdi>0800 101 28 21</bdi>",
        "SUPPORT_NAME_GREECE": "Греція",
        "SUPPORT_NUMBER_GREECE": "<bdi>00 800 1311</bdi>, потім <bdi>866 310 3707</bdi>",
        "SUPPORT_NAME_GUATEMALA": "Ґватемала",
        "SUPPORT_NUMBER_GUATEMALA": "<bdi>1 800 624 0079</bdi>",
        "SUPPORT_NAME_HONG_KONG": "Гонконг",
        "SUPPORT_NUMBER_HONG_KONG": "<bdi>3002 1665</bdi>",
        "SUPPORT_NAME_HUNGARY": "Угорщина",
        "SUPPORT_NUMBER_HUNGARY": "<bdi>06 800 14 571</bdi>",
        "SUPPORT_NAME_ICELAND": "Ісландія",
        "SUPPORT_NUMBER_ICELAND": "<bdi>800 8544</bdi>",
        "SUPPORT_NAME_INDIA": "Індія",
        "SUPPORT_NUMBER_INDIA": "<bdi>000 800 440 1125</bdi>",
        "SUPPORT_NAME_INDONESIA": "Індонезія",
        "SUPPORT_NUMBER_INDONESIA": "<bdi>008 800 330 334</bdi>",
        "SUPPORT_NAME_IRELAND": "Ірландія",
        "SUPPORT_NUMBER_IRELAND": "<bdi>1 800 946 700</bdi>",
        "SUPPORT_NAME_ISRAEL": "Ізраїль",
        "SUPPORT_NUMBER_ISRAEL": "<bdi>1 809 470 062</bdi>",
        "SUPPORT_NAME_ITALY": "Італія",
        "SUPPORT_NUMBER_ITALY": "<bdi>800 90 56 37</bdi>",
        "SUPPORT_NAME_JAPAN": "Японія",
        "SUPPORT_NUMBER_JAPAN": "Безкоштовний номер гарячої лінії для Вашого дослідження дивіться в посібнику ePRO.",
        "SUPPORT_NAME_LATVIA": "Латвія",
        "SUPPORT_NUMBER_LATVIA": "<bdi>8000 2151</bdi>",
        "SUPPORT_NAME_LEBANON": "Ліван",
        "SUPPORT_NUMBER_LEBANON": "<bdi>01-426-801</bdi>, потім <bdi>866 310 3707</bdi>",
        "SUPPORT_NAME_LITHUANIA": "Литва",
        "SUPPORT_NUMBER_LITHUANIA": "<bdi>8800 30207</bdi>",
        "SUPPORT_NAME_MALAYSIA": "Малайзія",
        "SUPPORT_NUMBER_MALAYSIA": "<bdi>1800 80 59 71</bdi>",
        "SUPPORT_NAME_MEXICO": "Мексика",
        "SUPPORT_NUMBER_MEXICO_1": "(англійська): <bdi>001 800 748 5669</bdi> ",
        "SUPPORT_NUMBER_MEXICO_2": "(іспанська): <bdi>001 855 631 6952</bdi>",
        "SUPPORT_NAME_MOLDOVA": "Молдова",
        "SUPPORT_NUMBER_MOLDOVA": "<bdi>617 681 6306</bdi>",
        "SUPPORT_NAME_NETHERLANDS": "Нідерланди",
        "SUPPORT_NUMBER_NETHERLANDS": "<bdi>0800 023 1389</bdi>",
        "SUPPORT_NAME_NEW_ZEALAND": "Нова Зеландія",
        "SUPPORT_NUMBER_NEW_ZEALAND": "<bdi>0800 110 178</bdi>",
        "SUPPORT_NAME_NORWAY": "Норвеґія",
        "SUPPORT_NUMBER_NORWAY": "<bdi>800 62 051</bdi>",
        "SUPPORT_NAME_PAKISTAN": "Пакистан",
        "SUPPORT_NUMBER_PAKISTAN": "<bdi>00 800 0100</bdi>, потім <bdi>866 237 9767</bdi>",
        "SUPPORT_NAME_PANAMA": "Панама",
        "SUPPORT_NUMBER_PANAMA": "<bdi>001 800 201 3095</bdi>",
        "SUPPORT_NAME_PERU": "Перу",
        "SUPPORT_NUMBER_PERU": "<bdi>0800 5 0974</bdi>",
        "SUPPORT_NAME_PHILIPPINES": "Філіппіни",
        "SUPPORT_NUMBER_PHILIPPINES": "<bdi>1 800 1116 0651</bdi>",
        "SUPPORT_NAME_POLAND": "Польща",
        "SUPPORT_NUMBER_POLAND": "<bdi>00800 331 1262</bdi>",
        "SUPPORT_NAME_PORTUGAL": "Портуґалія",
        "SUPPORT_NUMBER_PORTUGAL": "<bdi>800 206 172</bdi>",
        "SUPPORT_NAME_PUERTO_RICO": "Пуерто-Ріко (територія США)",
        "SUPPORT_NUMBER_PUERTO_RICO": "<bdi>1 800 748 5669</bdi>",
        "SUPPORT_NAME_ROMANIA": "Румунія",
        "SUPPORT_NUMBER_ROMANIA": "<bdi>0800 894492</bdi>",
        "SUPPORT_NAME_RUSSIA": "Росія",
        "SUPPORT_NUMBER_RUSSIA_1": "(основний безкоштовний номер): <bdi>8 10 800 249 13011</bdi>",
        "SUPPORT_NUMBER_RUSSIA_2": "(у Москві): <bdi>363-2400</bdi>, <br>потім <bdi>866 310 3707</bdi>",
        "SUPPORT_NUMBER_RUSSIA_3": "(за межами Москви): <bdi>8^(495) 363-2400</bdi>, <br>потім <bdi>866 310 3707</bdi>",
        "SUPPORT_NUMBER_RUSSIA_4": "(у Санкт-Петербурзі): <bdi>363-2400</bdi>, <br>потім <bdi>866 310 3707</bdi>",
        "SUPPORT_NUMBER_RUSSIA_5": "(за межами Санкт-Петербургу): <bdi>8^(495) 363-2400</bdi>, <br>потім <bdi>866 310 3707</bdi>",
        "SUPPORT_NAME_SAUDI_ARABIA": "Саудівська Аравія",
        "SUPPORT_NUMBER_SAUDI_ARABIA": "<bdi>+1 617 681 6306</bdi>",
        "SUPPORT_NAME_SERBIA": "Сербія",
        "SUPPORT_NUMBER_SERBIA": "<bdi>+1 617 973 1739</bdi>",
        "SUPPORT_NAME_SINGAPORE": "Сінгапур",
        "SUPPORT_NUMBER_SINGAPORE": "<bdi>800 616 30 03</bdi>",
        "SUPPORT_NAME_SLOVAKIA": "Словаччина",
        "SUPPORT_NUMBER_SLOVAKIA": "<bdi>0800 0044 65</bdi>",
        "SUPPORT_NAME_SLOVENIA": "Словенія",
        "SUPPORT_NUMBER_SLOVENIA": "<bdi>+1 617 681 6306</bdi>",
        "SUPPORT_NAME_SOUTH_AFRICA": "Південна Африка",
        "SUPPORT_NUMBER_SOUTH_AFRICA": "<bdi>0800 99 5853</bdi>",
        "SUPPORT_NAME_SOUTH_KOREA": "Республіка Корея",
        "SUPPORT_NUMBER_SOUTH_KOREA": "<bdi>00308 33 00 08</bdi>",
        "SUPPORT_NAME_SPAIN": "Іспанія",
        "SUPPORT_NUMBER_SPAIN": "<bdi>900 90 2541</bdi>",
        "SUPPORT_NAME_SWEDEN": "Швеція",
        "SUPPORT_NUMBER_SWEDEN": "<bdi>020 120 99 69</bdi>",
        "SUPPORT_NAME_SWITZERLAND": "Швейцарія",
        "SUPPORT_NUMBER_SWITZERLAND_1": "(англійська): <bdi>0800 199 325</bdi>",
        "SUPPORT_NUMBER_SWITZERLAND_2": "(французька): <bdi>0800 891 183</bdi>",
        "SUPPORT_NUMBER_SWITZERLAND_3": "(німецька): <bdi>0800 891 025</bdi>",
        "SUPPORT_NAME_TAIWAN": "Тайвань",
        "SUPPORT_NUMBER_TAIWAN": "<bdi>00801 33 33 42</bdi>",
        "SUPPORT_NAME_THAILAND": "Таїланд",
        "SUPPORT_NUMBER_THAILAND": "<bdi>1 800 33 140 353</bdi>",
        "SUPPORT_NAME_TUNISIA": "Туніс",
        "SUPPORT_NUMBER_TUNISIA": "<bdi>+1 617 681 6306</bdi>",
        "SUPPORT_NAME_TURKEY": "Туреччина",
        "SUPPORT_NUMBER_TURKEY": "<bdi>00 800 151 1335</bdi>",
        "SUPPORT_NAME_UKRAINE": "Україна",
        "SUPPORT_NUMBER_UKRAINE": "<bdi>0^00 11</bdi>, потім <bdi>866 245 4931</bdi>",
        "SUPPORT_NAME_UAE": "Об’єднані Арабські Емірати",
        "SUPPORT_NUMBER_UAE": "<bdi>8000-021</bdi>, потім <bdi>866 310 3707</bdi>",
        "SUPPORT_NAME_UK": "Велика Британія",
        "SUPPORT_NUMBER_UK": "<bdi>0800 015 0408</bdi>",
        "SUPPORT_NAME_US": "США",
        "SUPPORT_NUMBER_US_1": "(основний номер): <bdi>1 800 748 5669</bdi>",
        "SUPPORT_NUMBER_US_2": "(резервний номер): <bdi>1 877 748 5669</bdi>",
        "SUPPORT_NAME_VENEZUELA": "Венесуела",
        "SUPPORT_NUMBER_VENEZUELA_1": "(англійська): <bdi>0 800 552 6288</bdi>, <br>потім <bdi>866 310 3707</bdi> ",
        "SUPPORT_NUMBER_VENEZUELA_2": "(іспанська): <bdi>0 800 100 3063</bdi> ",
        "ABOUT": "Відомості",
        "CORE_PRODUCT_VERSION_LABEL": "Версія продукту:",
        "PROTOCOL": "Протокол:",
        "SPONSOR": "Спонсор:",
        "STORED_REPORTS": "Збережені форми:",
        "STUDY_VERSION": "Версія дослідження: ",
        "STUDY_URL": "URL-адреса дослідження:",
        "P_AFFIDAVIT_HEADER": "<div><strong>Центр: {{{ getSiteCode }}}</strong><br /><strong>Ідентифікатор пацієнта: {{{ getPatientIdNumber }}}</strong></div>",
		"SET_TIMEZONE": "Установити часовий пояс",
		"DEVICE_SERIAL_NUMBER": "Серійний номер пристрою",
		"NONEXISTENT_USER": "Здійснено спробу оновити ненаявного користувача.",
		"SCREENING" : "Огляд",
		"TREATMENT" : "Лікування",
		"RANDOMIZATION" : "Рандомізація",
		"FOLLOWUP" : "Контроль",
		"TERMINATION" : "Припинення",
        "ACCEPT": "Приймаю",
        "DECLINE": "Відмовляюсь",
		"EULA": "ЛІЦЕНЗІЙНА УГОДА",
        "EULA_TEXT": "<p><strong><span class=\"text-underline\">УВАГА</span>!  НЕ НАТИСКАЙТЕ КНОПКУ \"ПРИЙМАЮ\", ДОКИ НЕ ОЗНАЙОМИТЕСЯ З ЦІЄЮ УГОДОЮ. НАТИСКАЮЧИ КНОПКУ \"ПРИЙМАЮ\", ВИ ПОГОДЖУЄТЕСЯ З УСІМА УМОВАМИ ЦІЄЇ УГОДИ. ЯКЩО ВИ НЕ ПОГОДЖУЄТЕСЯ З УСІМА УМОВАМИ ЦІЄЇ УГОДИ (1), НЕ НАТИСКАЙТЕ КНОПКУ \"ПРИЙМАЮ\", І (2) ПРИПИНІТЬ ІНСТАЛЯЦІЮ Й ПРОЦЕДУРУ ЛІЦЕНЗУВАННЯ, НАТИСНУВШИ КНОПКУ \"ВІДМОВЛЯЮСЬ\".</strong></p><p>eResearchTechnology, Inc. (\"Ліцензіар\") надає вам неексклюзивне право використовувати програмне забезпечення eResearchTechnology, Inc., інтегроване в цей пристрій (\"Програмне забезпечення\"), що не підлягає передачі, у зв’язку з участю в клінічному дослідженні: <strong>{{{ clinicalTrial }}}</strong>. Програмне забезпечення eResearchTechnology, Inc. охороняється виданими патентами. Крім того, деякі патенти очікують на розгляд. Ця Угода не передає вам жодних прав власності на будь-яке Програмне забезпечення (або його копії) і являє собою лише ліцензію на використання Програмного забезпечення відповідно до всіх умов цієї Угоди. Право на використання Програмного забезпечення та всіх його частин, а також усі пов’язані права власності та інтелектуальні права залишаються в Ліцензіара за будь-яких обставин.</p><p>Ви погоджуєтесь, що не будете, прямо чи опосередковано, а) реконструювати, розбирати чи декомпілювати Програмне забезпечення; б) копіювати, поширювати, виготовляти, адаптувати чи створювати похідні роботи, а також перекладати, локалізувати, під’єднувати через порт або іншим способом змінювати Програмне забезпечення; або в) вилучати чи змінювати будь-які авторські права, комерційну таємницю чи іншу юридичну інформацію, що міститься на Програмному забезпеченні або в ньому. ВИ ВИЗНАЄТЕ ТА ПОГОДЖУЄТЕСЬ, ЩО ПРОГРАМНЕ ЗАБЕЗПЕЧЕННЯ МОЖЕ МІСТИТИ КОД, ЯКИЙ ПЕРЕШКОДЖАЄ НЕСАНКЦІОНОВАНОМУ ВИКОРИСТАННЮ ПРОГРАМНОГО ЗАБЕЗПЕЧЕННЯ.</p><br><p>ЯКЩО ВИ ЗГОДНІ З УСІМ ВИЩЕЗАЗНАЧЕНИМ, виберіть <strong>Приймаю</strong>. Натискаючи кнопку \"Приймаю\", ви погоджуєтеся з умовами Угоди.</p><p>ЯКЩО ВИ НЕ ЗГОДНІ З УСІМ ВИЩЕЗАЗНАЧЕНИМ або не маєте відповідних повноважень, виберіть <strong>Відмовляюсь</strong>. У такому випадку подальший доступ до Програмного забезпечення буде заблоковано. Якщо ви маєте необхідні повноваження, можете прийняти умови іншим разом.</p>",
        "VISIT_EXPIRED_HEADER": "Час візиту минув",
        "VISIT_EXPIRED_MESSAGE": "Візит більше недоступний, тому що його час минув.",
        "VISIT_EXPIRED_MESSAGE_SUBJECT": "Візит більше недоступний, тому що його час минув. Поверніть пристрій уповноваженому працівнику центру.",
        "SQ-AL": "Албанська",
        "IMAGE_FOLDER": "{{{ imageFolder }}}",
		"MODAL_OK_TEXT": "OK",
        "BROWSER_LOAD_ERROR": "Сторінку не знайдено. Перевірте підключення до Інтернету та повторіть спробу.",
		"NO_USER_OF_ROLE" : "Користувача з цією роллю не знайдено.",
        "EDIT_PATIENT_REASON_1": "Виправлення даних атрибута",
        "EDIT_PATIENT_REASON_2": "Змінення ідентифікатора",
        "EDIT_PATIENT_REASON_3": "Вибрано неправильну мову",
		"START_VISIT_OUTSIDE_WINDOW_MSG": "Запланувати {{{ getVisitName }}} за межами налаштованого проміжку часу: {{{ startDate }}} - {{{ endDate }}}",
		"START_VISIT_HARD_STOP_MSG" : "Не можна запланувати {{{ getVisitName }}} за межами налаштованого проміжку часу: {{{ startDate }}} - {{{ endDate }}}",
		"USER_NAME_INVALID_CHARACTERS" : "Не використовуйте спеціальні символи",
		"ERROR_PATIENT_SAVE" : "Під час додавання нового пацієнта сталася помилка",
		"PASSWORD_CHANGE_FAILED" : "Для збирання даних дослідження активовано інший пристрій. Змініть свій пароль на тому пристрої.",
		"ERROR" : "Помилка. Зверніться до Центру підтримки ERT.",
		"ERROR_AFTER_ACTIVATION_SUCCESSFUL" : "Сталася помилка. Потрібно ввести код установлення та пароль.",
		"CONNECTION_TIMEOUT" : "Закінчився час очікування з’єднання.",
		"UPDATE_FAILED" : "Оновлення компонента ERT не виконано. Переконайтеся, що цей пристрій підключений до Інтернету, і повторіть спробу.",
        "QR_CODE_UNAVAILABLE": "Клацніть пацієнта, щоб оновити QR-код.",
        "QR_MODAL_TITLE": "QR-код для: ",
        "TRANSMIT_FAILED_403_14": "Не вдалося виконати одну або кілька передач, оскільки створення пацієнта не завершено. Зачекайте й спробуйте ще раз.",
        "CONSOLE_LOG": "Журнал консолі",
		"USER_SELECT_ROLE_VALIDATION": "Необхідно вибрати роль.",
        "USER_SELECT_LANGUAGE_VALIDATION": "Необхідно вибрати мову."
    },
    "dates": {
        "setDateButtonLabel": "Установити дату",
        "setTimeButtonLabel": "ОК",
        "setDurationButtonLabel": "Установити тривалість",
        "calTodayButtonLabel": "Перейти до сьогоднішньої дати",
        "titleDateDialogLabel": "Установити дату",
        "titleTimeDialogLabel": "Установити час",
        "daysOfWeek": [
            "Неділя",
            "Понеділок",
            "Вівторок",
            "Середа",
            "Четвер",
            "П’ятниця",
            "Субота"
        ],
        "daysOfWeekShort": [
            "Нд",
            "Пн",
            "Вт",
            "Ср",
            "Чт",
            "Пт",
            "Сб"
        ],
        "monthsOfYear": [
            "січень",
            "лютий",
            "березень",
            "квітень",
            "травень",
            "червень",
            "липень",
            "серпень",
            "вересень",
            "жовтень",
            "листопад",
            "грудень"
        ],
        "monthsOfYearShort": [
            "Січ",
            "Лют",
            "Бер",
            "Кві",
            "Тра",
            "Чер",
            "Лип",
            "Сер",
            "Вер",
            "Жов",
            "Лис",
            "Гру"
        ],
        "durationLabel": [
            "Дні",
            "Години",
            "Хвилини",
            "Секунди"
        ],
        "durationDays": [
            "День",
            "Дні"
        ],
        "tooltip": "Відкрити засіб вибору дати",
        "nextMonth": "Наступний місяць",
        "prevMonth": "Попередній місяць",
        "clearButton": "Очистити",
        "meridiem": [
            "До полудня",
            "Після полудня"
        ]
    }
}
