{
	"namespace": "STM",
	"language": "es",
	"locale": "US",
	"direction": "ltr",
	"resources": {
		"DISPLAY_NAME": "Módulo de capacitación para sujetos",
		"SubjectTrainingModule_STM010_Q1_TEXT": "Módulo de capacitación para sujetos",
		"SubjectTrainingModule_STM010_Q1_TITLE": "",
		"SubjectTrainingModule_STM010_1_Q1_W1":"Haga clic aquí para iniciar el Módulo de capacitación para sujetos"
	}
}