{
    "namespace": "CORE",
    "language": "es",
    "locale": "PY",
    "localized": "Español (universal)",
    "direction": "ltr",
    "resources": {
        "ABOUT": "Acerca de",
        "ACTIVATED_ELSEWHERE": "Se ha activado otro dispositivo para recopilar sus datos del estudio. Póngase en contacto con el Coordinador del estudio, si considera que se trata de un error.",
        "ACTIVATION_CODE": "Código de configuración:",
        "AFFIDAVIT": "Seleccione OK y luego Siguiente cuando esté listo para guardar sus respuestas.",
        "AFFIDAVIT_HELP": "Gracias. Ha proporcionado todas las respuestas requeridas. Puede revisar y modificar sus respuestas seleccionando Atrás.",
        "ANSWER_ATTEMPT_EXCEEDED": "Ha escrito una respuesta incorrecta demasiadas veces o ha hecho clic en el vínculo de olvido de respuesta de seguridad.",
        "APPLICATION_HEADER": "{{{ appHeader }}}",
        "BACK": "Atrás",
        "BACK_OUT_CONFIRM": "¿Está seguro de que desea salir? Se perderán las respuestas de este formulario.",
        "CANCEL": "Cancelar",
        "CANCEL_UPDATE": "Cancelar Actualizar",
        "CHANGE_PASSWORD": "Cambiar contraseña",
        "CHANGE_SECRET_QUESTION": "Cambiar pregunta de seguridad",
        "CODE_ENTRY_NO_SERVER": "Servidor no disponible",
        "CONNECTION_REQUIRED": "Se requiere una conexión de internet.",
        "CONNECTION_TIMEOUT": "La conexión superó el tiempo de espera.",
        "CONFIRM_PASSWORD": "Confirmar la contraseña:",
        "CONTACT_STUDY_COORDINATOR": "Póngase en contacto con el Coordinador del estudio",
        "CONTACT_UNLOCK_CODE": "Póngase en contacto con su Coordinador del estudio para obtener el código de desbloqueo de hoy:",
        "CORE_PRODUCT_VERSION_LABEL": "Versión del producto:",
        "CURRENT_DATE": "{{{ currentDate }}}",
        "CURRENT_PASSWORD": "Contraseña actual:",
        "DATE_LBL": "Fecha:",
        "DEACTIVATED_LABEL": "Su uso de ERT para este estudio ha terminado. Póngase en contacto con su Coordinador del estudio si esto es incorrecto.",
        "DEVICE_ACTIVATION": "Configuración",
        "DEVICE_NOT_SUPPORTED": "Este dispositivo no es compatible. Comuníquese con el coordinador de su estudio para obtener información sobre los dispositivos aprobados para uso en este estudio.",
        "DEVICE_REACTIVATION": "Configuración del dispositivo",
        "DIARY_TIMEOUT": "Este formulario ha superado el tiempo de espera.",
        "DOWNLOAD_FAILED": "Se interrumpió la descarga de la aplicación. Vuelva a intentarlo cuando tenga una conexión de internet o póngase en contacto con el Centro de soporte de ERT.",
        "DOWNLOAD_FAILURE": "Se interrumpió la descarga",
        "ENTER_NEW_PASSWORD": "Nueva contraseña:",
        "ERROR": "Error.  Comuníquese con el Centro de soporte técnico de ERT.",
        "ERROR_AFTER_ACTIVATION_SUCCESSFUL": "Ocurrió un error. Deberá escribir su código de configuración y su contraseña.",
        "ERROR_CODE": "Código de error:",
        "ERROR_TITLE": "Error",
        "FORGOT_PASSWORD": "¿Olvidó la contraseña?",
        "FORGOT_SECRET_ANSWER": "¿Olvidó su respuesta de seguridad?",
        "INCORRECT_ANSWER": "Respuesta incorrecta",
        "INCORRECT_UNLOCK_CODE": "Código de desbloqueo incorrecto",
        "INSTALLING": "Instalando aplicación",
        "INVALID_CODE": "Código de configuración no válido",
        "LOCAL_STORAGE_FAILURE": "Falla de almacenamiento local",
        "LOG_IN": "Iniciar sesión",
        "LOG_LEVEL": "Nivel de registro:",
        "LOGOUT": "Cerrar sesión",
        "LOGOUT_CONFIRM": "¿Está seguro de que desea cerrar sesión?",
        "NEXT": "Siguiente",
        "NEXT_ACTION": " Es hora de su siguiente acción en ERT ",
        "NO_DIARIES_TITLE": "No hay formulario para ingresar",
        "OK": "Aceptar",
        "PASSWORD": "Contraseña:",
        "PASSWORD_ATTEMPT_EXCEEDED": "Ha escrito una contraseña incorrecta demasiadas veces o ha hecho clic en el vínculo de olvido de contraseña.",
        "PASSWORD_CHANGE_FAILED": "Se ha activado otro dispositivo para recopilar sus datos del estudio. Cambie su contraseña en ese dispositivo.",
        "PASSWORD_CHANGE_SUCCESS": "Ha actualizado correctamente su contraseña.",
        "PASSWORD_INVALID": "Contraseña incorrecta",
        "PLEASE_ANSWER_SQ": "Responda su pregunta de seguridad:",
        "PLEASE_CONFIRM": "Confirme",
        "PLEASE_CONTACT": "Comuníquese con el Centro de soporte técnico de ERT.",
        "PLEASE_TRY_OR_CONTACT_SUPPORT": "Vuelva a intentarlo o póngase en contacto con el Centro de soporte técnico de ERT.",
        "PLEASE_WAIT": "Espere",
        "PORTRAIT_ONLY": "Sostenga su dispositivo en posición vertical.",
        "PRIVATE_BROWSING_ON": "Desactive la navegación privada. Si continúa teniendo problemas, póngase en contacto con el Coordinador del estudio.",
        "PRIVACY_POLICY": "Política de privacidad",
        "PRIVACY_POLICY_APPLICATION_UNAVAILABILITY": "La política de privacidad de ERT no está disponible en este momento.",
        "PRIVACY_POLICY_ACTIVATION_UNAVAILABILITY": "La política de privacidad de ERT no está disponible en este momento. La política de privacidad de ERT está disponible en la página de configuración después de la activación.",
        "PROTOCOL": "Protocolo:",
        "REQUIRED_ANSWER": "Responda",
        "RETRY": "Trate otra vez",
        "RESET_PASSWORD": "Restablecer contraseña",
        "RESET_SECRET_QUESTION": "Restablecer pregunta de seguridad",
        "SECRET_ANSWER": "Respuesta de seguridad:",
        "SECRET_QUESTION": "Pregunta de seguridad:",
        "SECRET_QUESTION_CHANGE_FAILED": "Se ha activado otro dispositivo para recopilar sus datos del estudio. Cambie su pregunta de seguridad en ese dispositivo.",
        "SECRET_QUESTION_CHANGE_SUCCESS": "Ha actualizado correctamente su contraseña y su pregunta de seguridad.",
        "SETTINGS": "Configuración",
        "SITE": "Sitio:",
        "SKIP_QUESTION": "¿Está seguro de que desea omitir respuestas en esta pantalla?",
        "SPONSOR": "Patrocinador:",
        "STORED_REPORTS": "Formularios almacenados:",
        "STUDY_VERSION": "Versión del estudio: ",
        "STUDY_URL": "URL del estudio:",
        "SUBJECT_ID": "Código del paciente:",
        "TEMPORARY_UNLOCK_CODE": "Escriba el código de desbloqueo proporcionado por el Coordinador del estudio.",
        "TRANSMIT_REPORTS": "Actualizar",
        "UPDATE_CACHED_DELETED": "La actualización de ERT no se completó. Necesitará una conexión de internet para utilizar ERT. Comuníquese con su Centro de soporte técnico de ERT.",
        "UPDATE_FAILED": "La actualización de ERT no se completó. Compruebe que este dispositivo esté conectado a internet y vuelva a intentarlo.",
        "UPDATE_FAILURE": "La actualización no se completó",
        "UPDATE_SUCCESS": "Actualización exitosa",
        "WELCOME": "Bienvenido",
        "ALARM_OFF_LBL": "Apagado",
        "ALARM_TURN_OFF": "Apagar",
        "SET_ALARMS": "Ajustar alarmas",
        "SCHED_NO_DIARIES_AVAILABLE": "No se deben informes en este momento",
        "TRAINER": "Modo entrenador",
        "TRAINER_EXIT": "Salir del modo entrenador",
        "TRAINER_EXIT_NOTIFICATION": "Está saliendo del modo entrenador",
        "TRAINER_HEADER": "(entrenador)",
        "ELPU_FAILURE": "Su uso de este dispositivo ERT ha finalizado pero ocurrió un error. Trate otra vez.",
        "ELPU_ON_REPLACED_DEVICE": "Su uso de este dispositivo ERT ha terminado. Utilice su dispositivo de repuesto.",
        "SECURITY_QUESTION_0": "¿Cuál es el apellido de soltera de su madre?",
        "SECURITY_QUESTION_1": "¿En qué ciudad nació?",
        "SECURITY_QUESTION_2": "¿Cómo se llamaba su primera mascota?",
        "SECURITY_QUESTION_3": "¿Cuál es su deporte favorito?",
        "SECURITY_QUESTION_4": "¿En qué año se graduó?",
        "SECURITY_QUESTION_5": "¿Cuál es el nombre del medio de su hijo mayor?",
        "SECURITY_QUESTION_6": "¿Cómo se llama su mejor amigo de la infancia?",
        "SECURITY_QUESTION_7": "¿Cómo se llamaba su maestro de tercer grado?",
        "SECURITY_QUESTION_8": "¿En qué ciudad o pueblo tuvo su primer trabajo?",
        "SELECT_SITE_USER": "Seleccionar nombre del usuario del centro",
        "SITE_USER_NAME": "Nombre del usuario del centro:",
        "ADD_SITE_USER": "Agregar un usuario del centro",
        "INVALID_ENTRY": "Entrada inválida",
        "HANDOFF_MESSAGE": "<strong>El paciente debe completar la siguiente serie de pantallas para establecer su código de acceso al formulario.</strong>",
        "REVERSE_HANDOFF_CONFIRM": "Al seleccionar OK, se reiniciará el proceso de activación. ¿Está seguro de que desea reiniciar la activación?",
        "SITE_GATEWAY_TITLE": "Puerta de enlace del centro",
        "USER_ALREADY_EXISTS": "El usuario ya existe",
        "SITE_SIGNATURE": "Firma de: ",
        "SITE_REPORT_AFF": "He introducido, he comprobado y confirmo los datos anteriores.<br /><br /><strong>Firma de:</strong> {{{ getActiveUserName }}}",
        "PATIENT_REPORT_AFF": "He introducido, he comprobado y confirmo los datos anteriores.<br /><br /><strong>Iniciales de:</strong> {{{ getActiveUserName }}}",
        "CLEAR_SIGNATURE": "Borrar firma",
        "STUDY_ALIAS": "{{{ studyAlias }}}",
        "SITE_ACTIVATED_ELSEWHERE": "Se ha activado otro dispositivo para recopilar los datos del estudio del paciente. Póngase en contacto con el Coordinador del estudio, si considera que se trata de un error.",
        "SITE_DEACTIVATED_LABEL": "El uso de ERT por parte del paciente para este estudio ha terminado. Póngase en contacto con el Coordinador del estudio si esto es incorrecto.",
        "SIGNATURE_DATA_LIMIT_EXCEEDED": "El cuadro de firma no pudo representar su firma exactamente como la trazó. Use sus iniciales para firmar.",
        "PAIRED": "Emparejado",
        "BLUETOOTH_REG_TITLE": "Emparejamiento del dispositivo eSense",
        "BLUETOOTH_REG_REFRESH_BUTTON": "Actualizar lista",
        "BLUETOOTH_PAIR_DEVICE": "Emparejar dispositivo seleccionado",
        "BLUETOOTH_PAIRING_FAILED": "El emparejamiento con el dispositivo seleccionado no tuvo éxito. Inténtelo de nuevo.",
        "BLUETOOTH_PAIRING_SUCCESS": "El emparejamiento con el dispositivo seleccionado se realizó correctamente.",
        "BLUETOOTH_REG_NO_DEVICES_FOUND": "No se encontraron dispositivos . Compruebe que el dispositivo esté cerca de ERT y en modo de transmisión.",
        "SYNC_FAILED": "Error de sincronización con el servidor.",
        "DIARY_REQUIRES_E_SENSE_SUPPORT": "eSense no es compatible. Este formulario requiere compatibilidad con eSense.",
        "ERROR_E_SENSE_ENABLE": "eSense no se pudo activar.",
        "E_SENSE_NOT_PAIRED": "No hay un dispositivo eSense emparejado. Este formulario requiere un dispositivo eSense emparejado.",
        "BLUETOOTH_SYNC_FAILURE_TOP": "ERT no logró comunicarse con el dispositivo {{{ eSenseDeviceName }}}.",
        "BLUETOOTH_SYNC_FAILURE_MIDDLE": "Compruebe que el dispositivo {{{ eSenseDeviceName }}} número {{{ eSenseSerialNumber }}} esté cerca de ERT y en modo de transmisión.",
        "PLUGIN_MISSING": "No se pudo cargar el complemento requerido.",
        "WRAPPER_VERSION": "Versión wrapper:",
        "SUPPORT": "Soporte al cliente",
        "SUPPORT_MESSAGE": "Los usuarios de Estados Unidos pueden contactar con el Centro de asistencia de ERT a través del número 800-748-5669. Los usuarios internacionales deben seleccionar el país más cercano de la siguiente lista:",
        "SUPPORT_DROPDOWN": "Seleccione su país",
        "SUPPORT_NAME_ARGENTINA": "Argentina",
        "SUPPORT_NUMBER_ARGENTINA": "<bdi>0800 444 0962</bdi>",
        "SUPPORT_NAME_ARMENIA": "Armenia",
        "SUPPORT_NUMBER_ARMENIA": "<bdi>+1 617 681 6306</bdi>",
        "SUPPORT_NAME_AUSTRALIA": "Australia",
        "SUPPORT_NUMBER_AUSTRALIA": "<bdi>1 800 800 051</bdi>",
        "SUPPORT_NAME_AUSTRIA": "Austria",
        "SUPPORT_NUMBER_AUSTRIA": "<bdi>0800 100 405</bdi>",
        "SUPPORT_NAME_BELARUS": "Bielorrusia",
        "SUPPORT_NUMBER_BELARUS": "<bdi>8 820 0321 0036</bdi>",
        "SUPPORT_NAME_BELGIUM": "Bélgica",
        "SUPPORT_NUMBER_BELGIUM_1": "(Inglés): <bdi>0800 58 016</bdi>",
        "SUPPORT_NUMBER_BELGIUM_2": "(Francés): <bdi>0800 71 076</bdi>",
        "SUPPORT_NUMBER_BELGIUM_3": "(Alemán): <bdi>0800 71 113</bdi>",
        "SUPPORT_NAME_BRAZIL": "Brasil",
        "SUPPORT_NUMBER_BRAZIL": "<bdi>0800 891 5909</bdi>",
        "SUPPORT_NAME_BOSNIA": "Bosnia",
        "SUPPORT_NUMBER_BOSNIA": "<bdi>+1 617 681 6306</bdi>",
        "SUPPORT_NAME_BULGARIA": "Bulgaria",
        "SUPPORT_NUMBER_BULGARIA": "<bdi>00800 0010</bdi> y, a continuación, <bdi>866 245 4931</bdi>",
        "SUPPORT_NAME_CANADA": "Canadá",
        "SUPPORT_NUMBER_CANADA": "<bdi>1 800 748 5669</bdi>",
        "SUPPORT_NAME_CHILE": "Chile",
        "SUPPORT_NUMBER_CHILE": "<bdi>123 0020 3408</bdi>",
        "SUPPORT_NAME_CHINA": "China",
        "SUPPORT_NUMBER_CHINA_1": "NetCom (Norte): <bdi>1 0800 74 40 164</bdi>",
        "SUPPORT_NUMBER_CHINA_2": "Telecom (Sur): <bdi>1 0800 44 00 158</bdi>",
        "SUPPORT_NAME_COLOMBIA": "Colombia",
        "SUPPORT_NUMBER_COLOMBIA": "<bdi>01 800 911 0010</bdi> y, a continuación, <bdi>866 310 3707</bdi>",
        "SUPPORT_NAME_COSTA_RICA": "Costa Rica",
        "SUPPORT_NUMBER_COSTA_RICA": "<bdi>0800 013 1210</bdi>",
        "SUPPORT_NAME_CROATIA": "Croacia",
        "SUPPORT_NUMBER_CROATIA": "<bdi>0800 222 953</bdi>",
        "SUPPORT_NAME_CZECH_REPUBLIC": "República Checa",
        "SUPPORT_NUMBER_CZECH_REPUBLIC": "<bdi>800 142 150</bdi>",
        "SUPPORT_NAME_DENMARK": "Dinamarca",
        "SUPPORT_NUMBER_DENMARK": "<bdi>80 60 00 09</bdi>",
        "SUPPORT_NAME_EGYPT": "Egipto",
        "SUPPORT_NUMBER_EGYPT": "<bdi>02 510 0200</bdi> y, a continuación, <bdi>866 310 3707</bdi>",
        "SUPPORT_NAME_EL_SALVADOR": "El Salvador",
        "SUPPORT_NUMBER_EL_SALVADOR": "<bdi>+1 617 681 6306</bdi>",
        "SUPPORT_NAME_ESTONIA": "Estonia",
        "SUPPORT_NUMBER_ESTONIA": "<bdi>800 00 44 154</bdi>",
        "SUPPORT_NAME_FINLAND": "Finlandia",
        "SUPPORT_NUMBER_FINLAND": "<bdi>0800 11 6366</bdi>",
        "SUPPORT_NAME_FRANCE": "Francia",
        "SUPPORT_NUMBER_FRANCE": "<bdi>0800 10 19 79</bdi>",
        "SUPPORT_NAME_GERMANY": "Alemania",
        "SUPPORT_NUMBER_GERMANY": "<bdi>0800 101 28 21</bdi>",
        "SUPPORT_NAME_GREECE": "Grecia",
        "SUPPORT_NUMBER_GREECE": "<bdi>00 800 1311</bdi> y, a continuación, <bdi>866 310 3707</bdi>",
        "SUPPORT_NAME_GUATEMALA": "Guatemala",
        "SUPPORT_NUMBER_GUATEMALA": "<bdi>1 800 624 0079</bdi>",
        "SUPPORT_NAME_HONG_KONG": "Hong Kong",
        "SUPPORT_NUMBER_HONG_KONG": "<bdi>3002 1665</bdi>",
        "SUPPORT_NAME_HUNGARY": "Hungría",
        "SUPPORT_NUMBER_HUNGARY": "<bdi>06 800 14 571</bdi>",
        "SUPPORT_NAME_ICELAND": "Islandia",
        "SUPPORT_NUMBER_ICELAND": "<bdi>800 8544</bdi>",
        "SUPPORT_NAME_INDIA": "India",
        "SUPPORT_NUMBER_INDIA": "<bdi>000 800 440 1125</bdi>",
        "SUPPORT_NAME_INDONESIA": "Indonesia",
        "SUPPORT_NUMBER_INDONESIA": "<bdi>008 800 330 334</bdi>",
        "SUPPORT_NAME_IRELAND": "Irlanda",
        "SUPPORT_NUMBER_IRELAND": "<bdi>1 800 946 700</bdi>",
        "SUPPORT_NAME_ISRAEL": "Israel",
        "SUPPORT_NUMBER_ISRAEL": "<bdi>1 809 470 062</bdi>",
        "SUPPORT_NAME_ITALY": "Italia",
        "SUPPORT_NUMBER_ITALY": "<bdi>800 90 56 37</bdi>",
        "SUPPORT_NAME_JAPAN": "Japón",
        "SUPPORT_NUMBER_JAPAN": "Para encontrar el número gratuito de sus estudios, consulte la Guía de información del estudio para ePRO (ePRO Study Information Guide).",
        "SUPPORT_NAME_LATVIA": "Letonia",
        "SUPPORT_NUMBER_LATVIA": "<bdi>8000 2151</bdi>",
        "SUPPORT_NAME_LEBANON": "Líbano",
        "SUPPORT_NUMBER_LEBANON": "<bdi>01-426-801</bdi> y, a continuación, <bdi>866 310 3707</bdi>",
        "SUPPORT_NAME_LITHUANIA": "Lituania",
        "SUPPORT_NUMBER_LITHUANIA": "<bdi>8800 30207</bdi>",
        "SUPPORT_NAME_MALAYSIA": "Malasia",
        "SUPPORT_NUMBER_MALAYSIA": "<bdi>1800 80 59 71</bdi>",
        "SUPPORT_NAME_MEXICO": "México",
        "SUPPORT_NUMBER_MEXICO_1": "(Inglés): <bdi>001 800 748 5669</bdi> ",
        "SUPPORT_NUMBER_MEXICO_2": "(Español): <bdi>001 855 631 6952</bdi>",
        "SUPPORT_NAME_MOLDOVA": "Moldavia",
        "SUPPORT_NUMBER_MOLDOVA": "<bdi>617 681 6306</bdi>",
        "SUPPORT_NAME_NETHERLANDS": "Países Bajos",
        "SUPPORT_NUMBER_NETHERLANDS": "<bdi>0800 023 1389</bdi>",
        "SUPPORT_NAME_NEW_ZEALAND": "Nueva Zelanda",
        "SUPPORT_NUMBER_NEW_ZEALAND": "<bdi>0800 110 178</bdi>",
        "SUPPORT_NAME_NORWAY": "Noruega",
        "SUPPORT_NUMBER_NORWAY": "<bdi>800 62 051</bdi>",
        "SUPPORT_NAME_PAKISTAN": "Pakistán",
        "SUPPORT_NUMBER_PAKISTAN": "<bdi>00 800 0100</bdi> y, a continuación, <bdi>866 237 9767</bdi>",
        "SUPPORT_NAME_PANAMA": "Panamá",
        "SUPPORT_NUMBER_PANAMA": "<bdi>001 800 201 3095</bdi>",
        "SUPPORT_NAME_PERU": "Perú",
        "SUPPORT_NUMBER_PERU": "<bdi>0800 5 0974</bdi>",
        "SUPPORT_NAME_PHILIPPINES": "Filipinas",
        "SUPPORT_NUMBER_PHILIPPINES": "<bdi>1 800 1116 0651</bdi>",
        "SUPPORT_NAME_POLAND": "Polonia",
        "SUPPORT_NUMBER_POLAND": "<bdi>00800 331 1262</bdi>",
        "SUPPORT_NAME_PORTUGAL": "Portugal",
        "SUPPORT_NUMBER_PORTUGAL": "<bdi>800 206 172</bdi>",
        "SUPPORT_NAME_PUERTO_RICO": "Puerto Rico (Territorio estadounidense)",
        "SUPPORT_NUMBER_PUERTO_RICO": "<bdi>1 800 748 5669</bdi>",
        "SUPPORT_NAME_ROMANIA": "Rumanía",
        "SUPPORT_NUMBER_ROMANIA": "<bdi>0800 894492</bdi>",
        "SUPPORT_NAME_RUSSIA": "Rusia",
        "SUPPORT_NUMBER_RUSSIA_1": "(Primario - gratuito): <bdi>8 10 800 249 13011</bdi>",
        "SUPPORT_NUMBER_RUSSIA_2": "(En Moscú): <bdi>363-2400</bdi> <br> y, a continuación, <bdi>866 310 3707</bdi>",
        "SUPPORT_NUMBER_RUSSIA_3": "(Fuera de Moscú): <bdi>8^(495) 363-2400</bdi> <br> y a continuación <bdi>866 310 3707</bdi>",
        "SUPPORT_NUMBER_RUSSIA_4": "(En San Petersburgo): <bdi>363-2400</bdi> <br> y, a continuación, <bdi>866 310 3707</bdi>",
        "SUPPORT_NUMBER_RUSSIA_5": "(Fuera de San Petersburgo): <bdi>8^(495) 363-2400</bdi> <br> y, a continuación, <bdi>866 310 3707</bdi>",
        "SUPPORT_NAME_SAUDI_ARABIA": "Arabia Saudí",
        "SUPPORT_NUMBER_SAUDI_ARABIA": "<bdi>+1 617 681 6306</bdi>",
        "SUPPORT_NAME_SERBIA": "Serbia",
        "SUPPORT_NUMBER_SERBIA": "<bdi>+1 617 973 1739</bdi>",
        "SUPPORT_NAME_SINGAPORE": "Singapur",
        "SUPPORT_NUMBER_SINGAPORE": "<bdi>800 616 30 03</bdi>",
        "SUPPORT_NAME_SLOVAKIA": "Eslovaquia",
        "SUPPORT_NUMBER_SLOVAKIA": "<bdi>0800 0044 65</bdi>",
        "SUPPORT_NAME_SLOVENIA": "Eslovenia",
        "SUPPORT_NUMBER_SLOVENIA": "<bdi>+1 617 681 6306</bdi>",
        "SUPPORT_NAME_SOUTH_AFRICA": "Sudáfrica",
        "SUPPORT_NUMBER_SOUTH_AFRICA": "<bdi>0800 99 5853</bdi>",
        "SUPPORT_NAME_SOUTH_KOREA": "Corea del Sur",
        "SUPPORT_NUMBER_SOUTH_KOREA": "<bdi>00308 33 00 08</bdi>",
        "SUPPORT_NAME_SPAIN": "España",
        "SUPPORT_NUMBER_SPAIN": "<bdi>900 90 2541</bdi>",
        "SUPPORT_NAME_SWEDEN": "Suecia",
        "SUPPORT_NUMBER_SWEDEN": "<bdi>020 120 99 69</bdi>",
        "SUPPORT_NAME_SWITZERLAND": "Suiza",
        "SUPPORT_NUMBER_SWITZERLAND_1": "(Inglés): <bdi>0800 199 325</bdi>",
        "SUPPORT_NUMBER_SWITZERLAND_2": "(Francés): <bdi>0800 891 183</bdi>",
        "SUPPORT_NUMBER_SWITZERLAND_3": "(Alemán): <bdi>0800 891 025</bdi>",
        "SUPPORT_NAME_TAIWAN": "Taiwán",
        "SUPPORT_NUMBER_TAIWAN": "<bdi>00801 33 33 42</bdi>",
        "SUPPORT_NAME_THAILAND": "Tailandia",
        "SUPPORT_NUMBER_THAILAND": "<bdi>1 800 33 140 353</bdi>",
        "SUPPORT_NAME_TUNISIA": "Túnez",
        "SUPPORT_NUMBER_TUNISIA": "<bdi>+1 617 681 6306</bdi>",
        "SUPPORT_NAME_TURKEY": "Turquía",
        "SUPPORT_NUMBER_TURKEY": "<bdi>00 800 151 1335</bdi>",
        "SUPPORT_NAME_UKRAINE": "Ucrania",
        "SUPPORT_NUMBER_UKRAINE": "<bdi>0^00 11</bdi> y, a continuación, <bdi>866 245 4931</bdi>",
        "SUPPORT_NAME_UAE": "Emiratos Árabes Unidos",
        "SUPPORT_NUMBER_UAE": "<bdi>8000-021</bdi> y, a continuación, <bdi>866 310 3707</bdi>",
        "SUPPORT_NAME_UK": "Reino Unido",
        "SUPPORT_NUMBER_UK": "<bdi>0800 015 0408</bdi>",
        "SUPPORT_NAME_US": "Estados Unidos",
        "SUPPORT_NUMBER_US_1": "(Principal): <bdi>1 800 748 5669</bdi>",
        "SUPPORT_NUMBER_US_2": "(Alternativo): <bdi>1 877 748 5669</bdi>",
        "SUPPORT_NAME_VENEZUELA": "Venezuela",
        "SUPPORT_NUMBER_VENEZUELA_1": "(Inglés): <bdi>0 800 552 6288</bdi> <br> y a continuación <bdi>866 310 3707</bdi> ",
        "SUPPORT_NUMBER_VENEZUELA_2": "(Español): <bdi>0 800 100 3063</bdi> ",
        "USER_NAME": "Nombre de usuario:",
        "SUBJECT_ROLE": "Código del paciente: {{{ getParticipantCode }}}",
        "SITE_ROLE": "Centro",
        "TEMPORARY_PASSWORD_MESSAGE": "Proporcione la contraseña temporal al nuevo usuario. Se solicitará al nuevo usuario que cree una nueva contraseña después de iniciar sesión.",
        "SHARED_PASSWORD_MESSAGE": "La contraseña del nuevo usuario debe recuperarse de StudyWorks.",
        "TEMP_PASSWORD": "Contraseña temporal: ",
        "ROLES": "Función:",
        "LANGUAGE": "Idioma:",
        "FULL_NAME": "Nombre completo:",
        "CONFIRM_TEMP_PASS": "Confirmar contraseña temporal:",
        "PASSWORD_MISMATCH": "La confirmación de la contraseña no coincide con la contraseña",
        "PASSWORD_INVALID_CHARACTERS": "Use solo números",
        "USER_NAME_INVALID_CHARACTERS": "No use caracteres especiales",
        "USER_NAME_MORE_THAN_25": "Use 25 caracteres o menos",
        "PRIVACY_POLICY_VERSION_LABEL": "Versión: ",
        "PRIVACY_POLICY_VERSION": "1.6.0",
        "PRIVACY_POLICY_LAST_UPDATED_LABEL": "Última actualización: ",
        "PRIVACY_POLICY_LAST_UPDATED": "21 de enero de 2014",
        "PRIVACY_POLICY_TEXT_LABEL": "Acerca de la privacidad: ",
        "PRIVACY_POLICY_TEXT": "ERT Corporation proporciona el software que va a instalar. ERT colabora con el centro que participa en el ensayo clínico para garantizar que nadie pueda conocer su identidad sin permiso del centro. Tiene derecho a ver sus registros tras concertar una revisión a través de su centro.",
        "SUBJECT_REPORT_AFF": "Declaro que respondí todas las preguntas lo mejor posible.",
        "SUBJECT_INITIALS_LABEL": "Iniciales del paciente:",
        "SUBJECT": "Paciente",
        "SET_TIMEZONE": "Editar huso horario",
        "SET_TIMEZONE_MESSAGE": "Seleccione su huso horario:",
        "SET_TIMEZONE_BUTTON": "Ajustar",
        "TIME_ZONE_CONFIRM_HEADER": "Confirmación del cambio de huso horario",
        "TIME_ZONE_CONFIRM": "¿Está seguro de que desea cambiar el huso horario? La aplicación se reiniciará para aplicar el cambio.",
        "TIME_ZONE_EUROPE_KALININGRAD": "Europa/Kaliningrado",
        "TIME_ZONE_EUROPE_MOSCOW": "Europa/Moscú",
        "TIME_ZONE_ASIA_KARACHI": "Asia/Karachi",
        "TIME_ZONE_ASIA_YEKATERINBURG": "Asia/Ekaterimburgo",
        "TIME_ZONE_ASIA_NOVOSIBIRSK": "Asia/Novosibirsk",
        "TIME_ZONE_ASIA_KRASNOYARSK": "Asia/Krasnoyarsk",
        "TIME_ZONE_ASIA_IRKUTSK": "Asia/Irkutsk",
        "TIME_ZONE_ASIA_YAKUTSK": "Asia/Yakutsk",
        "TIME_ZONE_ASIA_VLADIVOSTOK": "Asia/Vladivostok",
        "TIME_ZONE_ASIA_KAMCHATKA": "Asia/Kamchatka",
        "AF-ZA": "Afrikáans",
        "AR-EG": "Árabe",
        "BE-BY": "Bielorruso",
        "BG-BG": "Búlgaro",
        "BN-IN": "Bengalí",
        "BS-BA": "Bosnio",
        "CA-ES": "Catalán",
        "CS-CZ": "Checo",
        "DA-DK": "Danés",
        "DE-DE": "Alemán (Alemania)",
        "DE-AT": "Alemán (Austria)",
        "EL-GR": "Griego",
        "EN-GB": "Inglés (Reino Unido)",
        "EN-US": "Inglés (EE. UU.)",
        "ES-ES": "Español (España)",
        "ES-US": "Español (EE. UU.)",
        "ES-PY": "Español (universal)",
        "ET-EE": "Estonio",
        "FI-FI": "Finés",
        "FR-CA": "Francés (Canadá)",
        "FR-FR": "Francés (Francia)",
        "GD-IE": "Gaélico",
        "GU-IN": "Guyaratí",
        "HE-IL": "Hebreo",
        "HI-IN": "Hindi",
        "HR-HR": "Croata",
        "HU-HU": "Húngaro",
        "IT-IT": "Italiano",
        "JA-JP": "Japonés",
        "KA-GE": "Georgiano",
        "KN-IN": "Canarés",
        "KO-KR": "Coreano",
        "LV-LV": "Letón",
        "LT-LT": "Lituano",
        "ML-IN": "Malayalam",
        "MR-IN": "Maratí",
        "MS-MY": "Malayo",
        "NB-NO": "Noruego",
        "NL-BE": "Holandés (Bélgica)",
        "NL-NL": "Holandés (Países Bajos)",
        "PA-IN": "Panyabí",
        "PL-PL": "Polaco",
        "PT-BR": "Portugués (Brasil)",
        "PT-PT": "Portugués (Portugal)",
        "RO-RO": "Rumano",
        "RU-RU": "Ruso",
        "SL-SL": "Esloveno",
        "SK-SK": "Eslovaco",
        "SR-RS": "Serbio (latino)",
        "SR-SP": "Serbio (cirílico)",
        "ST-ZA": "Sotho",
        "SV-SE": "Sueco",
        "TA-IN": "Támil",
        "TE-IN": "Télugu",
        "TH-TH": "Tailandés",
        "TL-PH": "Tagálog",
        "TN-ZA": "Tswana",
        "TR-TR": "Turco",
        "UK-UA": "Ucraniano",
        "UR-IN": "Urdú",
        "VI-VN": "Vietnamita",
        "XH-ZA": "Xhosa",
        "ZH-CN": "Chino (China)",
        "ZH-TW": "Chino (Taiwán)",
        "ZU-ZU": "Zulú",
        "NO_RESULTS_FOUND": "No se han encontrado resultados.",
        "USER": "Usuario",
        "SYNC": "Sincronizar",
        "TIME_LBL": "Hora:",
        "SET_TIME": "Ajustar hora",
        "NEW_USER": "Agregar nuevo diario del usuario",
        "NEW_USER_CREATED": "Se ha creado el nuevo usuario.",
        "TIME_ZONE_SET_CONFIRM": "¿Está seguro de que desea establecer el siguiente huso horario: {{{selectedTimeZone}}}? <br/> La aplicación puede reiniciarse para aplicar el cambio.",
        "TIME_ZONE_SET_CONFIRM_NOCHANGE": "¿Está seguro de que desea establecer el siguiente huso horario: {{{selectedTimeZone}}}?",
        "TIME_ZONE_SET_HEADER": "Confirmación del huso horario",
        "TIME_ZONE_ERROR_HEADER": "Error de huso horario",
        "TIME_ZONE_ERROR_MSG": "Ocurrió un error al recuperar la lista de husos horarios. Si necesita más ayuda, comuníquese con el Centro de soporte técnico de ERT.",
        "TIME_ZONE_SET_ERROR_MSG": "Ocurrió un error al establecer el huso horario. Si necesita más ayuda, comuníquese con el Centro de soporte técnico de ERT.",
        "TIME_CONFIRMATION_INSTRUCTIONS": "El dispositivo necesita confirmar la hora local. Introduzca la fecha y hora desde una fuente fiable.",
        "LOW_BATTERY": "Atención: La carga de la batería está baja. Conecte el dispositivo para recargarlo.",
        "CRITICAL_BATTERY": "Atención: La carga de la batería está críticamente baja. Conecte el dispositivo para recargarlo o se apagará.",
        "SITE_ADMINISTRATOR": "Administrador del centro",
        "TIME_CONFIRMATION_HEADER": "Confirmar fecha y hora",
        "TIMESLIP_ERROR": "La hora o la fecha del dispositivo es incorrecta. Trasládese a una ubicación donde haya conectividad de Internet y vuelva a intentarlo. Si continúa teniendo problemas, póngase en contacto con Atención al cliente de ERT.",
        "P_AFFIDAVIT_HEADER": "<div><strong>Centro: {{{ getSiteCodeForSubject }}}</strong><br /><strong>ID de paciente: {{{ getParticipantCodeForSubject }}}</strong></div>",
        "RESTART_NOTIFICATION_HEADER": "Reinicio necesario",
        "RESTART_NOTIFICATION_MSG": "Cambió el huso horario. La aplicación se reiniciará en {{{ timeZoneChangeRestartCountdown }}}.",
        "RESTART_NOW": "Reiniciar ahora",
        "SECONDS": "segundos",
        "MINUTES": "minutos",
        "SELECT_LANGUAGE": "Seleccione un idioma favorito para el sujeto.",
        "ACCEPT": "Acepto",
        "DECLINE": "No acepto",
        "EULA": "LICENCIA DEL USUARIO FINAL",
        "EULA_TEXT": "<p><strong><span class=\"text-underline\">IMPORTANTE</span>:  NO HAGA CLIC EN EL BOTÓN \"ACEPTO\" HASTA QUE HAYA LEÍDO ESTE ACUERDO.  AL HACER CLIC EN EL BOTÓN \"ACEPTO\", USTED ACEPTA TODOS LOS TÉRMINOS DEL PRESENTE ACUERDO.  SI NO ACEPTA TODOS LOS TÉRMINOS DEL PRESENTE ACUERDO, (1) NO HAGA CLIC EN EL BOTÓN \"ACEPTO\", (2) INTERRUMPA LA INSTALACIÓN Y EL PROCESO DE OTORGAMIENTO DE LA LICENCIA HACIENDO CLIC EN EL BOTÓN \"NO ACEPTO\".</strong></p><p>eResearchTechnology, Inc. (\"Licenciante\") le otorga un derecho de uso no exclusivo y no transferible para usar el software de eResearchTechnology, Inc. incorporado en este dispositivo (\"Software\") en relación con su participación en el acuerdo de ensayo clínico: <strong>{{{ clinicalTrial }}}</strong>.  El software de eResearchTechnology, Inc. está cubierto por patentes otorgadas y otras patentes en tramitación.  El presente Acuerdo no le transfiere ningún derecho de propiedad sobre ningún Software (ni sobre ninguna copia del mismo) y solo constituye una licencia para usar el Software de acuerdo con todos los términos del presente Acuerdo.  La titularidad del Software y de todas las partes del mismo, así como todos los derechos de propiedad exclusiva y propiedad intelectual que comportan, seguirán perteneciendo al Licenciante en todo momento.</p><p>Usted acepta, de forma directa o indirecta, (i) no realizar ingeniería inversa, desmontar ni descompilar el Software; (ii) no copiar, distribuir, fabricar, adaptar, crear obras derivadas, traducir, localizar, adaptar o de otro modo modificar el Software, y (iii) no quitar ni alterar ningún aviso de copyright, secreto comercial u otro aviso legal contenidos en o sobre el Software.  USTED RECONOCE Y ACEPTA QUE EL SOFTWARE PUEDE CONTENER CÓDIGO QUE IMPIDA EL USO NO AUTORIZADO DEL MISMO.</p><br><p>SI ACEPTA TODOS LOS TÉRMINOS ANTERIORES, seleccione <strong>Acepto</strong>. Si hace clic en \"Acepto\", significa que acepta los términos de la licencia.</p><p>SI NO ACEPTA TODOS LOS TÉRMINOS ANTERIORES, o si no está autorizado a aceptarlos, seleccione <strong>No acepto</strong>, en cuyo caso quedará bloqueado el acceso al Software.  Si está autorizado, puede aceptar los términos en otro momento.</p>",
        "HAND_DEVICE_SITE_TITLE": "Dar dispositivo al usuario del centro",
        "HAND_DEVICE_SITE_BODY": "Proporcione el dispositivo al usuario del centro.",
        "SQ-AL": "Albano",
        "IMAGE_FOLDER": "{{{ imageFolder }}}",
        "MODAL_OK_TEXT": "Aceptar",
        "BROWSER_LOAD_ERROR": "No se encontró la página. Verifique su conexión a internet e inténtelo nuevamente.",
		"NONEXISTENT_USER" : "Usuario no encontrado.",
		"NO_USER_OF_ROLE" : "No se encontró un usuario con esa función.",
		"START_VISIT_OUTSIDE_WINDOW_MSG": "Introduzca {{{ getVisitName }}} fuera de la ventana de tiempo configurada: {{{ startDate }}} - {{{ endDate }}}",
		"START_VISIT_HARD_STOP_MSG" : "No puede introducir {{{ getVisitName }}} fuera de la ventana de tiempo configurada: {{{ startDate }}} - {{{ endDate }}}",
		"YES" : "Sí",
		"NO" : "NO"
    },
    "dates": {
        "setDateButtonLabel": "Aceptar",
        "setTimeButtonLabel": "Aceptar",
        "setDurationButtonLabel": "Ajustar duración",
        "calTodayButtonLabel": "Saltar a Hoy",
        "titleDateDialogLabel": "Ajustar fecha",
        "titleTimeDialogLabel": "Ajustar hora",
        "daysOfWeek": [
            "Domingo",
            "Lunes",
            "Martes",
            "Miércoles",
            "Jueves",
            "Viernes",
            "Sábado"
        ],
        "daysOfWeekShort": [
            "Do",
            "Lu",
            "Ma",
            "Mi",
            "Ju",
            "Vi",
            "Sa"
        ],
        "monthsOfYear": [
            "Enero",
            "Febrero",
            "Marzo",
            "Abril",
            "May.",
            "Junio",
            "Julio",
            "Agosto",
            "Septiembre",
            "Octubre",
            "Noviembre",
            "Diciembre"
        ],
        "monthsOfYearShort": [
            "Ene.",
            "Feb.",
            "Mar.",
            "Abr.",
            "May.",
            "Jun.",
            "Jul.",
            "Ago.",
            "Sep.",
            "Oct.",
            "Nov.",
            "Dic."
        ],
        "durationLabel": [
            "Días",
            "Horas",
            "Minutos",
            "Segundos"
        ],
        "durationDays": [
            "Día",
            "Días"
        ],
        "tooltip": "Abrir selector de fecha",
        "nextMonth": "Mes siguiente",
        "prevMonth": "Mes anterior",
        "clearButton": "Borrar",
        "meridiem": [
            "AM",
            "PM"
        ]
    }
}
