{
    "ios": {
        "debug": {
            "codeSignIdentify": "iPhone Developer",
            "provisioningProfile": "913604b3-3414-4050-b03b-96ba93c55ede"
        },
        "release": {
            "codeSignIdentify": "iPhone Distribution",
            "provisioningProfile": "c720c3f4-b8e0-4859-a669-997af5acfa73"
        }
    }
}
