{
    "namespace" : "BPID",
    "language" : "ja",
    "locale" : "JP",
    "direction" : "ltr",
    "resources" : {
        "DISPLAY_NAME" : "BPI-SF",

        "BPID_BPID010_Q0_TEXT"  : "誰でも一生のうちには、軽い頭痛、ねんざ、歯痛などの痛みを経験することがありますが、今日、このような 日常的な痛みとは違う痛みがありますか？",
        "BPID_BPID010_Q0_TITLE" : "",
        "BPID_BPID010_Q0_W0_A0" : "はい",
        "BPID_BPID010_Q0_W0_A1" : "いいえ",

        "BPID_BPID020_Q0_TEXT"  : "下の身体図に、あなたの痛みの範囲を斜線で示し、最も痛むところに×をつけてください。",
        "BPID_BPID020_Q0_TITLE" : "",
        "BPI020_Q2_1" : " ",
        "BPI020_Q1_2": "前",
        "BPI020_Q1_3": "左",
        "BPI020_Q1_4": "右",
        "BPI020_Q1_5": "後ろ",
        "BPI020_Q1_6": "左",
        "BPI020_Q1_7": "右",
        "BPI020_Q2_A1" : "痛くない",

        "BPID_BPID030_Q0_TEXT": "痛みを感じる部分を選択してください。",
        "BPID_BPID030_Q0_TITLE": "",
        "BPI030_Q1_2": "前",
        "BPI030_Q1_3": "左",
        "BPI030_Q1_4": "右",

        "BPID_BPID045_Q0_TEXT": "痛みを感じる部分を選択してください。",
        "BPID_BPID045_Q0_TITLE": "",
        "BPI045_Q1_2": "前",
        "BPI045_Q1_3": "左",
        "BPI045_Q1_4": "右",

        "BPID_BPID050_Q0_TEXT": "痛みを感じる部分を選択してください。",
        "BPID_BPID050_Q0_TITLE": "",
        "BPI050_Q1_2": "後ろ",
        "BPI050_Q1_3": "左",
        "BPI050_Q1_4": "右",

        "BPID_BPID065_Q0_TEXT": "痛みを感じる部分を選択してください。",
        "BPID_BPID065_Q0_TITLE": "",
        "BPI065_Q1_2": "後ろ",
        "BPI065_Q1_3": "左",
        "BPI065_Q1_4": "右",

        "BPID_BPID100_Q0_TEXT": "身体図に、<u>最も</u>痛むところに印をつけてください。",
        "BPID_BPID100_Q0_TITLE": "",
        "BPI100_Q1_2": "前",
        "BPI100_Q1_3": "左",
        "BPI100_Q1_4": "右",
        "BPI100_Q1_5": "後ろ",
        "BPI100_Q1_6": "左",
        "BPI100_Q1_7": "右",

        "BPID_BPID110_Q0_TEXT": "<u>最も</u>痛むところに印をつけてください。",
        "BPID_BPID110_Q0_TITLE": "",
        "BPI110_Q1_2": "前",
        "BPI110_Q1_3": "左",
        "BPI110_Q1_4": "右",

        "BPID_BPID125_Q0_TEXT": "<u>最も</u>痛むところに印をつけてください。",
        "BPID_BPID125_Q0_TITLE": "",
        "BPI125_Q1_2": "前",
        "BPI125_Q1_3": "左",
        "BPI125_Q1_4": "右",

        "BPID_BPID130_Q0_TEXT": "<u>最も</u>痛むところに印をつけてください。",
        "BPID_BPID130_Q0_TITLE": "",
        "BPI130_Q1_2": "後ろ",
        "BPI130_Q1_3": "左",
        "BPI130_Q1_4": "右",

        "BPID_BPID145_Q0_TEXT": "<u>最も</u>痛むところに印をつけてください。",
        "BPID_BPID145_Q0_TITLE": "",
        "BPI145_Q1_2": "後ろ",
        "BPI145_Q1_3": "左",
        "BPI145_Q1_4": "右",

        "BPID_BPID200_Q0_TEXT": "下の身体図に、あなたは2か所以上印をつけています。<br/><br/>戻って、<u>最も</u>痛むところ1か所に印をつけてください。",
        "BPID_BPID200_Q0_TITLE": "",

        "BPID_BPID210_Q0_TEXT": "あなたが選んだ最も痛むところは、痛みの範囲を示す最初の身体図に、選択されていませんでした。<br/><br/>最も痛むところとして選んだ場所は本当に正しいですか？",
        "BPID_BPID210_Q0_TITLE": "",
        "BPID_BPID210_Q0_W0_A0": "いいえ、戻ってエントリを直す",
        "BPID_BPID210_Q0_W0_A1": "はい",

        "BPID_BPID300_Q0_TEXT": "この24時間にあなたが感じた<u>最も強い</u>痛みはどの位でしたか？最も近い数字を選択してください。",
        "BPID_BPID300_Q0_TITLE": "",
        "BPID_BPID300_Q0_W0_LeftMarker": "痛くない",
        "BPID_BPID300_Q0_W0_RightMarker": "これ以上の痛みは考えられない",
        "BPID_BPID300_Q0_W0_A0": "0",
        "BPID_BPID300_Q0_W0_A1": "1",
        "BPID_BPID300_Q0_W0_A2": "2",
        "BPID_BPID300_Q0_W0_A3": "3",
        "BPID_BPID300_Q0_W0_A4": "4",
        "BPID_BPID300_Q0_W0_A5": "5",
        "BPID_BPID300_Q0_W0_A6": "6",
        "BPID_BPID300_Q0_W0_A7": "7",
        "BPID_BPID300_Q0_W0_A8": "8",
        "BPID_BPID300_Q0_W0_A9": "9",
        "BPID_BPID300_Q0_W0_A10": "10",

        "BPID_BPID310_Q0_TEXT": "この24時間であなたが感じた<u>最も弱い</u>痛みはどの位でしたか？最も近い数字を選んでください。",
        "BPID_BPID310_Q0_TITLE": "",
        "BPID_BPID310_Q0_W0_LeftMarker": "痛くない",
        "BPID_BPID310_Q0_W0_RightMarker": "これ以上の痛みは考えられない",
        "BPID_BPID310_Q0_W0_A0": "0",
        "BPID_BPID310_Q0_W0_A1": "1",
        "BPID_BPID310_Q0_W0_A2": "2",
        "BPID_BPID310_Q0_W0_A3": "3",
        "BPID_BPID310_Q0_W0_A4": "4",
        "BPID_BPID310_Q0_W0_A5": "5",
        "BPID_BPID310_Q0_W0_A6": "6",
        "BPID_BPID310_Q0_W0_A7": "7",
        "BPID_BPID310_Q0_W0_A8": "8",
        "BPID_BPID310_Q0_W0_A9": "9",
        "BPID_BPID310_Q0_W0_A10": "10",

        "BPID_BPID320_Q0_TEXT": "あなたが感じた痛みは<u>平均する</u>とどの位でしたか？最も近い数字を選んでください。",
        "BPID_BPID320_Q0_TITLE": "",
        "BPID_BPID320_Q0_W0_LeftMarker": "痛くない",
        "BPID_BPID320_Q0_W0_RightMarker": "これ以上の痛みは考えられない",
        "BPID_BPID320_Q0_W0_A0": "0",
        "BPID_BPID320_Q0_W0_A1": "1",
        "BPID_BPID320_Q0_W0_A2": "2",
        "BPID_BPID320_Q0_W0_A3": "3",
        "BPID_BPID320_Q0_W0_A4": "4",
        "BPID_BPID320_Q0_W0_A5": "5",
        "BPID_BPID320_Q0_W0_A6": "6",
        "BPID_BPID320_Q0_W0_A7": "7",
        "BPID_BPID320_Q0_W0_A8": "8",
        "BPID_BPID320_Q0_W0_A9": "9",
        "BPID_BPID320_Q0_W0_A10": "10",

        "BPID_BPID330_Q0_TEXT": "あなたが<u>今</u>感じている痛みはどの位ですか？最も近い数字を選んでください。",
        "BPID_BPID330_Q0_TITLE": "",
        "BPID_BPID330_Q0_W0_LeftMarker": "痛くない",
        "BPID_BPID330_Q0_W0_RightMarker": "これ以上の痛みは考えられない",
        "BPID_BPID330_Q0_W0_A0": "0",
        "BPID_BPID330_Q0_W0_A1": "1",
        "BPID_BPID330_Q0_W0_A2": "2",
        "BPID_BPID330_Q0_W0_A3": "3",
        "BPID_BPID330_Q0_W0_A4": "4",
        "BPID_BPID330_Q0_W0_A5": "5",
        "BPID_BPID330_Q0_W0_A6": "6",
        "BPID_BPID330_Q0_W0_A7": "7",
        "BPID_BPID330_Q0_W0_A8": "8",
        "BPID_BPID330_Q0_W0_A9": "9",
        "BPID_BPID330_Q0_W0_A10": "10",

        "BPID_BPID340_Q0_TEXT": "この24時間に、受けた治療や投薬はどの位痛みを<u>軽減</u>させましたか？最も近いと思われる数字（%）を選んでください。",
        "BPID_BPID340_Q0_TITLE": "",
        "BPID_BPID340_Q0_W0_LeftMarker": "少しも軽減しなかった",
        "BPID_BPID340_Q0_W0_RightMarker": "完全に和らいだ",
        "BPID_BPID340_Q0_W0_A0": "0%",
        "BPID_BPID340_Q0_W0_A1": "10%",
        "BPID_BPID340_Q0_W0_A2": "20%",
        "BPID_BPID340_Q0_W0_A3": "30%",
        "BPID_BPID340_Q0_W0_A4": "40%",
        "BPID_BPID340_Q0_W0_A5": "50%",
        "BPID_BPID340_Q0_W0_A6": "60%",
        "BPID_BPID340_Q0_W0_A7": "70%",
        "BPID_BPID340_Q0_W0_A8": "80%",
        "BPID_BPID340_Q0_W0_A9": "90%",
        "BPID_BPID340_Q0_W0_A10": "100%",

        "BPID_BPID350_Q0_TEXT": "この24時間のうちで、痛みがどれほどあなたの日常生活の<u>全般的活動</u>に支障となったか、数字を選んでください。",
        "BPID_BPID350_Q0_TITLE": "",
        "BPID_BPID350_Q0_W0_LeftMarker": "支障なし",
        "BPID_BPID350_Q0_W0_RightMarker": "完全な支障となった",
        "BPID_BPID350_Q0_W0_A0": "0",
        "BPID_BPID350_Q0_W0_A1": "1",
        "BPID_BPID350_Q0_W0_A2": "2",
        "BPID_BPID350_Q0_W0_A3": "3",
        "BPID_BPID350_Q0_W0_A4": "4",
        "BPID_BPID350_Q0_W0_A5": "5",
        "BPID_BPID350_Q0_W0_A6": "6",
        "BPID_BPID350_Q0_W0_A7": "7",
        "BPID_BPID350_Q0_W0_A8": "8",
        "BPID_BPID350_Q0_W0_A9": "9",
        "BPID_BPID350_Q0_W0_A10": "10",

        "BPID_BPID360_Q0_TEXT": "この24時間のうちで、痛みがどれほどあなたの<u>気分</u>に支障となったか、数字を選んでください。",
        "BPID_BPID360_Q0_TITLE": "",
        "BPID_BPID360_Q0_W0_LeftMarker": "支障なし",
        "BPID_BPID360_Q0_W0_RightMarker": "完全な支障となった",
        "BPID_BPID360_Q0_W0_A0": "0",
        "BPID_BPID360_Q0_W0_A1": "1",
        "BPID_BPID360_Q0_W0_A2": "2",
        "BPID_BPID360_Q0_W0_A3": "3",
        "BPID_BPID360_Q0_W0_A4": "4",
        "BPID_BPID360_Q0_W0_A5": "5",
        "BPID_BPID360_Q0_W0_A6": "6",
        "BPID_BPID360_Q0_W0_A7": "7",
        "BPID_BPID360_Q0_W0_A8": "8",
        "BPID_BPID360_Q0_W0_A9": "9",
        "BPID_BPID360_Q0_W0_A10": "10",

        "BPID_BPID370_Q0_TEXT": "この24時間のうちで、痛みがどれほどあなたの<u>歩行能力</u>に支障となったか、数字を選んでください。",
        "BPID_BPID370_Q0_TITLE": "",
        "BPID_BPID370_Q0_W0_LeftMarker": "支障なし",
        "BPID_BPID370_Q0_W0_RightMarker": "完全な支障となった",
        "BPID_BPID370_Q0_W0_A0": "0",
        "BPID_BPID370_Q0_W0_A1": "1",
        "BPID_BPID370_Q0_W0_A2": "2",
        "BPID_BPID370_Q0_W0_A3": "3",
        "BPID_BPID370_Q0_W0_A4": "4",
        "BPID_BPID370_Q0_W0_A5": "5",
        "BPID_BPID370_Q0_W0_A6": "6",
        "BPID_BPID370_Q0_W0_A7": "7",
        "BPID_BPID370_Q0_W0_A8": "8",
        "BPID_BPID370_Q0_W0_A9": "9",
        "BPID_BPID370_Q0_W0_A10": "10",

        "BPID_BPID380_Q0_TEXT": "この24時間のうちで、痛みがどれほどあなたの<u>通常の仕事（家庭外および家庭内での仕事を含む）</u>に支障となったか、数字を選んでください。",
        "BPID_BPID380_Q0_TITLE": "",
        "BPID_BPID380_Q0_W0_LeftMarker": "支障なし",
        "BPID_BPID380_Q0_W0_RightMarker": "完全な支障となった",
        "BPID_BPID380_Q0_W0_A0": "0",
        "BPID_BPID380_Q0_W0_A1": "1",
        "BPID_BPID380_Q0_W0_A2": "2",
        "BPID_BPID380_Q0_W0_A3": "3",
        "BPID_BPID380_Q0_W0_A4": "4",
        "BPID_BPID380_Q0_W0_A5": "5",
        "BPID_BPID380_Q0_W0_A6": "6",
        "BPID_BPID380_Q0_W0_A7": "7",
        "BPID_BPID380_Q0_W0_A8": "8",
        "BPID_BPID380_Q0_W0_A9": "9",
        "BPID_BPID380_Q0_W0_A10": "10",

        "BPID_BPID390_Q0_TEXT": "この24時間のうちで、痛みがどれほどあなたの<u>対人関係</u>に支障となったか、数字を選んでください。",
        "BPID_BPID390_Q0_TITLE": "",
        "BPID_BPID390_Q0_W0_LeftMarker": "支障なし",
        "BPID_BPID390_Q0_W0_RightMarker": "完全な支障となった",
        "BPID_BPID390_Q0_W0_A0": "0",
        "BPID_BPID390_Q0_W0_A1": "1",
        "BPID_BPID390_Q0_W0_A2": "2",
        "BPID_BPID390_Q0_W0_A3": "3",
        "BPID_BPID390_Q0_W0_A4": "4",
        "BPID_BPID390_Q0_W0_A5": "5",
        "BPID_BPID390_Q0_W0_A6": "6",
        "BPID_BPID390_Q0_W0_A7": "7",
        "BPID_BPID390_Q0_W0_A8": "8",
        "BPID_BPID390_Q0_W0_A9": "9",
        "BPID_BPID390_Q0_W0_A10": "10",

        "BPID_BPID400_Q0_TEXT": "この24時間のうちで、痛みがどれほどあなたの<u>睡眠</u>に支障となったか、数字を選んでください。",
        "BPID_BPID400_Q0_TITLE": "",
        "BPID_BPID400_Q0_W0_LeftMarker": "支障なし",
        "BPID_BPID400_Q0_W0_RightMarker": "完全な支障となった",
        "BPID_BPID400_Q0_W0_A0": "0",
        "BPID_BPID400_Q0_W0_A1": "1",
        "BPID_BPID400_Q0_W0_A2": "2",
        "BPID_BPID400_Q0_W0_A3": "3",
        "BPID_BPID400_Q0_W0_A4": "4",
        "BPID_BPID400_Q0_W0_A5": "5",
        "BPID_BPID400_Q0_W0_A6": "6",
        "BPID_BPID400_Q0_W0_A7": "7",
        "BPID_BPID400_Q0_W0_A8": "8",
        "BPID_BPID400_Q0_W0_A9": "9",
        "BPID_BPID400_Q0_W0_A10": "10",

        "BPID_BPID410_Q0_TEXT": "この24時間のうちで、痛みがどれほどあなたの<u>生活を楽しむこと</u>に支障となったか、数字を選んでください。",
        "BPID_BPID410_Q0_TITLE": "",
        "BPID_BPID410_Q0_W0_LeftMarker": "支障なし",
        "BPID_BPID410_Q0_W0_RightMarker": "完全な支障となった",
        "BPID_BPID410_Q0_W0_A0": "0",
        "BPID_BPID410_Q0_W0_A1": "1",
        "BPID_BPID410_Q0_W0_A2": "2",
        "BPID_BPID410_Q0_W0_A3": "3",
        "BPID_BPID410_Q0_W0_A4": "4",
        "BPID_BPID410_Q0_W0_A5": "5",
        "BPID_BPID410_Q0_W0_A6": "6",
        "BPID_BPID410_Q0_W0_A7": "7",
        "BPID_BPID410_Q0_W0_A8": "8",
        "BPID_BPID410_Q0_W0_A9": "9",
        "BPID_BPID410_Q0_W0_A10": "10",

        "BPID_BPID420_Q0_TEXT": "Copyright 1991 Charles S. Cleeland, PhD<br/>Pain Research Group<br/>All rights reserved",
        "BPID_BPID420_Q0_TITLE": ""

    }
}
