{
    "namespace": "CORE",
    "language": "lg",
    "locale": "UG",
    "localized": "Luganda",
    "direction": "ltr",
    "resources": {
        "ACCEPT": "Nzikirizza",
        "ACTIVE": "Kwaali",
        "ACTIVATE_USER": "Muwe olukusa",
        "ACTIVATE_USER_CANCEL_CONFIRM": "Muggyeko olukusa?",
        "ACTIVATE_USER_CANCEL_BODY": "Bw'osazaamu ky'oliko, omukozesa wa ssisitiimu tajja kuweebwa lukusa. Okakasa oyagala okusazaamu ky'oliko?",
        "ACTIVATE_USER_AFF": "Bwe nzisaako omukono wammanga, mba nkiraga nti mpa olukusa omukozesa wa ssisitiimu ono.",
        "ACTIVATE_USER_CONFIRM_INFORMATION": "Osabibwa okukakasa nti bino wammanga bya mukozesa wa ssisitiimu gw`oyagala okuwa olukusa.",
        "ADD_PATIENT": "Gattako omulwadde omuppya",
        "ADD_USER": "Gattako omukozesa wa ssisitiimu",
        "AFFIDAVIT": "Londa Kale ozzeeko Ekiddako by`obeera oli mweetegefu okutereka by`ozzeemu.",
        "AFFIDAVIT_HELP": "Weebale. Ozzeemu byonna ebyetaagibwa okuddibwaamu. Osobola okukebera era n`okyusa by`ozzeemu ng`olonda Ddayo.",
        "P_AFFIDAVIT_HEADER": "<div><strong>Ekifo: {{{ getSiteCode }}}</strong><br /><strong>Ennamba y`omulwadde: {{{ getPatientIdNumber }}}</strong></div>",
        "ALL_QUESTIONNAIRES_COMPLETED": "Ffoomu zonna zijjuziddwa",
        "APP_NAME": "ERT",
        "APPLICATION_HEADER": "{{{ appHeader }}}",
        "APP_NAME_LBL": "Erinnya lya ssisitiimu",
        "APP_VERSION": "Ensawulo ya ssisitiimu",
        "ASSIGNED_TO": "Kiweereddwa",
        "AVAILABLE": "Kweeri",
        "BACK": "Ddayo",
        "BACK_OUT_CONFIRM": "Okakasa oyagala kuviirako ddala? Ebiddiddwaamu ku ffoomu eno bijja kubula.",
        "BLUETOOTH_REG_REFRESH_BUTTON": "Zza bujja olukalala",
        "CANCEL": "Sazaamu",
        "CHECK_FOR_UPDATES": "Keebera ebipya",
        "CHOOSE_A_SITE": "Ekyuma kino kigatte ku kifo ekirondeddwa.",
        "COMPLETED": "Zijjuziddwa",
        "CONFIRM_PASSWORD": "Kakasa ppaasiwaadi:",
        "CONFIRM_TEMP_PASS": "Kakasa ppaasiwaadi ey`ekiseera:",
        "CONSOLE_LOG": "Ebibaddewo ng`okozesa",
        "CONTINUE": "Weeyongereyo",
        "COUNTRY": "Eggwanga",
        "CUSTOM_ENVIRONMENT": "Ssitiimu nga bwe njaagala erabike",
        "DEACTIVATE_PATIENT": "Omulwadde muggye ku lukalala",
        "DEACTIVATE_USER": "Omukozesa muggyeeko olukusa",
        "DEACTIVATED": "Muggyeeko olukusa",
        "DEACTIVATE_USER_CANCEL_CONFIRM": "Ssazaamu okumuggya ku lukalala?",
        "DEACTIVATE_USER_CANCEL_BODY": "Bw'osazaamu ky'oliko, omukozesa wa ssisitiimu tajja kukirizibwa. Okakasa oyagala okusazaamu ky'oliko?",
        "DEACTIVATE_USER_AFF": "Bwe nzisaako omukono wammanga, mba nkiraga nti nzigyeko olukusa omukozesa wa ssisitiimu ono.",
        "DEACTIVATE_USER_SIG": "<strong>Omukozesa agenda okuggyibwako olukusa:</strong> <br />{{{ getSelectedUsername }}}<br /><br /><strong>Omukono gwa:</strong> {{{ getActiveUserName }}}",
        "DEACTIVATE_USER_CONFIRM_INFORMATION": "Osabibwa okukakasa nti bino wammanga bya mukozesa wa ssisitiimu gw`oyagala okugyako olukusa.",
        "DECLINE": "Sikkiriza",
        "DEVICE_ID": "Enamba y'ekyuma ky'okozesa",
        "DEVICE_REGISTRATION_FAILURE": "Egaanye okuwandiisa ekyuuma.",
        "DEVICE_UUIID": "UUID y'ekyuuma",
        "BATTERY_LEVEL": "Eryanda we lituuse",
        "DEVICE_INFO": "Ebikwata ku kyuuma",
        "DIARY_TIMEOUT": "Obudde bwa ffoomu eno buweddeko.",
        "EDIT_MY_INFO": "Kyuusamu ku binkwatako",
        "EDIT_PATIENT": "Tereeza ebikwata ku mulwadde",
        "EDIT_PATIENT_QUESTION_1_MAIN_TITLE": "<div class='question-title-large'>Ennamba y`omulwadde </div><div>Ettuluba ly`ennamba y`ekifo kino:<br /><strong> {{{ patientIDRange }}}</strong></div><div class='edit-patient-id'>Ennamba y`omulwadde:<br /><strong>{{{ getPatientIdNumber }}} ({{{getPatientInitials}}})</strong</div><br /><br />",
        "EDIT_PATIENT_QUESTION_1": "Ennamba y`omulwadde:",
        "EDIT_PATIENT_QUESTION_1_EMPTY": "Osabibwa ojjuzeemu ennamba y'omulwadde.",
        "EDIT_PATIENT_QUESTION_1_EMPTY_HEADER": "Ennamba y`omulwadde",
        "EDIT_PATIENT_QUESTION_1_RANGE": "Ennamba y'omulwadde gy`ojjuzizzaamu teli mu ttuluba ly`ennamba ezzikirizibwa: {{{ patientIDRange }}}.  Obabibwa ojjuzemu ennamba y'omulwadde entuufu.",
        "EDIT_PATIENT_QUESTION_1_RANGE_HEADER": "Ennamba y'omulwadde teri mu ttuluba erikkirizibwa",
        "EDIT_PATIENT_QUESTION_1_UNIQUE": "Omulwadde mwaali.  Osabibwa ojjuzeemu ennamba y'omulwadde endala.",
        "EDIT_PATIENT_QUESTION_1_UNIQUE_HEADER": "Ennamba y'omulwadde eddiddwaamu",
        "EDIT_PATIENT_QUESTION_2": "Ammanya g`omulwadde mu bufunze:",
        "EDIT_PATIENT_QUESTION_2_EMPTY": "Osabibwa ojjuzeemu amannya g'omulwadde mu bufunze nga tokka wansi wa nnukutta bbiri.",
        "EDIT_PATIENT_QUESTION_2_EMPTY_HEADER": "Ammanya g`omulwadde mu bufunze",
        "EDIT_PATIENT_QUESTION_3_TITLE": "<div class='question-title-large'>Londa olulimu lw'okukozesa</div><div>Ennamba y`omulwadde:<br /><strong>{{{ getPatientIdNumber }}} ({{{getPatientInitials}}})</strong</div><br /><br />",
        "EDIT_PATIENT_QUESTION_3": "Londa olulimu lw'omulwadde lw`akozesa",
        "EDIT_PATIENT_QUESTION_4_TITLE": "<div class='question-title-large'>Kyusaamu ku nsonga</div><br /><br />",
        "EDIT_PATIENT_QUESTION_4": "Londa ensonga ekyuusisa ebikwaata ku mulwadde",
        "EDIT_PATIENT_CANCEL_CONFIRM": "Sazaamu enkyuuka kyuuka ku mulwadde?",
        "EDIT_PATIENT_CANCEL_BODY": "Bw'osazaamu ky'oliko kati, ebikwaata ku mulwadde tebijja kuzzibwa buggya.  Okakasa oyagala okusazaamu ky'oliko?",
        "EDIT_PATIENT_NO_CHANGES_CONFIRM": "Tewari bikyuusiddwa ku mulwadde",
        "EDIT_PATIENT_NO_CHANGES_BODY": "Tewari bikyuusiddwa ku mulwadde ono. Ffuluma kale?",
        "EDIT_PATIENT_REASON_0": "Omujjanjabi okugolola ensobi",
        "EDIT_PATIENT_REASON_1": "Okugolola ebiwandiikibwa ku mulwadde",
        "EDIT_PATIENT_REASON_2": "Okukyuusa ennamba",
        "EDIT_PATIENT_REASON_3": "Olulumi olukyamu olulondeddwa",
        "EDIT_REASON": "Kyusaamu ku nsonga:",
        "EDIT_SERVICE_URL": "Okukyaawa URL kw`akolera",
        "EDIT_SERVICE_URL_SUCCESS": "URL kw`akolera eziddwa buggya.",
        "EDIT_USER": "Kyuusa ku bikwata ku mukozesa",
        "EDIT_USER_AFF": "Bwe nzisaako omukono wammanga, mba nkiraga nti nnina olukusa olukyuusa ku bikwata ku mukozesa w`ekifo kino. <br /><br /><strong>Omukono gwa:</strong> {{{ getActiveUserName }}}",
        "EDIT_USER_CANCEL_CONFIRM": "Sazzamu okukyuusa ebikwata ku mukozesa?",
        "EDIT_USER_CANCEL_BODY": "Bw'osazaamu ky'oliko kati, ebikwata ku mukozesa w`ekifo kino tebijja kuterekebwa/kukakasibwa. Okakasa oyagala okusazaamu ky'oliko?",
        "EDIT_USER_NO_CHANGES_HEADER": "Tewari bikyuusiddwa ku mukozesa wa kifo kino",
        "EDIT_USER_NO_CHANGES_BODY": "Tewari bikyuusiddwa ku mukozesa wa kifo kino. Ffuluma kale?",
        "EMAIL": "Yiimeyiroye",
        "ENTER_PATIENT_INFO": "Jjuzaamu ebikwata ku mulwadde",
        "ENTER_UNLOCK_CODE": "Osabibwa ojjuzzeemu ennama eggulawo",
        "ENTER_USER_INFO": "Jjuzaamu ebikwata ku mukozesa w`ekifo kino",
        "ENVIRONMENT": "Ssitiimu nga bwe njaagala erabike",
        "ERROR_CODE": "Ennamba y`ensobi:",
        "ERROR_TITLE": "Ensobi",
        "EULA": "LAYISENSI Y`OMUKOZESA",
        "EULA_TEXT": "<p><strong><span class=\"text-underline\">KYA MUGASO</span>:  OSABIBWA OBUTAKUBA KU KAPEESA AKAGAMBA KKIRIZA OKUTUUKA NG`OMAZE OKUSOMA ENDAGAANO ENO.  OLWOKUKUBA KU KAPEESA AKAGAMBA KKIRIZA, OBEERA OKKIRIZA ENNYINGO ZONNA EZIRI MU NDAGAANO ENO.  SSINGA TOKKIRIZA ENNYINGO ZONNA EZIRI MU NDAGAANO ENO (1) TOKUBA KU KAPEESA AKALAGA \"KKIRIZA\", (2) LEKERAWO OKUTEEKA SSISITIIMU KU KYUMA ERA N`EBIKWATA KU LAYISINSI NG`OKUBA KU KAPEERA AKAGAMBA \"SSI KIRIZA\".</strong></p><p>Ekitongole kya eResearch Technology Inc. (\"Agaba layisensi\") kikuwa olukusa olutali lwa nsibo, lw`otasobola kugaba okukozesa ssofutiweya wa eResearchTechnology, Inc. ajjira ku kyuuma kino (\"Ssofutiweya\") okwekuusa ku ndagaano y`okweetabaako mu kujjanjaba okw`okugezesa: <strong>{{{ clinicalTrial }}}</strong>.  Ssofutiweya w`ekitongole kya eResearchTechnology, Inc akuumibwa olukisa oluweebwa mu busuuzi (patents) mu n`olukusa olulala olukyalindibwa (patents pendind).  Endagaano eno tekuwa bwa nnanyini ku ssofutiweya yenna (oba kkope waayo), wabula ekuwa buwi layisinsi okukozesa ssofutiweya ono okusinziira.  Byonna ebikwata ku ssofutiweya oba ebutundu bwabwo, oba obwa nnanyini obumulimu, bijja kusigala mu ngalo z`agaba layisinsi ebbanga lyonna.</p><p>Ssinga tokkiriza, mu butereevu oba mu butali butereevu, (i) okuzza emabega ng`oyagala okulaba nga bwe kyakolebwa, okugimenya menya or okuddamu okumuzimba ssofutiweya obujja; (ii) okukola kkope, okugaba, okukola, okumwekyusiza oba okwoozaamu, okumuvvunula, okumufuula owabulijjo, oba okukola enkyuukakyuuka zonna; oba (iii) okuggyamu oba okukyuusa obwannanyini, ebyettunzi eby`ekyaama oba eby`amateeka ebirala byonna ebirimu oba ebiri mu ssofutiweya.  OKAKASA ERA N`OKKIRIZA NTI SSOFUTIWEYA AYINZA OKUBAAMU EBISENGE EBILOBERA OKUKOZESA NGA TOLINA LUKUSA.</p><br><p>SSINGA OKKIRIZA KU BYONNA EBIDDIRIRA, osabibwa olonde – <strong>Nzikiriza</strong> –Okukuba ku kapeesa \"Nzikiriza\" kiraga nti okkirizza ennyingo zonna eziri mu layisensi eno.</p><p>SSINGA TOKKIRIZA NA BYONNA EBIDDIRIRA, oba tolina lukusa okukkiriza, londa – <strong>Ssi Kiriza</strong> – mu kyo ekitegeeza, nti ebyeyongerayo ku ssofutiweya bijja kuziyizibwa.  Ssinga tokkirizibwa, osobola okukkiriza omulundi omulala.</p>",
        "FIRST_NAME": "Erinnya lyo ebbatize/ezzungu",
        "FORGOT_PASSWORD": "Ppaasiwaadi ogyeerabidde?",
        "FORM": "Ffoomu",
        "FORM_GATEWAY": "Omukutu gwa ffoomu",
        "FORM_NAME": "Erinnya lya ffoomu",
        "FULL_NAME": "Ammanya mu bujjuvu:",
        "GO_TO_VISITS": "Okukyala kw`omulwadde",
        "HAND_DEVICE_SITE_TITLE": "Ekyuuma kiwe Omukozesa Ow`ekifo",
        "HAND_DEVICE_SITE_BODY": "Osabibwa ekyuuma okiwe omukozesa ow`ekifo.",
        "HELP": "Obuyambi",
        "HOME": "W`otandikira",
        "IN_PROGRESS": "Bigenda mu maaso",
        "INITIALS": "Amannya mu bufunze",
        "INVALID_URL": "Osabibwa ojjuzemu URL entuufu.",
        "INVALID_PERMISSION": "Olukusa olutali lutuufu.",
        "INVALID_PASSWORD": "Ppaasiwaadi enkyaamu.",
        "LANGUAGE": "Olulimi:",
        "LAST_LOGIN": "Lwe wakoma okuyingira mu ssisitiimu",
        "LAST_NAME": "Erinnya lyo ery`ekika",
        "LAST_REFRESH_TIME": "Obudde bwe wakoma okugizza obuggya",
        "LOCATION": "Ekifo wooli",
        "LOGIN": "Yingira mu sisitiimu",
        "LOGIN_SCREEN": "Yingira mu sisitiimu",
        "LOGOUT": "Fuluma okuva mu sisitiimu",
        "MANAGE_USERS": "Gattako abakozesa mu kifo",
        "MARK_AS_COMPLETED": "Laga ng`ekiwedde",
        "SITE_SIGNATURE": "Omukono gwa: ",
        "SITE_REPORT_AFF": "Njijjuzaamu, nkebedde, era kati nkakasa bino ebiddako.<br /><br /><strong>Omukono gwa:</strong> {{{ getActiveUserName }}}",
        "PATIENT_REPORT_AFF": "Njijjuzaamu, nkebedde, era kati nkakasa bino ebiddako.<br /><br /><strong>Amannya mu bufunze:</strong> {{{ getActiveUserName }}}",
        "CLEAR_SIGNATURE": "Ggyawo omukono",
        "MENU": "Endagiriro",
        "MODE": "Mmoodi",
        "NAME": "Erinnya",
        "NEW_USER": "Gattako omukozesa omupya ku ddayale",
        "FIRST_SITE_USER": "Gattako omukozesa asooka mu kifo kino",
        "NEW_USER_CREATED": "Omukozesa mu kifo omupya atondeddwawo.",
        "NEW_PATIENT_QUESTION_1_MAIN_TITLE": "<div class='question-title-large'>Jjuzaamu ebikwata ku nnamba y'omulwadde</div><div>Ettuluba ly`ennamba y`ekifo kino:<br /><strong> {{{ patientIDRange }}}</strong></div><div><strong>Ekifo: {{{ getSiteCode }}}</strong></div><div><strong>Omukozesa: {{{ getUserName }}}</strong</div><br /><br />",
        "NEW_PATIENT_HELP_TEXT_1": "",
        "NEW_PATIENT_HELP_TEXT_2": "",
        "NEW_PATIENT_HELP_TEXT_3": "",
        "NEW_PATIENT_QUESTION_1_TITLE": "Ennamba y`omulwadde",
        "NEW_PATIENT_QUESTION_1": "Ennamba y`omulwadde:",
        "NEW_PATIENT_QUESTION_1_EMPTY": "Osabibwa ojjuzeemu ennamba y'omulwadde.",
        "NEW_PATIENT_QUESTION_1_EMPTY_HEADER": "Ennamba y`omulwadde",
        "NEW_PATIENT_QUESTION_1_RANGE": "Ennamba y'omulwadde gy`ojjuzizzaamu teli mu ttuluba ly`ennamba ezzikirizibwa: {{{ patientIDRange }}}.  Obabibwa ojjuzemu ennamba y'omulwadde entuufu.",
        "NEW_PATIENT_QUESTION_1_RANGE_HEADER": "Ennamba y'omulwadde teri mu ttuluba erikkirizibwa",
        "NEW_PATIENT_QUESTION_1_UNIQUE": "Omulwadde mwaali.  Osabibwa ojjuzeemu ennamba y'omulwadde endala.",
        "NEW_PATIENT_QUESTION_1_UNIQUE_HEADER": "Ennamba y'omulwadde eddiddwaamu",
        "NEW_PATIENT_QUESTION_2": "Ammanya g`omulwadde mu bufunze:",
        "NEW_PATIENT_QUESTION_2_EMPTY": "Osabibwa ojjuzeemu amannya g'omulwadde mu bufunze nga tokka wansi wa nnukutta bbiri.",
        "NEW_PATIENT_QUESTION_2_EMPTY_HEADER": "Ammanya g`omulwadde mu bufunze",
        "NEW_PATIENT_QUESTION_3_TITLE": "<div class='question-title-large'>Londa olulimu lw'okukozesa</div><div><strong>Ekifo: {{{ getSiteCode }}}</strong></div><div><strong>Omukozesa: {{{ getUserName }}}</strong</div><div><strong>Ennamba y`omulwadde: {{{ getPatientID }}}</strong></div><br /><br />",
        "NEW_PATIENT_QUESTION_3": "Londa olulimu lw'omulwadde lw`akozesa",
        "NEW_PATIENT_CANCEL_CONFIRM": "Sazaamu okugattako omulwadde?",
        "NEW_PATIENT_CANCEL_BODY": "Bw'osazaamu ky'oliko kati, omulwadde tajja kujjuzibwaamu.  Okakasa oyagala okusazaamu ky'oliko?",
        "NEW_PATIENT_AFFIDAVIT_HEADER": "<div><strong>Ekifo: {{{ getSiteCode }}}</strong><br /><strong>Omukozesa: {{{ getUserName }}}</strong><br /><strong>Ennamba y`omulwadde: {{{ getPatientID }}}</strong></div>",
        "NEXT": "Ekiddako",
        "NO_RESULTS_FOUND": "Tewali bizuuliddwa.",
        "NOT_AVAILABLE": "Teriiko",
        "OK": "Kale",
        "ORDER": "Nga bwe bigenda",
        "PASSWORD": "Ppaasiwaadi:",
        "PATIENT": "Omulwadde",
        "PATIENT_ID": "Ennamba y`omulwadde:",
        "PATIENT_INITIALS": "Ammanya g`omulwadde mu bufunze:",
        "PATIENT_DELETED": "Omulwadde atamanyiddwa",
        "PATIENT_DELETED_MSG": "Omulwadde tasobose kuzuuliika.",
        "PATIENT_DELETED_SUBJECT_MSG": "Omulwadde tasobose kuzuuliika. Osabibwa ozzeeyo ekyuuma okiwe omukozi asaanidde mu kifo.",
        "PENDING_TRANSMISSIONS": "Bikyalinda kutambuzibwa",
        "PLEASE_WAIT": "Osabibwa olindeko",
        "PLEASE_CONFIRM": "Osabibwa okakase",
        "PLEASE_CONTACT": "Osabibwa otuukirire ekitebe ekiyambi ekya ERT.",
        "PLEASE_TRY_OR_CONTACT_SUPPORT": "Osabibwa oddemu ogezeeko oba otuukirire ekitebe ekiyambi ekya ERT.",
        "QR_CODE_UNAVAILABLE": "Kkupa ku kapeesa k`omulwadde okuzza obuggya QR.",
        "QR_MODAL_TITLE": "Ennamba ya QR eya: ",
        "REASON": "Ensonga:",
        "REPORTS_AND_FORMS": "Alipoota ne ffoomu",
        "REPORTS_COMPLETED_MESSAGE": "Ffoomu zonna ozijjuzizza. Osabibwa ozzeeyo ekyuuma okiwe omukozi asaanidde mu kifo.",
        "REQUIRED_ANSWER": "Osabibwa ojjuzeemu ebikusabiddwa okujjuzaamu.",
        "RESET_PIN": "Tereeza PIN y`omulwadde",
        "RESET_USER_PASSWORD": "Ppaasiwaadi y`omukozesa gikyuuse",
        "ROLES": "Omulimugwe:",
        "SAVE": "Tereka",
        "SEARCH": "Noonya",
        "SECURITY_QUESTION_0": "Erinnya lya maamawo ery`obuzaale yani?",
        "SECURITY_QUESTION_1": "Waazalibwa mu kibugaki?",
        "SECURITY_QUESTION_2": "Erinnya ly`ekisolo kye wasooka okulunda lye liluwa?",
        "SECURITY_QUESTION_3": "Muzannyo ki gw`osinga okunyumirwa?",
        "SECURITY_QUESTION_4": "Mwakaki gwe wava mu ssomero?",
        "SECURITY_QUESTION_5": "Erinnya lya wakati ery`omwanawo omukulu lye liriwa?",
        "SECURITY_QUESTION_6": "Erinnya ki erya mukwanogwo nfaafe mu buto?",
        "SECURITY_QUESTION_7": "Erinnya ly`omusomesawo mu ppulayimale ey`okusatu ery`ekika lye liriwa?",
        "SECURITY_QUESTION_8": "Kibugaki oba kabugaki mwe wasooka okukolera?",
        "SECRET_ANSWER": "Eky`okuddamu eky`obukuumi:",
        "SECRET_QUESTION": "Ekibuuzo eky`obukuumi:",
        "SECRET_QUESTION_HELP_TEXT": "Londa ekibuuzo eky`obukuumi okuva ku lukalala luno wammanga. Ky`oddamu kikozesebwa okukukkiriza okuyingira mu ssisitiimu ssinga weerabidde ppaasiwaadi.",
        "SECRET_QUESTION_ANSWER": "Ekibuuzo eky`obukuumi n`ekiddibwaamu",
        "SELECT_LANGUAGE": "Osabibwa olonde olulumi lw`oyagala olw`ekifo kino.",
        "SET_TIMEZONE_MESSAGE": "Londa ettuluba ly`essaawa z`olimu:",
        "SELECT_SITE_NUMBER": "Londa ennamba y`ekifo",
        "SERVICE_URL": "URL kw`akolera",
        "SETTINGS": "Awakyuusizibwa nga bw'oyagala",
        "SETUP_COMPLETE": "Okutegeka kuwedde",
        "SETUP_COMPLETE_DESC": "Ekyuuma kati kiwedde okutegeka era kisoboka okuweerezebwa kati.  Osabibwa onnyige KALE era oggyeko ekyuuma ku ssikuliini eddako.",
        "SETUP_SITE_USER": "Gattako omukozesa mu kifo omupya",
        "SETUP_SITE_USER_LEGEND": "Osabibwa okeekeko omukozesa omupya akazosa ekyuuma kino.",
        "SITE": "Ekifo",
        "SITE_ASSESSMENTS": "Okwekebejja ekifo",
        "SIGNATURE_DATA_LIMIT_EXCEEDED": "Akafo awagenda omukono tekakiikiridde mukonogwo bulungi nga bw`oguwandiise. Osabiba osseeko omukono ng`okozesa amannyago mu bufunze.",
        "SITE_NUMBER": "Nnamba y`ekifo",
        "SITE_ROLE": "Omukozesa mu kifo",
        "SITE_SELECTION": "Okulonda ekifo",
        "SKIP_FORM": "Buuka ffoomu",
        "SKIP_QUESTION": "Okakasa oyagala okubuuka ebiddibwaamu ku ssikuliini eno?",
        "SKIP_TO_VISIT": "Buuka odde ku kukyaala",
        "SKIP_VISIT": "Buuku okukyaala",
        "SKIP_VISITS": "Buuka okukyaala",
        "SKIP_VISITS_QUESTION_1": "<div class='question-title-large'><strong>Ensonga</strong></div><br /><br /><div>Londa ensonga okubuusizza okukyala:</div>",
        "SKIP_VISITS_CANCEL_CONFIRM": "Sazaamu okubuuka enkyaalo?",
        "SKIP_VISITS_CANCEL_BODY": "Bw'osazaamu ky'oliko, enkyaalo tezijja kubuukibwa. Okakasa oyagala okusazaamu ky'oliko?",
        "SKIPPED": "Kibuukiddwa",
        "SKIPPED_VISITS": "{{{ skippedVisits }}}",
        "START_FORM": "Tandika ffoomu",
        "START_VISIT": "Tandika okukyaala",
        "STATUS": "Bwe kiri",
        "STATUS_DATE": "Obudde nga bwe buli",
        "STUDY": "Okusoma",
        "STUDYWORKS_LOGIN": "Okuyingira my ssitiimu ya StudyWorks",
        "SUBJECT_ID": "Ennamba y`omulwadde",
        "SUBJECT_ROLE": "Omulwadde",
        "SUBMIT": "Biweereze",
        "SUPPORT_TOOLS": "Ssisittimu ezisobola okukuyamba",
        "SYNC": "Engassi",
        "SYNC_USERS": "Kwataganya abakozesa",
        "SYNC_TO_DEVICE": "Kwataganya okusoma n`ekyuuma",
        "TEMPORARY_PASSWORD_MESSAGE": "Osabibwa owe omukozesa omupya ppaasiwadi ey`ekisera. Bajja kusabibwa okukola ppaasiwadi empya mangu ddala nga baakayingira mu sissitiimu.",
        "TEMP_PASSWORD": "Ppaasiwaadi Ey`ekiseera: ",
        "UNABLE_TO_GET_SITE_LIST": "Tetusobodde kufuna lukalala lwa kifo kino",
        "UNLOCK_CODE": "Ennamba eggulawo",
        "UNLOCK_CODE_HELP": "Ennamba eggulawo ekyuuma kya ERT ky`okozesa esobola okufunika okuva my ssisitiimu ya StudyWorks ng`ogisanga mu \"Nnamba za ERT Eziggulawo\" SmartReport Osabibwa otuukirire ekitebe ekiyambi ekya ERT okusobola okufuna obuyambi obusingawo.",
        "USER": "Omukozesa",
        "USER_ALREADY_EXISTS": "Omukozesa mwaali",
        "USER_EDITED": "Omukozesa aziddwa buggya.",
        "USER_TO_ACTIVATE": "<strong>Omukozesa agenda okuweebwa olukusa:</strong> <br />{{{ getSelectedUsername }}}<br /><br /><strong>Omukono gwa:</strong> {{{ getActiveUserName }}}",
        "SUBJECT_ALREADY_EXISTS": "Omulwadde alina ennamba {{{ getPatientIDForDuplicate }}} mwaali",
        "TIME_CONFIRMATION_INSTRUCTIONS": "Ekyuuma kirina okukakasa essaawa z`olimu. Osabibwa ojjuzeemu ennaku z`omwezi n`essaawa okuva mu kifo eky`esigika.",
        "TIME_ZONE_ERROR_HEADER": "Ensobi mu kutereeza ettuluba ly`essawa z`olimu",
        "TIME_ZONE_ERROR_MSG": "Wabaddewo ensobi mu kugezaako okufuna olukalala lw`ettuluba ly`essaawa. Osabibwa otuukirire ekitebe ekiyambi ekya ERT okusobola okufuna obuyambi obusingawo.",
        "TIME_ZONE_SET_ERROR_MSG": "Wabaddewo ensobi mu kugezaako okutereeza ettuluba ly`essaawa. Osabibwa otuukirire ekitebe ekiyambi ekya ERT okusobola okufuna obuyambi obusingawo.",
        "TIME_ZONE_SET_CONFIRM": "Okakasa oyagala okukyuusa ettuluba ly`essaawa z`olimu okufuuka: <bdo dir='ltr'>{{{selectedTimeZone}}}</bdo>? <br/> Ssisitiimu eyinza okuddamu okutandika okusobozesa enkyukakyuka okukolebwa.",
        "TIME_ZONE_SET_CONFIRM_NOCHANGE": "Okakasa oyagala okukyuusa ettuluba ly`essaawa z`olimu okufuuka: <bdo dir='ltr'>{{{selectedTimeZone}}}</bdo>?",
        "TIME_ZONE_SET_HEADER": "Okukasa okutereeza ettuluba ly`essaawa z`olimu",
        "TRAINER": "Ekitundu eky`abayigiriza",
        "TRAINER_EXIT": "Fuluma okuva mu kitundu eky`abayigiriza",
        "TRAINER_EXIT_NOTIFICATION": "Oli mu kufuluma okuva mu kitundu eky'abayigiriza",
        "TRAINER_HEADER": "(Omuyigiriza)",
        "USER_ROLE": "Omulimu",
        "USERNAME": "Erinnya ly`omukozesa",
        "USER_NAME": "Erinnya ly`omukozesa:",
        "VISIT": "Okukyaala",
        "VISIT_COMPLETED_MESSAGE": "Tewaaliwo ffoomu ndala za kukyaala kuno.  Okukyala kuno kuwedde.",
        "VISIT_INACTIVE_HEADER": "Okukyaala okutakyalabika.",
        "VISIT_INACTIVE_MESSAGE": "Okukyala kuno tekukyasobola kulabika.",
        "VISIT_INACTIVE_MESSAGE_SUBJECT": "Okukyala kuno tekukyasobola kulabika. Osabibwa ozzeeyo ekyuuma okiwe omukozi asaanidde mu kifo.",
        "VISIT_EXPIRED_HEADER": "Okukyaala okuweddeko.",
        "VISIT_EXPIRED_MESSAGE": "Okukyala kuno tekukyaliwo olw`okuba kwaggwaako.",
        "VISIT_EXPIRED_MESSAGE_SUBJECT": "Okukyala kuno tekukyaliwo olw`okuba kwaggwaako. Osabibwa ozzeeyo ekyuuma okiwe omukozi asaanidde mu kifo.",
        "VISITS": "Ekyaalo",
        "VISITS_SKIPPED": "Enkyaalo ezibuukiddwa:",
        "VISIT_NAME": "Erinnya ly`okukyaala",
        "WELCOME": "Oyanirizibwa",
        "AF-ZA": "Afrikaans",
        "SQ-AL": "Albanian",
        "AR-EG": "Arabic",
		"AS-IN": "Assamese",
        "BE-BY": "Belarusian",
        "BG-BG": "Bulgarian",
        "BN-IN": "Bengali",
        "BS-BA": "Bosnian",
        "CA-ES": "Catalan",
		"CE-PH": "Cebuano",
        "CS-CZ": "Czech",
		"CY-GB": "Welsh",
        "DA-DK": "Danish",
        "DE-DE": "German (Germany)",
        "DE-AT": "German (Austria)",
		"DH-KE": "Dholuo",
        "EL-GR": "Greek",
        "EN-GB": "English (UK)",
        "EN-US": "English (US)",
        "ES-ES": "Spanish (Spain)",
        "ES-US": "Spanish (US)",
        "ES-PY": "Spanish (Universal)",
        "ET-EE": "Estonian",
        "FI-FI": "Finnish",
        "FR-CA": "French (Canada)",
        "FR-FR": "French (France)",
        "GD-IE": "Gaelic",
        "GU-IN": "Gujarati",
        "HE-IL": "Hebrew",
        "HI-IN": "Hindi",
        "HR-HR": "Croatian",
        "HU-HU": "Hungarian",
        "IT-IT": "Italian",
        "JA-JP": "Japanese",
        "KA-GE": "Georgian",
        "KN-IN": "Kannada",
        "KO-KR": "Korean",
		"LG-UG": "Luganda",
        "LV-LV": "Latvian",
        "LT-LT": "Lithuanian",
		"MK-MK": "Macedonian",
        "ML-IN": "Malayalam",
        "MR-IN": "Marathi",
        "MS-MY": "Malay",
        "NB-NO": "Norwegian",
        "NL-BE": "Dutch (Belgium)",
        "NL-NL": "Dutch (Netherlands)",
        "PA-IN": "Punjabi",
        "PL-PL": "Polish",
        "PT-BR": "Portuguese (Brazil)",
        "PT-PT": "Portuguese (Portugal)",
        "RO-RO": "Romanian",
        "RU-RU": "Russian",
        "SL-SL": "Slovenian",
        "SK-SK": "Slovak",
        "SR-RS": "Serbian (Latin)",
        "SR-SP": "Serbian (Cyrillic)",
        "ST-ZA": "Sotho",
        "SV-SE": "Swedish",
		"SW-KE": "Swahili",
        "TA-IN": "Tamil",
        "TE-IN": "Telugu",
        "TH-TH": "Thai",
        "TL-PH": "Tagalog",
        "TN-ZA": "Tswana",
        "TR-TR": "Turkish",
		"TW-GH": "Twi",
        "UK-UA": "Ukrainian",
        "UR-IN": "Urdu",
        "VI-VN": "Vietnamese",
        "XH-ZA": "Xhosa",
        "ZH-CN": "Chinese (China)",
        "ZH-TW": "Chinese (Taiwan)",
        "ZU-ZU": "Zulu",
        "HAND_DEVICE_SUBJECT_BODY": "Ffoomu eddako erimu okumalirizibwa omu {{{ patientOrRole }}}. Osabibwa ofulume ssisitiimu, era ekyuma okiwe {{{ patientOrRole }}}.",
        "HAND_DEVICE_SUBJECT_TITLE": "Ffoomu Etandika {{{ formTitle }}}",
        "SKIP_VISIT_TITLE": "Buuka okukyaala?",
        "SKIP_VISIT_TEXT": "Bwe weeyongerayo, enkyaalo ezino zijja kubuukibwa:<br/> {{{ skippedVisits }}} Weeyongereyo eokubuuka enkyalo zino kati?",
        "YES": "Yye",
        "NO": "Nedda",
        "TIME_LBL": "Obudde:",
        "SET_TIME": "Tereeza essawa",
        "DATE_LBL": "Ennaku z`omwezi:",
        "CREATE_PERMANENT_PASSWORD_TITLE": "Tondawo ppaasiwaadi ey`olubeerera",
        "USER_ID": "Ennama y`omukozesa:",
        "PHASE": "Olubu",
        "LAST_VISIT": "Olukyaalo olwaseembayo okumaliririzibwa",
        "CONNECTION_REQUIRED": "Oteekwa okubeera ng`oli ku mutimbagano gwa Yintanenti.",
        "RETRY": "Ddamu Ogezeeko",
        "UPDATE_FAILURE": "Enkyuukakyuuka teweddeeyo",
        "UPDATE_SUCCESS": "Enkyuuka kyuuka zikoleddwa bulungi",
        "CANCEL_PERMANENT_PASSWORD_TITLE": "Sazaamu okutondebwa kwa ppaasiwaadi ey`olubeerera?",
        "CANCEL_PERMANENT_PASSWORD_TEXT": "Bw'osazaamu ky'oliko kati, ppaasiwaadiyo ey`olubeerera tejja kutondebwa/kukakasibwa. Ojja kweetagisa okubeera ne ppaasiwaadi ey`olubeerera okutandika okukozesa ERT. Okakasa oyagala okusazaamu ky'oliko?",
        "ACCOUNT_CONFIGURED_TITLE": "Okutegeka akawunta kuwedde",
        "ACCOUNT_CONFIGURED_TEXT": "Kaakati omalirizza okutegeka akawuntayo, osobola okweyongerayo okukozesa ssissitiimu ya eCOA.",
        "LOGGED_IN_AS": "Oyingidde ssissitiimu nga",
        "EDIT_PATIENT_AFFIDAVIT_HEADER": "<p class='question-title-large'>Omukono gwa</p><br />",
        "EDIT_PATIENT_AFF": "Bwe nzisaako omukono wammanga, mba nkiraga nti nnina olukusa olukyuusa ku bikwata ku mulwadde.<br /><br />Ennamba y`omulwadde: {{{ getPatientIdNumber }}} ({{{getPatientInitials}}})<br /><br /><strong>Omukono gwa:</strong> {{{ getActiveUserName }}}",
        "PASSWORD_MISMATCH": "Ppaasiwadi gy`okakasa tegwatagana na ppaasiwaadi",
        "FIRST_USER_AFFIDAVIT": "Bwe nzisaako omukono wammanga, mba nkiraga nti nzi munoonyerezi awomyeemu omutwe oba omukungu akkirizibwa okutondawo akawunta ku ssissitiimu eno.<br /><br /><strong>Omukono gwa:</strong> {{{ getFirstUsername }}}",
        "INCOMPLETE": "Teziwedde",
        "INVALID_ENTRY": "By`ojjuzizzaamu bikyaamu",
        "PLEASE_ANSWER_SQ": "Osabibwa okujuzaamu ekibuuzo eky`obukuumi:",
        "FORGOT_SECRET_ANSWER": "Weerabidde eky`okuddamu eky`obukuumi?",
        "CONTACT_STUDY_COORDINATOR": "Tuukirira akubiriza okusoma",
        "ENTER_NEW_PASSWORD": "Ppaasiwaadi empya:",
        "CONTACT_UNLOCK_CODE": "Osabibwa otuukirire akubiriza okusomakwo olw`okufuna ennamba ekuggulirawo leero:",
        "CURRENT_DATE": "{{{ currentDate }}}",
        "TEMPORARY_UNLOCK_CODE": "Jjuzaamu ennamba eggulawo ekuwereddwa omukubiriza w'okusoma.",
        "RESET_SECRET_QUESTION": "Kyuusa ekibuuzo eky`obukuumi",
        "SECRET_QUESTION_CHANGE_SUCCESS": "Ppaasiwaadi yo ekyusiddwa bulungi wamu n'ekibuuzokyo eky'obukuumi.",
        "RESET_PASSWORD": "Ppaasiwaadi gikyuuse",
        "ANSWER_ATTEMPT_EXCEEDED": "Ojjuzizzaamu ebiddibwaamu ebitali bituufu emirundi mingi oba onyize ku akalaga nti weelabidde eky`okuddamu.",
        "PASSWORD_ATTEMPT_EXCEEDED": "Ojjuzizzaamu ppassiwaadi etali ntuufu emirundi mingi oba onyize ku kalaga nti weelabidde ppaasiwaadi.",
        "PASSWORD_CHANGE_SUCCESS": "Ppaasiwaadi yo ekyusiddwa bulungi.",
        "CHANGE_PASSWORD": "Kakasa okukyuusa ppaasiwaadi",
        "CHANGE_SECRET_QUESTION": "Kyuusa ekibuuzo eky`obukuumi",
        "SYNC_COMPLETE": "Okukwanaganya kuwedde",
        "INCORRECT_ANSWER": "Ekiddibwaamu ekitali kituufu",
        "INCORRECT_UNLOCK_CODE": "Ennamba eggulawo etali ntuufu",
        "PASSWORD_INVALID": "Ppaasiwaadi si ntuufu",
        "SUBJECT": "Omulwadde",
        "PATIENT_ADDED": "Omulwadde ogattiddwaako",
        "SITE_ADMINISTRATOR": "Akulira ekifo",
        "LOW_BATTERY": "Okulabula: Eryanda likendedde. Osabibwa ekyuuma okiteeke mu masannyalaze.",
        "CRITICAL_BATTERY": "Okulabula: Eryanda likenderedde ddala. Osabibwa ekyuuma okiteeke mu masannyalaze, ekitali ekyo kigenda kuvaako.",
        "TIME_CONFIRMATION_HEADER": "Kakasa Ennaku z`omwezi/Essaawa",
        "IMAGE_FOLDER": "{{{ imageFolder }}}",
        "TIMESLIP_ERROR": "Essaawa oba ennaku z`omwezi ku kyuumakyo ssi ntuufu. Osabibwa odde mu kifo awali Yintanenti olyoke oddemu ogezeeko. Ssinga oyongera okufuna obuzibu, osabibwa otuukirire ekitebe kya ERT ekiyamba ba kkaasitoma.",
        "SUPPORT": "Okuyamba ba kkaasitoma",
        "SUPPORT_MESSAGE": "Abakozesa abali mu United States basobola okutuukirira ekitebe kya ERT ekiyambi nga bayita ku 800-748-5669. Abakoseza abava mu mawanga amalala, musabibwa mulonde eggwanga erikuliranye:",
        "SUPPORT_DROPDOWN": "Londa eggwalyo",
        "SUPPORT_NAME_ARGENTINA": "Argentina",
        "SUPPORT_NUMBER_ARGENTINA": "<bdo dir='ltr'>0800 444 0962</bdo>",
        "SUPPORT_NAME_ARMENIA": "Armenia",
        "SUPPORT_NUMBER_ARMENIA": "<bdo dir='ltr'>+1 617 681 6306</bdo>",
        "SUPPORT_NAME_AUSTRALIA": "Australia",
        "SUPPORT_NUMBER_AUSTRALIA": "<bdo dir='ltr'>1 800 800 051</bdo>",
        "SUPPORT_NAME_AUSTRIA": "Austria",
        "SUPPORT_NUMBER_AUSTRIA": "<bdo dir='ltr'>0800 100 405</bdo>",
        "SUPPORT_NAME_BELARUS": "Belarus",
        "SUPPORT_NUMBER_BELARUS": "<bdo dir='ltr'>8 820 0321 0036</bdo>",
        "SUPPORT_NAME_BELGIUM": "Belgium",
        "SUPPORT_NUMBER_BELGIUM_1": "(English): <bdo dir='ltr'>0800 58 016</bdo>",
        "SUPPORT_NUMBER_BELGIUM_2": "(French): <bdo dir='ltr'>0800 71 076</bdo>",
        "SUPPORT_NUMBER_BELGIUM_3": "(German): <bdo dir='ltr'>0800 71 113</bdo>",
        "SUPPORT_NAME_BRAZIL": "Brazil",
        "SUPPORT_NUMBER_BRAZIL": "<bdo dir='ltr'>0800 891 5909</bdo>",
        "SUPPORT_NAME_BOSNIA": "Bosnia",
        "SUPPORT_NUMBER_BOSNIA": "<bdo dir='ltr'>+1 617 681 6306</bdo>",
        "SUPPORT_NAME_BULGARIA": "Bulgaria",
        "SUPPORT_NUMBER_BULGARIA": "<bdo dir='ltr'>00800 0010</bdo>, ozzeeko <bdo dir='ltr'>866 245 4931</bdo>",
        "SUPPORT_NAME_CANADA": "Canada",
        "SUPPORT_NUMBER_CANADA": "<bdo dir='ltr'>1 800 748 5669</bdo>",
        "SUPPORT_NAME_CHILE": "Chile",
        "SUPPORT_NUMBER_CHILE": "<bdo dir='ltr'>123 0020 3408</bdo>",
        "SUPPORT_NAME_CHINA": "China",
        "SUPPORT_NUMBER_CHINA_1": "NetCom (North) : <bdo dir='ltr'>1 0800 74 40 164</bdo>",
        "SUPPORT_NUMBER_CHINA_2": "Telecom (South) : <bdo dir='ltr'>1 0800 44 00 158</bdo>",
        "SUPPORT_NAME_COLOMBIA": "Colombia",
        "SUPPORT_NUMBER_COLOMBIA": "<bdo dir='ltr'>01 800 911 0010</bdo>, ozzeeko <bdo dir='ltr'>866 310 3707</bdo>",
        "SUPPORT_NAME_COSTA_RICA": "Costa Rica",
        "SUPPORT_NUMBER_COSTA_RICA": "<bdo dir='ltr'>0800 013 1210</bdo>",
        "SUPPORT_NAME_CROATIA": "Croatia",
        "SUPPORT_NUMBER_CROATIA": "<bdo dir='ltr'>0800 222 953</bdo>",
        "SUPPORT_NAME_CZECH_REPUBLIC": "Czech Republic",
        "SUPPORT_NUMBER_CZECH_REPUBLIC": "<bdo dir='ltr'>800 142 150</bdo>",
        "SUPPORT_NAME_DENMARK": "Denmark",
        "SUPPORT_NUMBER_DENMARK": "<bdo dir='ltr'>80 60 00 09</bdo>",
        "SUPPORT_NAME_EGYPT": "Egypt",
        "SUPPORT_NUMBER_EGYPT": "<bdo dir='ltr'>02 510 0200</bdo>, ozzeeko <bdo dir='ltr'>866 310 3707</bdo>",
        "SUPPORT_NAME_EL_SALVADOR": "El Salvador",
        "SUPPORT_NUMBER_EL_SALVADOR": "<bdo dir='ltr'>+1 617 681 6306</bdo>",
        "SUPPORT_NAME_ESTONIA": "Estonia",
        "SUPPORT_NUMBER_ESTONIA": "<bdo dir='ltr'>800 00 44 154</bdo>",
        "SUPPORT_NAME_FINLAND": "Finland",
        "SUPPORT_NUMBER_FINLAND": "<bdo dir='ltr'>0800 11 6366</bdo>",
        "SUPPORT_NAME_FRANCE": "France",
        "SUPPORT_NUMBER_FRANCE": "<bdo dir='ltr'>0800 10 19 79</bdo>",
        "SUPPORT_NAME_GERMANY": "Germany",
        "SUPPORT_NUMBER_GERMANY": "<bdo dir='ltr'>0800 101 28 21</bdo>",
        "SUPPORT_NAME_GREECE": "Greece",
        "SUPPORT_NUMBER_GREECE": "<bdo dir='ltr'>00 800 1311</bdo>, ozzeeko <bdo dir='ltr'>866 310 3707</bdo>",
        "SUPPORT_NAME_GUATEMALA": "Guatemala",
        "SUPPORT_NUMBER_GUATEMALA": "<bdo dir='ltr'>1 800 624 0079</bdo>",
        "SUPPORT_NAME_HONG_KONG": "Hong Kong",
        "SUPPORT_NUMBER_HONG_KONG": "<bdo dir='ltr'>3002 1665</bdo>",
        "SUPPORT_NAME_HUNGARY": "Hungary",
        "SUPPORT_NUMBER_HUNGARY": "<bdo dir='ltr'>06 800 14 571</bdo>",
        "SUPPORT_NAME_ICELAND": "Iceland",
        "SUPPORT_NUMBER_ICELAND": "<bdo dir='ltr'>800 8544</bdo>",
        "SUPPORT_NAME_INDIA": "India",
        "SUPPORT_NUMBER_INDIA": "<bdo dir='ltr'>000 800 440 1125</bdo>",
        "SUPPORT_NAME_INDONESIA": "Indonesia",
        "SUPPORT_NUMBER_INDONESIA": "<bdo dir='ltr'>008 800 330 334</bdo>",
        "SUPPORT_NAME_IRELAND": "Ireland",
        "SUPPORT_NUMBER_IRELAND": "<bdo dir='ltr'>1 800 946 700</bdo>",
        "SUPPORT_NAME_ISRAEL": "Israel",
        "SUPPORT_NUMBER_ISRAEL": "<bdo dir='ltr'>1 809 470 062</bdo>",
        "SUPPORT_NAME_ITALY": "Italy",
        "SUPPORT_NUMBER_ITALY": "<bdo dir='ltr'>800 90 56 37</bdo>",
        "SUPPORT_NAME_JAPAN": "Japan",
        "SUPPORT_NUMBER_JAPAN": "Osabibwa wesigame ku biruȠȠamya okusomakwo okwa ePRO okusobola okumanya ennam y`essimu etali ya kusasulirwa",
        "SUPPORT_NAME_LATVIA": "Latvia",
        "SUPPORT_NUMBER_LATVIA": "<bdo dir='ltr'>8000 2151</bdo>",
        "SUPPORT_NAME_LEBANON": "Lebanon",
        "SUPPORT_NUMBER_LEBANON": "<bdo dir='ltr'>01-426-801</bdo> ozzeeko <bdo dir='ltr'>866 310 3707</bdo>",
        "SUPPORT_NAME_LITHUANIA": "Lithuania",
        "SUPPORT_NUMBER_LITHUANIA": "<bdo dir='ltr'>8800 30207</bdo>",
        "SUPPORT_NAME_MALAYSIA": "Malaysia",
        "SUPPORT_NUMBER_MALAYSIA": "<bdo dir='ltr'>1800 80 59 71</bdo>",
        "SUPPORT_NAME_MEXICO": "Mexico",
        "SUPPORT_NUMBER_MEXICO_1": "(English): <bdo dir='ltr'>001 800 748 5669</bdo> ",
        "SUPPORT_NUMBER_MEXICO_2": "(Spanish): <bdo dir='ltr'>001 855 631 6952</bdo>",
        "SUPPORT_NAME_MOLDOVA": "Moldova",
        "SUPPORT_NUMBER_MOLDOVA": "<bdo dir='ltr'>617 681 6306</bdo>",
        "SUPPORT_NAME_NETHERLANDS": "Netherlands",
        "SUPPORT_NUMBER_NETHERLANDS": "<bdo dir='ltr'>0800 023 1389</bdo>",
        "SUPPORT_NAME_NEW_ZEALAND": "New Zealand",
        "SUPPORT_NUMBER_NEW_ZEALAND": "<bdo dir='ltr'>0800 110 178</bdo>",
        "SUPPORT_NAME_NORWAY": "Norway",
        "SUPPORT_NUMBER_NORWAY": "<bdo dir='ltr'>800 62 051</bdo>",
        "SUPPORT_NAME_PAKISTAN": "Pakistan",
        "SUPPORT_NUMBER_PAKISTAN": "<bdo dir='ltr'>00 800 0100</bdo>, ozzeeko <bdo dir='ltr'>866 237 9767</bdo>",
        "SUPPORT_NAME_PANAMA": "Panama",
        "SUPPORT_NUMBER_PANAMA": "<bdo dir='ltr'>001 800 201 3095</bdo>",
        "SUPPORT_NAME_PERU": "Peru",
        "SUPPORT_NUMBER_PERU": "<bdo dir='ltr'>0800 5 0974</bdo>",
        "SUPPORT_NAME_PHILIPPINES": "Philippines",
        "SUPPORT_NUMBER_PHILIPPINES": "<bdo dir='ltr'>1 800 1116 0651</bdo>",
        "SUPPORT_NAME_POLAND": "Poland",
        "SUPPORT_NUMBER_POLAND": "<bdo dir='ltr'>00800 331 1262</bdo>",
        "SUPPORT_NAME_PORTUGAL": "Portugal",
        "SUPPORT_NUMBER_PORTUGAL": "<bdo dir='ltr'>800 206 172</bdo>",
        "SUPPORT_NAME_PUERTO_RICO": "Puerto Rico (US Territory)",
        "SUPPORT_NUMBER_PUERTO_RICO": "<bdo dir='ltr'>1 800 748 5669</bdo>",
        "SUPPORT_NAME_ROMANIA": "Romania",
        "SUPPORT_NUMBER_ROMANIA": "<bdo dir='ltr'>0800 894492</bdo>",
        "SUPPORT_NAME_RUSSIA": "Russia",
        "SUPPORT_NUMBER_RUSSIA_1": "(Primary - Toll Free): <bdo dir='ltr'>8 10 800 249 13011</bdo>",
        "SUPPORT_NUMBER_RUSSIA_2": "(Within Moscow): <bdo dir='ltr'>363-2400</bdo> <br> ozzeeko <bdo dir='ltr'>866 310 3707</bdo>",
        "SUPPORT_NUMBER_RUSSIA_3": "(Outside Moscow): <bdo dir='ltr'>8^(495) 363-2400</bdo> <br> ozzeeko <bdo dir='ltr'>866 310 3707</bdo>",
        "SUPPORT_NUMBER_RUSSIA_4": "(Within St. Petersburg): <bdo dir='ltr'>363-2400</bdo> <br> ozzeeko <bdo dir='ltr'>866 310 3707</bdo>",
        "SUPPORT_NUMBER_RUSSIA_5": "(Outside St. Petersburg): <bdo dir='ltr'>8^(495) 363-2400</bdo> <br> ozzeeko <bdo dir='ltr'>866 310 3707</bdo>",
        "SUPPORT_NAME_SAUDI_ARABIA": "Saudi Arabia",
        "SUPPORT_NUMBER_SAUDI_ARABIA": "<bdo dir='ltr'>+1 617 681 6306</bdo>",
        "SUPPORT_NAME_SERBIA": "Serbia",
        "SUPPORT_NUMBER_SERBIA": "<bdo dir='ltr'>+1 617 973 1739</bdo>",
        "SUPPORT_NAME_SINGAPORE": "Singapore",
        "SUPPORT_NUMBER_SINGAPORE": "<bdo dir='ltr'>800 616 30 03</bdo>",
        "SUPPORT_NAME_SLOVAKIA": "Slovakia",
        "SUPPORT_NUMBER_SLOVAKIA": "<bdo dir='ltr'>0800 0044 65</bdo>",
        "SUPPORT_NAME_SLOVENIA": "Slovenia",
        "SUPPORT_NUMBER_SLOVENIA": "<bdo dir='ltr'>+1 617 681 6306</bdo>",
        "SUPPORT_NAME_SOUTH_AFRICA": "South Africa",
        "SUPPORT_NUMBER_SOUTH_AFRICA": "<bdo dir='ltr'>0800 99 5853</bdo>",
        "SUPPORT_NAME_SOUTH_KOREA": "South Korea",
        "SUPPORT_NUMBER_SOUTH_KOREA": "<bdo dir='ltr'>00308 33 00 08</bdo>",
        "SUPPORT_NAME_SPAIN": "Spain",
        "SUPPORT_NUMBER_SPAIN": "<bdo dir='ltr'>900 90 2541</bdo>",
        "SUPPORT_NAME_SWEDEN": "Sweden",
        "SUPPORT_NUMBER_SWEDEN": "<bdo dir='ltr'>020 120 99 69</bdo>",
        "SUPPORT_NAME_SWITZERLAND": "Switzerland",
        "SUPPORT_NUMBER_SWITZERLAND_1": "(English): <bdo dir='ltr'>0800 199 325</bdo>",
        "SUPPORT_NUMBER_SWITZERLAND_2": "(French): <bdo dir='ltr'>0800 891 183</bdo>",
        "SUPPORT_NUMBER_SWITZERLAND_3": "(German): <bdo dir='ltr'>0800 891 025</bdo>",
        "SUPPORT_NAME_TAIWAN": "Taiwan",
        "SUPPORT_NUMBER_TAIWAN": "<bdo dir='ltr'>00801 33 33 42</bdo>",
        "SUPPORT_NAME_THAILAND": "Thailand",
        "SUPPORT_NUMBER_THAILAND": "<bdo dir='ltr'>1 800 33 140 353</bdo>",
        "SUPPORT_NAME_TUNISIA": "Tunisia",
        "SUPPORT_NUMBER_TUNISIA": "<bdo dir='ltr'>+1 617 681 6306</bdo>",
        "SUPPORT_NAME_TURKEY": "Turkey",
        "SUPPORT_NUMBER_TURKEY": "<bdo dir='ltr'>00 800 151 1335</bdo>",
        "SUPPORT_NAME_UKRAINE": "Ukraine",
        "SUPPORT_NUMBER_UKRAINE": "<bdo dir='ltr'>0^00 11</bdo>, ozzeeko <bdo dir='ltr'>866 245 4931</bdo>",
        "SUPPORT_NAME_UAE": "United Arab Emirates",
        "SUPPORT_NUMBER_UAE": "<bdo dir='ltr'>8000-021</bdo>, ozzeeko <bdo dir='ltr'>866 310 3707</bdo>",
        "SUPPORT_NAME_UK": "United Kingdom",
        "SUPPORT_NUMBER_UK": "<bdo dir='ltr'>0800 015 0408</bdo>",
        "SUPPORT_NAME_US": "United States",
        "SUPPORT_NUMBER_US_1": "(Main): <bdo dir='ltr'>1 800 748 5669</bdo>",
        "SUPPORT_NUMBER_US_2": "(Tereka kkope): <bdo dir='ltr'>1 877 748 5669</bdo>",
        "SUPPORT_NAME_VENEZUELA": "Venezuela",
        "SUPPORT_NUMBER_VENEZUELA_1": "(English): <bdo dir='ltr'>0 800 552 6288</bdo> <br> ozzeeko <bdo dir='ltr'>866 310 3707</bdo> ",
        "SUPPORT_NUMBER_VENEZUELA_2": "(Spanish): <bdo dir='ltr'>0 800 100 3063</bdo> ",
        "STUDY_VERSION": "Ensawulo ya ssisitiimu ey'okusoma:",
        "STUDY_URL": "URL ey'okusoma:",
        "DEVICE_SERIAL_NUMBER": "Ennamba y`ekyuma eggirako",
        "PROTOCOL": "Emitendera:",
        "SPONSOR": "Omuyima:",
        "STORED_REPORTS": "Ffoomu eziterekeddwa:",
        "CORE_PRODUCT_VERSION_LABEL": "Enjawulo ya ssisitiimu:",
        "ABOUT": "Ebikwata ku",
        "SET_TIMEZONE": "Tereeza ettuluba ly`essawa z`olimu",
        "NONEXISTENT_USER": "Ogezezzaako okukyuusa omukozesa ataliiyo.",
        "SCREENING": "Okusunsula",
        "TREATMENT": "Obujjanjabi",
        "RANDOMIZATION": "Okulondoba",
        "FOLLOWUP": "Okugoberera okulaba nga bwali",
        "TERMINATION": "Okuggalawo",
        "MODAL_OK_TEXT": "Kale",
        "BROWSER_LOAD_ERROR": "By`obikudde tebiriiyo. Osabibwa okebere Yintanentiyo olyoke oddemu ogezeeko.",
        "NO_USER_OF_ROLE": "Tewali mukozesa alina mulimu ogwo asangiddwa.",
        "START_VISIT_OUTSIDE_WINDOW_MSG": "Jjuza {{{ getVisitName }}} wabweeru bw`obudde obwateerezaabwu: {{{ startDate }}} - {{{ endDate }}}",
		"START_VISIT_HARD_STOP_MSG" : "Tosobodde kujjuzamu {{{ getVisitName }}} wabweeru bw`obudde obwateerezaabwu: {{{ startDate }}} - {{{ endDate }}}",
		"USER_NAME_INVALID_CHARACTERS" : "Osabibwa oleme okukozesa obunukuta obutali nnamba",
		"ERROR_PATIENT_SAVE" : "Wabaddewo ensobi ng`oli mu kugattako omulwadde omupya",
		"PASSWORD_CHANGE_FAILED" : "Ekyuuma eky`enjawulo kiteereddwaako okukuyamba okukuȠȠanya by`ononyereza. Osabibwa okyuuse ppaasiwaadi ku kyuuma ekyo.",
		"ERROR" : "Ensobi.  Osabibwa otuukirire ekitebe ekiyambi ekya ERT.",
		"ERROR_AFTER_ACTIVATION_SUCCESSFUL" : "Waliwo ensobi eguddewo. Ojja kweetagisa okujjuzaamu ennambayo ey`okubangawo oba ppaasiwaadi.",
		"CONNECTION_TIMEOUT" : "Okweyungakwo ku mutimbagano kuweddeko.",
		"UPDATE_FAILED" : "Enkyuukakyuuka eya ERT teweddeeyo. Osabibwa okukakasa nti ekyuuma kino kiri ku mutimbagano gwa Yintaneti era oddemu ogezeeko.",
        "TRANSMIT_FAILED_403_14": "Ebimu oba ebimu ku biweerezebwa tebiyiseemu olw`okuba okugatta kw`omulwadde omupya tekuwedde. Osabibwa olindeko era oddemu ogezeeko.",
        "USER_SELECT_ROLE_VALIDATION": "Oteekwa okulaga omulimu gw`okola.",
        "USER_SELECT_LANGUAGE_VALIDATION": "Okulonda olulimi kyetaagisa.",
        "TRY_AGAIN_ADD_USER": "Ddamu ogozeeko oba londa sazaamu okweyongerayo okugatta omukozesa nga toli ku Yintanenti.",
        "NO_INTERNET_CONNECTION": "Tekuliiko yintanenti",
        "TRANSMIT_FAILED_404": "Olw`obuzibu bw`okuyungibwa ku Yintanenti okukwanaganya tekuwedde. Osabibwa okebere Yintanentiyo olyoke oddemu ogezeeko.",
        "SKIP_VISITS_REASON_0": "Okukyaala kuweddeko.",
        "SKIP_VISITS_REASON_1": "Ekifo kikoze ensobi mu kukubiriza.",
        "SKIP_VISITS_REASON_2": "Omweetabi yasosezza okujja ku mulundi gwe ogw`obujjanjabi.",
        "SKIP_VISITS_REASON_3": "Kuno okukyaala tekubalwa.",
        "SKIP_VISITS_REASON_4": "Okukyala kuno si kwa tteeka era tekukoleddwa."
    },
    "dates": {
        "setDateButtonLabel": "Tereeza ennaku z`omwezi",
        "setTimeButtonLabel": "Kale",
        "setDurationButtonLabel": "Teeka ebbanga",
        "calTodayButtonLabel": "Genda ku lwaleero",
        "titleDateDialogLabel": "Tereeza ennaku z`omwezi",
        "titleTimeDialogLabel": "Tereeza essawa",
        "daysOfWeek": [
            "Sunday",
            "Monday",
            "Tuesday",
            "Wednesday",
            "Thursday",
            "Friday",
            "Saturday"
        ],
        "daysOfWeekShort": [
            "Su",
            "Mo",
            "Tu",
            "We",
            "Th",
            "Fr",
            "Sa"
        ],
        "monthsOfYear": [
            "January",
            "February",
            "March",
            "April",
            "May",
            "June",
            "July",
            "August",
            "September",
            "October",
            "November",
            "December"
        ],
        "monthsOfYearShort": [
            "Jan",
            "Feb",
            "Mar",
            "Apr",
            "May",
            "Jun",
            "Jul",
            "Aug",
            "Sep",
            "Oct",
            "Nov",
            "Dec"
        ],
        "durationLabel": [
            "Ennaku",
            "Essaawa",
            "Eddakiika",
            "Obutikikiti"
        ],
        "durationDays": [
            "Olunaku",
            "Ennaku"
        ],
        "tooltip": "Ggulawo akalonda ennaku z`omwezi",
        "nextMonth": "Omwezi ogujja",
        "prevMonth": "Omwezi oguyise",
        "clearButton": "Biggyeewo",
        "meridiem": [
            "Ku makya",
            "Olweggulo"
        ]
    }
}
