{
    "namespace" : "P_Screening_Toss",
    "language"  : "fr",
    "locale"    : "CA",
    "direction" : "ltr",
    "resources" : {
        "DISPLAY_NAME"      : "CA - Screening TOSS",
        "QUESTION_1"        : "CA - In the past 24 hours, how would you rate your <strong>ITCHY EYES</strong> symptoms?",
        "QUESTION_2"        : "CA - In the past 24 hours, how would you rate your <strong>TEARING EYES</strong> symptoms?",
        "QUESTION_3"        : "CA - In the past 24 hours, how would you rate your <strong>RED EYES</strong> symptoms?",
        "QUESTION_4"        : "CA - In the past 24 hours, how would you rate your <strong>SNEEZING</strong> symptoms?",
        "QUESTION_5"        : "CA - In the past 24 hours, how would you rate your <strong>ITCHY NOSE</strong> symptoms?",
        "ABSENT"            : "CA - Absent",
        "MILD_SYMPTOMS"     : "CA - Mild",
        "MODERATE_SYMPTOMS" : "CA - Moderate",
        "SEVERE_SYMPTOMS"   : "CA - Severe"
    }
}
