{
    "namespace": "CORE",
    "language": "tl",
    "locale": "PH",
    "localized": "Tagalog",
    "direction": "ltr",
    "resources": {
        "ACTIVE": "Aktibo",
        "ACTIVATE_USER": "I-activate ang User",
        "ACTIVATE_USER_CANCEL_CONFIRM": "Kanselahin ang Pag-activate?",
        "ACTIVATE_USER_CANCEL_BODY": "Kung kakanselahin mo ngayon, hindi maa-activate ang user ng site. Sigurado ka bang gusto mong kanselahin?",
        "ACTIVATE_USER_AFF": "Sa pamamagitan ng paglagda sa ibaba, ipinapahayag ko na pinapahintulutan akong i-activate ang user na ito ng site.",
        "ACTIVATE_USER_CONFIRM_INFORMATION": "Pakikumpirma na ang impormasyon sa ibaba ay pagmamay-ari ng user ng site na gusto mong i-activate.",
        "ADD_PATIENT": "Magdagdag ng Bagong Pasyente",
        "ADD_USER": "Magdagdag ng User",
        "AFFIDAVIT": "Piliin ang OK at pagkatapos ay Susunod kapag handa ka nang i-save ang iyong mga tugon.",
        "AFFIDAVIT_HELP": "Salamat. Ibinigay mo na ang lahat ng kinakailangang tugon. Maaari mong suriin at baguhin ang iyong mga tugon sa pamamagitan ng pagpili sa Bumalik.",
        "ALL_QUESTIONNAIRES_COMPLETED": "Tapos na ang Lahat ng Form",
        "APP_NAME": "ERT",
        "APPLICATION_HEADER": "{{{ appHeader }}}",
        "APP_NAME_LBL": "Pangalan ng App",
        "APP_VERSION": "Bersyon ng App",
        "ASSIGNED_TO": "Nakatalaga Kay",
        "AVAILABLE": "Available",
        "BACK": "Bumalik",
        "BACK_OUT_CONFIRM": "Sigurado ka bang gusto mong lumbas? Mawawala ang mga tugon para sa form na ito.",
        "BLUETOOTH_REG_REFRESH_BUTTON": "I-refresh",
        "CANCEL": "Kanselahin",
        "CHECK_FOR_UPDATES": "Tingnan Kung May Mga Update",
        "CHOOSE_A_SITE": "Italaga ang device na ito sa isang partikular na site.",
        "COMPLETED": "Tapos na",
        "CONFIRM_PASSWORD": "Kumpirmahin ang Password:",
        "CONFIRM_TEMP_PASS": "Kumpirmahin ang Pansamantalang Password:",
        "CONTINUE": "Magpatuloy",
        "COUNTRY": "Bansa",
        "CUSTOM_ENVIRONMENT": "Custom na Environment",
        "DEACTIVATE_PATIENT": "I-deactivate ang Pasyente",
        "DEACTIVATE_USER": "I-deactivate ang User",
        "DEACTIVATED": "Na-deactivate",
        "DEACTIVATE_USER_CANCEL_CONFIRM": "Kanselahin ang Pag-deactivate?",
        "DEACTIVATE_USER_CANCEL_BODY": "Kung kakanselahin mo ngayon, hindi made-deactivate ang user ng site. Sigurado ka bang gusto mong kanselahin?",
        "DEACTIVATE_USER_AFF": "Sa pamamagitan ng paglagda sa ibaba, ipinapahayag ko na pinapahintulutan akong i-deactivate ang user na ito ng site.",
        "DEACTIVATE_USER_SIG": "<strong>User na ide-deactivate:</strong> <br />{{{ getSelectedUsername }}}<br /><br /><strong>Lagda ni:</strong> {{{ getActiveUserName }}}",
        "DEACTIVATE_USER_CONFIRM_INFORMATION": "Pakikumpirma na ang impormasyon sa ibaba ay pagmamay-ari ng user ng site na gusto mong i-deactivate.",
        "DEVICE_ID": "Device ID",
        "DEVICE_REGISTRATION_FAILURE": "Hindi nairehistro ang device.",
        "DEVICE_UUIID": "UUID ng Device",
        "BATTERY_LEVEL": "Antas ng baterya",
        "DEVICE_INFO": "Impormasyon ng Device",
        "DIARY_TIMEOUT": "Nag-time out na ang form na ito.",
        "EDIT_MY_INFO": "I-edit ang Aking Impormasyon",
        "EDIT_PATIENT": "I-edit ang Pasyente",
        "EDIT_PATIENT_QUESTION_1_MAIN_TITLE": "<div class='question-title-large'>Patient Identification </div><div>Saklaw ng ID para sa site na ito:<br /><strong> {{{ patientIDRange }}}</strong></div><div class='edit-patient-id'>Patient ID:<br /><strong>{{{ getPatientIdNumber }}} ({{{getPatientInitials}}})</strong</div><br /><br />",
        "EDIT_PATIENT_QUESTION_1": "Patient ID:",
        "EDIT_PATIENT_QUESTION_1_EMPTY": "Pakipunan ang patient ID.",
        "EDIT_PATIENT_QUESTION_1_EMPTY_HEADER": "Patient ID",
        "EDIT_PATIENT_QUESTION_1_RANGE": "Ang inilagay mong Patient ID ay wala sa saklaw ng mga pinapayagang ID: {{{ patientIDRange }}}.  Mangyaring maglagay ng wastong Patient ID.",
        "EDIT_PATIENT_QUESTION_1_RANGE_HEADER": "Wala sa saklaw ang Patient ID",
        "EDIT_PATIENT_QUESTION_1_UNIQUE": "Umiiral na ang pasyente.  Mangyaring maglagay ng ibang Patient ID.",
        "EDIT_PATIENT_QUESTION_1_UNIQUE_HEADER": "Duplicate ang Patient ID",
        "EDIT_PATIENT_QUESTION_2": "Mga Inisyal ng Pasyente:",
        "EDIT_PATIENT_QUESTION_2_EMPTY": "Pakipunan ang mga inisyal ng pasyente, nang hindi bababa sa 2 character.",
        "EDIT_PATIENT_QUESTION_2_EMPTY_HEADER": "Mga Inisyal ng Pasyente",
        "EDIT_PATIENT_QUESTION_3_TITLE": "<div class='question-title-large'>Pumili ng Wika</div><div>Patient ID:<br /><strong>{{{ getPatientIdNumber }}} ({{{getPatientInitials}}})</strong</div><br /><br />",
        "EDIT_PATIENT_QUESTION_3": "Piliin ang wika para sa pasyente",
        "EDIT_PATIENT_QUESTION_4_TITLE": "<div class='question-title-large'>I-edit ang dahilan</div><br /><br />",
        "EDIT_PATIENT_QUESTION_4": "Piliin ang dahilan sa pag-edit ng pasyente",
        "EDIT_PATIENT_CANCEL_CONFIRM": "Kanselahin ang mga pagbabago sa Pasyente?",
        "EDIT_PATIENT_CANCEL_BODY": "Kung kakanselahin mo ngayon, hindi maa-update ang mga setting ng pasyente.  Sigurado ka bang gusto mong kanselahin?",
        "EDIT_PATIENT_NO_CHANGES_CONFIRM": "Walang Pagbabagong ginawa sa Pasyente",
        "EDIT_PATIENT_NO_CHANGES_BODY": "Walang pagbabagong ginawa sa pasyenteng ito. Lumabas pa rin?",
        "EDIT_PATIENT_REASON_0": "Iwinawasto ang error ng clinician",
        "EDIT_REASON": "I-edit ang Dahilan:",
        "EDIT_SERVICE_URL": "I-edit ang URL ng Serbisyo",
        "EDIT_SERVICE_URL_SUCCESS": "Na-update ang URL ng serbisyo.",
        "EDIT_USER": "I-edit ang User",
        "EDIT_USER_AFF": "Sa pamamagitan ng paglagda sa ibaba, ipinapahayag ko na pinapahintulutan akong i-edit ang user na ito ng site. <br /><br /><strong>Lagda ni:</strong> {{{ getActiveUserName }}}",
        "EDIT_USER_CANCEL_CONFIRM": "Kanselahin ang Pag-edit sa User?",
        "EDIT_USER_CANCEL_BODY": "Kung kakanselahin mo ngayon, hindi maisasagawa ang mga pagbabago sa user ng site. Sigurado ka bang gusto mong kanselahin?",
        "EDIT_USER_NO_CHANGES_HEADER": "Walang Pagbabagong Ginawa sa User ng Site",
        "EDIT_USER_NO_CHANGES_BODY": "Walang pagbabagong ginawa sa user ng site na ito. Lumabas pa rin?",
        "EMAIL": "Email Address",
        "ENTER_PATIENT_INFO": "Ilagay ang impormasyon ng pasyente",
        "ENTER_UNLOCK_CODE": "Pakilagay ang Unlock Code",
        "ENTER_USER_INFO": "Ilagay ang impormasyon ng bagong user ng site",
        "ENVIRONMENT": "Environment",
        "ERROR_CODE": "Error Code:",
        "ERROR_TITLE": "Error",
        "FIRST_NAME": "Pangalan",
        "FORGOT_PASSWORD": "Nakalimutan mo ba ang Password?",
        "FORM": "Form",
        "FORM_GATEWAY": "Gateway ng Form",
        "FORM_NAME": "Pangalan ng Form",
        "FULL_NAME": "Buong Pangalan:",
        "GO_TO_VISITS": "Mga Pagbisita ng Pasyente",
        "HAND_DEVICE_SITE_TITLE": "Ibigay ang Device sa User ng Site",
        "HAND_DEVICE_SITE_BODY": "Pakibigay ang device sa user ng site.",
        "HELP": "Tulong",
        "HOME": "Home",
        "IN_PROGRESS": "Kasalukuyang Nagaganap",
        "INITIALS": "Mga Inisyal",
        "INVALID_URL": "Mangyaring maglagay ng wastong URL.",
        "INVALID_PERMISSION": "Hindi Wasto ang Pahintulot.",
        "INVALID_PASSWORD": "Hindi wasto ang password.",
        "LANGUAGE": "Wika:",
        "LAST_LOGIN": "Huling Pag-log In",
        "LAST_NAME": "Apelyido",
        "LAST_REFRESH_TIME": "Huling Oras ng Pag-refresh",
        "LOCATION": "Lokasyon",
        "LOGIN": "Mag-log in",
        "LOGIN_SCREEN": "Mag-log in",
        "LOGOUT": "Mag-log out",
        "MANAGE_USERS": "Pamahalaan ang Mga User ng Site",
        "MARK_AS_COMPLETED": "Markahan bilang Tapos Na",
        "SITE_SIGNATURE": "Lagda ni: ",
        "SITE_REPORT_AFF": "Nailagay, na-cross-check, at kinukumpirma ko sa pamamagitan nito ang nauunang data.<br /><br /><strong>Lagda ni:</strong> {{{ getActiveUserName }}}",
        "PATIENT_REPORT_AFF": "Nailagay, na-cross-check, at kinukumpirma ko sa pamamagitan nito ang nauunang data.<br /><br /><strong>Mga inisyal ni:</strong> {{{ getActiveUserName }}}",
        "CLEAR_SIGNATURE": "I-clear ang Lagda",
        "MENU": "Menu",
        "MODE": "Mode",
        "NAME": "Pangalan",
        "NEW_USER": "Magdagdag ng Bagong Diary ng User",
        "FIRST_SITE_USER": "Magdagdag ng Unang User ng Site",
        "NEW_USER_CREATED": "Nagawa ang user ng site.",
        "NEW_PATIENT_QUESTION_1_MAIN_TITLE": "<div class='question-title-large'>Ilagay ang Impormasyon ng Patient Identification</div><div>Saklaw ng ID para sa site na ito:<br /><strong> {{{ patientIDRange }}}</strong></div><div><strong>Site: {{{ getSiteCode }}}</strong></div><div><strong>User: {{{ getUserName }}}</strong</div><br /><br />",
        "NEW_PATIENT_HELP_TEXT_1": "",
        "NEW_PATIENT_HELP_TEXT_2": "",
        "NEW_PATIENT_HELP_TEXT_3": "",
        "NEW_PATIENT_QUESTION_1_TITLE": "Patient ID",
        "NEW_PATIENT_QUESTION_1": "Patient ID:",
        "NEW_PATIENT_QUESTION_1_EMPTY": "Pakipunan ang patient ID.",
        "NEW_PATIENT_QUESTION_1_EMPTY_HEADER": "Patient ID",
        "NEW_PATIENT_QUESTION_1_RANGE": "Ang inilagay mong Patient ID ay wala sa saklaw ng mga pinapayagang ID: {{{ patientIDRange }}}.  Mangyaring maglagay ng wastong Patient ID.",
        "NEW_PATIENT_QUESTION_1_RANGE_HEADER": "Wala sa saklaw ang Patient ID",
        "NEW_PATIENT_QUESTION_1_UNIQUE": "Umiiral na ang pasyente.  Mangyaring maglagay ng ibang Patient ID.",
        "NEW_PATIENT_QUESTION_1_UNIQUE_HEADER": "Duplicate ang Patient ID",
        "NEW_PATIENT_QUESTION_2": "Mga Inisyal ng Pasyente:",
        "NEW_PATIENT_QUESTION_2_EMPTY": "Pakipunan ang mga inisyal ng pasyente, nang hindi bababa sa 2 character.",
        "NEW_PATIENT_QUESTION_2_EMPTY_HEADER": "Mga Inisyal ng Pasyente",
        "NEW_PATIENT_QUESTION_3_TITLE": "<div class='question-title-large'>Pumili ng Wika</div><div><strong>Site: {{{ getSiteCode }}}</strong></div><div><strong>User: {{{ getUserName }}}</strong</div><div><strong>Patient ID: {{{ getPatientID }}}</strong></div><br /><br />",
        "NEW_PATIENT_QUESTION_3": "Piliin ang wika para sa pasyente",
        "NEW_PATIENT_CANCEL_CONFIRM": "Kanselahin ang Pagdaragdag ng Pasyente?",
        "NEW_PATIENT_CANCEL_BODY": "Kung kakanselahin mo ngayon, hindi mairerehistro ang mga setting ng pasyente.  Sigurado ka bang gusto mong kanselahin?",
        "NEW_PATIENT_AFFIDAVIT_HEADER": "<div><strong>Site: {{{ getSiteCode }}}</strong><br /><strong>User: {{{ getUserName }}}</strong><br /><strong>Patient ID: {{{ getPatientID }}}</strong></div>",
        "NEXT": "Susunod",
        "NO_RESULTS_FOUND": "Walang nakitang resulta.",
        "NOT_AVAILABLE": "Hindi Available",
        "OK": "OK",
        "ORDER": "Order",
        "PASSWORD": "Password:",
        "PATIENT": "Pasyente",
        "PATIENT_ID": "Patient ID:",
        "PATIENT_INITIALS": "Mga Inisyal ng Pasyente:",
        "PATIENT_DELETED": "Hindi Kilalang Pasyente",
        "PATIENT_DELETED_MSG": "Hindi makita ang pasyente.",
        "PATIENT_DELETED_SUBJECT_MSG": "Hindi makita ang pasyente. Pakibalik ang device sa nararapat na site personnel.",
        "PENDING_TRANSMISSIONS": "Mga Nakabinbing Pagpapadala",
        "PLEASE_WAIT": "Pakihintay",
        "PLEASE_CONFIRM": "Pakikumpirma",
        "PLEASE_CONTACT": "Mangyaring makipag-ugnayan sa ERT Support Center.",
        "PLEASE_TRY_OR_CONTACT_SUPPORT": "Mangyaring subukang muli o makipag-ugnayan sa ERT Support Center.",
        "REASON": "Dahilan:",
        "REPORTS_AND_FORMS": "Mga Ulat at Form",
        "REPORTS_COMPLETED_MESSAGE": "Natapos mo na ang lahat ng iyong mga form. Pakibalik ang device sa nararapat na site personnel.",
        "REQUIRED_ANSWER": "Pakikumpleto ang hinihiling na impormasyon.",
        "RESET_PIN": "I-reset ang PIN ng Pasyente",
        "RESET_USER_PASSWORD": "I-reset ang Password ng User",
        "ROLES": "Tungkulin:",
        "SAVE": "I-save",
        "SEARCH": "Maghanap",
        "SECURITY_QUESTION_0": "Ano ang apelyido sa pagkadalaga ng iyong ina?",
        "SECURITY_QUESTION_1": "Saang lungsod ka ipinanganak?",
        "SECURITY_QUESTION_2": "Ano ang pangalan ng una mong alagang hayop?",
        "SECURITY_QUESTION_3": "Ano ang paborito mong sport?",
        "SECURITY_QUESTION_4": "Anong taon ka nagtapos sa pag-aaral?",
        "SECURITY_QUESTION_5": "Ano ang gitnang pangalan ng pinakamatanda mong anak?",
        "SECURITY_QUESTION_6": "Ano ang pangalan ng paborito mong kababata?",
        "SECURITY_QUESTION_7": "Ano ang apelyido ng iyong guro sa ikatlong baitang?",
        "SECURITY_QUESTION_8": "Saang lungsod o bayan ang una mong trabaho?",
        "SECRET_ANSWER": "Sagot na Panseguridad:",
        "SECRET_QUESTION": "Tanong na Panseguridad:",
        "SECRET_QUESTION_HELP_TEXT": "Pumili ng tanong na panseguridad mula sa listahan sa ibaba. Ginagamit ang sagot upang payagan ang pag-log in kapag nakalimutan mo ang iyong Password.",
        "SECRET_QUESTION_ANSWER": "Tanong at Sagot na Panseguridad",
        "SELECT_LANGUAGE": "Mangyaring pumili ng gustong wika para sa site.",
        "SET_TIMEZONE_MESSAGE": "Piliin Ang Iyong Time Zone:",
        "SELECT_SITE_NUMBER": "Pakipili ang numero ng site",
        "SERVICE_URL": "URL ng Serbisyo",
        "SETTINGS": "Mga Setting",
        "SETUP_COMPLETE": "Kumpleto na ang Pag-set Up",
        "SETUP_COMPLETE_DESC": "Naka-set up na ang device at handa na para sa pagpapadala.  Pakipindot ang OK pagkatapos ay i-off ang device sa susunod na screen.",
        "SETUP_SITE_USER": "I-set Up ang User ng Site",
        "SETUP_SITE_USER_LEGEND": "Paki-set up ang user ng site para sa device na ito.",
        "SITE": "Site",
        "SITE_ASSESSMENTS": "Mga Pagtatantya ng Site",
        "SIGNATURE_DATA_LIMIT_EXCEEDED": "Hindi maipakita ng kahon ng lagda ang iyong lagda sa eksaktong paraan ng pagkakasulat dito. Mangyaring mga inisyal na lang ang iyong gamitin sa paglagda.",
        "SITE_NUMBER": "Numero ng Site",
        "SITE_ROLE": "User ng Site",
        "SITE_SELECTION": "Pagpipilian ng Site",
        "SKIP_FORM": "Laktawan ang Form",
        "SKIP_QUESTION": "Sigurado ka bang gusto mong laktawan ang mga tugon sa screen na ito?",
        "SKIP_TO_VISIT": "Lumaktaw sa Pagbisita",
        "SKIP_VISIT": "Laktawan ang Pagbisita",
        "SKIP_VISITS": "Laktawan ang Mga Pagbisita",
        "SKIP_VISITS_QUESTION_1": "<div class='question-title-large'><strong>Dahilan</strong></div><br /><br /><div>Pumili ng dahilan para sa paglaktaw sa mga pagbisita:</div>",
        "SKIP_VISITS_REASON_0": "Nag-expire ang Pagbisita",
        "SKIP_VISITS_REASON_1": "Error sa site sa pamamahala",
        "SKIP_VISITS_REASON_2": "Hindi nakapunta ang subject sa klinikal na appointment.",
        "SKIP_VISITS_REASON_3": "Hindi Naaangkop.",
        "SKIP_VISITS_REASON_4": "Opsyonal ang pagbisita, hindi pa nagawa.",
        "SKIP_VISITS_CANCEL_CONFIRM": "Kanselahin ang Paglaktaw sa Mga Pagbisita?",
        "SKIP_VISITS_CANCEL_BODY": "Kung kakanselahin mo ngayon, hindi malalaktawan ang mga pagbisita. Sigurado ka bang gusto mong kanselahin?",
        "SKIPPED" : "Nilaktawan",
        "SKIPPED_VISITS": "{{{ skippedVisits }}}",
        "START_FORM": "Simulan ang Form",
        "START_VISIT": "Simulan ang Pagbisita",
        "STATUS": "Katayuan",
        "STATUS_DATE": "Petsa ng Katayuan",
        "STUDY": "Pag-aaral",
        "STUDYWORKS_LOGIN": "Pag-log In sa StudyWorks",
        "SUBJECT_ID": "Patient ID",
        "SUBJECT_ROLE": "Pasyente",
        "SUBMIT": "Isumite",
        "SUPPORT_TOOLS": "Mga Tool sa Suporta",
        "SYNC": "I-sync",
        "SYNC_USERS": "I-sync ang Mga User",
        "SYNC_TO_DEVICE": "I-sync ang Pag-aaral sa Device",
        "TEMPORARY_PASSWORD_MESSAGE": "Pakibigay ang pansamantalang password sa bagong user. Papagawin sila ng bagong password pagka-log in nila.",
        "TEMP_PASSWORD": "Pansamantalang Password: ",
        "UNABLE_TO_GET_SITE_LIST": "Hindi makuha ang Listahan ng Site",
        "UNLOCK_CODE": "Unlock Code",
        "UNLOCK_CODE_HELP": "Makukuha ang Unlock Code para sa iyong ERT Tablet mula sa StudyWorks sa 'Mga Unlock Code ng ERT' sa SmartReport. Mangyaring makipag-ugnayan sa ERT Support Center para sa karagdagang tulong.",
        "USER": "User",
        "USER_ALREADY_EXISTS": "Umiiral Na ang User",
        "USER_EDITED": "Na-update ang user.",
        "USER_TO_ACTIVATE": "<strong>User na ia-activate:</strong> <br />{{{ getSelectedUsername }}}<br /><br /><strong>Lagda ni:</strong> {{{ getActiveUserName }}}",
        "SUBJECT_ALREADY_EXISTS": "Umiiral na ang pasyente na may ID na {{{ getPatientIDForDuplicate }}}",
        "TIME_CONFIRMATION_INSTRUCTIONS": "Kailangang kumpirmahin ng device ang iyong lokal na oras. Pakilagay ang iyong petsa at oras mula sa mapagkakatiwalaang source.",
        "TIME_ZONE_ERROR_HEADER": "Error sa Time Zone",
        "TIME_ZONE_ERROR_MSG": "Nagkaroon ng error habang kinukuha ang listahan ng Time Zone. Mangyaring makipag-ugnayan sa ERT Support Center para sa karagdagang tulong.",
        "TIME_ZONE_SET_ERROR_MSG": "Nagkaroon ng error habang itinatakda ang Time Zone. Mangyaring makipag-ugnayan sa ERT Support Center para sa karagdagang tulong.",
        "TIME_ZONE_SET_CONFIRM": "Nakakatiyak ka bang gusto mong itakda ang Time Zone sa: <bdo dir='ltr'>{{{selectedTimeZone}}}</bdo>? <br/> Maaaring mag-restart ang application upang mailapat ang pagbabago.",
        "TIME_ZONE_SET_CONFIRM_NOCHANGE": "Nakakatiyak ka bang gusto mong itakda ang Time Zone sa: <bdo dir='ltr'>{{{selectedTimeZone}}}</bdo>?",
        "TIME_ZONE_SET_HEADER": "Pagkumpirma sa Pagtatakda ng Time Zone",
        "TRAINER": "Trainer Mode",
        "TRAINER_EXIT": "Umalis sa Trainer Mode",
        "TRAINER_EXIT_NOTIFICATION": "Umaalis ka sa Trainer Mode",
        "TRAINER_HEADER": "(Trainer)",
        "USER_ROLE": "Tungkulin ng User",
        "USERNAME": "Username",
        "USER_NAME": "Username:",
        "VISIT": "Pagbisita",
        "VISIT_COMPLETED_MESSAGE": "Wala nang ibang form para sa pagbisita na ito.  Kumpleto na ngayon ang pagbisitang ito.",
        "VISIT_INACTIVE_HEADER": "Hindi aktibo ang pagbisita.",
        "VISIT_INACTIVE_MESSAGE": "Hindi na aktibo ang pagbisitang ito.",
        "VISIT_INACTIVE_MESSAGE_SUBJECT": "Hindi na aktibo ang pagbisitang ito. Pakibalik ang device sa nararapat na site personnel.",
        "VISITS": "Mga Pagbisita",
        "VISITS_SKIPPED": "Mga Nalaktawang Pagbisita:",
        "VISIT_NAME": "Pangalan ng Pagbisita",
        "WELCOME": "Maligayang Pagdating",
        "AF-ZA": "Afrikaans",
        "AR-EG": "Arabic",
        "BE-BY": "Belarusian",
        "BG-BG": "Bulgarian",
        "BN-IN": "Bengali",
        "BS-BA": "Bosnian",
        "CA-ES": "Catalan",
        "CS-CZ": "Czech",
        "DA-DK": "Danish",
        "DE-DE": "German (Germany)",
        "DE-AT": "German (Austria)",
        "EL-GR": "Greek",
        "EN-GB": "English (UK)",
        "EN-US": "English (US)",
        "ES-ES": "Spanish (Spain)",
        "ES-US": "Spanish (US)",
        "ES-PY": "Spanish (Universal)",
        "ET-EE": "Estonian",
        "FI-FI": "Finnish",
        "FR-CA": "French (Canada)",
        "FR-FR": "French (France)",
        "GD-IE": "Gaelic",
        "GU-IN": "Gujarati",
        "HE-IL": "Hebrew",
        "HI-IN": "Hindi",
        "HR-HR": "Croatian",
        "HU-HU": "Hungarian",
        "IT-IT": "Italian",
        "JA-JP": "Japanese",
        "KA-GE": "Georgian",
        "KN-IN": "Kannada",
        "KO-KR": "Korean",
        "LV-LV": "Latvian",
        "LT-LT": "Lithuanian",
        "ML-IN": "Malayalam",
        "MR-IN": "Marathi",
        "MS-MY": "Malay",
        "NB-NO": "Norwegian",
        "NL-BE": "Dutch (Belgium)",
        "NL-NL": "Dutch (Netherlands)",
        "PA-IN": "Punjabi",
        "PL-PL": "Polish",
        "PT-BR": "Portuguese (Brazil)",
        "PT-PT": "Portuguese (Portugal)",
        "RO-RO": "Romanian",
        "RU-RU": "Russian",
        "SL-SL": "Slovenian",
        "SK-SK": "Slovak",
        "SR-RS": "Serbian (Latin)",
        "SR-SP": "Serbian (Cyrillic)",
        "ST-ZA": "Sotho",
        "SV-SE": "Swedish",
        "TA-IN": "Tamil",
        "TE-IN": "Telugu",
        "TH-TH": "Thai",
        "TL-PH": "Tagalog",
        "TN-ZA": "Tswana",
        "TR-TR": "Turkish",
        "UK-UA": "Ukrainian",
        "UR-IN": "Urdu",
        "VI-VN": "Vietnamese",
        "XH-ZA": "Xhosa",
        "ZH-CN": "Chinese (China)",
        "ZH-TW": "Chinese (Taiwan)",
        "ZU-ZU": "Zulu",
        "HAND_DEVICE_SUBJECT_BODY": "Ang susunod na form ay dapat kumpletuhin ng {{{ patientOrRole }}}. Mangyaring mag-log out, pagkatapos ay ibigay ang device sa {{{ patientOrRole }}}.",
        "HAND_DEVICE_SUBJECT_TITLE": "Sinisimulan ang Form na {{{ formTitle }}}",
        "SKIP_VISIT_TITLE": "Laktawan ang (Mga) Pagbisita?",
        "SKIP_VISIT_TEXT": "Kung magpapatuloy ka, lalaktawan ang mga sumusunod na pagbisita:<br/> {{{ skippedVisits }}} Magpatuloy at laktawan ang mga pagbisitang ito ngayon?",
        "YES": "Oo",
        "NO": "Hindi",
        "TIME_LBL": "Oras:",
        "SET_TIME": "Itakda ang Oras",
        "DATE_LBL": "Petsa:",
        "CREATE_PERMANENT_PASSWORD_TITLE": "Gumawa ng Permanenteng Password",
        "USER_ID": "User ID:",
        "PHASE": "Phase",
        "LAST_VISIT": "Huling Nakumpletong Pagbisita",
        "CONNECTION_REQUIRED": "Nangangailangan ng koneksyon sa Internet.",
        "RETRY": "Subukang Muli",
        "UPDATE_FAILURE": "Hindi Kumpleto ang Update",
        "UPDATE_SUCCESS": "Matagumpay ang Update",
        "CANCEL_PERMANENT_PASSWORD_TITLE": "Kanselahin ang Paggawa ng Permanenteng Password?",
        "CANCEL_PERMANENT_PASSWORD_TEXT": "Kung kakanselahin mo ngayon, hindi magagawa ang iyong permanenteng password. Kakailanganin mo ng permanenteng password upang magsimulang gumamit ng ERT. Sigurado ka bang gusto mong kanselahin?",
        "ACCOUNT_CONFIGURED_TITLE": "Kumpleto na ang pag-set up ng account",
        "ACCOUNT_CONFIGURED_TEXT": "Nakumpleto mo na ngayon ang pag-set up ng iyong account, maaari ka na ngayong magpatuloy sa paggamit ng eCOA system.",
        "LOGGED_IN_AS": "Naka-log in bilang",
        "EDIT_PATIENT_AFFIDAVIT_HEADER": "<p class='question-title-large'>Lagda</p><br />",
        "EDIT_PATIENT_AFF": "Sa pamamagitan ng paglagda sa ibaba, ipinapahayag ko na pinapahintulutan akong i-edit ang pasyenteng ito.<br /><br />Patient ID: {{{ getPatientIdNumber }}}<br /><br /><strong>Lagda ni:</strong> {{{ getActiveUserName }}}",
        "PASSWORD_MISMATCH": "Hindi tumutugma sa password ang kumpirmasyon sa password",
        "FIRST_USER_AFFIDAVIT": "Sa pamamagitan ng paglagda sa ibaba, ipinapahayag ko na ako ang pangunahing tagapagsiyasat o pinapahintulutang delegado upang gumawa ng mga account sa system na ito.<br /><br /><strong>Lagda ni:</strong> {{{ getFirstUsername }}}",
		"INCOMPLETE": "Hindi tapos",
        "INVALID_ENTRY": "Hindi Wasto ang Entry",
        "PLEASE_ANSWER_SQ": "Mangyaring sagutin ang iyong tanong na panseguridad:",
        "FORGOT_SECRET_ANSWER": "Nakalimutan mo ba ang sagot na panseguridad?",
        "CONTACT_STUDY_COORDINATOR": "Makipag-ugnayan sa Coordinator ng Pag-aaral",
        "ENTER_NEW_PASSWORD": "Bagong Password:",
        "CONTACT_UNLOCK_CODE": "Mangyaring makipag-ugnayan sa iyong Coordinator ng Pag-aaral para sa Unlock Code ngayong araw:",
        "CURRENT_DATE": "{{{ currentDate }}}",
        "TEMPORARY_UNLOCK_CODE": "Ilagay ang Unlock Code na ibinigay ng Coordinator ng Pag-aaral.",
        "RESET_SECRET_QUESTION": "I-reset ang Tanong na Panseguridad",
        "SECRET_QUESTION_CHANGE_SUCCESS": "Matagumpay mong na-update ang iyong password at tanong na panseguridad.",
        "RESET_PASSWORD": "I-reset ang Password",
        "ANSWER_ATTEMPT_EXCEEDED": "Naglagay ka ng maling sagot nang masyadong maraming beses o na-click mo ang link ng nakalimutan ang sagot na panseguridad.",
        "PASSWORD_ATTEMPT_EXCEEDED": "Naglagay ka ng maling password nang masyadong maraming beses o nag-click ka sa link ng nakalimutan ang password.",
        "PASSWORD_CHANGE_SUCCESS": "Matagumpay mong na-update ang iyong password.",
        "CHANGE_PASSWORD": "Palitan ang Password",
        "CHANGE_SECRET_QUESTION": "Baguhin ang Tanong na Panseguridad",
        "SYNC_COMPLETE": "Kumpleto na ang Pag-set Up",
        "INCORRECT_ANSWER": "Hindi tama ang sagot",
        "INCORRECT_UNLOCK_CODE": "Hindi Tama ang Unlock Code",
        "PASSWORD_INVALID": "Hindi Tama ang Password",
        "SUBJECT": "Pasyente",
        "PATIENT_ADDED": "Naidagdag ang Pasyente",
        "SITE_ADMINISTRATOR": "Administrator ng Site",
        "LOW_BATTERY": "Babala: Mababa ang antas ng baterya. Paki-plug in ang device upang mag-recharge.",
        "CRITICAL_BATTERY": "Babala: Kritikal na mababa ang antas ng baterya. Paki-plug in ang device upang mag-recharge, kung hindi ay mamamatay ito.",
        "TIME_CONFIRMATION_HEADER": "Kumpirmahin ang Petsa/Oras",
        "TIMESLIP_ERROR": "Ang oras o petsa ng iyong device ay hindi wasto. Mangyaring lumipat sa isang lugar na mayroong internet connectivity at subukan muli. Kung patuloy kang nagkakaroon ng problema, tumawag sa ERT Customer Care.",
        "SUPPORT": "Suporta sa Customer",
        "SUPPORT_MESSAGE": "Maaaring makipag-ugnayan ang mga user sa United States sa ERT Support Center sa pamamagitan ng pagtawag sa 800-748-5669. Para sa mga user mula sa ibang bansa, pakipili ang pinakamalapit na bansa sa ibaba:",
        "SUPPORT_DROPDOWN": "Piliin ang iyong bansa",
        "SUPPORT_NAME_ARGENTINA": "Argentina",
        "SUPPORT_NUMBER_ARGENTINA": "<bdo dir='ltr'>0800 444 0962</bdo>",
        "SUPPORT_NAME_ARMENIA": "Armenia",
        "SUPPORT_NUMBER_ARMENIA": "<bdo dir='ltr'>+1 617 681 6306</bdo>",
        "SUPPORT_NAME_AUSTRALIA": "Australia",
        "SUPPORT_NUMBER_AUSTRALIA": "<bdo dir='ltr'>1 800 800 051</bdo>",
        "SUPPORT_NAME_AUSTRIA": "Austria",
        "SUPPORT_NUMBER_AUSTRIA": "<bdo dir='ltr'>0800 100 405</bdo>",
        "SUPPORT_NAME_BELARUS": "Belarus",
        "SUPPORT_NUMBER_BELARUS": "<bdo dir='ltr'>8 820 0321 0036</bdo>",
        "SUPPORT_NAME_BELGIUM": "Belgium",
        "SUPPORT_NUMBER_BELGIUM_1": "(English): <bdo dir='ltr'>0800 58 016</bdo>",
        "SUPPORT_NUMBER_BELGIUM_2": "(French): <bdo dir='ltr'>0800 71 076</bdo>",
        "SUPPORT_NUMBER_BELGIUM_3": "(German): <bdo dir='ltr'>0800 71 113</bdo>",
        "SUPPORT_NAME_BRAZIL": "Brazil",
        "SUPPORT_NUMBER_BRAZIL": "<bdo dir='ltr'>0800 891 5909</bdo>",
        "SUPPORT_NAME_BOSNIA": "Bosnia",
        "SUPPORT_NUMBER_BOSNIA": "<bdo dir='ltr'>+1 617 681 6306</bdo>",
        "SUPPORT_NAME_BULGARIA": "Bulgaria",
        "SUPPORT_NUMBER_BULGARIA": "<bdo dir='ltr'>00800 0010</bdo>, pagkatapos ay <bdo dir='ltr'>866 245 4931</bdo>",
        "SUPPORT_NAME_CANADA": "Canada",
        "SUPPORT_NUMBER_CANADA": "<bdo dir='ltr'>1 800 748 5669</bdo>",
        "SUPPORT_NAME_CHILE": "Chile",
        "SUPPORT_NUMBER_CHILE": "<bdo dir='ltr'>123 0020 3408</bdo>",
        "SUPPORT_NAME_CHINA": "China",
        "SUPPORT_NUMBER_CHINA_1": "NetCom (North): <bdo dir='ltr'>1 0800 74 40 164</bdo>",
        "SUPPORT_NUMBER_CHINA_2": "Telecom (South): <bdo dir='ltr'>1 0800 44 00 158</bdo>",
        "SUPPORT_NAME_COLOMBIA": "Colombia",
        "SUPPORT_NUMBER_COLOMBIA": "<bdo dir='ltr'>01 800 911 0010</bdo>, pagkatapos ay <bdo dir='ltr'>866 310 3707</bdo>",
        "SUPPORT_NAME_COSTA_RICA": "Costa Rica",
        "SUPPORT_NUMBER_COSTA_RICA": "<bdo dir='ltr'>0800 013 1210</bdo>",
        "SUPPORT_NAME_CROATIA": "Croatia",
        "SUPPORT_NUMBER_CROATIA": "<bdo dir='ltr'>0800 222 953</bdo>",
        "SUPPORT_NAME_CZECH_REPUBLIC": "Czech Republic",
        "SUPPORT_NUMBER_CZECH_REPUBLIC": "<bdo dir='ltr'>800 142 150</bdo>",
        "SUPPORT_NAME_DENMARK": "Denmark",
        "SUPPORT_NUMBER_DENMARK": "<bdo dir='ltr'>80 60 00 09</bdo>",
        "SUPPORT_NAME_EGYPT": "Egypt",
        "SUPPORT_NUMBER_EGYPT": "<bdo dir='ltr'>02 510 0200</bdo>, pagkatapos ay <bdo dir='ltr'>866 310 3707</bdo>",
        "SUPPORT_NAME_EL_SALVADOR": "El Salvador",
        "SUPPORT_NUMBER_EL_SALVADOR": "<bdo dir='ltr'>+1 617 681 6306</bdo>",
        "SUPPORT_NAME_ESTONIA": "Estonia",
        "SUPPORT_NUMBER_ESTONIA": "<bdo dir='ltr'>800 00 44 154</bdo>",
        "SUPPORT_NAME_FINLAND": "Finland",
        "SUPPORT_NUMBER_FINLAND": "<bdo dir='ltr'>0800 11 6366</bdo>",
        "SUPPORT_NAME_FRANCE": "France",
        "SUPPORT_NUMBER_FRANCE": "<bdo dir='ltr'>0800 10 19 79</bdo>",
        "SUPPORT_NAME_GERMANY": "Germany",
        "SUPPORT_NUMBER_GERMANY": "<bdo dir='ltr'>0800 101 28 21</bdo>",
        "SUPPORT_NAME_GREECE": "Greece",
        "SUPPORT_NUMBER_GREECE": "<bdo dir='ltr'>00 800 1311</bdo>, pagkatapos ay <bdo dir='ltr'>866 310 3707</bdo>",
        "SUPPORT_NAME_GUATEMALA": "Guatemala",
        "SUPPORT_NUMBER_GUATEMALA": "<bdo dir='ltr'>1 800 624 0079</bdo>",
        "SUPPORT_NAME_HONG_KONG": "Hong Kong",
        "SUPPORT_NUMBER_HONG_KONG": "<bdo dir='ltr'>3002 1665</bdo>",
        "SUPPORT_NAME_HUNGARY": "Hungary",
        "SUPPORT_NUMBER_HUNGARY": "<bdo dir='ltr'>06 800 14 571</bdo>",
        "SUPPORT_NAME_ICELAND": "Iceland",
        "SUPPORT_NUMBER_ICELAND": "<bdo dir='ltr'>800 8544</bdo>",
        "SUPPORT_NAME_INDIA": "India",
        "SUPPORT_NUMBER_INDIA": "<bdo dir='ltr'>000 800 440 1125</bdo>",
        "SUPPORT_NAME_INDONESIA": "Indonesia",
        "SUPPORT_NUMBER_INDONESIA": "<bdo dir='ltr'>008 800 330 334</bdo>",
        "SUPPORT_NAME_IRELAND": "Ireland",
        "SUPPORT_NUMBER_IRELAND": "<bdo dir='ltr'>1 800 946 700</bdo>",
        "SUPPORT_NAME_ISRAEL": "Israel",
        "SUPPORT_NUMBER_ISRAEL": "<bdo dir='ltr'>1 809 470 062</bdo>",
        "SUPPORT_NAME_ITALY": "Italy",
        "SUPPORT_NUMBER_ITALY": "<bdo dir='ltr'>800 90 56 37</bdo>",
        "SUPPORT_NAME_JAPAN": "Japan",
        "SUPPORT_NUMBER_JAPAN": "Mangyaring sumangguni sa iyong Gabay sa Impormasyon sa Pag-aaral ng ePRO para sa toll-free na numero para sa iyong pag-aaral",
        "SUPPORT_NAME_LATVIA": "Latvia",
        "SUPPORT_NUMBER_LATVIA": "<bdo dir='ltr'>8000 2151</bdo>",
        "SUPPORT_NAME_LEBANON": "Lebanon",
        "SUPPORT_NUMBER_LEBANON": "<bdo dir='ltr'>01-426-801</bdo> pagkatapos ay <bdo dir='ltr'>866 310 3707</bdo>",
        "SUPPORT_NAME_LITHUANIA": "Lithuania",
        "SUPPORT_NUMBER_LITHUANIA": "<bdo dir='ltr'>8800 30207</bdo>",
        "SUPPORT_NAME_MALAYSIA": "Malaysia",
        "SUPPORT_NUMBER_MALAYSIA": "<bdo dir='ltr'>1800 80 59 71</bdo>",
        "SUPPORT_NAME_MEXICO": "Mexico",
        "SUPPORT_NUMBER_MEXICO_1": "(English): <bdo dir='ltr'>001 800 748 5669</bdo> ",
        "SUPPORT_NUMBER_MEXICO_2": "(Spanish): <bdo dir='ltr'>001 855 631 6952</bdo>",
        "SUPPORT_NAME_MOLDOVA": "Moldova",
        "SUPPORT_NUMBER_MOLDOVA": "<bdo dir='ltr'>617 681 6306</bdo>",
        "SUPPORT_NAME_NETHERLANDS": "Netherlands",
        "SUPPORT_NUMBER_NETHERLANDS": "<bdo dir='ltr'>0800 023 1389</bdo>",
        "SUPPORT_NAME_NEW_ZEALAND": "New Zealand",
        "SUPPORT_NUMBER_NEW_ZEALAND": "<bdo dir='ltr'>0800 110 178</bdo>",
        "SUPPORT_NAME_NORWAY": "Norway",
        "SUPPORT_NUMBER_NORWAY": "<bdo dir='ltr'>800 62 051</bdo>",
        "SUPPORT_NAME_PAKISTAN": "Pakistan",
        "SUPPORT_NUMBER_PAKISTAN": "<bdo dir='ltr'>00 800 0100</bdo>, pagkatapos ay <bdo dir='ltr'>866 237 9767</bdo>",
        "SUPPORT_NAME_PANAMA": "Panama",
        "SUPPORT_NUMBER_PANAMA": "<bdo dir='ltr'>001 800 201 3095</bdo>",
        "SUPPORT_NAME_PERU": "Peru",
        "SUPPORT_NUMBER_PERU": "<bdo dir='ltr'>0800 5 0974</bdo>",
        "SUPPORT_NAME_PHILIPPINES": "Philippines",
        "SUPPORT_NUMBER_PHILIPPINES": "<bdo dir='ltr'>1 800 1116 0651</bdo>",
        "SUPPORT_NAME_POLAND": "Poland",
        "SUPPORT_NUMBER_POLAND": "<bdo dir='ltr'>00800 331 1262</bdo>",
        "SUPPORT_NAME_PORTUGAL": "Portugal",
        "SUPPORT_NUMBER_PORTUGAL": "<bdo dir='ltr'>800 206 172</bdo>",
        "SUPPORT_NAME_PUERTO_RICO": "Puerto Rico (US Territory)",
        "SUPPORT_NUMBER_PUERTO_RICO": "<bdo dir='ltr'>1 800 748 5669</bdo>",
        "SUPPORT_NAME_ROMANIA": "Romania",
        "SUPPORT_NUMBER_ROMANIA": "<bdo dir='ltr'>0800 894492</bdo>",
        "SUPPORT_NAME_RUSSIA": "Russia",
        "SUPPORT_NUMBER_RUSSIA_1": "(Pangunahin - Toll Free): <bdo dir='ltr'>8 10 800 249 13011</bdo>",
        "SUPPORT_NUMBER_RUSSIA_2": "(Sa loob ng Moscow): <bdo dir='ltr'>363-2400</bdo> <br> pagkatapos ay <bdo dir='ltr'>866 310 3707</bdo>",
        "SUPPORT_NUMBER_RUSSIA_3": "(Sa labas ng Moscow): <bdo dir='ltr'>8^(495) 363-2400</bdo> <br> pagkatapos ay <bdo dir='ltr'>866 310 3707</bdo>",
        "SUPPORT_NUMBER_RUSSIA_4": "(Sa loob ng St. Petersburg): <bdo dir='ltr'>363-2400</bdo> <br> pagkatapos ay <bdo dir='ltr'>866 310 3707</bdo>",
        "SUPPORT_NUMBER_RUSSIA_5": "(Sa labas ng St. Petersburg): <bdo dir='ltr'>8^(495) 363-2400</bdo> <br> pagkatapos ay <bdo dir='ltr'>866 310 3707</bdo>",
        "SUPPORT_NAME_SAUDI_ARABIA": "Saudi Arabia",
        "SUPPORT_NUMBER_SAUDI_ARABIA": "<bdo dir='ltr'>+1 617 681 6306</bdo>",
        "SUPPORT_NAME_SERBIA": "Serbia",
        "SUPPORT_NUMBER_SERBIA": "<bdo dir='ltr'>+1 617 973 1739</bdo>",
        "SUPPORT_NAME_SINGAPORE": "Singapore",
        "SUPPORT_NUMBER_SINGAPORE": "<bdo dir='ltr'>800 616 30 03</bdo>",
        "SUPPORT_NAME_SLOVAKIA": "Slovakia",
        "SUPPORT_NUMBER_SLOVAKIA": "<bdo dir='ltr'>0800 0044 65</bdo>",
        "SUPPORT_NAME_SLOVENIA": "Slovenia",
        "SUPPORT_NUMBER_SLOVENIA": "<bdo dir='ltr'>+1 617 681 6306</bdo>",
        "SUPPORT_NAME_SOUTH_AFRICA": "South Africa",
        "SUPPORT_NUMBER_SOUTH_AFRICA": "<bdo dir='ltr'>0800 99 5853</bdo>",
        "SUPPORT_NAME_SOUTH_KOREA": "South Korea",
        "SUPPORT_NUMBER_SOUTH_KOREA": "<bdo dir='ltr'>00308 33 00 08</bdo>",
        "SUPPORT_NAME_SPAIN": "Spain",
        "SUPPORT_NUMBER_SPAIN": "<bdo dir='ltr'>900 90 2541</bdo>",
        "SUPPORT_NAME_SWEDEN": "Sweden",
        "SUPPORT_NUMBER_SWEDEN": "<bdo dir='ltr'>020 120 99 69</bdo>",
        "SUPPORT_NAME_SWITZERLAND": "Switzerland",
        "SUPPORT_NUMBER_SWITZERLAND_1": "(English): <bdo dir='ltr'>0800 199 325</bdo>",
        "SUPPORT_NUMBER_SWITZERLAND_2": "(French): <bdo dir='ltr'>0800 891 183</bdo>",
        "SUPPORT_NUMBER_SWITZERLAND_3": "(German): <bdo dir='ltr'>0800 891 025</bdo>",
        "SUPPORT_NAME_TAIWAN": "Taiwan",
        "SUPPORT_NUMBER_TAIWAN": "<bdo dir='ltr'>00801 33 33 42</bdo>",
        "SUPPORT_NAME_THAILAND": "Thailand",
        "SUPPORT_NUMBER_THAILAND": "<bdo dir='ltr'>1 800 33 140 353</bdo>",
        "SUPPORT_NAME_TUNISIA": "Tunisia",
        "SUPPORT_NUMBER_TUNISIA": "<bdo dir='ltr'>+1 617 681 6306</bdo>",
        "SUPPORT_NAME_TURKEY": "Turkey",
        "SUPPORT_NUMBER_TURKEY": "<bdo dir='ltr'>00 800 151 1335</bdo>",
        "SUPPORT_NAME_UKRAINE": "Ukraine",
        "SUPPORT_NUMBER_UKRAINE": "<bdo dir='ltr'>0^00 11</bdo>, pagkatapos ay <bdo dir='ltr'>866 245 4931</bdo>",
        "SUPPORT_NAME_UAE": "United Arab Emirates",
        "SUPPORT_NUMBER_UAE": "<bdo dir='ltr'>8000-021</bdo>, pagkatapos ay <bdo dir='ltr'>866 310 3707</bdo>",
        "SUPPORT_NAME_UK": "United Kingdom",
        "SUPPORT_NUMBER_UK": "<bdo dir='ltr'>0800 015 0408</bdo>",
        "SUPPORT_NAME_US": "United States",
        "SUPPORT_NUMBER_US_1": "(Main): <bdo dir='ltr'>1 800 748 5669</bdo>",
        "SUPPORT_NUMBER_US_2": "(Backup): <bdo dir='ltr'>1 877 748 5669</bdo>",
        "SUPPORT_NAME_VENEZUELA": "Venezuela",
        "SUPPORT_NUMBER_VENEZUELA_1": "(English): <bdo dir='ltr'>0 800 552 6288</bdo> <br> pagkatapos ay <bdo dir='ltr'>866 310 3707</bdo> ",
        "SUPPORT_NUMBER_VENEZUELA_2": "(Spanish): <bdo dir='ltr'>0 800 100 3063</bdo> ",
        "STUDY_VERSION": "Bersyon ng Pag-aaral:",
        "STUDY_URL": "URL ng Pag-aaral:",
        "PROTOCOL": "Protocol:",
        "SPONSOR": "Sponsor:",
        "STORED_REPORTS": "Mga Nakaimbak na Form:",
        "CORE_PRODUCT_VERSION_LABEL": "Bersyon ng Produkto:",
        "ABOUT": "Tungkol dito",
        "P_AFFIDAVIT_HEADER": "<div><strong>Site: {{{ getSiteCode }}}</strong><br /><strong>Patient ID: {{{ getPatientIdNumber }}}</strong></div>",
		"SET_TIMEZONE": "Itakda ang Time Zone",
		"DEVICE_SERIAL_NUMBER": "Serial Number ng Device",
		"NONEXISTENT_USER": "Tinangkang i-update ang isang hindi umiiral na user.",
		"SCREENING" : "Pagsusuri",
		"TREATMENT" : "Panggagamot",
		"RANDOMIZATION" : "Randomization",
		"FOLLOWUP" : "Follow-up",
		"TERMINATION" : "Pagwawakas",
        "ACCEPT": "Tinatanggap Ko",
        "DECLINE": "Hindi Ko Tinatanggap",
		"EULA": "LISENSYA NG END USER",
        "EULA_TEXT": "<p><strong><span class=\"text-underline\">MAHALAGA</span>: HUWAG I-CLICK ANG BUTTON NA TINATANGGAP KO KUNG HINDI MO PA NABABASA ANG KASUNDUANG ITO. SA PAMAMAGITAN NG PAG-CLICK SA BUTTON NA TINATANGGAP KO, TINATANGGAP MO ANG LAHAT NG TUNTUNIN NG KASUNDUANG ITO. KUNG HINDI MO TINATANGGAP ANG LAHAT NG TUNTUNIN NG KASUNDUANG ITO (1) HUWAG I-CLICK ANG BUTTON NA \"TINATANGGAP KO\", (2) HUWAG NANG ITULOY ANG PAG-INSTALL AT PROSESO NG PAGLILISENSYA SA PAMAMAGITAN NG PAG-CLICK SA BUTTON NA \"HINDI KO TINATANGGAP\".</strong></p><p>Ipinapagkaloob sa iyo ng eResearchTechnology, Inc. ( \"Tagalisensya\") ang isang hindi eksklusibo at hindi naililipat na karapatang gamitin ang eResearchTechnology, Inc. software na kasama ng device na ito ( \"Software\") kaugnay ng iyong paglahok sa kasunduan sa klinikal na pagsubok: <strong>{{{ clinicalTrial }}}</strong>. Ang eResearchTechnology, Inc. software ay sinasaklaw ng mga naibigay na patent at iba pang nakabinbing patent. Ang Kasunduang ito ay hindi nagkakaloob sa iyo ng anumang karapatan sa pagmamay-ari sa alinmang Software (o anumang kopya ng mga ito), ngunit ito ay isang lisensya lang upang magamit ang Software alinsunod sa lahat ng tuntunin ng Kasunduang ito. Ang Pamagat sa Software at lahat ng bahagi nito, at lahat ng karapatan sa pagiging may-ari at intelektwal na pagmamay-ari na kasama nito, ay mananatiling nakalaan sa Tagalisensya sa lahat ng pagkakataon.</p><p>Sumasang-ayon ka na hindi mo gagawin, nang direkta o hindi direkta, na (i) i-reverse engineer, i-disassemble o i-decompile ang Software; (ii) kopyahin, ipamahagi, gawin, iangkop, gumawa ng imitasyon nito, gumawa ng pagsasalin nito, i-localize o baguhin ang Software; o (iii) alisin o baguhin ang anumang copyright, trade secret o iba pang legal na abisong nasa Software. KINIKILALA MO AT SUMASANG-AYON KA NA MAAARING NAGLALAMAN ANG SOFTWARE NG CODE NA NAGBABAWAL SA WALANG PAHINTULOT NA PAGGAMIT NG SOFTWARE.</p><br><p>KUNG SUMASANG-AYON KA SA LAHAT NG NABANGGIT, pakipili ang – <strong>Tinatanggap Ko</strong> –Ang pag-click sa \"Tinatanggap Ko\" ay nagsasaad ng pagtanggap mo sa mga tuntunin ng lisensya.</p><p>KUNG HINDI KA SUMASANG-AYON SA LAHAT NG NABANGGIT, o hindi ka pinapahintulutang sumang-ayon, piliin ang – <strong>Hindi Ko Tinatanggap</strong> – kapag pinili ito, iba-block na ang access sa Software. Kung pinapahintulutan, maaari mo itong tanggapin sa ibang pagkakataon.</p>",
        "VISIT_EXPIRED_HEADER": "Nag-expire ang pagbisita.",
        "VISIT_EXPIRED_MESSAGE": "Hindi na available ang pagbisitang ito dahil nag-expire na ito.",
        "VISIT_EXPIRED_MESSAGE_SUBJECT": "Hindi na available ang pagbisitang ito dahil nag-expire na ito. Pakibalik ang device sa nararapat na site personnel.",
        "SQ-AL": "Albanian",
        "IMAGE_FOLDER": "{{{ imageFolder }}}",
		"MODAL_OK_TEXT": "OK",
        "BROWSER_LOAD_ERROR": "Hindi Nakita ang Page. Pakisuri ang iyong koneksyon sa internet at subukang muli.",
		"NO_USER_OF_ROLE" : "Walang nahanap na user na may naturang tungkulin.",
        "EDIT_PATIENT_REASON_1": "Pagwawasto sa data ng attribute",
        "EDIT_PATIENT_REASON_2": "Pagbabago sa ID",
        "EDIT_PATIENT_REASON_3": "Mali ang napiling wika",
		"START_VISIT_OUTSIDE_WINDOW_MSG": "Pumasok sa {{{ getVisitName }}} sa labas ng na-configure na palugit ng oras: {{{ startDate }}} - {{{ endDate }}}",
		"START_VISIT_HARD_STOP_MSG": "Hindi ka nakapasok sa {{{ getVisitName }}} sa labas ng na-configure na palugit ng oras: {{{ startDate }}} - {{{ endDate }}}",
		"USER_NAME_INVALID_CHARACTERS" : "Mangyaring huwag gumamit ng mga espesyal na character",
		"ERROR_PATIENT_SAVE" : "Nagkaroon ng error habang idinaragdag ang bagong pasyente",
		"PASSWORD_CHANGE_FAILED" : "Na-activate ang isang bagong device para sa pagkolekta ng data ng iyong pag-aaral. Mangyaring baguhin ang iyong password sa device na iyon.",
		"ERROR" : "Error. Mangyaring makipag-ugnayan sa ERT Support Center.",
		"ERROR_AFTER_ACTIVATION_SUCCESSFUL" : "May naganap na error. Kakailanganin mong ilagay ang iyong setup code at password.",
		"CONNECTION_TIMEOUT" : "Nag-time Out ang Koneksyon.",
		"UPDATE_FAILED" : "Hindi nakumpleto ang update sa ERT. Pakitiyak na ang device na ito ay nakakonekta sa Internet at subukang muli.",
        "QR_CODE_UNAVAILABLE": "I-click ang pasyente upang i-refresh ang QR.",
        "QR_MODAL_TITLE": "QR Code para sa: ",
        "TRANSMIT_FAILED_403_14": "Hindi naisagawa ang isa o higit pang pagpapadala dahil hindi kumpleto ang paggawa ng pasyente. Mangyaring maghintay at subukang muli.",
        "CONSOLE_LOG": "Log ng Console",
		"USER_SELECT_ROLE_VALIDATION": "Nangangailangan ng pagpipilian ng tungkulin.",
        "USER_SELECT_LANGUAGE_VALIDATION": "Nangangailangan ng pagpipilian ng wika."
    },
    "dates": {
        "setDateButtonLabel": "Itakda ang Petsa",
        "setTimeButtonLabel": "OK",
        "setDurationButtonLabel": "Itakda ang Haba",
        "calTodayButtonLabel": "Lumaktaw sa Araw na Ito",
        "titleDateDialogLabel": "Itakda ang Petsa",
        "titleTimeDialogLabel": "Itakda ang Oras",
        "daysOfWeek": [
            "Linggo",
            "Lunes",
            "Martes",
            "Miyerkules",
            "Huwebes",
            "Biyernes",
            "Sabado"
        ],
        "daysOfWeekShort": [
            "Li",
            "Lu",
            "Ma",
            "Mi",
            "Hu",
            "Bi",
            "Sa"
        ],
        "monthsOfYear": [
            "Enero",
            "Pebrero",
            "Marso",
            "Abril",
            "Mayo",
            "Hunyo",
            "Hulyo",
            "Agosto",
            "Setyembre",
            "Oktubre",
            "Nobyembre",
            "Disyembre"
        ],
        "monthsOfYearShort": [
            "Ene",
            "Peb",
            "Mar",
            "Abr",
            "Mayo",
            "Hun",
            "Hul",
            "Ago",
            "Set",
            "Okt",
            "Nob",
            "Dis"
        ],
        "durationLabel": [
            "(na) Araw",
            "(na) Oras",
            "(na) Minuto",
            "(na) Segundo"
        ],
        "durationDays": [
            "Araw",
            "(na) Araw"
        ],
        "tooltip": "Buksan ang Tagapili ng Petsa",
        "nextMonth": "Susunod na Buwan",
        "prevMonth": "Nakaraang Buwan",
        "clearButton": "I-clear",
        "meridiem": [
            "AM",
            "PM"
        ]
    }
}
