{
    "namespace" : "P_NumberSpinner_Diary",
    "language"  : "en",
    "locale"    : "US",
    "direction" : "ltr",
    "resources" : {
        "DISPLAY_NAME"                      : "NumberSpinner Test",
        
        "CLICK_TO_MAKE_SELECTION": "Click the entry box to make a selection.",
        "MODAL_TITLE": "Modal Dialog Sample Title",
        "MODAL_LABEL": "Sample Label One",
        "MODAL_LABEL2": "Sample Label Two",
        "MODAL_OK_TEXT": "OK",

        "SPIN_Q1_TITLE"                        : "<strong>Question 1: TC14618, TC14642, TC14644, TC14665, TC14672, TC14673, TC14678</strong>",
        "SPIN_Q1_TEXT"                  : "<strong>Question 1 Sample Text:</strong>",

        "SPIN_Q2_TITLE"                        : "<strong>Question 2: TC14620, TC14663 ?</strong>",
        "SPIN_Q2_TEXT"                  : "<strong>Question 2: embedded: false, showButtons: true, buttonLayout: 'horizontal'</strong>",

        "SPIN_Q3_TITLE"                        : "<strong>Question 3: TC14636, TC14660</strong>",
        "SPIN_Q3_TEXT"                  : "<strong>Question 3: embedded: true, showButtons: false</strong>",

        "SPIN_Q4_TITLE"                        : "<strong>Question 4: TC14638, TC14659 ?</strong>",
        "SPIN_Q4_TEXT"                  : "<strong>Question 4 Sample Text:</strong>",

        "SPIN_Q5_TITLE"                        : "<strong>Question 5: TC14641</strong>",
        "SPIN_Q5_TEXT"                  : "<strong>Question 5: embedded: false, showButtons: true, buttonLayout: 'vertical'</strong>",

        "SPIN_Q6_TITLE"                        : "<strong>Question 6: TC14648</strong>",
        "SPIN_Q6_TEXT"                  : "<strong>Question 6 Sample Text:</strong>",

        "SPIN_Q7_TITLE"                        : "<strong>Question 7: TC14656</strong>",
        "SPIN_Q7_TEXT"                  : "<strong>Question 7 Sample Text:</strong>",

        "SPIN_Q8_TITLE"                        : "<strong>Question 8: TC14668</strong>",
        "SPIN_Q8_TEXT"                  : "<strong>Question 8 Sample Text:</strong>",

        "SPIN_Q9_TITLE"                        : "<strong>Question 9: TC14685</strong>",
        "SPIN_Q9_TEXT"                  : "<strong>Question 9 Sample Text:</strong>",

        "SPIN_Q10_TITLE"                        : "<strong>Question 10: Overall Min less than spinner's Min, and Overall Max greater than spinner's Max</strong>",
        "SPIN_Q10_TEXT"                  : "<strong>Question 10: embedded: true, showButtons: true, buttonLayout: 'horizontal'</strong>",

        "SPIN_Q11_TITLE"                        : "<strong>Question 11: Overal Min/Max not specified</strong>",
        "SPIN_Q11_TEXT"                  : "<strong>Question 11 Sample Text:</strong>",

        "SPIN_Q13_TITLE"                        : "<strong>Question 13: multiple spinners Q13</strong>",
        "SPIN_Q13_TEXT"                  : "<strong>Question 13 Sample Text:</strong>",

        "SPIN_Q14_TITLE"                        : "<strong>Question 14: embedded.</strong>",
        "SPIN_Q14_TEXT"                  : "<strong>Question 14:</strong>",

        "SUMMARY_TITLE" : "<strong>Question Summary:</strong>",
        "SUMMARY_QUESTION" : "{{{ getQuestionnaireAnswers }}}"
    }
}
