{
    "namespace": "CORE",
    "language": "sr",
    "locale": "SP",
    "localized": "Српски (ћирилица)",
    "direction": "ltr",
    "resources": {
        "ACTIVE": "Активно",
        "ACTIVATE_USER": "Активирање корисника",
        "ADD_PATIENT": "Додавање новог пацијента",
        "ADD_USER": "Додавање корисника",
        "AFFIDAVIT": "Када будете спремни да сачувате одговоре, изаберите „У реду“, па „Даље“.",
        "AFFIDAVIT_HELP": "Хвала. Унели сте све потребне одговоре. Одговоре можете проверити и изменити тако што ћете изабрати „Назад“.",
        "ALL_QUESTIONNAIRES_COMPLETED": "Сви обрасци су попуњени",
        "APP_NAME": "ERT",
        "APPLICATION_HEADER": "{{{ appHeader }}}",
        "APP_NAME_LBL": "Име апликације",
        "APP_VERSION": "Верзија апликације",
        "ASSIGNED_TO": "Додељено кориснику",
        "AVAILABLE": "Доступно",
        "BACK": "Назад",
        "BACK_OUT_CONFIRM": "Желите ли заиста да напустите апликацију? Одговори у обрасцу ће бити изгубљени.",
        "BLUETOOTH_REG_REFRESH_BUTTON": "Освежи листу",
        "CANCEL": "Откажи",
        "CHECK_FOR_UPDATES": "Потражи ажурирања",
        "CHOOSE_A_SITE": "Доделите овај уређај одређеном центру.",
        "COMPLETED": "Завршено",
        "CONFIRM_PASSWORD": "Потврдите лозинку:",
        "CONFIRM_TEMP_PASS": "Потврдите привремену лозинку:",
        "CONTINUE": "Настави",
        "COUNTRY": "Држава",
        "CUSTOM_ENVIRONMENT": "Прилагођено окружење",
        "DEACTIVATE_PATIENT": "Деактивирање пацијента",
        "DEACTIVATE_USER": "Деактивирање корисника",
        "DEACTIVATED": "Деактивиран",
        "DEVICE_ID": "ИД уређаја",
        "DEVICE_REGISTRATION_FAILURE": "Пријава уређаја није успела.",
        "DEVICE_UUIID": "UUID уређаја",
        "BATTERY_LEVEL": "Снага батерије",
        "DEVICE_INFO": "Подаци о уређају",
        "EDIT_MY_INFO": "Измена мојих података",
        "EDIT_PATIENT": "Измена пацијента",
        "EDIT_SERVICE_URL": "Измена URL адресе услуге",
        "EDIT_SERVICE_URL_SUCCESS": "URL адреса услуге је ажурирана.",
        "EDIT_USER": "Измена корисника",
        "EMAIL": "Е-адреса",
        "ENTER_PATIENT_INFO": "Унесите податке пацијента",
        "ENTER_UNLOCK_CODE": "Унесите шифру за откључавање",
        "ENTER_USER_INFO": "Унесите податке о новом кориснику центра",
        "ENVIRONMENT": "Окружење",
        "FIRST_NAME": "Име",
        "FORGOT_PASSWORD": "Заборавили сте лозинку?",
        "FORM": "Образац",
        "FORM_GATEWAY": "Мрежни пролаз за обрасце",
        "FORM_NAME": "Име обрасца",
        "FULL_NAME": "Име и презиме:",
        "GO_TO_VISITS": "Прегледи пацијента",
        "HAND_DEVICE_SITE_TITLE": "Давање уређаја кориснику центра",
        "HAND_DEVICE_SITE_BODY": "Предајте уређај кориснику центра.",
        "HELP": "Помоћ",
        "HOME": "Почетак",
        "IN_PROGRESS": "У току",
        "INITIALS": "Иницијали",
        "INVALID_URL": "Унесите важећу URL адресу.",
        "INVALID_PERMISSION": "Дозвола није важећа.",
        "INVALID_PASSWORD": "Лозинка није важећа.",
        "LANGUAGE": "Језик:",
        "LAST_LOGIN": "Последње пријављивање",
        "LAST_NAME": "Презиме",
        "LAST_REFRESH_TIME": "Последњи пут освежено",
        "LOCATION": "Локација",
        "LOGIN": "Пријава",
        "LOGIN_SCREEN": "Пријава",
        "LOGOUT": "Одјава",
        "MANAGE_USERS": "Управљање корисницима",
        "MARK_AS_COMPLETED": "Означи као довршено",
        "SITE_SIGNATURE": "Потпис: ",
        "SITE_REPORT_AFF": "Овим потврђујем унос и проверу претходних података.<br /><br /><strong>Потпис:</strong> {{{ getActiveUserName }}}",
        "PATIENT_REPORT_AFF": "Овим потврђујем унос и проверу претходних података.<br /><br /><strong>Иницијали:</strong> {{{ getActiveUserName }}}",
        "CLEAR_SIGNATURE": "Обриши потпис",
        "MENU": "Мени",
        "MODE": "Режим",
        "NAME": "Име",
        "NEW_USER": "Додавање новог дневника корисника",
        "NEW_USER_CREATED": "Креиран је корисник центра.",
        "NEXT": "Даље",
        "NO_RESULTS_FOUND": "Нису пронађени резултати.",
        "NOT_AVAILABLE": "Није доступно",
        "OK": "У реду",
        "ORDER": "Редослед",
        "PASSWORD": "Лозинка:",
        "PATIENT": "Пацијент",
        "PATIENT_ID": "ИД пацијента:",
        "PENDING_TRANSMISSIONS": "Преноси на чекању",
        "PLEASE_WAIT": "Сачекајте",
        "PLEASE_CONFIRM": "Потврдите",
        "REPORTS_AND_FORMS": "Извештаји и обрасци",
        "REPORTS_COMPLETED_MESSAGE": "Попунили сте све обрасце. Вратите уређај задуженом особљу у центру.",
        "REQUIRED_ANSWER": "Попуните све обавезне податке.",
        "RESET_PIN": "Поново подесите PIN пацијента",
        "RESET_USER_PASSWORD": "Поново подесите лозинку корисника",
        "ROLES": "Улога:",
        "SAVE": "Сачувај",
        "SEARCH": "Претрага",
        "SECURITY_QUESTION_0": "Које је девојачко презиме ваше мајке?",
        "SECURITY_QUESTION_1": "У ком сте граду рођени?",
        "SECURITY_QUESTION_2": "Како се звао ваш први кућни љубимац?",
        "SECURITY_QUESTION_3": "Који је ваш омиљени спорт?",
        "SECURITY_QUESTION_4": "Које године сте дипломирали?",
        "SECURITY_QUESTION_5": "Које је средње име вашег најстаријег детета?",
        "SECURITY_QUESTION_6": "Како се зове ваш најбољи пријатељ из детињства?",
        "SECURITY_QUESTION_7": "Како се презива ваш учитељ/учитељица из трећег разреда?",
        "SECURITY_QUESTION_8": "У ком граду је било ваше прво радно место?",
        "SECRET_ANSWER": "Одговор на безбедносно питање:",
        "SECRET_QUESTION": "Безбедносно питање:",
        "SECRET_QUESTION_HELP_TEXT": "Изаберите безбедносно питање на листи у наставку. Одговор се користи за пријављивање ако заборавите лозинку.",
        "SECRET_QUESTION_ANSWER": "Безбедносно питање и одговор",
        "SELECT_LANGUAGE": "Изаберите жељени језик за центар.",
        "SELECT_SITE_NUMBER": "Изаберите број центра",
        "SERVICE_URL": "URL услуге",
        "SETTINGS": "Поставке",
        "SETUP_COMPLETE": "Подешавање је завршено",
        "SETUP_COMPLETE_DESC": "Уређај је подешен и спреман за испоруку.  Притисните „У реду“, па искључите уређај на следећем екрану.",
        "SETUP_SITE_USER": "Подешавање корисника центра",
        "SETUP_SITE_USER_LEGEND": "Подесите корисника центра за овај уређај.",
        "SITE": "Центар",
        "SITE_ASSESSMENTS": "Процене у центру",
        "SIGNATURE_DATA_LIMIT_EXCEEDED": "Ваш потпис није могуће верно приказати у оквиру за потпис. Уместо тога, унесите иницијале.",
        "SITE_NUMBER": "Број центра",
        "SITE_ROLE": "Корисник центра",
        "SITE_SELECTION": "Избор центра",
        "SKIP_FORM": "Прескочи образац",
        "SKIP_QUESTION": "Желите ли заиста да прескочите одговоре на овом екрану?",
        "SKIP_TO_VISIT": "Пређи на преглед",
        "SKIP_VISIT": "Прескочи преглед",
        "SKIPPED" : "Прескочено",
        "START_FORM": "Покрени образац",
        "START_VISIT": "Покрени преглед",
        "STATUS": "Статус",
        "STATUS_DATE": "Датум статуса",
        "STUDY": "Студија",
        "STUDYWORKS_LOGIN": "Пријава на StudyWorks",
        "SUBJECT_ID": "ИД пацијента",
        "SUBJECT_ROLE": "Пацијент",
        "SUBMIT": "Пошаљи",
        "SUPPORT_TOOLS": "Алатке за подршку",
        "SYNC": "Синх.",
        "SYNC_USERS": "Синхронизација корисника",
        "SYNC_TO_DEVICE": "Синхронизација студије на уређају",
        "TEMPORARY_PASSWORD_MESSAGE": "Дајте привремену лозинку новом кориснику. Од њега ће се тражити да креира нову лозинку када се пријави.",
        "TEMP_PASSWORD": "Привремена лозинка: ",
        "UNABLE_TO_GET_SITE_LIST": "Добијање листе центара није успело",
        "UNLOCK_CODE": "Кôд за откључавање",
        "UNLOCK_CODE_HELP": "Кôд за откључавање апликације ERT Tablet можете да добијете на локацији StudyWorks у оквиру SmartReport-а за 'Кодови за откључавање за ERT'. Затражите помоћ од ERT центра за подршку.",
        "USER": "Корисник",
        "USER_ALREADY_EXISTS": "Корисник већ постоји",
        "SUBJECT_ALREADY_EXISTS": "ИД пацијента {{{ getPatientIDForDuplicate }}} већ постоји",
        "USER_ROLE": "Улога корисника",
        "USERNAME": "Корисничко име",
        "USER_NAME": "Корисничко име:",
        "VISIT": "Преглед",
        "VISIT_COMPLETED_MESSAGE": "Нема више образаца за овај преглед.  Преглед је сада завршен.",
        "VISITS": "Прегледи",
        "VISITS_SKIPPED": "Прескочени преглед:",
        "VISIT_NAME": "Назив прегледа",
        "WELCOME": "Добро дошли",
        "AF-ZA": "Африканс",
        "AR-EG": "Арапски",
        "BE-BY": "Белоруски",
        "BG-BG": "Бугарски",
        "BN-IN": "Бенгалски",
        "BS-BA": "Босански",
        "CA-ES": "Каталонски",
        "CS-CZ": "Чешки",
        "DA-DK": "Дански",
        "DE-DE": "Немачки (Немачка)",
        "DE-AT": "Немачки (Аустрија)",
        "EL-GR": "Грчки",
        "EN-GB": "Енглески (УК)",
        "EN-US": "Енглески (САД)",
        "ES-ES": "Шпански (Шпанија)",
        "ES-US": "Шпански (САД)",
        "ES-PY": "Шпански (Универзални)",
        "ET-EE": "Естонски",
        "FI-FI": "Фински",
        "FR-CA": "Француски (Канада)",
        "FR-FR": "Француски (Француска)",
        "GD-IE": "Гелски",
        "GU-IN": "Гуџарати",
        "HE-IL": "Хебрејски",
        "HI-IN": "Хинди",
        "HR-HR": "Хрватски",
        "HU-HU": "Мађарски",
        "IT-IT": "Италијански",
        "JA-JP": "Јапански",
        "KA-GE": "Грузијски",
        "KN-IN": "Канада",
        "KO-KR": "Корејски",
        "LV-LV": "Летонски",
        "LT-LT": "Литвански",
        "ML-IN": "Малајам",
        "MR-IN": "Марати",
        "MS-MY": "Малајски",
        "NB-NO": "Норвешки",
        "NL-BE": "Холандски (Белгија)",
        "NL-NL": "Холандски (Холандија)",
        "PA-IN": "Панџаби",
        "PL-PL": "Пољски",
        "PT-BR": "Португалски (Бразил)",
        "PT-PT": "Португалски (Португалија)",
        "RO-RO": "Румунски",
        "RU-RU": "Руски",
        "SL-SL": "Словеначки",
        "SK-SK": "Словачки",
        "SR-RS": "Српски (латиница)",
        "SR-SP": "Српски (ћирилица)",
        "ST-ZA": "Сесото",
        "SV-SE": "Шведски",
        "TA-IN": "Тамилски",
        "TE-IN": "Телугу",
        "TH-TH": "Тајски",
        "TL-PH": "Тагалог",
        "TN-ZA": "Цвана",
        "TR-TR": "Турски",
        "UK-UA": "Украјински",
        "UR-IN": "Урду",
        "VI-VN": "Вијетнамски",
        "XH-ZA": "Коса",
        "ZH-CN": "Кинески (Кина)",
        "ZH-TW": "Кинески (Тајван)",
        "ZU-ZU": "Зулу",
        "HAND_DEVICE_SUBJECT_BODY": "Следећи образац мора да се попуни до {{{ patientOrRole }}}. Одјавите се, па предајте уређај кориснику {{{ patientOrRole }}}.",
        "HAND_DEVICE_SUBJECT_TITLE": "Покреће се образац {{{ formTitle }}}",
        "SKIP_VISIT_TITLE": "Прескочити прегледе?",
        "SKIP_VISIT_TEXT": "Ако наставите, следећи прегледи ће бити прескочени:<br/> {{{ skippedVisits }}} Наставити и прескочити ове прегледе?",
        "YES":"Да",
        "NO":"Не",
        "TIME_LBL": "Време:",
        "SET_TIME": "Подеси време",
        "DATE_LBL": "Датум:",
        "CREATE_PERMANENT_PASSWORD_TITLE": "Креирање трајне лозинке",
        "USER_ID": "ИД корисника:",
        "PHASE": "Фаза",
        "LAST_VISIT": "Последњи обављен преглед",
        "CONNECTION_REQUIRED": "Потребна је веза са интернетом.",
        "RETRY": "Покушајте поново",
        "UPDATE_FAILURE": "Ажурирање није довршено",
        "UPDATE_SUCCESS": "Ажурирање је успело",
        "CANCEL_PERMANENT_PASSWORD_TITLE": "Отказати креирање трајне лозинке?",
        "CANCEL_PERMANENT_PASSWORD_TEXT": "Ако откажете сада, трајна лозинка се неће креирати. Требаће вам трајна лозинка да бисте користили ERT. Желите ли стварно да откажете?",
        "ACCOUNT_CONFIGURED_TITLE": "Подешавање налога је завршено",
        "ACCOUNT_CONFIGURED_TEXT": "Подесили сте налог, можете да наставите да користите систем eCOA.",
        "LOGGED_IN_AS": "Пријављен као",
        "EDIT_PATIENT_AFFIDAVIT_HEADER": "<p class='question-title-large'>Потпис</p><br />",
        "EDIT_PATIENT_AFF": "Потписом у наставку потврђујем да имам овлашћење за измену овог пацијента.<br /><br />ИД пацијента: {{{ getPatientIdNumber }}}<br /><br /><strong>Потпис:</strong> {{{ getActiveUserName }}}",
        "PASSWORD_MISMATCH": "Потврда лозинке се не подудара са лозинком",
        "FIRST_USER_AFFIDAVIT": "Потписом у наставку потврђујем да сам главни истраживач или овлашћено лице за креирање налога у овом систему<br /><br /><strong>Потпис:</strong> {{{ getFirstUsername }}}",
        "INCOMPLETE": "Незавршено",
        "INVALID_ENTRY": "Неважећи унос",
        "PLEASE_ANSWER_SQ": "Одговорите на безбедносно питање:",
        "FORGOT_SECRET_ANSWER": "Заборавили сте одговор на безбедносно питање?",
        "CONTACT_STUDY_COORDINATOR": "Обратите се координатору студије",
        "ENTER_NEW_PASSWORD": "Нова лозинка:",
        "CONTACT_UNLOCK_CODE": "Затражите данашњи кôд за откључавање од координатора студије:",
        "CURRENT_DATE": "{{{ currentDate }}}",
        "TEMPORARY_UNLOCK_CODE": "Унесите кôд за откључавање добијен од координатора студије.",
        "RESET_SECRET_QUESTION": "Поново подесите безбедносно питање",
        "SECRET_QUESTION_CHANGE_SUCCESS": "Успешно сте ажурирали лозинку и безбедносно питање.",
        "RESET_PASSWORD": "Поново подесите лозинку",
        "ANSWER_ATTEMPT_EXCEEDED": "Превише пута сте унели нетачан одговор или сте кликнули на везу за заборављени одговор на безбедносно питање.",
        "PASSWORD_ATTEMPT_EXCEEDED": "Превише пута сте унели нетачну лозинку или сте кликнули на везу за заборављену лозинку.",
        "PASSWORD_CHANGE_SUCCESS": "Успешно сте ажурирали лозинку.",
        "CHANGE_PASSWORD": "Промени лозинку",
        "CHANGE_SECRET_QUESTION": "Промени безбедносно питање",
        "SYNC_COMPLETE": "Синхронизација је завршена",
        "INCORRECT_ANSWER": "Нетачан одговор",
        "INCORRECT_UNLOCK_CODE": "Нетачан кôд за откључавање",
        "PASSWORD_INVALID": "Нетачна лозинка",
        "SUBJECT": "Пацијент",
        "PATIENT_ADDED": "Пацијент је додат",
        "TIME_ZONE": "Временска зона:",
        "ACTIVATE_USER_CANCEL_CONFIRM": "Отказати активацију?",
        "ACTIVATE_USER_CANCEL_BODY": "Ако откажете сада, корисник центра се неће активирати. Желите ли стварно да откажете?",
        "ACTIVATE_USER_AFF": "Потписом у наставку потврђујем да имам овлашћење за активирање корисника центра.",
        "ACTIVATE_USER_CONFIRM_INFORMATION": "Потврдите да следеће информације припадају кориснику центра ког желите да активирате.",
        "DEACTIVATE_USER_CANCEL_CONFIRM": "Отказати деактивацију?",
        "DEACTIVATE_USER_CANCEL_BODY": "Ако откажете сада, корисник центра се неће деактивирати. Желите ли стварно да откажете?",
        "DEACTIVATE_USER_AFF": "Потписом у наставку потврђујем да имам овлашћење за деактивирање корисника центра.",
        "DEACTIVATE_USER_SIG": "<strong>Корисник који се деактивира:</strong> <br />{{{ getSelectedUsername }}}<br /><br /><strong>Потпис:</strong> {{{ getActiveUserName }}}",
        "DEACTIVATE_USER_CONFIRM_INFORMATION": "Потврдите да следеће информације припадају кориснику центра ког желите да деактивирате.",
        "DIARY_TIMEOUT": "Истекло је време обрасца.",
        "EDIT_PATIENT_QUESTION_1_MAIN_TITLE": "<div class='question-title-large'>Идентификација пацијента </div><div>Опсег ИД-ова за овај центар:<br /><strong> {{{ patientIDRange }}}</strong></div><div class='edit-patient-id'>ИД пацијента:<br /><strong>{{{ getPatientIdNumber }}} ({{{getPatientInitials}}})</strong</div><br /><br />",
        "EDIT_PATIENT_QUESTION_1": "ИД пацијента:",
        "EDIT_PATIENT_QUESTION_1_EMPTY": "Попуните ИД пацијента.",
        "EDIT_PATIENT_QUESTION_1_EMPTY_HEADER": "ИД пацијента",
        "EDIT_PATIENT_QUESTION_1_RANGE": "ИД пацијента који сте унели није у опсегу дозвољених ИД-ова: {{{ patientIDRange }}}.  Унесите важећи ИД пацијента.",
        "EDIT_PATIENT_QUESTION_1_RANGE_HEADER": "ИД пацијента је ван опсега",
        "EDIT_PATIENT_QUESTION_1_UNIQUE": "Пацијент већ постоји.  Унесите други ИД пацијента.",
        "EDIT_PATIENT_QUESTION_1_UNIQUE_HEADER": "ИД пацијента је дупликат",
        "EDIT_PATIENT_QUESTION_2": "Иницијали пацијента:",
        "EDIT_PATIENT_QUESTION_2_EMPTY": "Попуните иницијале пацијента, уз најмање 2 слова.",
        "EDIT_PATIENT_QUESTION_2_EMPTY_HEADER": "Иницијали пацијента",
        "EDIT_PATIENT_QUESTION_3_TITLE": "<div class='question-title-large'>Избор језика</div><div>ИД пацијента:<br /><strong>{{{ getPatientIdNumber }}} ({{{getPatientInitials}}})</strong</div><br /><br />",
        "EDIT_PATIENT_QUESTION_3": "Изаберите језик за пацијента",
        "EDIT_PATIENT_QUESTION_4_TITLE": "<div class='question-title-large'>Разлог измене</div><br /><br />",
        "EDIT_PATIENT_QUESTION_4": "Изаберите разлог за измену пацијента",
        "EDIT_PATIENT_CANCEL_CONFIRM": "Отказати промене пацијента?",
        "EDIT_PATIENT_CANCEL_BODY": "Ако откажете сада, поставке пацијента се неће ажурирати.  Желите ли стварно да откажете?",
        "EDIT_PATIENT_NO_CHANGES_CONFIRM": "Нема промена за пацијента",
        "EDIT_PATIENT_NO_CHANGES_BODY": "Нема промена за овог пацијента. Ипак ћете изаћи?",
        "EDIT_PATIENT_REASON_0": "Клиничар је исправио грешку",
        "EDIT_REASON": "Разлог измене:",
        "EDIT_USER_AFF": "Потписом у наставку потврђујем да имам овлашћење за измену корисника центра. <br /><br /><strong>Потпис:</strong> {{{ getActiveUserName }}}",
        "EDIT_USER_CANCEL_CONFIRM": "Отказати измену корисника?",
        "EDIT_USER_CANCEL_BODY": "Ако откажете сада, промене корисника центра се неће применити. Желите ли стварно да откажете?",
        "EDIT_USER_NO_CHANGES_HEADER": "Нема промена за корисника центра",
        "EDIT_USER_NO_CHANGES_BODY": "Нема промена за овог корисника центра. Ипак ћете изаћи?",
        "ERROR_CODE": "Кôд грешке:",
        "ERROR_TITLE": "Грешка",
        "FIRST_SITE_USER": "Додавање првог корисника центра",
        "NEW_PATIENT_QUESTION_1_MAIN_TITLE": "<div class='question-title-large'>Унесите податке за идентификацију пацијента</div><div>Опсег ИД-ова за овај центар:<br /><strong> {{{ patientIDRange }}}</strong></div><div><strong>Центар: {{{ getSiteCode }}}</strong></div><div><strong>Корисник: {{{ getUserName }}}</strong</div><br /><br />",
        "NEW_PATIENT_HELP_TEXT_1": "",
        "NEW_PATIENT_HELP_TEXT_2": "",
        "NEW_PATIENT_HELP_TEXT_3": "",
        "NEW_PATIENT_QUESTION_1_TITLE": "ИД пацијента",
        "NEW_PATIENT_QUESTION_1": "ИД пацијента:",
        "NEW_PATIENT_QUESTION_1_EMPTY": "Попуните ИД пацијента.",
        "NEW_PATIENT_QUESTION_1_EMPTY_HEADER": "ИД пацијента",
        "NEW_PATIENT_QUESTION_1_RANGE": "ИД пацијента који сте унели није у опсегу дозвољених ИД-ова: {{{ patientIDRange }}}.  Унесите важећи ИД пацијента.",
        "NEW_PATIENT_QUESTION_1_RANGE_HEADER": "ИД пацијента је ван опсега",
        "NEW_PATIENT_QUESTION_1_UNIQUE": "Пацијент већ постоји.  Унесите други ИД пацијента.",
        "NEW_PATIENT_QUESTION_1_UNIQUE_HEADER": "ИД пацијента је дупликат",
        "NEW_PATIENT_QUESTION_2": "Иницијали пацијента:",
        "NEW_PATIENT_QUESTION_2_EMPTY": "Попуните иницијале пацијента, уз најмање 2 слова.",
        "NEW_PATIENT_QUESTION_2_EMPTY_HEADER": "Иницијали пацијента",
        "NEW_PATIENT_QUESTION_3_TITLE": "<div class='question-title-large'>Изаберите језик</div><div><strong>Центар: {{{ getSiteCode }}}</strong></div><div><strong>Корисник: {{{ getUserName }}}</strong</div><div><strong>ИД пацијента: {{{ getPatientID }}}</strong></div><br /><br />",
        "NEW_PATIENT_QUESTION_3": "Изаберите језик за пацијента",
        "NEW_PATIENT_CANCEL_CONFIRM": "Отказати додавање пацијента?",
        "NEW_PATIENT_CANCEL_BODY": "Ако откажете, пацијент се неће пријавити.  Желите ли стварно да откажете?",
        "NEW_PATIENT_AFFIDAVIT_HEADER": "<div><strong>Центар: {{{ getSiteCode }}}</strong><br /><strong>Корисник: {{{ getUserName }}}</strong><br /><strong>ИД пацијента: {{{ getPatientID }}}</strong></div>",
        "PATIENT_INITIALS": "Иницијали пацијента:",
        "PATIENT_DELETED": "Непознат пацијент",
        "PATIENT_DELETED_MSG": "Пацијент није пронађен.",
        "PATIENT_DELETED_SUBJECT_MSG": "Пацијент није пронађен. Вратите уређај задуженом особљу у центру.",
        "PLEASE_CONTACT": "Обратите се ERT центру за подршку.",
        "PLEASE_TRY_OR_CONTACT_SUPPORT": "Покушајте поново или се обратите ERT центру за подршку.",
        "REASON": "Разлог:",
        "SET_TIMEZONE_MESSAGE": "Изаберите временску зону:",
        "SKIP_VISITS": "Прескакање прегледа",
        "SKIP_VISITS_QUESTION_1": "<div class='question-title-large'><strong>Разлог</strong></div><br /><br /><div>Изаберите разлог за прескакање прегледа:</div>",
        "SKIP_VISITS_REASON_0": "Преглед је истекао",
        "SKIP_VISITS_REASON_1": "Грешка центра током администрације",
        "SKIP_VISITS_REASON_2": "Пацијент је пропустио посету клиници.",
        "SKIP_VISITS_REASON_3": "Није примењиво.",
        "SKIP_VISITS_REASON_4": "Преглед је опционалан, није обављен.",
        "SKIP_VISITS_CANCEL_CONFIRM": "Отказати прескакање прегледа?",
        "SKIP_VISITS_CANCEL_BODY": "Ако откажете сада, прегледи се неће прескочити. Желите ли стварно да откажете?",
        "SKIPPED_VISITS": "{{{ skippedVisits }}}",
        "USER_EDITED": "Корисник је ажуриран.",
        "USER_TO_ACTIVATE": "<strong>Корисник који се активира:</strong> <br />{{{ getSelectedUsername }}}<br /><br /><strong>Потпис:</strong> {{{ getActiveUserName }}}",
        "TIME_CONFIRMATION_INSTRUCTIONS": "Уређај мора да потврди локално време. Унесите датум и време из поузданог извора.",
        "TIME_ZONE_ERROR_HEADER": "Грешка временске зоне",
        "TIME_ZONE_ERROR_MSG": "Дошло је до грешке приликом преузимања листе временских зона. Затражите помоћ од ERT центра за подршку.",
        "TIME_ZONE_SET_ERROR_MSG": "Дошло је до грешке приликом подешавања временске зоне. Затражите помоћ од ERT центра за подршку.",
        "TIME_ZONE_SET_CONFIRM": "Желите ли заиста да подесите временску зону на {{{selectedTimeZone}}}? <br/> Апликација ће се можда поново покренути да би се примениле промене.",
        "TIME_ZONE_SET_CONFIRM_NOCHANGE": "Желите ли заиста да подесите временску зону на {{{selectedTimeZone}}}?",
        "TIME_ZONE_SET_HEADER": "Потврда подешавања временске зоне",
        "TRAINER": "Режим обуке",
        "TRAINER_EXIT": "Напусти режим обуке",
        "TRAINER_EXIT_NOTIFICATION": "Напуштате режим обуке",
        "TRAINER_HEADER": "(Обука)",
        "VISIT_INACTIVE_HEADER": "Неактиван преглед.",
        "VISIT_INACTIVE_MESSAGE": "Овај преглед није више активан.",
        "VISIT_INACTIVE_MESSAGE_SUBJECT": "Овај преглед није више активан. Вратите уређај задуженом особљу у центру.",
        "SITE_ADMINISTRATOR": "Администратор центра",
        "LOW_BATTERY": "Упозорење: Батерија је скоро празна. Прикључите уређај да се пуни.",
        "CRITICAL_BATTERY": "Упозорење: Батерија је скоро потпуно празна. Прикључите уређај да се пуни или ће се он искључити.",
        "TIME_CONFIRMATION_HEADER": "Потврђивање датума/времена",
        "TIMESLIP_ERROR": "Време или датум на уређају нису исправни. Померите се на локацију са интернет везом и покушајте поново. Уколико и даље наилазите на потешкоће, обратите се ERT корисничкој служби.",
        "SUPPORT": "Корисничка подршка",
        "SUPPORT_MESSAGE": "Корисници из САД могу да ступе у контакт са ERT корисничким центром на телефон 800-748-5669. Међународни корисници у наставку треба да изаберу најближу земљу:",
        "SUPPORT_DROPDOWN": "Изаберите своју земљу",
        "SUPPORT_NAME_ARGENTINA": "Аргентина",
        "SUPPORT_NUMBER_ARGENTINA": "<bdi>0800 444 0962</bdi>",
        "SUPPORT_NAME_ARMENIA": "Јерменија",
        "SUPPORT_NUMBER_ARMENIA": "<bdi>+1 617 681 6306</bdi>",
        "SUPPORT_NAME_AUSTRALIA": "Аустралија",
        "SUPPORT_NUMBER_AUSTRALIA": "<bdi>1 800 800 051</bdi>",
        "SUPPORT_NAME_AUSTRIA": "Аустрија",
        "SUPPORT_NUMBER_AUSTRIA": "<bdi>0800 100 405</bdi>",
        "SUPPORT_NAME_BELARUS": "Белорусија",
        "SUPPORT_NUMBER_BELARUS": "<bdi>8 820 0321 0036</bdi>",
        "SUPPORT_NAME_BELGIUM": "Белгија",
        "SUPPORT_NUMBER_BELGIUM_1": "(енглески): <bdi>0800 58 016</bdi>",
        "SUPPORT_NUMBER_BELGIUM_2": "(француски): <bdi>0800 71 076</bdi>",
        "SUPPORT_NUMBER_BELGIUM_3": "(немачки): <bdi>0800 71 113</bdi>",
        "SUPPORT_NAME_BRAZIL": "Бразил",
        "SUPPORT_NUMBER_BRAZIL": "<bdi>0800 891 5909</bdi>",
        "SUPPORT_NAME_BOSNIA": "Босна",
        "SUPPORT_NUMBER_BOSNIA": "<bdi>+1 617 681 6306</bdi>",
        "SUPPORT_NAME_BULGARIA": "Бугарска",
        "SUPPORT_NUMBER_BULGARIA": "<bdi>00800 0010,</bdi> а затим <bdi>866 245 4931</bdi>",
        "SUPPORT_NAME_CANADA": "Канада",
        "SUPPORT_NUMBER_CANADA": "<bdi>1 800 748 5669</bdi>",
        "SUPPORT_NAME_CHILE": "Чиле",
        "SUPPORT_NUMBER_CHILE": "<bdi>123 0020 3408</bdi>",
        "SUPPORT_NAME_CHINA": "Кина",
        "SUPPORT_NUMBER_CHINA_1": "NetCom (север): <bdi>1 0800 74 40 164</bdi>",
        "SUPPORT_NUMBER_CHINA_2": "Telecom (југ): <bdi>1 0800 44 00 158</bdi>",
        "SUPPORT_NAME_COLOMBIA": "Колумбија",
        "SUPPORT_NUMBER_COLOMBIA": "<bdi>01 800 911 0010,</bdi> а затим <bdi>866 310 3707</bdi>",
        "SUPPORT_NAME_COSTA_RICA": "Костарика",
        "SUPPORT_NUMBER_COSTA_RICA": "<bdi>0800 013 1210</bdi>",
        "SUPPORT_NAME_CROATIA": "Хрватска",
        "SUPPORT_NUMBER_CROATIA": "<bdi>0800 222 953</bdi>",
        "SUPPORT_NAME_CZECH_REPUBLIC": "Чешка Република",
        "SUPPORT_NUMBER_CZECH_REPUBLIC": "<bdi>800 142 150</bdi>",
        "SUPPORT_NAME_DENMARK": "Данска",
        "SUPPORT_NUMBER_DENMARK": "<bdi>80 60 00 09</bdi>",
        "SUPPORT_NAME_EGYPT": "Египат",
        "SUPPORT_NUMBER_EGYPT": "<bdi>02 510 0200,</bdi> а затим <bdi>866 310 3707</bdi>",
        "SUPPORT_NAME_EL_SALVADOR": "Ел Салвадор",
        "SUPPORT_NUMBER_EL_SALVADOR": "<bdi>+1 617 681 6306</bdi>",
        "SUPPORT_NAME_ESTONIA": "Естонија",
        "SUPPORT_NUMBER_ESTONIA": "<bdi>800 00 44 154</bdi>",
        "SUPPORT_NAME_FINLAND": "Финска",
        "SUPPORT_NUMBER_FINLAND": "<bdi>0800 11 6366</bdi>",
        "SUPPORT_NAME_FRANCE": "Француска",
        "SUPPORT_NUMBER_FRANCE": "<bdi>0800 10 19 79</bdi>",
        "SUPPORT_NAME_GERMANY": "Немачка",
        "SUPPORT_NUMBER_GERMANY": "<bdi>0800 101 28 21</bdi>",
        "SUPPORT_NAME_GREECE": "Грчка",
        "SUPPORT_NUMBER_GREECE": "<bdi>00 800 1311,</bdi> а затим <bdi>866 310 3707</bdi>",
        "SUPPORT_NAME_GUATEMALA": "Гватемала",
        "SUPPORT_NUMBER_GUATEMALA": "<bdi>1 800 624 0079</bdi>",
        "SUPPORT_NAME_HONG_KONG": "Хонгконг",
        "SUPPORT_NUMBER_HONG_KONG": "<bdi>3002 1665</bdi>",
        "SUPPORT_NAME_HUNGARY": "Мађарска",
        "SUPPORT_NUMBER_HUNGARY": "<bdi>06 800 14 571</bdi>",
        "SUPPORT_NAME_ICELAND": "Исланд",
        "SUPPORT_NUMBER_ICELAND": "<bdi>800 8544</bdi>",
        "SUPPORT_NAME_INDIA": "Индија",
        "SUPPORT_NUMBER_INDIA": "<bdi>000 800 440 1125</bdi>",
        "SUPPORT_NAME_INDONESIA": "Индонезија",
        "SUPPORT_NUMBER_INDONESIA": "<bdi>008 800 330 334</bdi>",
        "SUPPORT_NAME_IRELAND": "Ирска",
        "SUPPORT_NUMBER_IRELAND": "<bdi>1 800 946 700</bdi>",
        "SUPPORT_NAME_ISRAEL": "Израел",
        "SUPPORT_NUMBER_ISRAEL": "<bdi>1 809 470 062</bdi>",
        "SUPPORT_NAME_ITALY": "Италија",
        "SUPPORT_NUMBER_ITALY": "<bdi>800 90 56 37</bdi>",
        "SUPPORT_NAME_JAPAN": "Јапан",
        "SUPPORT_NUMBER_JAPAN": "Погледајте водич са информацијама о ePRO студији да бисте пронашли бесплатан број телефона за студију",
        "SUPPORT_NAME_LATVIA": "Летонија",
        "SUPPORT_NUMBER_LATVIA": "<bdi>8000 2151</bdi>",
        "SUPPORT_NAME_LEBANON": "Либан",
        "SUPPORT_NUMBER_LEBANON": "<bdi>01-426-801,</bdi> а затим <bdi>866 310 3707</bdi>",
        "SUPPORT_NAME_LITHUANIA": "Литванија",
        "SUPPORT_NUMBER_LITHUANIA": "<bdi>8800 30207</bdi>",
        "SUPPORT_NAME_MALAYSIA": "Малезија",
        "SUPPORT_NUMBER_MALAYSIA": "<bdi>1800 80 59 71</bdi>",
        "SUPPORT_NAME_MEXICO": "Мексико",
        "SUPPORT_NUMBER_MEXICO_1": "(енглески): <bdi>001 800 748 5669</bdi> ",
        "SUPPORT_NUMBER_MEXICO_2": "(шпански): <bdi>001 855 631 6952</bdi>",
        "SUPPORT_NAME_MOLDOVA": "Молдавија",
        "SUPPORT_NUMBER_MOLDOVA": "<bdi>617 681 6306</bdi>",
        "SUPPORT_NAME_NETHERLANDS": "Холандија",
        "SUPPORT_NUMBER_NETHERLANDS": "<bdi>0800 023 1389</bdi>",
        "SUPPORT_NAME_NEW_ZEALAND": "Нови Зеланд",
        "SUPPORT_NUMBER_NEW_ZEALAND": "<bdi>0800 110 178</bdi>",
        "SUPPORT_NAME_NORWAY": "Норвешка",
        "SUPPORT_NUMBER_NORWAY": "<bdi>800 62 051</bdi>",
        "SUPPORT_NAME_PAKISTAN": "Пакистан",
        "SUPPORT_NUMBER_PAKISTAN": "<bdi>00 800 0100,</bdi> а затим <bdi>866 237 9767</bdi>",
        "SUPPORT_NAME_PANAMA": "Панама",
        "SUPPORT_NUMBER_PANAMA": "<bdi>001 800 201 3095</bdi>",
        "SUPPORT_NAME_PERU": "Перу",
        "SUPPORT_NUMBER_PERU": "<bdi>0800 5 0974</bdi>",
        "SUPPORT_NAME_PHILIPPINES": "Филипини",
        "SUPPORT_NUMBER_PHILIPPINES": "<bdi>1 800 1116 0651</bdi>",
        "SUPPORT_NAME_POLAND": "Пољска",
        "SUPPORT_NUMBER_POLAND": "<bdi>00800 331 1262</bdi>",
        "SUPPORT_NAME_PORTUGAL": "Португалија",
        "SUPPORT_NUMBER_PORTUGAL": "<bdi>800 206 172</bdi>",
        "SUPPORT_NAME_PUERTO_RICO": "Порторико (територија САД)",
        "SUPPORT_NUMBER_PUERTO_RICO": "<bdi>1 800 748 5669</bdi>",
        "SUPPORT_NAME_ROMANIA": "Румунија",
        "SUPPORT_NUMBER_ROMANIA": "<bdi>0800 894492</bdi>",
        "SUPPORT_NAME_RUSSIA": "Русија",
        "SUPPORT_NUMBER_RUSSIA_1": "(главни, бесплатан): <bdi>8 10 800 249 13011</bdi>",
        "SUPPORT_NUMBER_RUSSIA_2": "(У Москви): <bdi>363-2400,</bdi> <br> а затим <bdi>866 310 3707</bdi>",
        "SUPPORT_NUMBER_RUSSIA_3": "(Ван Москве): <bdi>8^(495) 363-2400,</bdi> <br> а затим <bdi>866 310 3707</bdi>",
        "SUPPORT_NUMBER_RUSSIA_4": "(У Санкт Петербургу): <bdi>363-2400,</bdi> <br> а затим <bdi>866 310 3707</bdi>",
        "SUPPORT_NUMBER_RUSSIA_5": "(Ван Санкт Петербурга): <bdi>8^(495) 363-2400,</bdi> <br> а затим <bdi>866 310 3707</bdi>",
        "SUPPORT_NAME_SAUDI_ARABIA": "Саудијска Арабија",
        "SUPPORT_NUMBER_SAUDI_ARABIA": "<bdi>+1 617 681 6306</bdi>",
        "SUPPORT_NAME_SERBIA": "Србија",
        "SUPPORT_NUMBER_SERBIA": "<bdi>+1 617 973 1739</bdi>",
        "SUPPORT_NAME_SINGAPORE": "Сингапур",
        "SUPPORT_NUMBER_SINGAPORE": "<bdi>800 616 30 03</bdi>",
        "SUPPORT_NAME_SLOVAKIA": "Словачка",
        "SUPPORT_NUMBER_SLOVAKIA": "<bdi>0800 0044 65</bdi>",
        "SUPPORT_NAME_SLOVENIA": "Словенија",
        "SUPPORT_NUMBER_SLOVENIA": "<bdi>+1 617 681 6306</bdi>",
        "SUPPORT_NAME_SOUTH_AFRICA": "Јужна Африка",
        "SUPPORT_NUMBER_SOUTH_AFRICA": "<bdi>0800 99 5853</bdi>",
        "SUPPORT_NAME_SOUTH_KOREA": "Јужна Кореја",
        "SUPPORT_NUMBER_SOUTH_KOREA": "<bdi>00308 33 00 08</bdi>",
        "SUPPORT_NAME_SPAIN": "Шпанија",
        "SUPPORT_NUMBER_SPAIN": "<bdi>900 90 2541</bdi>",
        "SUPPORT_NAME_SWEDEN": "Шведска",
        "SUPPORT_NUMBER_SWEDEN": "<bdi>020 120 99 69</bdi>",
        "SUPPORT_NAME_SWITZERLAND": "Швајцарска",
        "SUPPORT_NUMBER_SWITZERLAND_1": "(енглески): <bdi>0800 199 325</bdi>",
        "SUPPORT_NUMBER_SWITZERLAND_2": "(француски): <bdi>0800 891 183</bdi>",
        "SUPPORT_NUMBER_SWITZERLAND_3": "(немачки): <bdi>0800 891 025</bdi>",
        "SUPPORT_NAME_TAIWAN": "Тајван",
        "SUPPORT_NUMBER_TAIWAN": "<bdi>00801 33 33 42</bdi>",
        "SUPPORT_NAME_THAILAND": "Тајланд",
        "SUPPORT_NUMBER_THAILAND": "<bdi>1 800 33 140 353</bdi>",
        "SUPPORT_NAME_TUNISIA": "Тунис",
        "SUPPORT_NUMBER_TUNISIA": "<bdi>+1 617 681 6306</bdi>",
        "SUPPORT_NAME_TURKEY": "Турска",
        "SUPPORT_NUMBER_TURKEY": "<bdi>00 800 151 1335</bdi>",
        "SUPPORT_NAME_UKRAINE": "Украјина",
        "SUPPORT_NUMBER_UKRAINE": "<bdi>0^00 11,</bdi> а затим <bdi>866 245 4931</bdi>",
        "SUPPORT_NAME_UAE": "Уједињени Арапски Емирати",
        "SUPPORT_NUMBER_UAE": "<bdi>8000-021,</bdi> а затим <bdi>866 310 3707</bdi>",
        "SUPPORT_NAME_UK": "Уједињено Краљевство",
        "SUPPORT_NUMBER_UK": "<bdi>0800 015 0408</bdi>",
        "SUPPORT_NAME_US": "Сједињене Државе",
        "SUPPORT_NUMBER_US_1": "(главни): <bdi>1 800 748 5669</bdi>",
        "SUPPORT_NUMBER_US_2": "(резервни): <bdi>1 877 748 5669</bdi>",
        "SUPPORT_NAME_VENEZUELA": "Венецуела",
        "SUPPORT_NUMBER_VENEZUELA_1": "(енглески): <bdi>0 800 552 6288,</bdi> <br> а затим <bdi>866 310 3707</bdi> ",
        "SUPPORT_NUMBER_VENEZUELA_2": "(шпански): <bdi>0 800 100 3063</bdi> ",
		"ABOUT": "Информације",
		"CORE_PRODUCT_VERSION_LABEL": "Верзија производа:",
		"PROTOCOL": "Протокол:",
		"SPONSOR": "Спонзор:",
		"STORED_REPORTS": "Сачувани обрасци:",
		"STUDY_VERSION": "Верзија студије: ",
		"STUDY_URL": "URL студије:",
        "P_AFFIDAVIT_HEADER": "<div><strong>Центар: {{{ getSiteCode }}}</strong><br /><strong>ИД пацијента: {{{ getPatientIdNumber }}}</strong></div>",
		"SET_TIMEZONE": "Подеси временску зону",
		"DEVICE_SERIAL_NUMBER": "Серијски број уређаја",
		"NONEXISTENT_USER": "Покушај ажурирања непостојећег корисника.",
		"SCREENING" : "Скрининг",
		"TREATMENT" : "Лечење",
		"RANDOMIZATION" : "Рандомизација",
		"FOLLOWUP" : "Контрола",
		"TERMINATION" : "Прекид",
        "ACCEPT": "Прихватам",
        "DECLINE": "Одбијам",
		"EULA": "УГОВОР О ЛИЦЕНЦИРАЊУ СА КРАЈЊИМ КОРИСНИКОМ",
        "EULA_TEXT": "<p><strong><span class=\"text-underline\">ВАЖНО</span>: НЕМОЈТЕ ДА КЛИКНЕТЕ НА ДУГМЕ „ПРИХВАТАМ“ ПРЕ НЕГО ШТО ПРОЧИТАТЕ ОВАЈ УГОВОР. КАДА КЛИКНЕТЕ НА ДУГМЕ „ПРИХВАТАМ“, ПРИХВАТАТЕ СВЕ ОДРЕДБЕ УГОВОРА. АКО НЕ ПРИХВАТАТЕ СВЕ ОДРЕДБЕ ОВОГ УГОВОРА (1) НЕМОЈТЕ ДА КЛИКНЕТЕ НА ДУГМЕ „ПРИХВАТАМ“, (2) ПРЕКИНИТЕ ИНСТАЛАЦИЈУ И ПРОЦЕС ЛИЦЕНЦИРАЊА ТАКО ШТО ЋЕТЕ КЛИКНУТИ НА ДУГМЕ „ОДБИЈАМ“.</strong></p><p>Компанија eResearchTechnology, Inc. („Давалац лиценце“) одобрава вам неексклузивно и непреносиво право да користите софтвер компаније eResearchTechnology, Inc. који се налази у овом уређају („Софтвер“) и које је повезано са уговором о вашем учешћу у клиничком испитивању: <strong>{{{ clinicalTrial }}}</strong>. Софтвер компаније eResearchTechnology, Inc. поседује издате патенте и патенте на чекању. Овај Уговор вам не преноси никаква власничка права ни над којим Софтвером (нити његовим копијама), он само представља лиценцу за коришћење Софтвера у складу са свим одредбама Уговора. Право на Софтвер и све његове делове, као и власничка и интелектуална права која он садржи остају у власништву Даваоца лиценце у сваком тренутку.</p><p>Прихватате да нећете, директно нити индиректно (i) подвргнути Софтвер обрнутом инжињерингу, расклопити га или раставити; (ii) копирати, дистрибуирати, производити, адаптирати, креирати његова изведена дела, преводити, локализовати, преносити Софтвер на други систем или га на неки други начин модификовати; нити (iii) уклонити или изменити никакво ауторско право, пословну тајну или друго правно обавештење које се налази на Софтверу или у њему. ПРИХВАТАТЕ И СЛАЖЕТЕ СЕ СА ТИМ ДА СОФТВЕР МОЖЕ ДА САДРЖИ КÔД КОЈИ СПРЕЧАВА НЕОВЛАШЋЕНО КОРИШЋЕЊЕ СОФТВЕРА.</p><br><p>АКО СЕ СЛАЖЕТЕ СА СВИМ ПРЕТХОДНО НАВЕДЕНИМ, изаберите ставку <strong>Прихватам</strong>. Ако кликнете на ставку „Прихватам“, то значи да прихватате услове лиценцирања.</p><p>АКО НЕ ПРИХВАТАТЕ СВЕ ГОРЕНАВЕДЕНО или нисте овлашћени да то прихватите, изаберите ставку <strong>Одбијам</strong>, у ком случају ће вам даљи приступ Софтверу бити онемогућен. Ако сте овлашћени, услове можете да прихватите и касније.</p>",
        "VISIT_EXPIRED_HEADER": "Преглед је истекао.",
        "VISIT_EXPIRED_MESSAGE": "Овај преглед више није доступан јер је истекао.",
        "VISIT_EXPIRED_MESSAGE_SUBJECT": "Овај преглед више није доступан јер је истекао. Вратите уређај задуженом особљу у центру.",
        "SQ-AL": "Албански",
        "IMAGE_FOLDER": "{{{ imageFolder }}}",
		"MODAL_OK_TEXT": "У реду",
        "BROWSER_LOAD_ERROR": "Страница није пронађена. Проверите везу са интернетом и покушајте поново.",
		"NO_USER_OF_ROLE" : "Није пронађен корисник са том улогом.",
        "EDIT_PATIENT_REASON_1": "Исправка података атрибута",
        "EDIT_PATIENT_REASON_2": "Промена ИД-а",
        "EDIT_PATIENT_REASON_3": "Изабран је неисправан језик",
		"START_VISIT_OUTSIDE_WINDOW_MSG": "Желите ли да се {{{ getVisitName }}} унесе ван конфигурисаног временског оквира: {{{ startDate }}} - {{{ endDate }}}?",
		"START_VISIT_HARD_STOP_MSG": "{{{ getVisitName }}} не може да се унесе ван конфигурисаног временског оквира: {{{ startDate }}} - {{{ endDate }}}",
		"USER_NAME_INVALID_CHARACTERS" : "Немојте да користите специјалне знакове",
		"ERROR_PATIENT_SAVE" : "Дошло је до грешке приликом додавања новог пацијента",
		"PASSWORD_CHANGE_FAILED" : "За прикупљање ваших података о студији активиран је други уређај. Промените лозинку на том уређају.",
		"ERROR" : "Грешка. Обратите се ERT центру за подршку.",
		"ERROR_AFTER_ACTIVATION_SUCCESSFUL" : "Дошло је до грешке. Мораћете да унесете свој кôд за подешавање и лозинку.",
		"CONNECTION_TIMEOUT" : "Истекло је време везе.",
		"UPDATE_FAILED" : "Ажурирање ERT уређаја није довршено. Уверите се да је уређај повезан са интернетом и покушајте поново.",
        "QR_CODE_UNAVAILABLE": "Кликните на пацијента да бисте освежили QR.",
        "QR_MODAL_TITLE": "QR кôд за: ",
        "TRANSMIT_FAILED_403_14": "Није успео један или више преноса јер креирање пацијента није довршено. Сачекајте и покушајте поново.",
        "CONSOLE_LOG": "Евиденција конзоле",
		"USER_SELECT_ROLE_VALIDATION": "Потребно је изабрати улогу.",
        "USER_SELECT_LANGUAGE_VALIDATION": "Потребно је изабрати језик."
    },
    "dates": {
        "setDateButtonLabel": "Подеси датум",
        "setTimeButtonLabel": "У реду",
        "setDurationButtonLabel": "Подеси трајање",
        "calTodayButtonLabel": "Скочи на данас",
        "titleDateDialogLabel": "Подеси датум",
        "titleTimeDialogLabel": "Подеси време",
        "daysOfWeek": [
            "Недеља",
            "Понедељак",
            "Уторак",
            "Среда",
            "Четвртак",
            "Петак",
            "Субота"
        ],
        "daysOfWeekShort": [
            "Нед.",
            "Пон.",
            "Ут.",
            "Ср.",
            "Чет.",
            "Пет.",
            "Суб."
        ],
        "monthsOfYear": [
            "јануар",
            "фебруар",
            "март",
            "април",
            "мај",
            "јун",
            "јул",
            "август",
            "септембар",
            "октобар",
            "новембар",
            "децембар"
        ],
        "monthsOfYearShort": [
            "јан.",
            "феб.",
            "мар.",
            "апр.",
            "мај",
            "јун",
            "јул",
            "авг.",
            "сеп.",
            "окт.",
            "нов.",
            "дец."
        ],
        "durationLabel": [
            "Дани",
            "Сати",
            "Минути",
            "Секунде"
        ],
        "durationDays": [
            "Дан",
            "Дани"
        ],
        "tooltip": "Отвори Избор датума",
        "nextMonth": "Следећи месец",
        "prevMonth": "Претходни месец",
        "clearButton": "Обриши",
        "meridiem": [
            "Пре подне",
            "Поподне"
        ]
    }
}
