{
    "namespace": "CORE",
    "language": "es",
    "locale": "ES",
    "localized": "Español (España)",
    "direction": "ltr",
    "resources": {
        "ABOUT": "Acerca de",
        "ACTIVATED_ELSEWHERE": "Se ha activado un dispositivo distinto para recopilar sus datos del estudio. Comuníquese con el coordinador del estudio si considera que se realizó por error.",
        "ACTIVATION_CODE": "Código de configuración:",
        "AFFIDAVIT": "Seleccione Aceptar y, a continuación, Siguiente cuando esté listo para guardar sus respuestas.",
        "AFFIDAVIT_HELP": "Gracias. Ha proporcionado todas las respuestas necesarias. Puede comprobar y cambiar las respuestas seleccionando Atrás.",
        "ANSWER_ATTEMPT_EXCEEDED": "Ha introducido una respuesta incorrecta demasiadas veces o ha hecho clic en el vínculo \"¿Olvidó la respuesta de seguridad?\".",
        "APPLICATION_HEADER": "{{{ appHeader }}}",
        "BACK": "Atrás",
        "BACK_OUT_CONFIRM": "¿Está seguro de que desea salir? Se perderán las respuestas de este formulario.",
        "CANCEL": "Cancelar",
        "CANCEL_UPDATE": "Cancelar actualización",
        "CHANGE_PASSWORD": "Cambiar contraseña",
        "CHANGE_SECRET_QUESTION": "Cambiar pregunta de seguridad",
        "CODE_ENTRY_NO_SERVER": "Servidor no disponible",
        "CONNECTION_REQUIRED": "Se necesita conexión a Internet.",
        "CONNECTION_TIMEOUT": "Se ha agotado el tiempo de conexión.",
        "CONFIRM_PASSWORD": "Confirmar contraseña:",
        "CONTACT_STUDY_COORDINATOR": "Contactar con coordinador del estudio",
        "CONTACT_UNLOCK_CODE": "Póngase en contacto con el coordinador del estudio para obtener el código de desbloqueo de hoy:",
        "CORE_PRODUCT_VERSION_LABEL": "Versión del producto:",
        "CURRENT_DATE": "{{{ currentDate }}}",
        "CURRENT_PASSWORD": "Contraseña actual:",
        "DATE_LBL": "Fecha:",
        "DEACTIVATED_LABEL": "Su uso de ERT para este estudio ha terminado. Comuníquese con el coordinador del estudio si no es correcto.",
        "DEVICE_ACTIVATION": "Configuración",
        "DEVICE_NOT_SUPPORTED": "Este dispositivo no es compatible. Comuníquese con el coordinador del estudio para recibir información sobre los dispositivos autorizados para este estudio.",
        "DEVICE_REACTIVATION": "Configuración del dispositivo",
        "DIARY_TIMEOUT": "Este formulario ha superado el tiempo de espera.",
        "DOWNLOAD_FAILED": "Se ha interrumpido la descarga de la App. Inténtelo de nuevo cuando disponga de conexión a Internet o póngase en contacto con el centro de asistencia de ERT.",
        "DOWNLOAD_FAILURE": "Descarga interrumpida",
        "ENTER_NEW_PASSWORD": "Nueva contraseña:",
        "ERROR": "Ocurrió un error.  Póngase en contacto con el centro de asistencia de ERT.",
        "ERROR_AFTER_ACTIVATION_SUCCESSFUL": "Se ha producido un error. Deberá introducir el código de configuración y la contraseña.",
        "ERROR_CODE": "Código de error:",
        "ERROR_TITLE": "Error",
        "FORGOT_PASSWORD": "¿Olvidó su contraseña?",
        "FORGOT_SECRET_ANSWER": "¿Olvidó la respuesta de seguridad?",
        "INCORRECT_ANSWER": "Respuesta incorrecta",
        "INCORRECT_UNLOCK_CODE": "Código de desbloqueo incorrecto",
        "INSTALLING": "Instalando App",
        "INVALID_CODE": "Código de configuración no válido",
        "LOCAL_STORAGE_FAILURE": "Error de almacenamiento local",
        "LOG_IN": "Iniciar sesión",
        "LOG_LEVEL": "Nivel de registro:",
        "LOGOUT": "Cerrar sesión",
        "LOGOUT_CONFIRM": "¿Está seguro de que desea cerrar la sesión?",
        "NEXT": "Siguiente",
        "NEXT_ACTION": " Es hora de que realice la siguiente acción en ERT ",
        "NO_DIARIES_TITLE": "No hay informes que introducir",
        "OK": "Aceptar",
        "PASSWORD": "Contraseña:",
        "PASSWORD_ATTEMPT_EXCEEDED": "Ha introducido una contraseña incorrecta demasiadas veces o ha hecho clic en el vínculo \"¿Olvidó su contraseña?\".",
        "PASSWORD_CHANGE_FAILED": "Se ha activado un dispositivo distinto para recopilar sus datos del estudio. Cambie la contraseña en ese dispositivo.",
        "PASSWORD_CHANGE_SUCCESS": "Ha actualizado correctamente la contraseña.",
        "PASSWORD_INVALID": "Contraseña incorrecta",
        "PLEASE_ANSWER_SQ": "Responda la pregunta de seguridad:",
        "PLEASE_CONFIRM": "Confirme la respuesta",
        "PLEASE_CONTACT": "Póngase en contacto con el centro de asistencia de ERT.",
        "PLEASE_TRY_OR_CONTACT_SUPPORT": "Inténtelo de nuevo o póngase en contacto con el centro de asistencia de ERT.",
        "PLEASE_WAIT": "Espere...",
        "PORTRAIT_ONLY": "Sujete el dispositivo en posición vertical.",
        "PRIVATE_BROWSING_ON": "Desconecte la navegación privada. Si sigue teniendo problemas, comuníquese con el coordinador del estudio.",
        "PRIVACY_POLICY": "Política de privacidad",
        "PRIVACY_POLICY_APPLICATION_UNAVAILABILITY": "La política de privacidad de ERT no está disponible temporalmente.",
        "PRIVACY_POLICY_ACTIVATION_UNAVAILABILITY": "La política de privacidad de ERT no está disponible temporalmente. La política de privacidad de ERT se encuentra disponible en la página de configuración tras la activación.",
        "PROTOCOL": "Protocolo:",
        "REQUIRED_ANSWER": "Responda",
        "RETRY": "Intentar de nuevo",
        "RESET_PASSWORD": "Restablecer contraseña",
        "RESET_SECRET_QUESTION": "Restablecer pregunta de seguridad",
        "SECRET_ANSWER": "Respuesta de seguridad:",
        "SECRET_QUESTION": "Pregunta de seguridad:",
        "SECRET_QUESTION_CHANGE_FAILED": "Se ha activado un dispositivo distinto para recopilar sus datos del estudio. Cambie le pregunta de seguridad en ese dispositivo.",
        "SECRET_QUESTION_CHANGE_SUCCESS": "Ha actualizado correctamente la contraseña y la pregunta de seguridad.",
        "SETTINGS": "Configuración",
        "SITE": "Centro:",
        "SKIP_QUESTION": "¿Está seguro de que desea omitir las respuestas de esta pantalla?",
        "SPONSOR": "Patrocinador:",
        "STORED_REPORTS": "Formularios almacenados:",
        "STUDY_VERSION": "Versión del estudio: ",
        "STUDY_URL": "URL del estudio:",
        "SUBJECT_ID": "Código del paciente:",
        "TEMPORARY_UNLOCK_CODE": "Escriba el código de desbloqueo proporcionado por el coordinador del estudio.",
        "TRANSMIT_REPORTS": "Actualizar",
        "UPDATE_CACHED_DELETED": "No se completó la actualización de ERT. Necesitará una conexión a Internet para utilizar ERT. Póngase en contacto con el centro de asistencia de ERT.",
        "UPDATE_FAILED": "No se completó la actualización de ERT. Asegúrese de que el dispositivo está conectado a Internet e inténtelo de nuevo.",
        "UPDATE_FAILURE": "Actualización no completada",
        "UPDATE_SUCCESS": "Actualización correcta",
        "WELCOME": "Bienvenido",
        "ALARM_OFF_LBL": "Desactivado",
        "ALARM_TURN_OFF": "Desactivar",
        "SET_ALARMS": "Configurar alarmas",
        "SCHED_NO_DIARIES_AVAILABLE": "No hay informes pendientes en este momento",
        "TRAINER": "Modo instructor",
        "TRAINER_EXIT": "Salir del modo instructor",
        "TRAINER_EXIT_NOTIFICATION": "Está saliendo del modo instructor",
        "TRAINER_HEADER": "(Instructor)",
        "ELPU_FAILURE": "Su uso de este dispositivo ERT ha terminado; no obstante, se ha producido un error. Inténtelo de nuevo.",
        "ELPU_ON_REPLACED_DEVICE": "Su uso de este dispositivo ERT ha terminado. Utilice el dispositivo de sustitución.",
        "SECURITY_QUESTION_0": "¿Cuál es el apellido de soltera de su madre?",
        "SECURITY_QUESTION_1": "¿En qué ciudad nació?",
        "SECURITY_QUESTION_2": "¿Cómo se llamaba su primera mascota?",
        "SECURITY_QUESTION_3": "¿Cuál es su deporte favorito?",
        "SECURITY_QUESTION_4": "¿En qué año se graduó?",
        "SECURITY_QUESTION_5": "¿Cuál es el segundo nombre de su hijo/a mayor?",
        "SECURITY_QUESTION_6": "¿Cómo se llama su mejor amigo/a de la infancia?",
        "SECURITY_QUESTION_7": "¿Cómo se llamaba su maestro/a de tercer grado?",
        "SECURITY_QUESTION_8": "¿En qué ciudad o pueblo tuvo su primer trabajo?",
        "SELECT_SITE_USER": "Seleccione el nombre del usuario del centro",
        "SITE_USER_NAME": "Nombre del usuario del centro:",
        "ADD_SITE_USER": "Añadir un usuario del centro",
        "INVALID_ENTRY": "Entrada no válida",
        "HANDOFF_MESSAGE": "<strong>El paciente debe completar la siguiente serie de pantallas para establecer su código de acceso al formulario.</strong>",
        "REVERSE_HANDOFF_CONFIRM": "Al seleccionar Aceptar, se reiniciará el proceso de activación. ¿Está seguro de que desea reiniciar la activación?",
        "SITE_GATEWAY_TITLE": "Puerta de enlace del centro",
        "USER_ALREADY_EXISTS": "El usuario ya existe",
        "SITE_SIGNATURE": "Firma de: ",
        "SITE_REPORT_AFF": "He introducido, he comprobado y confirmo los datos anteriores.<br /><br /><strong>Firma de:</strong> {{{ getActiveUserName }}}",
        "PATIENT_REPORT_AFF": "He introducido, he comprobado y confirmo los datos anteriores.<br /><br /><strong>Iniciales de:</strong> {{{ getActiveUserName }}}",
        "CLEAR_SIGNATURE": "Borrar firma",
        "STUDY_ALIAS": "{{{ studyAlias }}}",
        "SITE_ACTIVATED_ELSEWHERE": "Se ha activado otro dispositivo para recopilar los datos del estudio del paciente. Póngase en contacto con el coordinador del estudio si considera que se trata de un error.",
        "SITE_DEACTIVATED_LABEL": "El uso de ERT por parte del paciente para este estudio ha terminado. Póngase en contacto con el coordinador del estudio si esto es incorrecto.",
        "SIGNATURE_DATA_LIMIT_EXCEEDED": "El cuadro de firma no pudo representar su firma exactamente como se realizó. Firme con sus iniciales en su lugar.",
        "PAIRED": "Emparejado",
        "BLUETOOTH_REG_TITLE": "Emparejamiento del dispositivo eSense",
        "BLUETOOTH_REG_REFRESH_BUTTON": "Actualizar lista",
        "BLUETOOTH_PAIR_DEVICE": "Emparejar dispositivo seleccionado",
        "BLUETOOTH_PAIRING_FAILED": "El emparejamiento con el dispositivo seleccionado no tuvo éxito. Inténtelo de nuevo.",
        "BLUETOOTH_PAIRING_SUCCESS": "El emparejamiento con el dispositivo seleccionado se realizó correctamente.",
        "BLUETOOTH_REG_NO_DEVICES_FOUND": "No se encontraron dispositivos. Compruebe que el dispositivo esté cerca de ERT y en modo de transmisión.",
        "SYNC_FAILED": "Error de sincronización con el servidor.",
        "DIARY_REQUIRES_E_SENSE_SUPPORT": "eSense no es compatible. Este formulario requiere compatibilidad con eSense.",
        "ERROR_E_SENSE_ENABLE": "eSense no se pudo activar.",
        "E_SENSE_NOT_PAIRED": "No hay un dispositivo eSense emparejado. Este formulario requiere un dispositivo eSense emparejado.",
        "BLUETOOTH_SYNC_FAILURE_TOP": "El ERT no se ha podido comunicar con el dispositivo {{{ eSenseDeviceName }}}.",
        "BLUETOOTH_SYNC_FAILURE_MIDDLE": "Compruebe que el dispositivo {{{ eSenseDeviceName }}} número {{{ eSenseSerialNumber }}} esté cerca del ERT y que esté en modo de transmisión.",
        "PLUGIN_MISSING": "No se pudo cargar el complemento necesario.",
        "WRAPPER_VERSION": "Versión del envoltorio (wrapper):",
        "SUPPORT": "Asistencia al cliente",
        "SUPPORT_MESSAGE": "Los usuarios de Estados Unidos pueden contactar con el Centro de asistencia de ERT a través del número 800-748-5669. Los usuarios internacionales deben seleccionar el país más cercano de la lista siguiente:",
        "SUPPORT_DROPDOWN": "Seleccione su país",
        "SUPPORT_NAME_ARGENTINA": "Argentina",
        "SUPPORT_NUMBER_ARGENTINA": "<bdi>0800 444 0962</bdi>",
        "SUPPORT_NAME_ARMENIA": "Armenia",
        "SUPPORT_NUMBER_ARMENIA": "<bdi>+1 617 681 6306</bdi>",
        "SUPPORT_NAME_AUSTRALIA": "Australia",
        "SUPPORT_NUMBER_AUSTRALIA": "<bdi>1 800 800 051</bdi>",
        "SUPPORT_NAME_AUSTRIA": "Austria",
        "SUPPORT_NUMBER_AUSTRIA": "<bdi>0800 100 405</bdi>",
        "SUPPORT_NAME_BELARUS": "Bielorrusia",
        "SUPPORT_NUMBER_BELARUS": "<bdi>8 820 0321 0036</bdi>",
        "SUPPORT_NAME_BELGIUM": "Bélgica",
        "SUPPORT_NUMBER_BELGIUM_1": "(Inglés): <bdi>0800 58 016</bdi>",
        "SUPPORT_NUMBER_BELGIUM_2": "(Francés): <bdi>0800 71 076</bdi>",
        "SUPPORT_NUMBER_BELGIUM_3": "(Alemán): <bdi>0800 71 113</bdi>",
        "SUPPORT_NAME_BRAZIL": "Brasil",
        "SUPPORT_NUMBER_BRAZIL": "<bdi>0800 891 5909</bdi>",
        "SUPPORT_NAME_BOSNIA": "Bosnia",
        "SUPPORT_NUMBER_BOSNIA": "<bdi>+1 617 681 6306</bdi>",
        "SUPPORT_NAME_BULGARIA": "Bulgaria",
        "SUPPORT_NUMBER_BULGARIA": "<bdi>00800 0010</bdi> y, después, <bdi>866 245 4931</bdi>",
        "SUPPORT_NAME_CANADA": "Canadá",
        "SUPPORT_NUMBER_CANADA": "<bdi>1 800 748 5669</bdi>",
        "SUPPORT_NAME_CHILE": "Chile",
        "SUPPORT_NUMBER_CHILE": "<bdi>123 0020 3408</bdi>",
        "SUPPORT_NAME_CHINA": "China",
        "SUPPORT_NUMBER_CHINA_1": "NetCom (Norte): <bdi>1 0800 74 40 164</bdi>",
        "SUPPORT_NUMBER_CHINA_2": "Telecom (Sur): <bdi>1 0800 44 00 158</bdi>",
        "SUPPORT_NAME_COLOMBIA": "Colombia",
        "SUPPORT_NUMBER_COLOMBIA": "<bdi>01 800 911 0010</bdi> y, después, <bdi>866 310 3707</bdi>",
        "SUPPORT_NAME_COSTA_RICA": "Costa Rica",
        "SUPPORT_NUMBER_COSTA_RICA": "<bdi>0800 013 1210</bdi>",
        "SUPPORT_NAME_CROATIA": "Croacia",
        "SUPPORT_NUMBER_CROATIA": "<bdi>0800 222 953</bdi>",
        "SUPPORT_NAME_CZECH_REPUBLIC": "República Checa",
        "SUPPORT_NUMBER_CZECH_REPUBLIC": "<bdi>800 142 150</bdi>",
        "SUPPORT_NAME_DENMARK": "Dinamarca",
        "SUPPORT_NUMBER_DENMARK": "<bdi>80 60 00 09</bdi>",
        "SUPPORT_NAME_EGYPT": "Egipto",
        "SUPPORT_NUMBER_EGYPT": "<bdi>02 510 0200</bdi> y, después, <bdi>866 310 3707</bdi>",
        "SUPPORT_NAME_EL_SALVADOR": "El Salvador",
        "SUPPORT_NUMBER_EL_SALVADOR": "<bdi>+1 617 681 6306</bdi>",
        "SUPPORT_NAME_ESTONIA": "Estonia",
        "SUPPORT_NUMBER_ESTONIA": "<bdi>800 00 44 154</bdi>",
        "SUPPORT_NAME_FINLAND": "Finlandia",
        "SUPPORT_NUMBER_FINLAND": "<bdi>0800 11 6366</bdi>",
        "SUPPORT_NAME_FRANCE": "Francia",
        "SUPPORT_NUMBER_FRANCE": "<bdi>0800 10 19 79</bdi>",
        "SUPPORT_NAME_GERMANY": "Alemania",
        "SUPPORT_NUMBER_GERMANY": "<bdi>0800 101 28 21</bdi>",
        "SUPPORT_NAME_GREECE": "Grecia",
        "SUPPORT_NUMBER_GREECE": "<bdi>00 800 1311</bdi> y, después, <bdi>866 310 3707</bdi>",
        "SUPPORT_NAME_GUATEMALA": "Guatemala",
        "SUPPORT_NUMBER_GUATEMALA": "<bdi>1 800 624 0079</bdi>",
        "SUPPORT_NAME_HONG_KONG": "Hong Kong",
        "SUPPORT_NUMBER_HONG_KONG": "<bdi>3002 1665</bdi>",
        "SUPPORT_NAME_HUNGARY": "Hungría",
        "SUPPORT_NUMBER_HUNGARY": "<bdi>06 800 14 571</bdi>",
        "SUPPORT_NAME_ICELAND": "Islandia",
        "SUPPORT_NUMBER_ICELAND": "<bdi>800 8544</bdi>",
        "SUPPORT_NAME_INDIA": "India",
        "SUPPORT_NUMBER_INDIA": "<bdi>000 800 440 1125</bdi>",
        "SUPPORT_NAME_INDONESIA": "Indonesia",
        "SUPPORT_NUMBER_INDONESIA": "<bdi>008 800 330 334</bdi>",
        "SUPPORT_NAME_IRELAND": "Irlanda",
        "SUPPORT_NUMBER_IRELAND": "<bdi>1 800 946 700</bdi>",
        "SUPPORT_NAME_ISRAEL": "Israel",
        "SUPPORT_NUMBER_ISRAEL": "<bdi>1 809 470 062</bdi>",
        "SUPPORT_NAME_ITALY": "Italia",
        "SUPPORT_NUMBER_ITALY": "<bdi>800 90 56 37</bdi>",
        "SUPPORT_NAME_JAPAN": "Japón",
        "SUPPORT_NUMBER_JAPAN": "Para encontrar el número gratuito de su estudio, consulte la Guía de información del estudio para ePRO (ePRO Study Information Guide).",
        "SUPPORT_NAME_LATVIA": "Letonia",
        "SUPPORT_NUMBER_LATVIA": "<bdi>8000 2151</bdi>",
        "SUPPORT_NAME_LEBANON": "Líbano",
        "SUPPORT_NUMBER_LEBANON": "<bdi>01-426-801</bdi> y, después, <bdi>866 310 3707</bdi>",
        "SUPPORT_NAME_LITHUANIA": "Lituania",
        "SUPPORT_NUMBER_LITHUANIA": "<bdi>8800 30207</bdi>",
        "SUPPORT_NAME_MALAYSIA": "Malasia",
        "SUPPORT_NUMBER_MALAYSIA": "<bdi>1800 80 59 71</bdi>",
        "SUPPORT_NAME_MEXICO": "México",
        "SUPPORT_NUMBER_MEXICO_1": "(Inglés): <bdi>001 800 748 5669</bdi> ",
        "SUPPORT_NUMBER_MEXICO_2": "(Español): <bdi>001 855 631 6952</bdi>",
        "SUPPORT_NAME_MOLDOVA": "Moldavia",
        "SUPPORT_NUMBER_MOLDOVA": "<bdi>617 681 6306</bdi>",
        "SUPPORT_NAME_NETHERLANDS": "Países Bajos",
        "SUPPORT_NUMBER_NETHERLANDS": "<bdi>0800 023 1389</bdi>",
        "SUPPORT_NAME_NEW_ZEALAND": "Nueva Zelanda",
        "SUPPORT_NUMBER_NEW_ZEALAND": "<bdi>0800 110 178</bdi>",
        "SUPPORT_NAME_NORWAY": "Noruega",
        "SUPPORT_NUMBER_NORWAY": "<bdi>800 62 051</bdi>",
        "SUPPORT_NAME_PAKISTAN": "Pakistán",
        "SUPPORT_NUMBER_PAKISTAN": "<bdi>00 800 0100</bdi> y, después, <bdi>866 237 9767</bdi>",
        "SUPPORT_NAME_PANAMA": "Panamá",
        "SUPPORT_NUMBER_PANAMA": "<bdi>001 800 201 3095</bdi>",
        "SUPPORT_NAME_PERU": "Perú",
        "SUPPORT_NUMBER_PERU": "<bdi>0800 5 0974</bdi>",
        "SUPPORT_NAME_PHILIPPINES": "Filipinas",
        "SUPPORT_NUMBER_PHILIPPINES": "<bdi>1 800 1116 0651</bdi>",
        "SUPPORT_NAME_POLAND": "Polonia",
        "SUPPORT_NUMBER_POLAND": "<bdi>00800 331 1262</bdi>",
        "SUPPORT_NAME_PORTUGAL": "Portugal",
        "SUPPORT_NUMBER_PORTUGAL": "<bdi>800 206 172</bdi>",
        "SUPPORT_NAME_PUERTO_RICO": "Puerto Rico (Territorio estadounidense)",
        "SUPPORT_NUMBER_PUERTO_RICO": "<bdi>1 800 748 5669</bdi>",
        "SUPPORT_NAME_ROMANIA": "Rumanía",
        "SUPPORT_NUMBER_ROMANIA": "<bdi>0800 894492</bdi>",
        "SUPPORT_NAME_RUSSIA": "Rusia",
        "SUPPORT_NUMBER_RUSSIA_1": "(Principal - gratuito): <bdi>8 10 800 249 13011</bdi>",
        "SUPPORT_NUMBER_RUSSIA_2": "(En Moscú): <bdi>363-2400</bdi> <br> y, después, <bdi>866 310 3707</bdi>",
        "SUPPORT_NUMBER_RUSSIA_3": "(Fuera de Moscú): <bdi>8^(495) 363-2400</bdi> <br> y, después, <bdi>866 310 3707</bdi>",
        "SUPPORT_NUMBER_RUSSIA_4": "(En San Petersburgo): <bdi>363-2400</bdi> <br> y, después, <bdi>866 310 3707</bdi>",
        "SUPPORT_NUMBER_RUSSIA_5": "(Fuera de San Petersburgo): <bdi>8^(495) 363-2400</bdi> <br> y, después, <bdi>866 310 3707</bdi>",
        "SUPPORT_NAME_SAUDI_ARABIA": "Arabia Saudí",
        "SUPPORT_NUMBER_SAUDI_ARABIA": "<bdi>+1 617 681 6306</bdi>",
        "SUPPORT_NAME_SERBIA": "Serbia",
        "SUPPORT_NUMBER_SERBIA": "<bdi>+1 617 973 1739</bdi>",
        "SUPPORT_NAME_SINGAPORE": "Singapur",
        "SUPPORT_NUMBER_SINGAPORE": "<bdi>800 616 30 03</bdi>",
        "SUPPORT_NAME_SLOVAKIA": "Eslovaquia",
        "SUPPORT_NUMBER_SLOVAKIA": "<bdi>0800 0044 65</bdi>",
        "SUPPORT_NAME_SLOVENIA": "Eslovenia",
        "SUPPORT_NUMBER_SLOVENIA": "<bdi>+1 617 681 6306</bdi>",
        "SUPPORT_NAME_SOUTH_AFRICA": "Sudáfrica",
        "SUPPORT_NUMBER_SOUTH_AFRICA": "<bdi>0800 99 5853</bdi>",
        "SUPPORT_NAME_SOUTH_KOREA": "Corea del Sur",
        "SUPPORT_NUMBER_SOUTH_KOREA": "<bdi>00308 33 00 08</bdi>",
        "SUPPORT_NAME_SPAIN": "España",
        "SUPPORT_NUMBER_SPAIN": "<bdi>900 90 2541</bdi>",
        "SUPPORT_NAME_SWEDEN": "Suecia",
        "SUPPORT_NUMBER_SWEDEN": "<bdi>020 120 99 69</bdi>",
        "SUPPORT_NAME_SWITZERLAND": "Suiza",
        "SUPPORT_NUMBER_SWITZERLAND_1": "(Inglés): <bdi>0800 199 325</bdi>",
        "SUPPORT_NUMBER_SWITZERLAND_2": "(Francés): <bdi>0800 891 183</bdi>",
        "SUPPORT_NUMBER_SWITZERLAND_3": "(Alemán): <bdi>0800 891 025</bdi>",
        "SUPPORT_NAME_TAIWAN": "Taiwán",
        "SUPPORT_NUMBER_TAIWAN": "<bdi>00801 33 33 42</bdi>",
        "SUPPORT_NAME_THAILAND": "Tailandia",
        "SUPPORT_NUMBER_THAILAND": "<bdi>1 800 33 140 353</bdi>",
        "SUPPORT_NAME_TUNISIA": "Túnez",
        "SUPPORT_NUMBER_TUNISIA": "<bdi>+1 617 681 6306</bdi>",
        "SUPPORT_NAME_TURKEY": "Turquía",
        "SUPPORT_NUMBER_TURKEY": "<bdi>00 800 151 1335</bdi>",
        "SUPPORT_NAME_UKRAINE": "Ucrania",
        "SUPPORT_NUMBER_UKRAINE": "<bdi>0^00 11</bdi> y, después, <bdi>866 245 4931</bdi>",
        "SUPPORT_NAME_UAE": "Emiratos Árabes Unidos",
        "SUPPORT_NUMBER_UAE": "<bdi>8000-021</bdi> y, después, <bdi>866 310 3707</bdi>",
        "SUPPORT_NAME_UK": "Reino Unido",
        "SUPPORT_NUMBER_UK": "<bdi>0800 015 0408</bdi>",
        "SUPPORT_NAME_US": "Estados Unidos",
        "SUPPORT_NUMBER_US_1": "(Principal): <bdi>1 800 748 5669</bdi>",
        "SUPPORT_NUMBER_US_2": "(Alternativo): <bdi>1 877 748 5669</bdi>",
        "SUPPORT_NAME_VENEZUELA": "Venezuela",
        "SUPPORT_NUMBER_VENEZUELA_1": "(Inglés): <bdi>0 800 552 6288</bdi> <br> y, después, <bdi>866 310 3707</bdi> ",
        "SUPPORT_NUMBER_VENEZUELA_2": "(Español): <bdi>0 800 100 3063</bdi> ",
        "USER_NAME": "Nombre de usuario:",
        "SUBJECT_ROLE": "Código de paciente:{{{ getParticipantCode }}}",
        "SITE_ROLE": "Centro",
        "TEMPORARY_PASSWORD_MESSAGE": "Proporcione la contraseña temporal al usuario nuevo. Se les solicitará que creen una contraseña nueva tras iniciar sesión.",
        "SHARED_PASSWORD_MESSAGE": "La contraseña para el usuario nuevo se debe obtener de StudyWorks.",
        "TEMP_PASSWORD": "Contraseña temporal: ",
        "ROLES": "Función:",
        "LANGUAGE": "Idioma:",
        "FULL_NAME": "Nombre completo:",
        "CONFIRM_TEMP_PASS": "Confirme la contraseña temporal:",
        "PASSWORD_MISMATCH": "La confirmación de contraseña no coincide con la contraseña",
        "PASSWORD_INVALID_CHARACTERS": "Utilice números solamente",
        "USER_NAME_INVALID_CHARACTERS": "No utilice caracteres especiales",
        "USER_NAME_MORE_THAN_25": "Utilice 25 caracteres como máximo",
        "PRIVACY_POLICY_VERSION_LABEL": "Versión: ",
        "PRIVACY_POLICY_VERSION": "1.6.0",
        "PRIVACY_POLICY_LAST_UPDATED_LABEL": "Última actualización: ",
        "PRIVACY_POLICY_LAST_UPDATED": "21 de enero de 2014",
        "PRIVACY_POLICY_TEXT_LABEL": "Acerca de la privacidad: ",
        "PRIVACY_POLICY_TEXT": "ERT provee el software que usted va a instalar. ERT colabora con el centro que participa en el ensayo clínico para garantizar que nadie pueda conocer su identidad sin permiso del centro. Tiene derecho a ver sus registros tras concertar una revisión a través de su centro.",
        "SUBJECT_REPORT_AFF": "Declaro que he respondido todas las preguntas lo mejor que he podido.",
        "SUBJECT_INITIALS_LABEL": "Iniciales del paciente:",
        "SUBJECT": "Paciente",
        "SET_TIMEZONE": "Establecer huso horario",
        "SET_TIMEZONE_MESSAGE": "Seleccione su huso horario:",
        "SET_TIMEZONE_BUTTON": "Establecer",
        "TIME_ZONE_CONFIRM_HEADER": "Confirmación del cambio de huso horario",
        "TIME_ZONE_CONFIRM": "¿Está seguro de que desea cambiar el huso horario? La aplicación se reiniciará para efectuar el cambio.",
        "TIME_ZONE_EUROPE_KALININGRAD": "Europa/Kaliningrado",
        "TIME_ZONE_EUROPE_MOSCOW": "Europa/Moscú",
        "TIME_ZONE_ASIA_KARACHI": "Asia/Karachi",
        "TIME_ZONE_ASIA_YEKATERINBURG": "Asia/Ekaterimburgo",
        "TIME_ZONE_ASIA_NOVOSIBIRSK": "Asia/Novosibirsk",
        "TIME_ZONE_ASIA_KRASNOYARSK": "Asia/Krasnoyarsk",
        "TIME_ZONE_ASIA_IRKUTSK": "Asia/Irkutsk",
        "TIME_ZONE_ASIA_YAKUTSK": "Asia/Yakutsk",
        "TIME_ZONE_ASIA_VLADIVOSTOK": "Asia/Vladivostok",
        "TIME_ZONE_ASIA_KAMCHATKA": "Asia/Kamchatka",
        "AF-ZA": "Afrikáans",
        "AR-EG": "Árabe",
        "BE-BY": "Bielorruso",
        "BG-BG": "Búlgaro",
        "BN-IN": "Bengalí",
        "BS-BA": "Bosnio",
        "CA-ES": "Catalán",
        "CS-CZ": "Checo",
        "DA-DK": "Danés",
        "DE-DE": "Alemán (Alemania)",
        "DE-AT": "Alemán (Austria)",
        "EL-GR": "Griego",
        "EN-GB": "Inglés (Reino Unido)",
        "EN-US": "Inglés (Estados Unidos)",
        "ES-ES": "Español (España)",
        "ES-US": "Español (EE. UU.)",
        "ES-PY": "Español (universal)",
        "ET-EE": "Estonio",
        "FI-FI": "Finés",
        "FR-CA": "Francés (Canadá)",
        "FR-FR": "Francés (Francia)",
        "GD-IE": "Gaélico",
        "GU-IN": "Guyaratí",
        "HE-IL": "Hebreo",
        "HI-IN": "Hindi",
        "HR-HR": "Croata",
        "HU-HU": "Húngaro",
        "IT-IT": "Italiano",
        "JA-JP": "Japonés",
        "KA-GE": "Georgiano",
        "KN-IN": "Canarés",
        "KO-KR": "Coreano",
        "LV-LV": "Letón",
        "LT-LT": "Lituano",
        "ML-IN": "Malayalam",
        "MR-IN": "Maratí",
        "MS-MY": "Malayo",
        "NB-NO": "Noruego",
        "NL-BE": "Holandés (Bélgica)",
        "NL-NL": "Holandés (Países Bajos)",
        "PA-IN": "Panyabí",
        "PL-PL": "Polaco",
        "PT-BR": "Portugués (Brasil)",
        "PT-PT": "Portugués (Portugal)",
        "RO-RO": "Rumano",
        "RU-RU": "Ruso",
        "SL-SL": "Esloveno",
        "SK-SK": "Eslovaco",
        "SR-RS": "Serbio (latino)",
        "SR-SP": "Serbio (cirílico)",
        "ST-ZA": "Sotho",
        "SV-SE": "Sueco",
        "TA-IN": "Támil",
        "TE-IN": "Télugu",
        "TH-TH": "Tailandés",
        "TL-PH": "Tagálog",
        "TN-ZA": "Tswana",
        "TR-TR": "Turco",
        "UK-UA": "Ucraniano",
        "UR-IN": "Urdú",
        "VI-VN": "Vietnamita",
        "XH-ZA": "Xhosa",
        "ZH-CN": "Chino (China)",
        "ZH-TW": "Chino (Taiwán)",
        "ZU-ZU": "Zulú",
        "NO_RESULTS_FOUND": "No se han encontrado resultados.",
        "USER": "Usuario",
        "SYNC": "Sincronizar",
        "TIME_LBL": "Hora:",
        "SET_TIME": "Establecer hora",
        "NEW_USER":"Agregar nueva agenda de usuario",
        "NEW_USER_CREATED":"Se ha creado el nuevo usuario.",
        "TIME_ZONE_SET_CONFIRM":"¿Está seguro de que desea establecer la zona horaria siguiente {{{selectedTimeZone}}}?<br/> La aplicación puede reiniciarse para efectuar el cambio.",
        "TIME_ZONE_SET_CONFIRM_NOCHANGE":"¿Está seguro de que desea establecer la zona horaria siguiente {{{selectedTimeZone}}}?",
        "TIME_ZONE_SET_HEADER":"Confirmación de zona horaria",
        "TIME_ZONE_ERROR_HEADER":"Error de la zona horaria",
        "TIME_ZONE_ERROR_MSG":"Se ha producido un error al obtener la lista de zonas horarias.Póngase en contacto con el Centro de Soporte de ERT para obtener más ayuda.",
        "TIME_ZONE_SET_ERROR_MSG":"Se ha producido un error al establecer la zona horaria.Póngase en contacto con el Centro de Soporte de ERT para obtener más ayuda.",
        "TIME_CONFIRMATION_INSTRUCTIONS":"Es necesario que el dispositivo confirme la hora local.Introduzca la fecha y hora de una fuente fiable.",
        "LOW_BATTERY":"Advertencia:El nivel de la batería está bajo.Enchufe el dispositivo para recargarlo.",
        "CRITICAL_BATTERY":"Advertencia:El nivel de la batería está muy bajo.Enchufe el dispositivo para recargarlo o se apagará.",
        "SITE_ADMINISTRATOR":"Administrador del centro",
        "TIME_CONFIRMATION_HEADER":"Confirmar fecha/hora",
        "TIMESLIP_ERROR":"La hora o la fecha de su dispositivo son incorrectas.Trasládese a un punto con conexión a Internet y vuelva a intentarlo.Si sigue teniendo problemas, comuníquese con el servicio de atención al cliente de ERT.",
        "P_AFFIDAVIT_HEADER": "<div><strong>Centro: {{{ getSiteCodeForSubject }}}</strong><br /><strong>ID de paciente: {{{ getParticipantCodeForSubject }}}</strong></div>",
        "RESTART_NOTIFICATION_HEADER": "Reinicio requerido",
        "RESTART_NOTIFICATION_MSG": "Se ha cambiado la zona horaria. La aplicación se reiniciará en {{{ timeZoneChangeRestartCountdown }}}.",
        "RESTART_NOW": "Reiniciar ahora",
        "SECONDS": "segundos",
        "MINUTES": "minutos",
        "SELECT_LANGUAGE": "Seleccione un idioma favorito para el sujeto.",
        "ACCEPT": "Acepto",
        "DECLINE": "Rechazo",
        "EULA": "LICENCIA DE USUARIO FINAL",
        "EULA_TEXT": "<p><strong><span class=\"text-underline\">IMPORTANTE</span>:  NO HAGA CLIC EN EL BOTÓN ACEPTAR HASTA QUE HAYA LEÍDO ESTE ACUERDO.  SI HACE CLIC EN EL BOTÓN ACEPTAR, ACEPTA TODOS LOS TÉRMINOS DE ESTE ACUERDO.  SI NO ACEPTA TODOS LOS TÉRMINOS DE ESTE ACUERDO, (1) NO HAGA CLIC EN EL BOTÓN \"ACEPTO\", (2) INTERRUMPA LA INSTALACIÓN Y EL PROCESO DE CONCESIÓN DE LICENCIA HACIENDO CLIC EN EL BOTÓN \"RECHAZO\".</strong></p><p>eResearchTechnology, Inc. (\"Licenciante\") le garantiza un derecho no exclusivo y no transferible para usar el software de eResearchTechnology, Inc. (\"Software\") integrado en este dispositivo de acuerdo con su participación en el acuerdo del ensayo clínico: <strong>{{{ clinicalTrial }}}</strong>.  El software de eResearchTechnology, Inc. está cubierto por patentes emitidas y otras patentes pendientes.  Este Acuerdo no le proporciona ningún derecho de propiedad en el Software (o cualquier copia del mismo), sino que constituye únicamente una licencia para usar el Software de acuerdo con los términos de este Acuerdo.  La titularidad del Software y todas las partes del mismo, así como todos los derechos propietarios y derechos de la propiedad intelectual asociados se siguen confiriendo al Licenciante en todo momento.</p><p>Acepta no realizar, directa o indirectamente, tareas para (i) revertir la ingeniería, desmontar o descompilar el Software; (ii) copiar, distribuir, fabricar, adaptar, crear trabajos derivados, traducir, localizar, portar o modificar de alguna forma el Software; o (iii) quitar o alterar el copyright, secretos comerciales u otros avisos legales contenidos en el Software.  USTED ES CONSCIENTE DE QUE EL SOFTWARE PUEDE CONTENER CÓDIGO QUE EVITE EL USO NO AUTORIZADO DEL MISMO Y LO ACEPTA.</p><br><p>SI ACEPTA TODO LO ANTERIOR, seleccione –<strong>Acepto</strong>–. Si hace clic en \"Acepto\", acepta los términos de la licencia.</p><p>SI NO ACEPTA TODO LO ANTERIOR, o no se encuentra autorizado para la aceptación, seleccione –<strong>Rechazo</strong>– en cuyo caso, se bloqueará el próximo acceso al Sofware.  Si se encuentra autorizado, puede realizar la aceptación en otro momento.</p>",
        "HAND_DEVICE_SITE_TITLE": "Proporcionar dispositivo al usuario del centro",
        "HAND_DEVICE_SITE_BODY": "Proporcione el dispositivo al usuario del centro.",
        "SQ-AL": "Albanés",
        "IMAGE_FOLDER": "{{{ imageFolder }}}",
        "MODAL_OK_TEXT": "Aceptar",
        "BROWSER_LOAD_ERROR": "Página no encontrada. Compruebe la conexión a Internet y vuelva a intentarlo.",
		"NONEXISTENT_USER" : "Usuario no encontrado.",
		"NO_USER_OF_ROLE" : "No se ha encontrado ningún usuario con esa función.",
		"START_VISIT_OUTSIDE_WINDOW_MSG": "Introduzca {{{ getVisitName }}} fuera de la ventana de hora configurada: {{{ startDate }}} - {{{ endDate }}}",
		"START_VISIT_HARD_STOP_MSG" : "No puede introducir {{{ getVisitName }}} fuera de la ventana de hora configurada: {{{ startDate }}} - {{{ endDate }}}",
		"YES" : "Sí",
		"NO" : "NO"
    },
    "dates": {
        "setDateButtonLabel": "Aceptar",
        "setTimeButtonLabel": "Aceptar",
        "setDurationButtonLabel": "Establecer duración",
        "calTodayButtonLabel": "Ir a hoy",
        "titleDateDialogLabel": "Establecer fecha",
        "titleTimeDialogLabel": "Establecer hora",
        "daysOfWeek": [
			"Domingo",
			"Lunes",
			"Martes",
			"Miércoles",
			"Jueves",
			"Viernes",
			"Sábado"
        ],
        "daysOfWeekShort": [
			"Do",
			"Lu",
			"Ma",
			"Mi",
			"Ju",
			"Vi",
			"Sá"
        ],
        "monthsOfYear": [
			"Enero",
			"Febrero",
			"Marzo",
			"Abril",
			"Mayo",
			"Junio",
			"Julio",
			"Agosto",
			"Septiembre",
			"Octubre",
			"Noviembre",
			"Diciembre"
        ],
        "monthsOfYearShort": [
			"Ene",
			"Feb",
			"Mar",
			"Abr",
			"May",
			"Jun",
			"Jul",
			"Ago",
			"Sep",
			"Oct",
			"Nov",
			"Dic"
        ],
        "durationLabel": [
			"Días",
			"Horas",
			"Minutos",
			"Segundos"
        ],
        "durationDays": [
			"Día",
			"Días"
        ],
        "tooltip": "Abrir selector de fecha",
        "nextMonth": "Mes siguiente",
        "prevMonth": "Mes anterior",
        "clearButton": "Borrar",
        "meridiem": [
			"a.m.",
			"p.m."
        ]
    }
}
