{
    "namespace": "CORE",
    "language": "be",
    "locale": "BY",
    "localized": "Беларуская (Беларусь)",
    "direction": "ltr",
    "resources": {
        "ACTIVE": "Актыўны",
        "ACTIVATE_USER": "Актываваць карыстальніка",
        "ACTIVATE_USER_CANCEL_CONFIRM": "Адмяніць актывацыю?",
        "ACTIVATE_USER_CANCEL_BODY": "Калі адмяніць зараз, карыстальнік даследчага цэнтра не будзе актываваны. Сапраўды жадаеце адмяніць?",
        "ACTIVATE_USER_AFF": "Падпісаўшыся ніжэй, я сведчу, што маю права актываваць гэтага карыстальніка даследчага цэнтра.",
        "ACTIVATE_USER_CONFIRM_INFORMATION": "Пацвердзіце, што звесткі ніжэй належаць карыстальніку даследчага цэнтра, якога вы жадаеце актываваць.",
        "ADD_PATIENT": "Дадаць новага пацыента",
        "ADD_USER": "Дадаць карыстальніка",
        "AFFIDAVIT": "Націсніце ОК, затым Далей, калі будзеце гатовы захаваць адказы.",
        "AFFIDAVIT_HELP": "Дзякуй. Вы далі ўсе неабходныя адказы. Вы можаце праверыць і змяніць свае адказы, націснуўшы Назад.",
        "ALL_QUESTIONNAIRES_COMPLETED": "Усе формы запоўнены",
        "APP_NAME": "ERT",
        "APPLICATION_HEADER": "{{{ appHeader }}}",
        "APP_NAME_LBL": "Назва праграмы",
        "APP_VERSION": "Версія праграмы",
        "ASSIGNED_TO": "Прызначана",
        "AVAILABLE": "У наяўнасці",
        "BACK": "Назад",
        "BACK_OUT_CONFIRM": "Сапраўды выйсці? Адказы з гэтай формы будуць згублены.",
        "BLUETOOTH_REG_REFRESH_BUTTON": "Абнавіць спіс",
        "CANCEL": "Адмяніць",
        "CHECK_FOR_UPDATES": "Праверыць абнаўленні",
        "CHOOSE_A_SITE": "Прызначыць гэту прыладу пэўнаму даследчаму цэнтру.",
        "COMPLETED": "Завершана",
        "CONFIRM_PASSWORD": "Пацвердзіце пароль:",
        "CONFIRM_TEMP_PASS": "Пацвердзіце часовы пароль:",
        "CONTINUE": "Працягнуць",
        "COUNTRY": "Краіна",
        "CUSTOM_ENVIRONMENT": "Карыстальніцкае асяроддзе",
        "DEACTIVATE_PATIENT": "Дэактываваць пацыента",
        "DEACTIVATE_USER": "Дэактываваць карыстальніка",
        "DEACTIVATED": "Дэактываваны",
        "DEACTIVATE_USER_CANCEL_CONFIRM": "Адмяніць дэактывацыю?",
        "DEACTIVATE_USER_CANCEL_BODY": "Калі адмяніць зараз, карыстальнік даследчага цэнтра не будзе дэактываваны. Сапраўды жадаеце адмяніць?",
        "DEACTIVATE_USER_AFF": "Падпісаўшыся ніжэй, я сведчу, што маю права дэактываваць гэтага карыстальніка даследчага цэнтра.",
        "DEACTIVATE_USER_SIG": "<strong>Карыстальнік для дэактывацыі:</strong> <br />{{{ getSelectedUsername }}}<br /><br /><strong>Подпіс:</strong> {{{ getActiveUserName }}}",
        "DEACTIVATE_USER_CONFIRM_INFORMATION": "Пацвердзіце, што звесткі ніжэй належаць карыстальніку даследчага цэнтра, якога вы жадаеце дэактываваць.",
        "DEVICE_ID": "Ідэнтыфікатар прылады",
        "DEVICE_REGISTRATION_FAILURE": "Не атрымалася зарэгістраваць прыладу.",
        "DEVICE_UUIID": "UUID прылады",
        "BATTERY_LEVEL": "Зарад акумулятара",
        "DEVICE_INFO": "Звесткі пра прыладу",
        "DIARY_TIMEOUT": "Гэта форма пратэрмінавана.",
        "EDIT_MY_INFO": "Рэдагаваць мае звесткі",
        "EDIT_PATIENT": "Рэдагаваць пацыента",
        "EDIT_PATIENT_QUESTION_1_MAIN_TITLE": "<div class='question-title-large'>Ідэнтыфікацыя пацыента </div><div>Дыяпазон ідэнтыфікатараў для гэтага даследчага цэнтра:<br /><strong> {{{ patientIDRange }}}</strong></div><div class='edit-patient-id'>Ідэнтыфікатар пацыента:<br /><strong>{{{ getPatientIdNumber }}} ({{{getPatientInitials}}})</strong</div><br /><br />",
        "EDIT_PATIENT_QUESTION_1": "Ідэнтыфікатар пацыента:",
        "EDIT_PATIENT_QUESTION_1_EMPTY": "Запоўніце ідэнтыфікатар пацыента",
        "EDIT_PATIENT_QUESTION_1_EMPTY_HEADER": "Ідэнтыфікатар пацыента",
        "EDIT_PATIENT_QUESTION_1_RANGE": "Уведзены ідэнтыфікатар пацыента знаходзіцца па-за дыяпазонам дапушчальных ідэнтыфікатараў: {{{ patientIDRange }}}.  Увядзіце дапушчальны ідэнтыфікатар пацыента.",
        "EDIT_PATIENT_QUESTION_1_RANGE_HEADER": "Ідэнтыфікатар пацыента па-за дыяпазонам.",
        "EDIT_PATIENT_QUESTION_1_UNIQUE": "Пацыент ужо існуе.  Увядзіце іншы ідэнтыфікатар пацыента.",
        "EDIT_PATIENT_QUESTION_1_UNIQUE_HEADER": "Ідэнтыфікатар пацыента з'яўляецца дублікатам",
        "EDIT_PATIENT_QUESTION_2": "Ініцыялы пацыента:",
        "EDIT_PATIENT_QUESTION_2_EMPTY": "Увядзіце ініцыялы пацыента, мінімум 2 сімвалы.",
        "EDIT_PATIENT_QUESTION_2_EMPTY_HEADER": "Ініцыялы пацыента",
        "EDIT_PATIENT_QUESTION_3_TITLE": "<div class='question-title-large'>Выбар мовы</div><div>Ідэнтыфікатар пацыента:<br /><strong>{{{ getPatientIdNumber }}} ({{{getPatientInitials}}})</strong</div><br /><br />",
        "EDIT_PATIENT_QUESTION_3": "Выбар мовы для пацыента",
        "EDIT_PATIENT_QUESTION_4_TITLE": "<div class='question-title-large'>Рэдагаваць прычыну</div><br /><br />",
        "EDIT_PATIENT_QUESTION_4": "Выберыце прычыну рэдагавання пацыента",
        "EDIT_PATIENT_CANCEL_CONFIRM": "Адмяніць змяненні пацыента?",
        "EDIT_PATIENT_CANCEL_BODY": "Калі адмяніць зараз, налады пацыента не будуць абноўлены.  Сапраўды жадаеце адмяніць?",
        "EDIT_PATIENT_NO_CHANGES_CONFIRM": "Не выкананы змяненні пацыента",
        "EDIT_PATIENT_NO_CHANGES_BODY": "Для гэтага пацыента не выкананы змяненні. Выйсці ўсё адно?",
        "EDIT_PATIENT_REASON_0": "Выпраўленне памылкі клініцыстам",
        "EDIT_REASON": "Рэдагаваць прычыну:",
        "EDIT_SERVICE_URL": "Рэдагаваць URL-адрас паслугі",
        "EDIT_SERVICE_URL_SUCCESS": "URL-адрас паслугі абноўлены.",
        "EDIT_USER": "Рэдагаваць карыстальніка",
        "EDIT_USER_AFF": "Падпісаўшыся ніжэй, я сведчу, што маю права рэдагаваць гэтага карыстальніка даследчага цэнтра. <br /><br /><strong>Подпіс:</strong> {{{ getActiveUserName }}}",
        "EDIT_USER_CANCEL_CONFIRM": "Адмяніць рэдагаванне карыстальніка?",
        "EDIT_USER_CANCEL_BODY": "Калі адмяніць зараз, змяненні карыстальніка даследчага цэнтра не будуць выкананы. Сапраўды жадаеце адмяніць?",
        "EDIT_USER_NO_CHANGES_HEADER": "Не выкананы змяненні карыстальніка даследчага цэнтра",
        "EDIT_USER_NO_CHANGES_BODY": "Для гэтага карыстальніка даследчага цэнтра не выкананы змяненні. Выйсці ўсё адно?",
        "EMAIL": "Адрас электроннай пошты",
        "ENTER_PATIENT_INFO": "Увядзіце звесткі пра пацыента",
        "ENTER_UNLOCK_CODE": "Увядзіце код разблакавання",
        "ENTER_USER_INFO": "Увядзіце звесткі пра новага карыстальніка даследчага цэнтра",
        "ENVIRONMENT": "Асяроддзе",
        "ERROR_CODE": "Код памылкі:",
        "ERROR_TITLE": "Памылка",
        "FIRST_NAME": "Імя",
        "FORGOT_PASSWORD": "Забыліся пароль?",
        "FORM": "Форма",
        "FORM_GATEWAY": "Шлюз формы",
        "FORM_NAME": "Назва формы",
        "FULL_NAME": "Поўнае імя:",
        "GO_TO_VISITS": "Візіты пацыента",
        "HAND_DEVICE_SITE_TITLE": "Перадаць прыладу карыстальніку даследчага цэнтра",
        "HAND_DEVICE_SITE_BODY": "Перадайце прыладу карыстальніку даследчага цэнтра.",
        "HELP": "Даведка",
        "HOME": "Хатняя",
        "IN_PROGRESS": "Ідзе",
        "INITIALS": "Ініцыялы",
        "INVALID_URL": "Увядзіце дапушчальны URL-адрас.",
        "INVALID_PERMISSION": "Недапушчальны дазвол.",
        "INVALID_PASSWORD": "Недапушчальны пароль.",
        "LANGUAGE": "Мова:",
        "LAST_LOGIN": "Апошні ўваход у сістэму",
        "LAST_NAME": "Прозвішча",
        "LAST_REFRESH_TIME": "Час апошняга абнаўлення",
        "LOCATION": "Месцазнаходжанне",
        "LOGIN": "Увайсці ў сістэму",
        "LOGIN_SCREEN": "Уваход у сістэму",
        "LOGOUT": "Выйсці з сістэмы",
        "MANAGE_USERS": "Кіраваць карыстальнікамі даследчага цэнтра",
        "MARK_AS_COMPLETED": "Пазначыць як завершанае",
        "SITE_SIGNATURE": "Подпіс: ",
        "SITE_REPORT_AFF": "Я ўвёў, пераправерыў і пацвярджаю папярэднюю інфармацыю.<br /><br /><strong>Подпіс:</strong> {{{ getActiveUserName }}}",
        "PATIENT_REPORT_AFF": "Я ўвёў, пераправерыў і пацвярджаю папярэднюю інфармацыю.<br /><br /><strong>Ініцыялы:</strong> {{{ getActiveUserName }}}",
        "CLEAR_SIGNATURE": "Ачысціць подпіс",
        "MENU": "Меню",
        "MODE": "Рэжым",
        "NAME": "Назва",
        "NEW_USER": "Дадаць дзённік новага карыстальніка",
        "FIRST_SITE_USER": "Дадаць першага карыстальніка даследчага цэнтра",
        "NEW_USER_CREATED": "Створаны новы карыстальнік даследчага цэнтра.",
        "NEW_PATIENT_QUESTION_1_MAIN_TITLE": "<div class='question-title-large'>Увядзіце звесткі пра ідэнтыфікацыю пацыента</div><div>Дыяпазон ідэнтыфікатараў для гэтага даследчага цэнтра:<br /><strong> {{{ patientIDRange }}}</strong></div><div><strong>Даследчы цэнтр: {{{ getSiteCode }}}</strong></div><div><strong>Карыстальнік: {{{ getUserName }}}</strong</div><br /><br />",
        "NEW_PATIENT_HELP_TEXT_1": "",
        "NEW_PATIENT_HELP_TEXT_2": "",
        "NEW_PATIENT_HELP_TEXT_3": "",
        "NEW_PATIENT_QUESTION_1_TITLE": "Ідэнтыфікатар пацыента",
        "NEW_PATIENT_QUESTION_1": "Ідэнтыфікатар пацыента:",
        "NEW_PATIENT_QUESTION_1_EMPTY": "Запоўніце ідэнтыфікатар пацыента.",
        "NEW_PATIENT_QUESTION_1_EMPTY_HEADER": "Ідэнтыфікатар пацыента",
        "NEW_PATIENT_QUESTION_1_RANGE": "Уведзены ідэнтыфікатар пацыента знаходзіцца па-за дыяпазонам дапушчальных ідэнтыфікатараў: {{{ patientIDRange }}}.  Увядзіце дапушчальны ідэнтыфікатар пацыента.",
        "NEW_PATIENT_QUESTION_1_RANGE_HEADER": "Ідэнтыфікатар пацыента па-за дыяпазонам.",
        "NEW_PATIENT_QUESTION_1_UNIQUE": "Пацыент ужо існуе.  Увядзіце іншы ідэнтыфікатар пацыента.",
        "NEW_PATIENT_QUESTION_1_UNIQUE_HEADER": "Ідэнтыфікатар пацыента з'яўляецца дублікатам",
        "NEW_PATIENT_QUESTION_2": "Ініцыялы пацыента:",
        "NEW_PATIENT_QUESTION_2_EMPTY": "Увядзіце ініцыялы пацыента, мінімум 2 сімвалы.",
        "NEW_PATIENT_QUESTION_2_EMPTY_HEADER": "Ініцыялы пацыента",
        "NEW_PATIENT_QUESTION_3_TITLE": "<div class='question-title-large'>Выбар мовы</div><div><strong>Даследчы цэнтр: {{{ getSiteCode }}}</strong></div><div><strong>Карыстальнік: {{{ getUserName }}}</strong</div><div><strong>Ідэнтыфікатар пацыента: {{{ getPatientID }}}</strong></div><br /><br />",
        "NEW_PATIENT_QUESTION_3": "Выбар мовы для пацыента",
        "NEW_PATIENT_CANCEL_CONFIRM": "Адмяніць дадаванне пацыента?",
        "NEW_PATIENT_CANCEL_BODY": "Калі адмяніць, пацыент не будзе зарэгістраваны.  Сапраўды жадаеце адмяніць?",
        "NEW_PATIENT_AFFIDAVIT_HEADER": "<div><strong>Даследчы цэнтр: {{{ getSiteCode }}}</strong><br /><strong>Карыстальнік: {{{ getUserName }}}</strong><br /><strong>Ідэнтыфікатар пацыента: {{{ getPatientID }}}</strong></div>",
        "NEXT": "Далей",
        "NO_RESULTS_FOUND": "Не знойдзена вынікаў.",
        "NOT_AVAILABLE": "Недаступна",
        "OK": "ОК",
        "ORDER": "Прызначыць",
        "PASSWORD": "Пароль:",
        "PATIENT": "Пацыент",
        "PATIENT_ID": "Ідэнтыфікатар пацыента:",
        "PATIENT_INITIALS": "Ініцыялы пацыента:",
        "PATIENT_DELETED": "Невядомы пацыент",
        "PATIENT_DELETED_MSG": "Не атрымалася знайсці пацыента.",
        "PATIENT_DELETED_SUBJECT_MSG": "Не атрымалася знайсці пацыента. Вярніце сваю прыладу адпаведнаму працаўніку даследчага цэнтра.",
        "PENDING_TRANSMISSIONS": "Перадачы ў чарзе",
        "PLEASE_WAIT": "Пачакайце",
        "PLEASE_CONFIRM": "Пацвердзіце",
        "PLEASE_CONTACT": "Звярніцеся ў Цэнтр падтрымкі ERT.",
        "PLEASE_TRY_OR_CONTACT_SUPPORT": "Паўтарыце зноў або звярніцеся ў Цэнтр даследавання ERT.",
        "REASON": "Прычына:",
        "REPORTS_AND_FORMS": "Справаздачы і формы",
        "REPORTS_COMPLETED_MESSAGE": "Вы запоўнілі ўсе свае формы. Вярніце сваю прыладу адпаведнаму працаўніку даследчага цэнтра.",
        "REQUIRED_ANSWER": "Запоўніце неабходныя звесткі.",
        "RESET_PIN": "Скінуць PIN-код пацыента",
        "RESET_USER_PASSWORD": "Скінуць пароль карыстальніка",
        "ROLES": "Роля:",
        "SAVE": "Захаваць",
        "SEARCH": "Пошук",
        "SECURITY_QUESTION_0": "Якое дзявочае прозвішча вашай маці?",
        "SECURITY_QUESTION_1": "У якім горадзе вы нарадзіліся?",
        "SECURITY_QUESTION_2": "Як клікалі вашага першага хатняга гадаванца?",
        "SECURITY_QUESTION_3": "Які ваш любімы від спорту?",
        "SECURITY_QUESTION_4": "У якім годзе вы скончылі навучанне?",
        "SECURITY_QUESTION_5": "Якое другое імя вашага старэйшага дзіцяці?",
        "SECURITY_QUESTION_6": "Як зваць вашага найлепшага сябра дзяцінства?",
        "SECURITY_QUESTION_7": "Якое прозвішча было ў вашага настаўніка трэцяга класа?",
        "SECURITY_QUESTION_8": "У якім горадзе вы атрымалі першае месца працы?",
        "SECRET_ANSWER": "Кантрольны адказ:",
        "SECRET_QUESTION": "Кантрольнае пытанне:",
        "SECRET_QUESTION_HELP_TEXT": "Выберыце кантрольнае пытанне са спіса ніжэй. Адказ ужываецца для ўваходу, калі вы забудзецеся пароль.",
        "SECRET_QUESTION_ANSWER": "Кантрольныя пытанне і адказ",
        "SELECT_LANGUAGE": "Выберыце пажаданую мову для даследчага цэнтра.",
        "SET_TIMEZONE_MESSAGE": "Выберыце свой часавы пояс:",
        "SELECT_SITE_NUMBER": "Выберыце нумар даследчага цэнтра",
        "SERVICE_URL": "URL-адрас паслугі",
        "SETTINGS": "Налады",
        "SETUP_COMPLETE": "Наладка завершана",
        "SETUP_COMPLETE_DESC": "Прылада наладжана і гатова да пастаўкі.  Націсніце ОК, затым выключыце прыладу на наступным экране.",
        "SETUP_SITE_USER": "Наладзіць карыстальніка даследчага цэнтра",
        "SETUP_SITE_USER_LEGEND": "Наладзьце карыстальніка даследчага цэнтра для гэтай прылады.",
        "SITE": "Даследчы цэнтр",
        "SITE_ASSESSMENTS": "Ацэнкі даследчага цэнтра",
        "SIGNATURE_DATA_LIMIT_EXCEEDED": "Немагчыма дакладна адлюстраваць подпіс у полі подпісу. Пастаўце свае ініцыялы замест подпісу.",
        "SITE_NUMBER": "Нумар даследчага цэнтра",
        "SITE_ROLE": "Карыстальнік даследчага цэнтра",
        "SITE_SELECTION": "Выбар даследчага цэнтра",
        "SKIP_FORM": "Прапусціць форму",
        "SKIP_QUESTION": "Сапраўды скінуць адказы на гэтым экране?",
        "SKIP_TO_VISIT": "Прапусціць да візіту",
        "SKIP_VISIT": "Прапусціць візіт",
        "SKIP_VISITS": "Прапусціць візіты",
        "SKIP_VISITS_QUESTION_1": "<div class='question-title-large'><strong>Прычына</strong></div><br /><br /><div>Выберыце прычыну пропуску візітаў:</div>",
        "SKIP_VISITS_REASON_0": "Прайшоў тэрмін візіту",
        "SKIP_VISITS_REASON_1": "Памылка даследчага цэнтра ў працэсе адміністравання",
        "SKIP_VISITS_REASON_2": "Суб'ект прапусціў клінічнае наведванне.",
        "SKIP_VISITS_REASON_3": "Не прымяняецца.",
        "SKIP_VISITS_REASON_4": "Візіт неабавязковы, не выкананы.",
        "SKIP_VISITS_CANCEL_CONFIRM": "Адмяніць пропуск візітаў?",
        "SKIP_VISITS_CANCEL_BODY": "Калі адмяніць зараз, візіты не будуць прапушчаны. Сапраўды жадаеце адмяніць?",
        "SKIPPED" : "Прапушчана",
        "SKIPPED_VISITS": "{{{ skippedVisits }}}",
        "START_FORM": "Пачаць форму",
        "START_VISIT": "Пачаць візіт",
        "STATUS": "Статус",
        "STATUS_DATE": "Дата статусу",
        "STUDY": "Даследаванне",
        "STUDYWORKS_LOGIN": "Уваход у StudyWorks",
        "SUBJECT_ID": "Ідэнтыфікатар пацыента",
        "SUBJECT_ROLE": "Пацыент",
        "SUBMIT": "Адправіць",
        "SUPPORT_TOOLS": "Інструменты падтрымкі",
        "SYNC": "Сінхранізацыя",
        "SYNC_USERS": "Сінхранізаваць карыстальнікаў",
        "SYNC_TO_DEVICE": "Сінхранізаваць даследаванне для прылады",
        "TEMPORARY_PASSWORD_MESSAGE": "Дайце часовы пароль новаму карыстальніку. Пасля ўваходу ў сістэму карыстальнік павінен будзе стварыць новы пароль.",
        "TEMP_PASSWORD": "Часовы пароль: ",
        "UNABLE_TO_GET_SITE_LIST": "Немагчыма атрымаць спіс даследчага цэнтра",
        "UNLOCK_CODE": "Код разблакавання",
        "UNLOCK_CODE_HELP": "Код разблакавання для ERT Tablet можна атрымаць у StudyWorks у інтэлектуальнай справаздачы «Коды разблакавання ERT». Звярніцеся ў Цэнтр падтрымкі ERT па дадатковую дапамогу.",
        "USER": "Карыстальнік",
        "USER_ALREADY_EXISTS": "Карыстальнік ужо існуе",
        "USER_EDITED": "Карыстальнік быў абноўлены.",
        "USER_TO_ACTIVATE": "<strong>Карыстальнік для актывацыі:</strong> <br />{{{ getSelectedUsername }}}<br /><br /><strong>Подпіс:</strong> {{{ getActiveUserName }}}",
        "SUBJECT_ALREADY_EXISTS": "Пацыент з ідэнтыфікатарам {{{ getPatientIDForDuplicate }}} ужо існуе",
        "TIME_CONFIRMATION_INSTRUCTIONS": "Неабходна пацвердзіць мясцовы час для прылады. Увядзіце дату і час з надзейнай крыніцы.",
        "TIME_ZONE_ERROR_HEADER": "Памылка часавага пояса",
        "TIME_ZONE_ERROR_MSG": "Адбылася памылка падчас атрымання спісу часавага пояса. Звярніцеся ў Цэнтр падтрымкі ERT па дадатковую дапамогу.",
        "TIME_ZONE_SET_ERROR_MSG": "Адбылася памылка падчас наладкі часавага пояса. Звярніцеся ў Цэнтр падтрымкі ERT па дадатковую дапамогу.",
        "TIME_ZONE_SET_CONFIRM": "Сапраўды наладзіць наступны часавы пояс: <bdo dir='ltr'>{{{selectedTimeZone}}}</bdo>? <br/> Праграма можа перагрузіцца, каб пачало прымяняцца змяненне.",
        "TIME_ZONE_SET_CONFIRM_NOCHANGE": "Сапраўды наладзіць наступны часавы пояс: <bdo dir='ltr'>{{{selectedTimeZone}}}</bdo>?",
        "TIME_ZONE_SET_HEADER": "Пацвярджэнне наладкі часавага пояса",
        "TRAINER": "Рэжым навучання",
        "TRAINER_EXIT": "Выйсці з рэжыму навучання",
        "TRAINER_EXIT_NOTIFICATION": "Вы выходзіце з рэжыму навучання",
        "TRAINER_HEADER": "(Навучанне)",
        "USER_ROLE": "Роля карыстальніка",
        "USERNAME": "Імя карыстальніка",
        "USER_NAME": "Імя карыстальніка:",
        "VISIT": "Візіт",
        "VISIT_COMPLETED_MESSAGE": "Няма іншых форм для гэтага візіту.  Гэты візіт не завершаны.",
        "VISIT_INACTIVE_HEADER": "Неактыўны візіт.",
        "VISIT_INACTIVE_MESSAGE": "Гэты візіт больш не актыўны.",
        "VISIT_INACTIVE_MESSAGE_SUBJECT": "Гэты візіт больш не актыўны. Вярніце сваю прыладу адпаведнаму працаўніку даследчага цэнтра.",
        "VISITS": "Візіты",
        "VISITS_SKIPPED": "Прапушчаныя візіты:",
        "VISIT_NAME": "Назва візіту",
        "WELCOME": "Вітаем",
        "AF-ZA": "Афрыкаанс",
        "AR-EG": "Арабская",
        "BE-BY": "Беларуская",
        "BG-BG": "Балгарская",
        "BN-IN": "Бенгалі",
        "BS-BA": "Баснійская",
        "CA-ES": "Каталонская",
        "CS-CZ": "Чэшская",
        "DA-DK": "Дацкая",
        "DE-DE": "Нямецкая (Германія)",
        "DE-AT": "Нямецкая (Аўстрыя)",
        "EL-GR": "Грэчаская",
        "EN-GB": "Англійская (Вялікабрытанія)",
        "EN-US": "Англійская (ЗША)",
        "ES-ES": "Іспанская (Іспанія)",
        "ES-US": "Іспанская (ЗША)",
        "ES-PY": "Іспанская (універсальная)",
        "ET-EE": "Эстонская",
        "FI-FI": "Фінская",
        "FR-CA": "Французская (Канада)",
        "FR-FR": "Французская (Францыя)",
        "GD-IE": "Гэльская",
        "GU-IN": "Гуджараці",
        "HE-IL": "Іўрыт",
        "HI-IN": "Хіндзі",
        "HR-HR": "Харвацкая",
        "HU-HU": "Венгерская",
        "IT-IT": "Італьянская",
        "JA-JP": "Японская",
        "KA-GE": "Грузінская",
        "KN-IN": "Канада (мова)",
        "KO-KR": "Карэйская",
        "LV-LV": "Латышская",
        "LT-LT": "Літоўская",
        "ML-IN": "Малаялам",
        "MR-IN": "Маратхі",
        "MS-MY": "Малайская",
        "NB-NO": "Нарвежская",
        "NL-BE": "Нідэрландская (Бельгія)",
        "NL-NL": "Нідэрландская (Нідэрланды)",
        "PA-IN": "Панджабі",
        "PL-PL": "Польская",
        "PT-BR": "Партугальская (Бразілія)",
        "PT-PT": "Партугальская (Партугалія)",
        "RO-RO": "Румынская",
        "RU-RU": "Руская",
        "SL-SL": "Славенская",
        "SK-SK": "Славацкая",
        "SR-RS": "Сербская (лацініца)",
        "SR-SP": "Сербская (кірыліца)",
        "ST-ZA": "Сота",
        "SV-SE": "Шведская",
        "TA-IN": "Тамільская",
        "TE-IN": "Тэлугу",
        "TH-TH": "Тайская",
        "TL-PH": "Тагалог",
        "TN-ZA": "Тсвана",
        "TR-TR": "Турэцкая",
        "UK-UA": "Украінская",
        "UR-IN": "Урду",
        "VI-VN": "В'етнамская",
        "XH-ZA": "Коса",
        "ZH-CN": "Кітайская (Кітай)",
        "ZH-TW": "Кітайская (Тайвань)",
        "ZU-ZU": "Зулу",
        "HAND_DEVICE_SUBJECT_BODY": "Наступную форму неабходна запоўніць да {{{ patientOrRole }}}. Выйдзіце з сістэмы, затым перадайце прыладу {{{ patientOrRole }}}.",
        "HAND_DEVICE_SUBJECT_TITLE": "Пачынаецца форма {{{ formTitle }}}",
        "SKIP_VISIT_TITLE": "Прапусціць візіт(ы)?",
        "SKIP_VISIT_TEXT": "Калі працягнуць, наступныя візіты будуць прапушчаны:<br/> {{{ skippedVisits }}} Працягнуць і прапусціць цяпер гэтыя візіты?",
        "YES": "Так",
        "NO": "Не",
        "TIME_LBL": "Час:",
        "SET_TIME": "Наладзіць час",
        "DATE_LBL": "Дата:",
        "CREATE_PERMANENT_PASSWORD_TITLE": "Стварыць пастаянны пароль",
        "USER_ID": "Ідэнтыфікатар карыстальніка:",
        "PHASE": "Фаза",
        "LAST_VISIT": "Апошні завершаны візіт",
        "CONNECTION_REQUIRED": "Неабходна падлучэнне да Інтэрнэту.",
        "RETRY": "Паўтарыце зноў",
        "UPDATE_FAILURE": "Абнаўленне не завершана",
        "UPDATE_SUCCESS": "Абнаўленне паспяхова праведзена",
        "CANCEL_PERMANENT_PASSWORD_TITLE": "Адмяніць стварэнне пастаяннага пароля?",
        "CANCEL_PERMANENT_PASSWORD_TEXT": "Калі адмяніць зараз, ваш пастаянны пароль не будзе створаны. Спатрэбіцца пастаянны пароль, каб пачаць карыстацца ERT. Сапраўды жадаеце адмяніць?",
        "ACCOUNT_CONFIGURED_TITLE": "Наладка ўліковага запісу завершана",
        "ACCOUNT_CONFIGURED_TEXT": "Вы завяршылі наладку свайго ўліковага запісу, цяпер можаце працягнуць карыстацца сістэмай eCOA.",
        "LOGGED_IN_AS": "Увайшлі як",
        "EDIT_PATIENT_AFFIDAVIT_HEADER": "<p class='question-title-large'>Подпіс</p><br />",
        "EDIT_PATIENT_AFF": "Падпісаўшыся ніжэй, я сведчу, што маю права рэдагаваць гэтага пацыента.<br /><br />Ідэнтыфікатар пацыента: {{{ getPatientIdNumber }}}<br /><br /><strong>Подпіс:</strong> {{{ getActiveUserName }}}",
        "PASSWORD_MISMATCH": "Пацвярджэнне пароля не супадае з паролем",
        "FIRST_USER_AFFIDAVIT": "Падпісаўшыся ніжэй, я сведчу, што з'яўляюся галоўным даследчыкам або даверанай асобай, якая стварае ўліковыя запісы ў гэтай сістэме.<br /><br /><strong>Подпіс:</strong> {{{ getFirstUsername }}}",
		"INCOMPLETE": "Незавершана",
        "INVALID_ENTRY": "Няправільныя дадзеныя",
        "PLEASE_ANSWER_SQ": "Адкажыце на сваё кантрольнае пытанне:",
        "FORGOT_SECRET_ANSWER": "Забыліся кантрольны адказ?",
        "CONTACT_STUDY_COORDINATOR": "Звярніцеся да каардынатара даследавання",
        "ENTER_NEW_PASSWORD": "Новы пароль:",
        "CONTACT_UNLOCK_CODE": "Звярніцеся да свайго каардынатара даследавання, каб разблакаваць на сёння код:",
        "CURRENT_DATE": "{{{ currentDate }}}",
        "TEMPORARY_UNLOCK_CODE": "Увядзіце код разблакавання, выдадзены каардынатарам даследавання.",
        "RESET_SECRET_QUESTION": "Скінуць кантрольнае пытанне",
        "SECRET_QUESTION_CHANGE_SUCCESS": "Вы паспяхова абнавілі пароль і кантрольнае пытанне.",
        "RESET_PASSWORD": "Скінуць пароль",
        "ANSWER_ATTEMPT_EXCEEDED": "Вы ўвялі няправільны адказ зашмат разоў, або націснулі на спасылку для выпадкаў страты кантрольнага адказу.",
        "PASSWORD_ATTEMPT_EXCEEDED": "Вы ўвялі няправільны пароль зашмат разоў, або націснулі на спасылку для выпадкаў страты кантрольнага пароля.",
        "PASSWORD_CHANGE_SUCCESS": "Вы паспяхова абнавілі пароль.",
        "CHANGE_PASSWORD": "Змяніць пароль",
        "CHANGE_SECRET_QUESTION": "Змяніць кантрольнае пытанне",
        "SYNC_COMPLETE": "Сінхранізацыя завершана",
        "INCORRECT_ANSWER": "Няправільны адказ",
        "INCORRECT_UNLOCK_CODE": "Няправільны код разблакавання",
        "PASSWORD_INVALID": "Няправільны пароль",
        "SUBJECT": "Пацыент",
        "PATIENT_ADDED": "Дададзены пацыент",
        "SITE_ADMINISTRATOR": "Адміністратар даследчага цэнтра",
        "LOW_BATTERY": "Папярэджанне: Акумулятар мае нізкі зарад. Пастаўце прыладу на падзарадку.",
        "CRITICAL_BATTERY": "Папярэджанне: Акумулятар амаль цалкам разраджаны. Пастаўце прыладу на падзарадку, інакш яна выключыцца.",
        "TIME_CONFIRMATION_HEADER": "Пацвердзіць дату/час",
        "TIMESLIP_ERROR": "На вашай прыладзе няправільныя час ці дата. Перайдзіце ў месца з падлучэннем да Інтэрнэту і паўтарыце спробу. Калі праблема не знікне, звярніцеся ў Службу падтрымкі ERT.",
        "SUPPORT": "Падтрымка кліентаў",
        "SUPPORT_MESSAGE": "Карыстальнікі са Злучаных Штатаў Амерыкі могуць звярнуцца ў Цэнтр падтрымкі ERT па нумары 800-748-5669. Міжнародныя карыстальнікі павінны выбраць найбліжэйшую з пералічаных ніжэй краін.",
        "SUPPORT_DROPDOWN": "Выберыце краіну",
        "SUPPORT_NAME_ARGENTINA": "Аргенціна",
        "SUPPORT_NUMBER_ARGENTINA": "<bdo dir='ltr'>0800 444 0962</bdo>",
        "SUPPORT_NAME_ARMENIA": "Арменія",
        "SUPPORT_NUMBER_ARMENIA": "<bdo dir='ltr'>+1 617 681 6306</bdo>",
        "SUPPORT_NAME_AUSTRALIA": "Аўстралія",
        "SUPPORT_NUMBER_AUSTRALIA": "<bdo dir='ltr'>1 800 800 051</bdo>",
        "SUPPORT_NAME_AUSTRIA": "Аўстрыя",
        "SUPPORT_NUMBER_AUSTRIA": "<bdo dir='ltr'>0800 100 405</bdo>",
        "SUPPORT_NAME_BELARUS": "Беларусь",
        "SUPPORT_NUMBER_BELARUS": "<bdo dir='ltr'>8 820 0321 0036</bdo>",
        "SUPPORT_NAME_BELGIUM": "Бельгія",
        "SUPPORT_NUMBER_BELGIUM_1": "(англійская): <bdo dir='ltr'>0800 58 016</bdo>",
        "SUPPORT_NUMBER_BELGIUM_2": "(французская): <bdo dir='ltr'>0800 71 076</bdo>",
        "SUPPORT_NUMBER_BELGIUM_3": "(нямецкая): <bdo dir='ltr'>0800 71 113</bdo>",
        "SUPPORT_NAME_BRAZIL": "Бразілія",
        "SUPPORT_NUMBER_BRAZIL": "<bdo dir='ltr'>0800 891 5909</bdo>",
        "SUPPORT_NAME_BOSNIA": "Боснія",
        "SUPPORT_NUMBER_BOSNIA": "<bdo dir='ltr'>+1 617 681 6306</bdo>",
        "SUPPORT_NAME_BULGARIA": "Балгарыя",
        "SUPPORT_NUMBER_BULGARIA": "<bdo dir='ltr'>00800 0010</bdo>, пасля <bdo dir='ltr'>866 245 4931</bdo>",
        "SUPPORT_NAME_CANADA": "Канада",
        "SUPPORT_NUMBER_CANADA": "<bdo dir='ltr'>1 800 748 5669</bdo>",
        "SUPPORT_NAME_CHILE": "Чылі",
        "SUPPORT_NUMBER_CHILE": "<bdo dir='ltr'>123 0020 3408</bdo>",
        "SUPPORT_NAME_CHINA": "Кітай",
        "SUPPORT_NUMBER_CHINA_1": "NetCom (поўнач): <bdo dir='ltr'>1 0800 74 40 164</bdo>",
        "SUPPORT_NUMBER_CHINA_2": "Telecom (поўдзень): <bdo dir='ltr'>1 0800 44 00 158</bdo>",
        "SUPPORT_NAME_COLOMBIA": "Калумбія",
        "SUPPORT_NUMBER_COLOMBIA": "<bdo dir='ltr'>01 800 911 0010</bdo>, пасля <bdo dir='ltr'>866 310 3707</bdo>",
        "SUPPORT_NAME_COSTA_RICA": "Коста-Рыка",
        "SUPPORT_NUMBER_COSTA_RICA": "<bdo dir='ltr'>0800 013 1210</bdo>",
        "SUPPORT_NAME_CROATIA": "Харватыя",
        "SUPPORT_NUMBER_CROATIA": "<bdo dir='ltr'>0800 222 953</bdo>",
        "SUPPORT_NAME_CZECH_REPUBLIC": "Чэхія",
        "SUPPORT_NUMBER_CZECH_REPUBLIC": "<bdo dir='ltr'>800 142 150</bdo>",
        "SUPPORT_NAME_DENMARK": "Данія",
        "SUPPORT_NUMBER_DENMARK": "<bdo dir='ltr'>80 60 00 09</bdo>",
        "SUPPORT_NAME_EGYPT": "Егіпет",
        "SUPPORT_NUMBER_EGYPT": "<bdo dir='ltr'>02 510 0200</bdo>, пасля <bdo dir='ltr'>866 310 3707</bdo>",
        "SUPPORT_NAME_EL_SALVADOR": "Эль-Сальвадор",
        "SUPPORT_NUMBER_EL_SALVADOR": "<bdo dir='ltr'>+1 617 681 6306</bdo>",
        "SUPPORT_NAME_ESTONIA": "Эстонія",
        "SUPPORT_NUMBER_ESTONIA": "<bdo dir='ltr'>800 00 44 154</bdo>",
        "SUPPORT_NAME_FINLAND": "Фінляндыя",
        "SUPPORT_NUMBER_FINLAND": "<bdo dir='ltr'>0800 11 6366</bdo>",
        "SUPPORT_NAME_FRANCE": "Францыя",
        "SUPPORT_NUMBER_FRANCE": "<bdo dir='ltr'>0800 10 19 79</bdo>",
        "SUPPORT_NAME_GERMANY": "Германія",
        "SUPPORT_NUMBER_GERMANY": "<bdo dir='ltr'>0800 101 28 21</bdo>",
        "SUPPORT_NAME_GREECE": "Грэцыя",
        "SUPPORT_NUMBER_GREECE": "<bdo dir='ltr'>00 800 1311</bdo>, пасля <bdo dir='ltr'>866 310 3707</bdo>",
        "SUPPORT_NAME_GUATEMALA": "Гватэмала",
        "SUPPORT_NUMBER_GUATEMALA": "<bdo dir='ltr'>1 800 624 0079</bdo>",
        "SUPPORT_NAME_HONG_KONG": "Ганконг",
        "SUPPORT_NUMBER_HONG_KONG": "<bdo dir='ltr'>3002 1665</bdo>",
        "SUPPORT_NAME_HUNGARY": "Венгрыя",
        "SUPPORT_NUMBER_HUNGARY": "<bdo dir='ltr'>06 800 14 571</bdo>",
        "SUPPORT_NAME_ICELAND": "Ісландыя",
        "SUPPORT_NUMBER_ICELAND": "<bdo dir='ltr'>800 8544</bdo>",
        "SUPPORT_NAME_INDIA": "Індыя",
        "SUPPORT_NUMBER_INDIA": "<bdo dir='ltr'>000 800 440 1125</bdo>",
        "SUPPORT_NAME_INDONESIA": "Інданезія",
        "SUPPORT_NUMBER_INDONESIA": "<bdo dir='ltr'>008 800 330 334</bdo>",
        "SUPPORT_NAME_IRELAND": "Ірландыя",
        "SUPPORT_NUMBER_IRELAND": "<bdo dir='ltr'>1 800 946 700</bdo>",
        "SUPPORT_NAME_ISRAEL": "Ізраіль",
        "SUPPORT_NUMBER_ISRAEL": "<bdo dir='ltr'>1 809 470 062</bdo>",
        "SUPPORT_NAME_ITALY": "Італія",
        "SUPPORT_NUMBER_ITALY": "<bdo dir='ltr'>800 90 56 37</bdo>",
        "SUPPORT_NAME_JAPAN": "Японія",
        "SUPPORT_NUMBER_JAPAN": "Азнаёмцеся з тэлефонам гарачай лініі даследавання ў даведніку даследавання ePRO.",
        "SUPPORT_NAME_LATVIA": "Латвія",
        "SUPPORT_NUMBER_LATVIA": "<bdo dir='ltr'>8000 2151</bdo>",
        "SUPPORT_NAME_LEBANON": "Ліван",
        "SUPPORT_NUMBER_LEBANON": "<bdo dir='ltr'>01-426-801</bdo>, пасля <bdo dir='ltr'>866 310 3707</bdo>",
        "SUPPORT_NAME_LITHUANIA": "Літва",
        "SUPPORT_NUMBER_LITHUANIA": "<bdo dir='ltr'>8800 30207</bdo>",
        "SUPPORT_NAME_MALAYSIA": "Малайзія",
        "SUPPORT_NUMBER_MALAYSIA": "<bdo dir='ltr'>1800 80 59 71</bdo>",
        "SUPPORT_NAME_MEXICO": "Мексіка",
        "SUPPORT_NUMBER_MEXICO_1": "(англійская): <bdo dir='ltr'>001 800 748 5669</bdo> ",
        "SUPPORT_NUMBER_MEXICO_2": "(іспанская): <bdo dir='ltr'>001 855 631 6952</bdo>",
        "SUPPORT_NAME_MOLDOVA": "Малдова",
        "SUPPORT_NUMBER_MOLDOVA": "<bdo dir='ltr'>617 681 6306</bdo>",
        "SUPPORT_NAME_NETHERLANDS": "Нідэрланды",
        "SUPPORT_NUMBER_NETHERLANDS": "<bdo dir='ltr'>0800 023 1389</bdo>",
        "SUPPORT_NAME_NEW_ZEALAND": "Новая Зеландыя",
        "SUPPORT_NUMBER_NEW_ZEALAND": "<bdo dir='ltr'>0800 110 178</bdo>",
        "SUPPORT_NAME_NORWAY": "Нарвегія",
        "SUPPORT_NUMBER_NORWAY": "<bdo dir='ltr'>800 62 051</bdo>",
        "SUPPORT_NAME_PAKISTAN": "Пакістан",
        "SUPPORT_NUMBER_PAKISTAN": "<bdo dir='ltr'>00 800 0100</bdo>, пасля <bdo dir='ltr'>866 237 9767</bdo>",
        "SUPPORT_NAME_PANAMA": "Панама",
        "SUPPORT_NUMBER_PANAMA": "<bdo dir='ltr'>001 800 201 3095</bdo>",
        "SUPPORT_NAME_PERU": "Перу",
        "SUPPORT_NUMBER_PERU": "<bdo dir='ltr'>0800 5 0974</bdo>",
        "SUPPORT_NAME_PHILIPPINES": "Філіпіны",
        "SUPPORT_NUMBER_PHILIPPINES": "<bdo dir='ltr'>1 800 1116 0651</bdo>",
        "SUPPORT_NAME_POLAND": "Польшча",
        "SUPPORT_NUMBER_POLAND": "<bdo dir='ltr'>00800 331 1262</bdo>",
        "SUPPORT_NAME_PORTUGAL": "Партугалія",
        "SUPPORT_NUMBER_PORTUGAL": "<bdo dir='ltr'>800 206 172</bdo>",
        "SUPPORT_NAME_PUERTO_RICO": "Пуэрта-Рыка (тэрыторыя ЗША)",
        "SUPPORT_NUMBER_PUERTO_RICO": "<bdo dir='ltr'>1 800 748 5669</bdo>",
        "SUPPORT_NAME_ROMANIA": "Румынія",
        "SUPPORT_NUMBER_ROMANIA": "<bdo dir='ltr'>0800 894492</bdo>",
        "SUPPORT_NAME_RUSSIA": "Расія",
        "SUPPORT_NUMBER_RUSSIA_1": "(першасная гарачая лінія): <bdo dir='ltr'>8 10 800 249 13011</bdo>",
        "SUPPORT_NUMBER_RUSSIA_2": "(у межах Масквы): <bdo dir='ltr'>363-2400</bdo>, <br> пасля <bdo dir='ltr'>866 310 3707</bdo>",
        "SUPPORT_NUMBER_RUSSIA_3": "(па-за межамі Масквы): <bdo dir='ltr'>8^(495) 363-2400</bdo>, <br> пасля <bdo dir='ltr'>866 310 3707</bdo>",
        "SUPPORT_NUMBER_RUSSIA_4": "(у межах Санкт-Пецярбургу): <bdo dir='ltr'>363-2400</bdo>, <br> пасля <bdo dir='ltr'>866 310 3707</bdo>",
        "SUPPORT_NUMBER_RUSSIA_5": "(па-за межамі Санкт-Пецярбургу): <bdo dir='ltr'>8^(495) 363-2400</bdo>, <br> пасля <bdo dir='ltr'>866 310 3707</bdo>",
        "SUPPORT_NAME_SAUDI_ARABIA": "Саудаўская Аравія",
        "SUPPORT_NUMBER_SAUDI_ARABIA": "<bdo dir='ltr'>+1 617 681 6306</bdo>",
        "SUPPORT_NAME_SERBIA": "Сербія",
        "SUPPORT_NUMBER_SERBIA": "<bdo dir='ltr'>+1 617 973 1739</bdo>",
        "SUPPORT_NAME_SINGAPORE": "Сінгапур",
        "SUPPORT_NUMBER_SINGAPORE": "<bdo dir='ltr'>800 616 30 03</bdo>",
        "SUPPORT_NAME_SLOVAKIA": "Славакія",
        "SUPPORT_NUMBER_SLOVAKIA": "<bdo dir='ltr'>0800 0044 65</bdo>",
        "SUPPORT_NAME_SLOVENIA": "Славенія",
        "SUPPORT_NUMBER_SLOVENIA": "<bdo dir='ltr'>+1 617 681 6306</bdo>",
        "SUPPORT_NAME_SOUTH_AFRICA": "Паўднёвая Афрыка",
        "SUPPORT_NUMBER_SOUTH_AFRICA": "<bdo dir='ltr'>0800 99 5853</bdo>",
        "SUPPORT_NAME_SOUTH_KOREA": "Паўднёвая Карэя",
        "SUPPORT_NUMBER_SOUTH_KOREA": "<bdo dir='ltr'>00308 33 00 08</bdo>",
        "SUPPORT_NAME_SPAIN": "Іспанія",
        "SUPPORT_NUMBER_SPAIN": "<bdo dir='ltr'>900 90 2541</bdo>",
        "SUPPORT_NAME_SWEDEN": "Швецыя",
        "SUPPORT_NUMBER_SWEDEN": "<bdo dir='ltr'>020 120 99 69</bdo>",
        "SUPPORT_NAME_SWITZERLAND": "Швейцарыя",
        "SUPPORT_NUMBER_SWITZERLAND_1": "(англійская): <bdo dir='ltr'>0800 199 325</bdo>",
        "SUPPORT_NUMBER_SWITZERLAND_2": "(французская): <bdo dir='ltr'>0800 891 183</bdo>",
        "SUPPORT_NUMBER_SWITZERLAND_3": "(нямецкая): <bdo dir='ltr'>0800 891 025</bdo>",
        "SUPPORT_NAME_TAIWAN": "Тайвань",
        "SUPPORT_NUMBER_TAIWAN": "<bdo dir='ltr'>00801 33 33 42</bdo>",
        "SUPPORT_NAME_THAILAND": "Тайланд",
        "SUPPORT_NUMBER_THAILAND": "<bdo dir='ltr'>1 800 33 140 353</bdo>",
        "SUPPORT_NAME_TUNISIA": "Туніс",
        "SUPPORT_NUMBER_TUNISIA": "<bdo dir='ltr'>+1 617 681 6306</bdo>",
        "SUPPORT_NAME_TURKEY": "Турцыя",
        "SUPPORT_NUMBER_TURKEY": "<bdo dir='ltr'>00 800 151 1335</bdo>",
        "SUPPORT_NAME_UKRAINE": "Украіна",
        "SUPPORT_NUMBER_UKRAINE": "<bdo dir='ltr'>0^00 11</bdo>, пасля <bdo dir='ltr'>866 245 4931</bdo>",
        "SUPPORT_NAME_UAE": "Аб’яднаныя Арабскія Эміраты",
        "SUPPORT_NUMBER_UAE": "<bdo dir='ltr'>8000-021</bdo>, пасля <bdo dir='ltr'>866 310 3707</bdo>",
        "SUPPORT_NAME_UK": "Вялікабрытанія",
        "SUPPORT_NUMBER_UK": "<bdo dir='ltr'>0800 015 0408</bdo>",
        "SUPPORT_NAME_US": "Злучаныя Штаты Амерыкі",
        "SUPPORT_NUMBER_US_1": "(асноўны): <bdo dir='ltr'>1 800 748 5669</bdo>",
        "SUPPORT_NUMBER_US_2": "(рэзервовы): <bdo dir='ltr'>1 877 748 5669</bdo>",
        "SUPPORT_NAME_VENEZUELA": "Венесуэла",
        "SUPPORT_NUMBER_VENEZUELA_1": "(англійская): <bdo dir='ltr'>0 800 552 6288</bdo>, <br> пасля <bdo dir='ltr'>866 310 3707</bdo> ",
        "SUPPORT_NUMBER_VENEZUELA_2": "(іспанская): <bdo dir='ltr'>0 800 100 3063</bdo> ",
        "STUDY_VERSION": "Версія даследавання:",
        "STUDY_URL": "URL-адрас даследавання:",
        "PROTOCOL": "Пратакол:",
        "SPONSOR": "Спонсар:",
        "STORED_REPORTS": "Захаваныя формы:",
        "CORE_PRODUCT_VERSION_LABEL": "Версія прадукту:",
        "ABOUT": "Звесткі",
        "P_AFFIDAVIT_HEADER": "<div><strong>Даследчы цэнтр: {{{ getSiteCode }}}</strong><br /><strong>Ідэнтыфікатар пацыента: {{{ getPatientIdNumber }}}</strong></div>",
		"SET_TIMEZONE": "Наладзіць часавы пояс",
		"DEVICE_SERIAL_NUMBER": "Серыйны нумар прылады",
		"NONEXISTENT_USER": "Адбылася спроба абнавіць неіснуючага карыстальніка.",
		"SCREENING" : "Скрынінг",
		"TREATMENT" : "Тэрапія",
		"RANDOMIZATION" : "Рандамізацыя",
		"FOLLOWUP" : "Наступнае назіранне",
		"TERMINATION" : "Завяршэнне",
        "ACCEPT": "Я прымаю",
        "DECLINE": "Я адхіляю",
		"EULA": "ПАГАДНЕННЕ З КАНЦАВЫМ КАРЫСТАЛЬНІКАМ",
        "EULA_TEXT": "<p><strong><span class=\"text-underline\">ВАЖНА</span>:  НЕ НАЦІСКАЙЦЕ НА КНОПКУ ПРЫНЯЦЦЯ, ПАКУЛЬ НЕ ПРАЧЫТАЕЦЕ ГЭТА ПАГАДНЕННЕ.  НАЦІСКАЮЧЫ НА КНОПКУ ПРЫНЯЦЦЯ, ВЫ ПРЫМАЕЦЕ ЎСЕ ЎМОВЫ ГЭТАГА ПАГАДНЕННЯ.  КАЛІ ВЫ НЕ ЗГАДЖАЕЦЕСЯ З УМОВАМІ ГЭТАГА ПАГАДНЕННЯ, (1) НЕ НАЦІСКАЙЦЕ КНОПКУ «Я ПРЫМАЮ», (2) СПЫНІЦЕ ПРАЦЭС УСТАЛЯВАННЯ І ЛІЦЭНЗАВАННЯ, НАЦІСНУЎШЫ КНОПКУ «Я АДХІЛЯЮ».</strong></p><p>Кампанія eResearchTechnology, Inc. («Ліцэнзіяр») дае вам невыключную, без права перадачы ліцэнзію на праграмнае забеспячэнне eResearchTechnology, Inc., уключанае ў гэту прыладу («Праграмнае забеспячэнне»), у сувязі з вашым удзелам у пагадненні на правядзенне клінічнага выпрабавання: <strong>{{{ clinicalTrial }}}</strong>.  На праграмнае забеспячэнне eResearchTechnology, Inc. распаўсюджваецца дзеянне і ўжо выдадзеных, і заяўленых патэнтаў.  Гэта Пагадненне не дае вам права ўласнасці на Праграмнае забеспячэнне (і яго копіі), а дае ліцэнзію на выкарыстанне Праграмнага забеспячэння ў адпаведнасці з усімі ўмовамі гэтага Пагаднення.  Права ўласнасці на Праграмнае забеспячэнне і ўсе яго кампаненты, усе маёмасныя правы і правы інтэлектуальнай уласнасці заўсёды належаць Ліцэнзіяру.</p><p>Вы згаджаецеся не рабіць наступнага, прама або ўскосна: (i) ажыццяўляць адваротнае праектаванне, дызасэмбляваць або дэкампіляваць Праграмнае забеспячэнне; (ii) капіраваць, распаўсюджваць, вырабляць, адаптаваць, перакладаць, лакалізаваць, пераносіць на іншыя платформы і іншым чынам змяняць Праграмнае забеспячэнне, а таксама ствараць вытворныя працы на яго аснове; (iii) выдаляць ці змяняць апавяшчэнні аб аўтарскіх правах, аб'ектах камерцыйнай тайны і іншыя юрыдычныя папярэджанні, якія змяшчаюцца ў Праграмным забеспячэнні.  ВЫ ПРЫЗНАЯЦЕ І ЗГАДЖАЕЦЕСЯ, ШТО ПРАГРАМНАЕ ЗАБЕСПЯЧЭННЕ МОЖА ЗМЯШЧАЦЬ КОД, ЯКІ ПРАДУХІЛЯЕ НЕСАНКЦЫЯНАВАНАЕ ВЫКАРЫСТАННЕ ПРАГРАМНАГА ЗАБЕСПЯЧЭННЯ.</p><br><p>КАЛІ ВЫ ЗГАДЖАЕЦЕСЯ НА ПЕРАЛІЧАНАЕ ВЫШЭЙ, выберыце <strong>Я прымаю</strong> — націсканне кнопкі «Я прымаю» азначае прыняцце вамі ўмоў ліцэнзіі.</p><p>КАЛІ ВЫ НЕ ЗГАДЖАЕЦЕСЯ НА ПЕРАЛІЧАНАЕ ВЫШЭЙ або не ўпаўнаважаны згаджацца, выберыце <strong>Я адхіляю</strong> — у гэтым выпадку далейшы доступ да праграмнага забеспячэння будзе заблакіраваны.  Калі ў вас будуць паўнамоцтвы, вы можаце прыняць умовы ў наступны раз.</p>",
        "VISIT_EXPIRED_HEADER": "Пратэрмінаваны візіт.",
        "VISIT_EXPIRED_MESSAGE": "Гэты візіт больш не даступны, таму што ён пратэрмінаваны.",
        "VISIT_EXPIRED_MESSAGE_SUBJECT": "Гэты візіт больш не даступны, таму што ён пратэрмінаваны. Вярніце сваю прыладу адпаведнаму працаўніку даследчага цэнтра.",
        "SQ-AL": "Албанская",
        "IMAGE_FOLDER": "{{{ imageFolder }}}",
		"MODAL_OK_TEXT": "ОК",
        "BROWSER_LOAD_ERROR": "Старонка не знойдзена. Праверце падлучэнне да Інтэрнэту і паспрабуйце яшчэ раз.",
		"NO_USER_OF_ROLE" : "Карыстальнік з гэтай роллю не знойдзены.",
        "EDIT_PATIENT_REASON_1": "Выпраўленне атрыбутыўных дадзеных",
        "EDIT_PATIENT_REASON_2": "Змяненне ідэнтыфікатара",
        "EDIT_PATIENT_REASON_3": "Выбрана няправільная мова",
		"START_VISIT_OUTSIDE_WINDOW_MSG": "Увядзіце {{{ getVisitName }}} па-за межамі вызначанага інтэрвалу часу: {{{ startDate }}} - {{{ endDate }}}",
		"START_VISIT_HARD_STOP_MSG" : "Вы не можаце ўвесці {{{ getVisitName }}} па-за межамі вызначанага інтэрвалу часу: {{{ startDate }}} - {{{ endDate }}}",
		"USER_NAME_INVALID_CHARACTERS" : "Не выкарыстоўвайце спецыяльныя сімвалы",
		"ERROR_PATIENT_SAVE" : "Адбылася памылка падчас дадавання новага пацыента",
		"PASSWORD_CHANGE_FAILED" : "Для збору дадзеных вашага даследавання была актывавана іншая прылада. Змяніце пароль на той прыладзе.",
		"ERROR" : "Памылка.  Звярніцеся ў Цэнтр падтрымкі ERT.",
		"ERROR_AFTER_ACTIVATION_SUCCESSFUL" : "Адбылася памылка. Неабходна ўвесці код наладкі і пароль.",
		"CONNECTION_TIMEOUT" : "Падлучэнне пратэрмінавана.",
		"UPDATE_FAILED" : "Абнаўленне ERT не завершана. Пераканайцеся, што гэта прылада падлучана да Інтэрнэту, і паўтарыце спробу.",
        "QR_CODE_UNAVAILABLE": "Каб абнавіць матрычны код, націсніце на пацыента.",
        "QR_MODAL_TITLE": "Матрычны код для пацыента: ",
        "TRANSMIT_FAILED_403_14": "Памылка адной або некалькіх перадач: стварэнне пацыента не завершана. Пачакайце і паўтарыце спробу.",
        "CONSOLE_LOG": "Журнал кансолі",
		"USER_SELECT_ROLE_VALIDATION": "Неабходна выбраць ролю.",
        "USER_SELECT_LANGUAGE_VALIDATION": "Неабходна выбраць мову."
    },
    "dates": {
        "setDateButtonLabel": "Наладзіць дату",
        "setTimeButtonLabel": "ОК",
        "setDurationButtonLabel": "Наладзіць працягласць",
        "calTodayButtonLabel": "Перайсці да сённяшняга дня",
        "titleDateDialogLabel": "Наладзіць дату",
        "titleTimeDialogLabel": "Наладзіць час",
        "daysOfWeek": [
            "Нядзеля",
            "Панядзелак",
            "Аўторак",
            "Серада",
            "Чацвер",
            "Пятніца",
            "Субота"
        ],
        "daysOfWeekShort": [
            "Нд",
            "Пн",
            "Аў",
            "Ср",
            "Чц",
            "Пт",
            "Сб"
        ],
        "monthsOfYear": [
            "Студзень",
            "Люты",
            "Сакавік",
            "Красавік",
            "Май",
            "Чэрвень",
            "Ліпень",
            "Жнівень",
            "Верасень",
            "Кастрычнік",
            "Лістапад",
            "Снежань"
        ],
        "monthsOfYearShort": [
            "Сту",
            "Лют",
            "Сак",
            "Кра",
            "Май",
            "Чэр",
            "Ліп",
            "Жні",
            "Вер",
            "Кас",
            "Ліс",
            "Сне"
        ],
        "durationLabel": [
            "Дні",
            "Гадзіны",
            "Хвіліны",
            "Секунды"
        ],
        "durationDays": [
            "Дзень",
            "Дні"
        ],
        "tooltip": "Адкрыць сродак выбару даты",
        "nextMonth": "Наступны месяц",
        "prevMonth": "Папярэдні месяц",
        "clearButton": "Ачысціць",
        "meridiem": [
            "да паўдня",
            "пасля паўдня"
        ]
    }
}
