{
    "namespace" : "STUDY",
    "language"  : "he",
    "locale"    : "IL",
    "direction" : "rtl",
    "resources" : {
        "PASSWORD_RULES"            : "HE-Your password must be 4 - 20 characters long.",
        "TAKE_PILL"                 : "HE-Take pill",
        "PILL_IMAGE"                : "{{{ imageFolder }}}takePill.svg",
        "TEST_INDICATOR"            : "HE-Ditto"
    }
}
