{
	"namespace": "EQ5D5L",
	"language": "ko",
	"locale": "KR",
	"direction": "ltr",
	"resources": {
		"DISPLAY_NAME": "EQ-5D-5L",

        "EQ5D5L_EQ010_5L_Q0_TEXT": "다음 화면에서 오늘 귀하의 건강 상태를 가장 잘 나타낸 문장을 누르십시오.",
        "EQ5D5L_EQ010_5L_Q0_TITLE": "",

        "EQ5D5L_EQ020_5L_Q0_TEXT": "<b>오늘의 이동성</b>",
        "EQ5D5L_EQ020_5L_Q0_TITLE": "",
        "EQ5D5L_EQ020_5L_Q0_W0_A0": "나는 걷는데 전혀 지장이 없다",
        "EQ5D5L_EQ020_5L_Q0_W0_A1": "나는 걷는데 약간 지장이 있다",
        "EQ5D5L_EQ020_5L_Q0_W0_A2": "나는 걷는데 중간 정도의 지장이 있다",
        "EQ5D5L_EQ020_5L_Q0_W0_A3": "나는 걷는데 심한 지장이 있다",
        "EQ5D5L_EQ020_5L_Q0_W0_A4": "나는 걸을 수 없다",

        "EQ5D5L_EQ030_5L_Q0_TEXT": "<b>오늘의 자기관리</b>",
        "EQ5D5L_EQ030_5L_Q0_TITLE": "",
        "EQ5D5L_EQ030_5L_Q0_W0_A0": "나는 혼자 씻거나 옷을 입는데 전혀 지장이 없다",
        "EQ5D5L_EQ030_5L_Q0_W0_A1": "나는 혼자 씻거나 옷을 입는데 약간 지장이 있다",
        "EQ5D5L_EQ030_5L_Q0_W0_A2": "나는 혼자 씻거나 옷을 입는데 중간 정도의 지장이 있다",
        "EQ5D5L_EQ030_5L_Q0_W0_A3": "나는 혼자 씻거나 옷을 입는데 심한 지장이 있다",
        "EQ5D5L_EQ030_5L_Q0_W0_A4": "나는 혼자 씻거나 옷을 입을 수 없다",

        "EQ5D5L_EQ040_5L_Q0_TEXT": "<b>오늘의 일상 활동</b><br><br><em>(예. 일, 공부, 가사일, 가족 또는 여가 활동)</em>",
        "EQ5D5L_EQ040_5L_Q0_TITLE": "",
        "EQ5D5L_EQ040_5L_Q0_W0_A0": "나는 일상 활동을 하는데 전혀 지장이 없다",
        "EQ5D5L_EQ040_5L_Q0_W0_A1": "나는 일상 활동을 하는데 약간 지장이 있다",
        "EQ5D5L_EQ040_5L_Q0_W0_A2": "나는 일상 활동을 하는데 중간 정도의 지장이 있다",
        "EQ5D5L_EQ040_5L_Q0_W0_A3": "나는 일상 활동을 하는데 심한 지장이 있다",
        "EQ5D5L_EQ040_5L_Q0_W0_A4": "나는 일상 활동을 할 수 없다",

        "EQ5D5L_EQ050_5L_Q0_TEXT": "<b>오늘의 통증 / 불편감</b>",
        "EQ5D5L_EQ050_5L_Q0_TITLE": "",
        "EQ5D5L_EQ050_5L_Q0_W0_A0": "나는 전혀 통증이나 불편감이 없다",
        "EQ5D5L_EQ050_5L_Q0_W0_A1": "나는 약간 통증이나 불편감이 있다",
        "EQ5D5L_EQ050_5L_Q0_W0_A2": "나는 중간 정도의 통증이나 불편감이 있다",
        "EQ5D5L_EQ050_5L_Q0_W0_A3": "나는 심한 통증이나 불편감이 있다",
        "EQ5D5L_EQ050_5L_Q0_W0_A4": "나는 극심한 통증이나 불편감이 있다",

        "EQ5D5L_EQ060_5L_Q0_TEXT": "<b>오늘의 불안감 / 우울함</b>",
        "EQ5D5L_EQ060_5L_Q0_TITLE": "",
        "EQ5D5L_EQ060_5L_Q0_W0_A0": "나는 전혀 불안하거나 우울하지 않다",
        "EQ5D5L_EQ060_5L_Q0_W0_A1": "나는 약간 불안하거나 우울하다",
        "EQ5D5L_EQ060_5L_Q0_W0_A2": "나는 중간 정도로 불안하거나 우울하다",
        "EQ5D5L_EQ060_5L_Q0_W0_A3": "나는 심하게 불안하거나 우울하다",
        "EQ5D5L_EQ060_5L_Q0_W0_A4": "나는 극도로 불안하거나 우울하다",

        "EQ5D5L_EQ070_5L_Q0_TEXT": "저희는 <b>오늘</b> 귀하의 건강 상태가 얼마나 좋은지 또는 좋지 않은지를 않은지를 알고자 합니다.<br><br>다음 화면에서는 0에서 100까지 숫자로 된 눈금자를 보실 것입니다.<br><br>100은 상상할 수 있는 최고의 건강상태를 의미하고.<br><br>0은 상상할 수 있는 최저의 건강상태를 의미합니다.",
        "EQ5D5L_EQ070_5L_Q0_TITLE": "",

        "EQ5D5L_EQ080_5L_Q0_TEXT": "<br><br><br><br><br><span style=\"font-size: 13px;\">눈금자 상에 <b>오늘</b> 귀하의 건강 상태를 눌러서 표시해주십시오.</span>",
        "EQ5D5L_EQ080_5L_Q0_TITLE": "",
        "EQ5D5L_EQ080_5L_Q0_W0_LEFT": "상상할 수 있는<br>최저의 건강상태",
        "EQ5D5L_EQ080_5L_Q0_W0_RIGHT": "상상할 수 있는<br>최고의 건강상태",
        "EQ5D_ANSWER_LABEL_TEXT"      : "오늘의 건강 상태 ",

        "EQ5D5L_EQ090_5L_Q0_TEXT": "© EuroQol Research Foundation. EQ-5D™ is a trade mark of the EuroQol Research Foundation.",
        "EQ5D5L_EQ090_5L_Q0_TITLE": ""

	}
}