{
    "namespace" : "P_NRS_Diary",
    "language"  : "en",
    "locale"    : "US",
    "direction" : "ltr",
    "resources" : {
        "DISPLAY_NAME"      : "NRS Diary",
        "NRS_0"             : "0",
        "NRS_1"             : "1",
        "NRS_2"             : "2",
        "NRS_3"             : "3",
        "NRS_4"             : "4",
        "NRS_5"             : "5",
        "NRS_6"             : "6",
        "NRS_7"             : "7",
        "NRS_8"             : "8",
        "NRS_9"             : "9",
        "NRS_10"            : "10",
        "NRS_11"            : "11",
        "NRS_12"            : "12",
        "NRS_13"            : "13",
        "NRS_14"            : "14",
        "NRS_15"            : "15",
        "NRS_16"            : "16",
        "NRS_17"            : "17",
        "NRS_18"            : "18",
        "NRS_19"            : "19",
        "NRS_20"            : "20",
        "NRS_30"            : "30",
        "NRS_40"            : "40",
        "NRS_50"            : "50",
        "NRS_60"            : "60",
        "NRS_70"            : "70",
        "NRS_80"            : "80",
        "NRS_90"            : "90",
        "NRS_100"           : "100",
        "NRS_0_CHAR"        : "0%",
        "NRS_1_CHAR"        : "1%",
        "NRS_2_CHAR"        : "2%",
        "NRS_3_CHAR"        : "3%",
        "NRS_4_CHAR"        : "4%",
        "NRS_5_CHAR"        : "5%",
        "NRS_0_NEG"        : "0",
        "NRS_1_NEG"        : "-1",
        "NRS_2_NEG"        : "-2",
        "NRS_3_NEG"        : "-3",
        "NRS_4_NEG"        : "-4",
        "NRS_5_NEG"        : "-5",
        "NRS_6_NEG"        : "-6",
        "NRS_7_NEG"        : "-7",
        "NRS_8_NEG"        : "-8",
        "NRS_9_NEG"        : "-9",
        "NRS_TITLE_1"      : "NRS Question 1",
        "NRS_TITLE_2"      : "NRS Question 2",
        "NRS_TITLE_3"      : "NRS Question 3",
        "NRS_TITLE_4"      : "NRS Question 4",
        "NRS_TITLE_6"      : "NRS Question 6",
        "NRS_TITLE_7"      : "NRS Question 7 - Negative Values",
        "NRS_TITLE_8"      : "NRS Question 8",
        "NRS_TITLE_10"     : "NRS Question 10: Characters",
        "NRS_TITLE_11"     : "Question 11: Select an answer",
        "NRS_TEXT_11"      : "The answer you select will affect the next screen",
        "NRS_TITLE_12"     : "Question 12: Dynamic Answers based on Question 11",
        "NRS_TITLE_14"     : "Question 14: width 75%",
        "NRS_TITLE_15"     : "Question 15: width 100%",
        "NRS_TITLE_16"     : "Question 16: width 160px",
        "NRS_TITLE_17"     : "Question 17: width  not specified",
        "NRS_TITLE_18"     : "Question 18: spaceAllowed 1",
        "NRS_TITLE_19"     : "Question 19: spaceAllowed 2",
        "NRS_TITLE_20"     : "Question 20: spaceAllowed 3",
        "NRS_TITLE_21"     : "Question 21: spaceAllowed not specified",
        "NRS_TEXT"          : "Please indicate how good or bad your own health is today, in your opinion.",
        "NRS_TEXT_Q6"       : "This screen is to test that the app does not crash when the scale exceeds the width of the screen when presented with many answer options",
        "LEFT"              : "Very Bad",
        "RIGHT"             : "Very Good",
        "LEFTY"             : "Very Bad longer than normal - cat dog fish bird hamster",
        "RIGHTY"            : "Very Good longer than normal - cat dog fish bird hamster",
        "NRS_TEXT_COMPLETE" : "{{{ getQuestionnaireAnswers }}}",
        "NRS_DYN_1"         : "One Answer",
        "NRS_DYN_2"         : "Two Answers",
        "ALERT"             : "Show Alert",
        "ALERT_MESSAGE"     : "Alert message on review screen",
        "NRS_TEXT1"         : "NRS Diary Review Screen",
        "NRS_TEXT2"         : "Answers for questions 1, 2, and 3 below",
        "NRS_TEXT4"         : "skippable; data for this question will not transmit",
        "ALERT_TEXT" : "Alert!",
        "AVERAGE_TEXT" : "Average of responses",
        "NRS_TEXT3" : "Summary of your responses:",
        "ALERT_MESSAGE_2" : "You have clicked Alert button",
        "AVERAGE_DATA" : "Average of all the responses is {{{ averageData }}} ",
        "NRS_TEXT_COMPLETE_1" : "Average of answers for ...",

        "SUMMARY_TITLE" : "<strong>Question Summary:</strong>",
        "SUMMARY_QUESTION" : "{{{ getQuestionnaireAnswers }}}"
    }
}
