{
    "namespace" : "P_VAS_Diary",
    "language"  : "en",
    "locale"    : "US",
    "direction" : "ltr",
    "resources" : {
        "DISPLAY_NAME"      : "VAS Diary",
        "QUESTION"          : "Touch the line to indicate your pain over the past 24 hours.",
        "VAS_HELP"          : "If you are experiencing extreme pain, please contact your health care professional.",
        "QUESTION_1_TITLE"  : "<strong>Question 1:</strong>",
        "QUESTION_2_TITLE"  : "<strong>Question 2:</strong>",
        "QUESTION_3_TITLE"  : "<strong>Question 3:</strong>",
        "QUESTION_4_TITLE"  : "<strong>Question 4:</strong>",
        "QUESTION_5_TITLE"  : "<strong>Question 5:</strong>",
        "QUESTION_6_TITLE"  : "<strong>Question 6:</strong>",
        "NO_PAIN"           : "No Pain",
        "EXTREME_PAIN"      : "Extreme Pain",
        "NO_PAIN_LONG"      : "No Pain No Pain",
        "EXTREME_PAIN_LONG" : "Extreme Pain Extreme Pain Extreme Pain",
        "AVG_PAIN"          : "Your average pain level based on your responses is {{{ painAverage }}}.",
        "SUMMARY_TITLE" : "<strong>Question Summary:</strong>",
        "SUMMARY_QUESTION" : "{{{ getQuestionnaireAnswers }}}"
    }
}
