
{
	"namespace": "STUDY",
	"language": "fr",
	"locale": "BE",
    "direction": "ltr",
	"dateConfigs": {
		"headerFormat": "%A, %B %-d, %Y",
		"dateFormat": "%d-%b-%Y",
        "timeOutput": "%k:%M",
        "timeFormat": 24,
		"durationFormat": "%Dd %DA, %Dl:%DM:%DS",
		"durationOrder": [
			"d",
			"h",
			"i",
			"s"
		],
		"dateFieldOrder": [
			"m",
			"d",
			"y"
		],
		"timeFieldOrder": [
			"h",
			"i",
			"a"
		],
		"slideFieldOrder": [
			"y",
			"m",
			"d"
		],
		"dayOfWeek": "%A",
		"indicatorFormat": "%d %b %Y",
		"calStartDay": 0,
		"useArabicIndic": false
	},
	"resources": {
        "EN-US": "English (United States)",
        "JA-JP": "Japanese (Japan)",
        "ZH-US" : "Simplified Chinese (United States)",
        "ES-US" : "Spanish (United States)",
		"STUDY_DATE_TIME_FORMAT": "JJ-MMM-AAAA HH:mm",
        "STUDY_DATE_FORMAT": "JJ-MMM-AAAA",
        "STUDY_TIME_FORMAT": "HH:mm",
        "SPACE"             : " ",
        "MEDLOOP_0100_TITLE"    : "Informations sur le médicament",
        "MEDLOOP_0100_MED_FORMAT"    : "<span>{MEDAMT1N}</span> <span>{MEDFRM2L}</span> - <span>{SBJALS1C}</span>",
        "MEDLOOP_0100_TIME_FORMAT"    : "Heure : <span>{MEDTKN1S}</span>",
        "DEFAULT_MED_FORMAT"    : "<span>{SBJALS1C}</span> <span>({MEDFRM1L})</span>",
        "MEDLOOP_0100_ADD"      : "Ajouter une nouvelle dose/heure",
        "MEDLOOP_0100_EDIT"     : "Modifier cette dose/heure",
        "MEDLOOP_0100_Q_DELETE" : "Supprimer  cette dose/heure",
        "OTHER_MEDICATION"      : "Autre médicament",
        "NO_MEDS"               : "Aucun médicament",
        "MEDLOOP_0100_ADD_EDIT": "Vous pouvez modifier ou supprimer une dose qui n’est pas  grisée en appuyant dessus",
        "MEDLOOP_0700_Q_TEXT"    : "Veuillez sélectionner le médicament contre la douleur que vous avez pris/utilisé (sélectionnez un seul médicament à la fois) :",
		"MEDLOOP_0800_Q_TEXT"    : "Entrez la date et l’heure auxquelles vous avez pris/utilisé le médicament suivant<br><br><b>{{{ selectedMedNameForm }}}</b>",
        "MEDLOOP_0900_Q_TEXT"    : "{{{ selectedMedNameForm }}}<br>{{{ selectedMedDate }}}<br><br>Cette dose se situe à moins de 15 minutes d’une dose que vous avez déjà signalée :<br><br>{{{ conflictedMedNameForm }}}<br>{{{ conflictedMedDate }}}<br><br>Que voulez-vous faire ?",
		"MEDLOOP_0900_A1"       : "Modifier la date/heure de cette dose",
        "MEDLOOP_0900_A2"       : "Supprimer cette dose, il s'agit d'un doublon",
        "MEDLOOP_0900_A3"       : "Conserver cette dose, elle est correcte",
        "MEDLOOP_0910_Q_TEXT"    : "Veuillez confirmer que vous voulez supprimer ce que vous avez saisi.",
        "MEDLOOP_0910_A1"       : "Oui, terminer la suppression",
        "MEDLOOP_0910_A2"       : "Non, revenir à l’écran précédent",
        "MEDLOOP_1000_Q_TEXT"   : "Veuillez inscrire le nom du médicament et la quantité prise sur une feuille de papier en dehors de votre journal.<br><br>Contactez le médecin de l’étude pour lui communiquer ces  informations dès que possible.",
        "MEDLOOP_1100_Q_TEXT"   : "Combien d’unités posologiques ({{{ selectedMEDFRM2L }}}) du médicament contre la douleur suivant avez-vous prises/utilisées ?<br><br><strong>{{{ selectedMedNameForm }}}</strong>",
        "MEDLOOP_1100_FORM"     : "{{{ selectedMEDFRM2L }}}",
		"MEDLOOP_1100_OK"       : "OK",
        "MEDLOOP_1200_Q_TEXT"   : "Que voulez-vous faire ensuite ?",
        "MEDLOOP_1200_A1"       : "Saisir une nouvelle dose pour : {{{ selectedMedNameForm }}}",
        "MEDLOOP_1200_A2"       : "Sélectionner un nouveau médicament",
        "MEDLOOP_1200_A3"       : "Revenir à l’écran de vérification",
        "MEDLOOP_1300_Q_TEXT"   : "Vous avez atteint le nombre maximal de doses de médicament qui peut être enregistré dans un seul journal.<br><br>Si vous devez enregistrer des doses de médicament supplémentaires, veuillez remplir un {{{ getQuestionnaireName }}} supplémentaire.",
        "MEDLOOP_1400_Q_TEXT"   : "Voulez-vous vraiment supprimer cette dose/heure du médicament ?<br><br>{{{ selectedMedNameForm }}}<br>{{{ selectedMedDate }}}",
        "MEDLOOP_1400_A1"       : "Non",
        "MEDLOOP_1400_A2"       : "Oui",

        "MEDUNT1L1"               : "µg",
        "MEDUNT1L2"               : "mg",
        "MEDUNT1L3"               : "g",
        "MEDUNT1L4"               : "µg/ml",
        "MEDUNT1L5"               : "mg/ml",
        "MEDUNT1L6"               : "g/ml",
        "MEDUNT1L7"               : "µg/5 ml",
        "MEDUNT1L8"               : "mg/5 ml",
        "MEDUNT1L9"               : "g/5 ml",
        "MEDUNT1L10"              : "µg/15 ml",
        "MEDUNT1L11"              : "mg/15 ml",
        "MEDUNT1L12"              : "g/15 ml",
        "MEDUNT1L13"              : "UI",

        "MEDRTE1L1"               : "Oral",
        "MEDRTE1L2"               : "Nasal",
        "MEDRTE1L3"               : "Ophtalmique",
        "MEDRTE1L4"               : "Otique",
        "MEDRTE1L5"               : "Transdermique",
        "MEDRTE1L6"               : "Rectal",
        "MEDRTE1L7"               : "Injectable (IM)",
        "MEDRTE1L8"               : "Injectable (IV)",
        "MEDRTE1L9"               : "Injectable (SC)",
        "MEDRTE1L10"              : "Injectable",

        "MEDFRM1L1"               : "comprimé",
        "MEDFRM1L2"               : "poudre",
        "MEDFRM1L3"               : "liquide",
        "MEDFRM1L4"               : "inhalateur",
        "MEDFRM1L5"               : "film",
        "MEDFRM1L6"               : "pulvérisation",
        "MEDFRM1L7"               : "pommade",
        "MEDFRM1L8"               : "patch",
        "MEDFRM1L9"               : "suppositoire",
        "MEDFRM1L10"              : "injection",
		"MEDFRM1L11"              : "goutte",

        "MEDFRM2L1"               : "comprimé(s)",
        "MEDFRM2L2"               : "sachet(s)",
        "MEDFRM2L3"               : "ml",
        "MEDFRM2L4"               : "5 ml – cuillère à café",
        "MEDFRM2L5"               : "15 ml – cuillère à soupe",
        "MEDFRM2L6"               : "goutte(s)",
        "MEDFRM2L7"               : "film(s)",
        "MEDFRM2L8"               : "pulvérisation(s)",
        "MEDFRM2L9"               : "µg",
        "MEDFRM2L10"              : "mg",
        "MEDFRM2L11"              : "g",
        "MEDFRM2L12"              : "bout(s) du doigt",
        "MEDFRM2L13"              : "patch(s)",
        "MEDFRM2L14"              : "suppositoire(s)",
        "MEDFRM2L15"              : "bouffée(s)",

        "BPI_SF_ALERT_HEADER": " ",
        "BPI_SF_ALERT": "<b>Remarque :</b> Si vous avez des symptômes, des problèmes de santé ou d’autres inquiétudes, veuillez en discuter avec votre médecin ou votre infirmier(ère). Vos réponses aux questions sont uniquement destinées à des fins de recherche et ne sont normalement pas communiquées aux membres de votre équipe médicale. Remarque : Vous êtes toujours libre de communiquer toute information de votre choix avec votre médecin, notamment vos réponses à ce questionnaire, ce qui peut contribuer à répondre à vos inquiétudes en matière de sécurité.",
        "NEXT_ASSESSMENT_INDICATOR": "{{{ NEXT_ASSESSMENT_INDICATOR }}}<br/>Prochaines Évaluations Disponibles",
        "BPID_UPCOMING": "BPI-SF Attendu<br/> Aujourd’hui à {{{ BPID_TIME }}}",
        "BPID_DUE_NOW": "BPI-SF Attendu<br/> MAINTENANT",
        "ASSESSMENT_NOW_INDICATOR": "Évaluation(s) <br/> Disponible(s) MAINTENANT",
        "MED_QTY_INPUT_ERR_HEADER": " ",
        "MED_QTY_INPUT_ERR_1_T0_99": "La valeur que vous avez saisie est hors des limites. Veuillez saisir une valeur entre 1 et 99",
        "MED_QTY_INPUT_ERR_1_T0_9": "La valeur que vous avez saisie est hors des limites. Veuillez saisir une valeur entre 1 et 9",
        "DAILY_ALARM_FOR_ASSESSMENTS": "Alerte Quotidienne pour les Évaluations"
	}
}
