{
    "namespace": "DiaryMed",
    "language": "zh",
    "locale": "CN",
    "direction": "ltr",
    "resources": {
        "DISPLAY_NAME": "镇痛药日志",
        "MED020_Q_TEXT": "在过去的24小时内，您是否服用过任何止痛药？",
        "MED020_Q_TITLE": "",
        "MED040_Q_TEXT": "您透露在过去的24小时内服用/使用过止痛药，但是没有记录任何剂量。<br/>您想要做什么？",
        "MEDINS_040_Q_TEXT": "<div>下个屏幕会要求您记录所服用止痛药的剂量和服用的时间。</div><div>&nbsp;</div><div>请每次只输入一种止痛药剂量/时间。</div><div><b>&nbsp;</b></div><div>您在过去24小时内记录的所有止痛药剂量都显示在用药信息 – 查看屏幕上。</div>",
        "MEDINS_040_Q_TITLE": "",
        "MEDINS_050_Q_TEXT": "<div>当询问您下一步想做什么时，您可以通过显示用药信息 – 查看屏幕来查看和确认所输入的内容。</div><div>&nbsp;</div><div>在查看屏幕，您可以突出显示在本日志中记录的任何剂量，然后编辑或删除它。</div><div>以前日志中所报告的剂量是灰色的，不能编辑或删除。</div><div>&nbsp;</div><div>当您完成输入止痛药物时，显示查看屏幕并点击“下一步”按钮移动到确认屏幕。</div>",
        "MEDINS_050_Q_TITLE": "",
        "MEDLOOP_1150_Q_TEXT": "<div>您为何服用以下止痛药？</div><div>&nbsp;</div><div><b>{{{ selectedMedNameForm }}}</b></div>",
        "MEDLOOP_1150_TITLE": "",
        "MED040_15_Q1_TEXT": "<div>您透露在过去的24小时内服用/使用过止痛药，但是没有记录任何剂量。</div><div>&nbsp;</div><div>您想要做什么？</div>",
        "MED040_15_Q1_TITLE": "",
        "MED020_A1": "是",
        "MED020_A2": "否",
        "MEDLOOP_1150_A1": "<div>与疾病相关的疼痛</div>",
        "MEDLOOP_1150_A2": "其他疼痛",
        "MED040_A1": "记录用药剂量",
        "MED040_A2": "我弄错了，在过去的24小时内我没有服用过任何药物"
    }
}
