{
    "namespace": "CORE",
    "language": "ta",
    "locale": "IN",
    "localized": "தமிழ் (இந்தியா)",
    "direction": "ltr",
    "resources": {
        "ABOUT": "அறிமுகம்",
        "ACTIVATED_ELSEWHERE": "உங்கள் ஆய்வுத் தரவுகளைச் சேகரிப்பதற்காக வேறுபட்ட சாதனம் செயல்படுத்தப்பட்டுள்ளது. இது தவறாக செய்யப்பட்டது என்று நீங்கள் நினைத்தால், தயவுசெய்து உங்கள் ஆய்வு ஒருங்கிணைப்பாளரை அணுகவும்.",
        "ACTIVATION_CODE": "அமைவுக் குறியீடு:",
        "AFFIDAVIT": "உங்களின் பதில்களைச் சேமிக்கத் தயாராக இருக்கும் போது, சரி என்பதையும், பிறகு அடுத்தது என்பதையும் தேர்ந்தெடுக்கவும்.",
        "AFFIDAVIT_HELP": "நன்றி. நீங்கள் தேவையான அனைத்து பதில்களையும் வழங்கியுள்ளீர்கள். பின்செல் என்பதைத் தேர்ந்தெடுப்பதன் மூலம், உங்கள் பதில்களைச் சரிபார்த்து, மாற்றலாம்.",
        "ANSWER_ATTEMPT_EXCEEDED": "நீங்கள் பல தடவைகள் ஒரு தவறான பதிலை உள்ளிட்டுள்ளீர்கள் அல்லது பாதுகாப்புப் பதிலை மறந்துவிட்டேன் என்ற இணைப்பைக் கிளிக் செய்து விட்டீர்கள்.",
        "APPLICATION_HEADER": "{{{ appHeader }}}",
        "BACK": "பின்செல்",
        "BACK_OUT_CONFIRM": "உறுதியாக வெளியேற விரும்புகிறீர்களா? இந்த படிவத்திற்கான பதில்கள் இழக்கப்படும்.",
        "CANCEL": "ரத்து செய்க",
        "CANCEL_UPDATE": "புதுப்பிப்பை ரத்துசெய்க",
        "CHANGE_PASSWORD": "கடவுச்சொல்லை மாற்றுக",
        "CHANGE_SECRET_QUESTION": "பாதுகாப்புக் கேள்வி மாற்று",
        "CODE_ENTRY_NO_SERVER": "சேவையகம் கிடைக்கப்பெறவில்லை",
        "CONNECTION_REQUIRED": "இண்டர்நெட் இணைப்பு தேவை.",
        "CONNECTION_TIMEOUT": "இணைப்பின் நேரம் முடிந்தது.",
        "CONFIRM_PASSWORD": "கடவுச்சொல்லை உறுதிசெய்க:",
        "CONTACT_STUDY_COORDINATOR": "தயவுசெய்து ஆய்வு ஒருங்கிணைப்பாளரை அணுகவும்",
        "CONTACT_UNLOCK_CODE": "இன்றைய நாளிற்கான பூட்டுநீக்கக் குறியீட்டிற்கு உங்கள் ஆய்வு ஒருங்கிணைப்பாளரை அணுகவும்:",
        "CORE_PRODUCT_VERSION_LABEL": "தயாரிப்புப் பதிப்பு:",
        "CURRENT_DATE": "{{{ currentDate }}}",
        "CURRENT_PASSWORD": "நடப்புக் கடவுச்சொல்:",
        "DATE_LBL": "தேதி:",
        "DEACTIVATED_LABEL": "இந்த ஆய்விற்காக நீங்கள் ERT ஐப் பயன்படுத்துவது முடிந்துவிட்டது. இது தவறானது என்றால் உங்கள் ஆய்வு ஒருங்கிணைப்பாளரை அணுகவும்.",
        "DEVICE_ACTIVATION": "அமைவு",
        "DEVICE_NOT_SUPPORTED": "இந்த சாதனம் ஆதரிக்கப்படவில்லை. இந்த ஆய்வில் பயன்படுத்துவதற்காக அனுமதிக்கப்பட்ட சாதனங்கள் குறித்த தகவல்களுக்கு உங்கள் ஆய்வு ஒருங்கிணைப்பாளரை அணுகவும்.",
        "DEVICE_REACTIVATION": "சாதன அமைவு",
        "DIARY_TIMEOUT": "இந்த படிவத்திற்கான நேரம் முடிந்துவிட்டது.",
        "DOWNLOAD_FAILED": "பயன்பாடு பதிவிறக்கம் இடையில் நிறுத்தப்பட்டது. இண்டர்நெட் இணைப்பு இருக்கும் போது மீண்டும் முயற்சிக்கவும் அல்லது ERT ஆதரவு மையத்தை அணுகவும்.",
        "DOWNLOAD_FAILURE": "பதிவிற. இடை. நின்றது",
        "ENTER_NEW_PASSWORD": "புதிய கடவுச்சொல்:",
        "ERROR": "பிழை.  தயவுசெய்து ERT ஆதரவு மையத்தை அணுகவும்.",
        "ERROR_AFTER_ACTIVATION_SUCCESSFUL": "பிழை ஏற்பட்டுள்ளது. நீங்கள் உங்கள் அமைவுக் குறியீட்டையும் கடவுச்சொல்லையும் உள்ளிட வேண்டும்.",
        "ERROR_CODE": "பிழைக் குறியீடு:",
        "ERROR_TITLE": "பிழை",
        "FORGOT_PASSWORD": "கடவுச்சொல் மறந்துவிட்டதா?",
        "FORGOT_SECRET_ANSWER": "பாதுகாப்புக் கேள்வியை மறந்துவிட்டீர்களா?",
        "INCORRECT_ANSWER": "தவறான பதில்",
        "INCORRECT_UNLOCK_CODE": "தவறான பூட்டுநீக்கக் குறியீடு",
        "INSTALLING": "பயன்பாட்டை நிறுவுதல்",
        "INVALID_CODE": "செல்லாத அமைவுக் குறியீடு",
        "LOCAL_STORAGE_FAILURE": "அக சேமிப்பக செயலிழப்பு",
        "LOG_IN": "உள் நுழைக",
        "LOG_LEVEL": "பதிவு நிலை:",
        "LOGOUT": "வெளியேறுக",
        "LOGOUT_CONFIRM": "நீங்கள் நிச்சயமாக வெளியேற வேண்டுமா?",
        "NEXT": "அடுத்தது",
        "NEXT_ACTION": " இது ERT இல் உங்கள் அடுத்த செயலிற்கான நேரம் ",
        "NO_DIARIES_TITLE": "உள்ளிட அறிக்கைகள் இல்லை",
        "OK": "சரி",
        "PASSWORD": "கடவுச்சொல்:",
        "PASSWORD_ATTEMPT_EXCEEDED": "நீங்கள் பல தடவைகள் ஒரு தவறான கடவுச்சொல்லை உள்ளிட்டுள்ளீர்கள் அல்லது கடவுச்சொல்லை மறந்துவிட்டேன் என்ற இணைப்பைக் கிளிக் செய்து விட்டீர்கள்.",
        "PASSWORD_CHANGE_FAILED": "உங்கள் ஆய்வுத் தரவுகளைச் சேகரிப்பதற்காக வேறுபட்ட சாதனம் செயல்படுத்தப்பட்டுள்ளது. தயவுசெய்து, அச்சாதனத்தில் உங்கள் கடவுச்சொல்லை மாற்றுங்கள்.",
        "PASSWORD_CHANGE_SUCCESS": "உங்கள் கடவுச்சொல்லை வெற்றிகரமாக புதுப்பித்து விட்டீர்கள்.",
        "PASSWORD_INVALID": "தவறான கடவுச்சொல்",
        "PLEASE_ANSWER_SQ": "உங்கள் பாதுகாப்புக் கேள்விக்குப் பதிலளியுங்கள்:",
        "PLEASE_CONFIRM": "தயவுசெய்து உறுதிசெய்க",
        "PLEASE_CONTACT": "தயவுசெய்து ERT ஆதரவு மையத்தை அணுகவும்.",
        "PLEASE_TRY_OR_CONTACT_SUPPORT": "தயவுசெய்து மீண்டும் முயற்சிக்கவும் அல்லது ERT ஆதரவு மையத்தை அணுகவும்.",
        "PLEASE_WAIT": "காத்திருக்கவும்...",
        "PORTRAIT_ONLY": "தயவுசெய்து உங்கள் சாதனத்தை செங்குத்தாகப் பிடியுங்கள்.",
        "PRIVATE_BROWSING_ON": "தனிப்பட்ட உலாவலை அணையுங்கள். உங்களிற்கு தொடர்ந்தும் சிக்கல்கள் இருந்தால், உங்கள் ஆய்வு ஒருங்கிணைப்பாளரை அணுகவும்.",
        "PRIVACY_POLICY": "தனியுரிமைக் கொள்கை",
        "PRIVACY_POLICY_APPLICATION_UNAVAILABILITY": "ERT தனியுரிமைக் கொள்கை தற்காலிகமாகக் கிடைக்கவில்லை.",
        "PRIVACY_POLICY_ACTIVATION_UNAVAILABILITY": "ERT தனியுரிமைக் கொள்கை தற்காலிகமாகக் கிடைக்கவில்லை. ERT தனியுரிமைக் கொள்கையானது செயல்படுத்தலிற்குப் பிறகு அமைப்புகள் பக்கத்தில் கிடைக்கிறது.",
        "PROTOCOL": "வரைமுறை:",
        "REQUIRED_ANSWER": "தயவுசெய்து பதிலளிக்கவும்",
        "RETRY": "மறுமுயற்சி",
        "RESET_PASSWORD": "கடவுச்சொல்லை மீட்டமைக்கவும்",
        "RESET_SECRET_QUESTION": "பாதுகாப்புக் கேள்வியை மீட்டமை",
        "SECRET_ANSWER": "பாதுகாப்புப் பதில்:",
        "SECRET_QUESTION": "பாதுகாப்புக் கேள்வி:",
        "SECRET_QUESTION_CHANGE_FAILED": "உங்கள் ஆய்வுத் தரவுகளைச் சேகரிப்பதற்காக வேறுபட்ட சாதனம் செயல்படுத்தப்பட்டுள்ளது. தயவுசெய்து, அச்சாதனத்தில் உங்கள் பாதுகாப்புக் கேள்வியை மாற்றுங்கள்.",
        "SECRET_QUESTION_CHANGE_SUCCESS": "உங்கள் கடவுச்சொல்லையும் பாதுகாப்புக் கேள்வியையும் வெற்றிகரமாக புதுப்பித்து விட்டீர்கள்.",
        "SETTINGS": "அமைப்புகள்",
        "SITE": "தளம்:",
        "SKIP_QUESTION": "நீங்கள் நிச்சயமாக இத்திரையிலுள்ள பதில்களைத் தவிர்க்க விரும்புகிறீர்களா?",
        "SPONSOR": "நிதியுதவியளிப்பவர்:",
        "STORED_REPORTS": "சேமிக்கப்பட்ட படிவங்கள்:",
        "STUDY_VERSION": "ஆய்வு பதிப்பு: ",
        "STUDY_URL": "ஆய்வு URL:",
        "SUBJECT_ID": "நோயாளிக் குறியீடு:",
        "TEMPORARY_UNLOCK_CODE": "ஆய்வு ஒருங்கிணைப்பாளர் வழங்கிய பூட்டுநீக்க குறியீட்டை உள்ளிடவும்.",
        "TRANSMIT_REPORTS": "புதுப்பி",
        "UPDATE_CACHED_DELETED": "ERT புதுப்பிப்பு முடியவில்லை. ERT ஐப் பயன்படுத்துவதற்கு உங்களுக்கு இண்டர்நெட் இணைப்பு தேவைப்படும். தயவுசெய்து உங்கள் ERT ஆதரவு மையத்தை அணுகவும்.",
        "UPDATE_FAILED": "ERT புதுப்பிப்பு முடியவில்லை. தயவுசெய்து, இச்சாதனம் இண்டர்நெட்டுடன் இணைக்கப்பட்டிருப்பதை உறுதிசெய்து, மீண்டும் முயற்சிக்கவும்.",
        "UPDATE_FAILURE": "புதுப்பிப்பு நிறைவடையவில்லை",
        "UPDATE_SUCCESS": "புதுப்பிப்பு வெற்றி",
        "WELCOME": "வருக",
        "ALARM_OFF_LBL": "ஆஃப்",
        "ALARM_TURN_OFF": "முடக்குக",
        "SET_ALARMS": "அலாரங்களை அமை",
        "SCHED_NO_DIARIES_AVAILABLE": "இப்போது எந்த அறிக்கையும் மீதம் இல்லை",
        "TRAINER": "பயிற்சியாளர் பயன்முறை",
        "TRAINER_EXIT": "பயிற்சியாளர் பயன்முறையை விட்டு வெளியேறு",
        "TRAINER_EXIT_NOTIFICATION": "பயிற்சியாளர் பயன்முறையை விட்டு வெளியேறுகிறீர்கள்",
        "TRAINER_HEADER": "(பயிற்சியாளர்)",
        "ELPU_FAILURE": "இந்த ERT கருவியின் உங்கள் உபயோகம் முடிந்தது. ஆனாலும் ஒரு பிழை நிகழ்ந்திருக்கிறது. மீண்டும் முயற்சிக்கவும்.",
        "ELPU_ON_REPLACED_DEVICE": "இந்த ERT கருவியின் உங்கள் உபயோகம் முடிந்தது. உங்கள் மாற்றுச் சாதனத்தைப் பயன்படுத்தவும்.",
        "SECURITY_QUESTION_0": "உங்கள் அம்மாவின் கன்னிப் பெயர் என்ன?",
        "SECURITY_QUESTION_1": "நீங்கள் பிறந்த நகரம் எது?",
        "SECURITY_QUESTION_2": "உங்களின் முதல் செல்லப்பிராணியின் பெயர் என்ன?",
        "SECURITY_QUESTION_3": "உங்களுக்கு பிடித்த விளையாட்டு எது?",
        "SECURITY_QUESTION_4": "எந்த ஆண்டில் பட்டம் பெற்றீர்கள்?",
        "SECURITY_QUESTION_5": "உங்கள் முதல் குழந்தையின் பெயரின் நடுப்பகுதி என்ன?",
        "SECURITY_QUESTION_6": "உங்களுக்குப் பிடித்த குழந்தைப் பருவ நண்பரின் பெயர் என்ன?",
        "SECURITY_QUESTION_7": "உங்கள் மூன்றாம் வகுப்பு ஆசிரியரின் பெயரின் கடைசிப் பகுதி என்ன?",
        "SECURITY_QUESTION_8": "நீங்கள் முதலில் வேலை செய்த ஊர் அல்லது நகரம் எது?",
        "SELECT_SITE_USER": "தளம் பயனரின் பெயரைத் தேர்வு செய்க",
        "SITE_USER_NAME": "தளம் பயனரின் பெயர்:",
        "ADD_SITE_USER": "தளம் பயனரைச் சேர்",
        "INVALID_ENTRY": "தவறான உள்நுழைவு",
        "HANDOFF_MESSAGE": "<strong>நோயாளி தங்களது படிவ அணுகல் குறியீட்டை அமைக்க அடுத்த திரைத்தொகுதியைப் பூர்த்தி செய்ய வேண்டும்.</strong>",
        "REVERSE_HANDOFF_CONFIRM": "நீங்கள் சரி என்பதைத் தேர்வு செய்தால், செயலாக்க முறை மீண்டும் தொடங்கும். நீங்கள் நிச்சயமாக செயலாக்கத்தை மறுதுவக்கம் செய்ய விரும்புகிறீர்களா?",
        "SITE_GATEWAY_TITLE": "தள கேட்வேயில்",
        "USER_ALREADY_EXISTS": "பயனர் ஏற்கனவே உள்ளார்",
        "SITE_SIGNATURE": "இவரின் கையொப்பம்: ",
        "SITE_REPORT_AFF": "நான் உள்ளிட்டு, சரிப்பார்த்து, முன்னுள்ள தரவை உறுதி செய்கிறேன்.<br /><br /><strong>இவரின் கையொப்பம்:</strong> {{{ getActiveUserName }}}",
        "PATIENT_REPORT_AFF": "நான் உள்ளிட்டு, சரிப்பார்த்து, முன்னுள்ள தரவை உறுதி செய்கிறேன்.இவரின் கையொப்பம்<br /><br /><strong>சுருக்கெழுத்துக்கள்:</strong> {{{ getActiveUserName }}}",
        "CLEAR_SIGNATURE": "கையொப்பத்தை அழி",
        "STUDY_ALIAS": "{{{ studyAlias }}}",
        "SITE_ACTIVATED_ELSEWHERE": "நோயாளியின் ஆய்வுத் தரவினைச் சேகரிப்பதற்கு ஒரு மாறுபட்ட சாதனம் செயல்படுத்தப்பட்டுள்ளது. இது தவறாக நடந்துள்ளது என்று நீங்கள் நினைத்தால், ஆய்வு ஒருங்கிணைப்பாளரைத் தொடர்பு கொள்ளவும்.",
        "SITE_DEACTIVATED_LABEL": "இந்த ஆய்வுக்காக நோயாளியின் ERT பயன்பாடு நிறைவடைந்துவிட்டது. இது தவறாக இருந்தால், ஆய்வு ஒருங்கிணைப்பாளரை தொடர்பு கொள்ளவும்.",
        "SIGNATURE_DATA_LIMIT_EXCEEDED": "கையொப்பப் பெட்டியில் இருக்கும் கையொப்பமானது உங்களுடைய கையொப்பத்தைச் சரியாகப் பிரதிபலிக்கவில்லை. தயவுசெய்து உங்கள் முதல்பெயர்களுடன் கையொப்பமிடவும்.",
        "PAIRED": "இணைசேர்க்கப்பட்டது",
        "BLUETOOTH_REG_TITLE": "eSense சாதன இணைசேர்ப்பில்",
        "BLUETOOTH_REG_REFRESH_BUTTON": "பட்டியலை புதுப்பி",
        "BLUETOOTH_PAIR_DEVICE": "தேர்ந்தெடுக்கப்பட்ட சாதனத்தை இணைசேர்க்கவும்",
        "BLUETOOTH_PAIRING_FAILED": "தேர்ந்தெடுக்கப்பட்ட சாதனத்துடன் இணைசேர்ப்பது தோல்வி. தயவு செய்து மீண்டும் முயற்சிக்கவும்",
        "BLUETOOTH_PAIRING_SUCCESS": "தேர்ந்தெடுக்கப்பட்ட சாதனத்துடன் இணைசேர்ப்பது வெற்றி.",
        "BLUETOOTH_REG_NO_DEVICES_FOUND": "எந்த சாதனங்களும் கண்டறியப்படவில்லை. அந்த சாதனம் ERT இன் அருகிலும், அதன் பரிமாற்ற முறையில் இருப்பதை உறுதிப்படுத்தவும்.",
        "SYNC_FAILED": "சேவையகத்துடனான ஒத்திசைவு தோல்வியுற்றது.",
        "DIARY_REQUIRES_E_SENSE_SUPPORT": "eSense ஆதரிக்கப்படவில்லை. இந்தப் படிவத்திற்கு eSense ஆதரவு தேவை.",
        "ERROR_E_SENSE_ENABLE": "eSense-ஐ செயல்படுத்த முடியவில்லை.",
        "E_SENSE_NOT_PAIRED": "eSense சாதனம் எதுவும் இணைசேர்க்கப்படவில்லை. இந்த படிவத்திற்கு ஒரு இணை-eSense சாதனம் தேவை.",
        "BLUETOOTH_SYNC_FAILURE_TOP": "ERT ஆனது {{{ eSenseDeviceName }}} சாதனத்துடன் தொடர்பு கொள்ள முடியவில்லை.",
        "BLUETOOTH_SYNC_FAILURE_MIDDLE": "எண் {{{ eSenseSerialNumber }}} கொண்ட {{{ eSenseDeviceName }}} சாதனம் ERT ன் அருகிலும், அதன் பரிமாற்ற முறையிலும் இருப்பதை உறுதிப்படுத்தவும்.",
        "PLUGIN_MISSING": "தேவைப்படும் பிளக்-இன்னை ஏற்ற முடியவில்லை.",
        "WRAPPER_VERSION": "மேலுறை பதிப்பு:",
        "SUPPORT": "வாடிக்கையாளர் ஆதரவு",
        "SUPPORT_MESSAGE": "ERT ஆதரவு மையத்தை தொடர்பு கொள்ள அமெரிக்க பயனர்கள் 800-748-5669.யை தொடர்பு கொள்ளலாம். சர்வதேசப் பயனர்கள், கீழே உள்ள நெருங்கிய நாட்டை தேர்வு செய்யவும்:",
        "SUPPORT_DROPDOWN": "உங்கள் நாட்டை தேர்வு செய்யவும்",
        "SUPPORT_NAME_ARGENTINA": "அர்ஜென்டீனா",
        "SUPPORT_NUMBER_ARGENTINA": "<bdi>0800 444 0962</bdi>",
        "SUPPORT_NAME_ARMENIA": "அர்மீனியா",
        "SUPPORT_NUMBER_ARMENIA": "<bdi>+1 617 681 6306</bdi>",
        "SUPPORT_NAME_AUSTRALIA": "ஆஸ்த்ரேலியா",
        "SUPPORT_NUMBER_AUSTRALIA": "<bdi>1 800 800 051</bdi>",
        "SUPPORT_NAME_AUSTRIA": "ஆஸ்திரியா",
        "SUPPORT_NUMBER_AUSTRIA": "<bdi>0800 100 405</bdi>",
        "SUPPORT_NAME_BELARUS": "பெலாரஸ்",
        "SUPPORT_NUMBER_BELARUS": "<bdi>8 820 0321 0036</bdi>",
        "SUPPORT_NAME_BELGIUM": "பெல்ஜியம்",
        "SUPPORT_NUMBER_BELGIUM_1": "(ஆங்கிலம்): <bdi>0800 58 016</bdi>",
        "SUPPORT_NUMBER_BELGIUM_2": "(பிரெஞ்சு): <bdi>0800 71 076</bdi>",
        "SUPPORT_NUMBER_BELGIUM_3": "(ஜெர்மன்): <bdi>0800 71 113</bdi>",
        "SUPPORT_NAME_BRAZIL": "பிரேசில்",
        "SUPPORT_NUMBER_BRAZIL": "<bdi>0800 891 5909</bdi>",
        "SUPPORT_NAME_BOSNIA": "பாஸ்னியா",
        "SUPPORT_NUMBER_BOSNIA": "<bdi>+1 617 681 6306</bdi>",
        "SUPPORT_NAME_BULGARIA": "பல்கேரியா",
        "SUPPORT_NUMBER_BULGARIA": "<bdi>00800 0010</bdi>, பின்னர் <bdi>866 245 4931</bdi>",
        "SUPPORT_NAME_CANADA": "கனடா",
        "SUPPORT_NUMBER_CANADA": "<bdi>1 800 748 5669</bdi>",
        "SUPPORT_NAME_CHILE": "சில்லி",
        "SUPPORT_NUMBER_CHILE": "<bdi>123 0020 3408</bdi>",
        "SUPPORT_NAME_CHINA": "சீனா",
        "SUPPORT_NUMBER_CHINA_1": "நெட்காம் (வடக்கு): <bdi>1 0800 74 40 164</bdi>",
        "SUPPORT_NUMBER_CHINA_2": "டெலிகாம் (தெற்கு): <bdi>1 0800 44 00 158</bdi>",
        "SUPPORT_NAME_COLOMBIA": "கொலம்பியா",
        "SUPPORT_NUMBER_COLOMBIA": "<bdi>01 800 911.0010</bdi>, பின்னர் <bdi>866 310 3707</bdi>",
        "SUPPORT_NAME_COSTA_RICA": "காஸ்டா ரிக்கா",
        "SUPPORT_NUMBER_COSTA_RICA": "<bdi>0800 013 1210</bdi>",
        "SUPPORT_NAME_CROATIA": "குரோஷியா",
        "SUPPORT_NUMBER_CROATIA": "<bdi>0800 222 953</bdi>",
        "SUPPORT_NAME_CZECH_REPUBLIC": "செக் ரிபப்ளிக்",
        "SUPPORT_NUMBER_CZECH_REPUBLIC": "<bdi>800 142 150</bdi>",
        "SUPPORT_NAME_DENMARK": "டென்மார்க்",
        "SUPPORT_NUMBER_DENMARK": "<bdi>80 60 00 09</bdi>",
        "SUPPORT_NAME_EGYPT": "எகிப்து",
        "SUPPORT_NUMBER_EGYPT": "<bdi>02 510 0200</bdi>, பின்னர் <bdi>866 310 3707</bdi>",
        "SUPPORT_NAME_EL_SALVADOR": "எல் சால்வடார்",
        "SUPPORT_NUMBER_EL_SALVADOR": "<bdi>+1 617 681 6306</bdi>",
        "SUPPORT_NAME_ESTONIA": "ஈஸ்டானியா",
        "SUPPORT_NUMBER_ESTONIA": "<bdi>800 00 44 154</bdi>",
        "SUPPORT_NAME_FINLAND": "பின்லாந்து",
        "SUPPORT_NUMBER_FINLAND": "<bdi>0800 11 6366</bdi>",
        "SUPPORT_NAME_FRANCE": "பிரான்ஸ்",
        "SUPPORT_NUMBER_FRANCE": "<bdi>0800 10 19 79</bdi>",
        "SUPPORT_NAME_GERMANY": "ஜெர்மனி",
        "SUPPORT_NUMBER_GERMANY": "<bdi>0800 101 28 21</bdi>",
        "SUPPORT_NAME_GREECE": "கிரீஸ்",
        "SUPPORT_NUMBER_GREECE": "<bdi>00 800 1311</bdi>, பின்னர் <bdi>866 310 3707</bdi>",
        "SUPPORT_NAME_GUATEMALA": "குவாதமாலா",
        "SUPPORT_NUMBER_GUATEMALA": "<bdi>1 800 624 0079</bdi>",
        "SUPPORT_NAME_HONG_KONG": "ஹாங்காங்",
        "SUPPORT_NUMBER_HONG_KONG": "<bdi>3002 1665</bdi>",
        "SUPPORT_NAME_HUNGARY": "ஹங்கேரி",
        "SUPPORT_NUMBER_HUNGARY": "<bdi>06 800 14 571</bdi>",
        "SUPPORT_NAME_ICELAND": "ஐஸ்லாந்து",
        "SUPPORT_NUMBER_ICELAND": "<bdi>800 8544</bdi>",
        "SUPPORT_NAME_INDIA": "இந்தியா",
        "SUPPORT_NUMBER_INDIA": "<bdi>000 800 440 1125</bdi>",
        "SUPPORT_NAME_INDONESIA": "இந்தோனேஷியா",
        "SUPPORT_NUMBER_INDONESIA": "<bdi>008 800 330 334</bdi>",
        "SUPPORT_NAME_IRELAND": "அயர்லாந்து",
        "SUPPORT_NUMBER_IRELAND": "<bdi>1 800 946 700</bdi>",
        "SUPPORT_NAME_ISRAEL": "இஸ்ரேல்",
        "SUPPORT_NUMBER_ISRAEL": "<bdi>1 809 470 062</bdi>",
        "SUPPORT_NAME_ITALY": "இத்தாலி",
        "SUPPORT_NUMBER_ITALY": "<bdi>800 90 56 37</bdi>",
        "SUPPORT_NAME_JAPAN": "ஜப்பான்",
        "SUPPORT_NUMBER_JAPAN": "உங்களது ஆய்வின் இலவச-உதவி எண்ணிற்கு தயவுசெய்து உங்களது ePRO ஆய்வுத் தகவல் வழிகாட்டுதலைப் பார்க்கவும்.",
        "SUPPORT_NAME_LATVIA": "லேட்வியா",
        "SUPPORT_NUMBER_LATVIA": "<bdi>8000 2151</bdi>",
        "SUPPORT_NAME_LEBANON": "லெபனான்",
        "SUPPORT_NUMBER_LEBANON": "<bdi>01-426-801</bdi> பின்னர் <bdi>866 310 3707</bdi>",
        "SUPPORT_NAME_LITHUANIA": "லிதோனியா",
        "SUPPORT_NUMBER_LITHUANIA": "<bdi>8800 30207</bdi>",
        "SUPPORT_NAME_MALAYSIA": "மலேஷியா",
        "SUPPORT_NUMBER_MALAYSIA": "<bdi>1800 80 59 71</bdi>",
        "SUPPORT_NAME_MEXICO": "மெக்சிகோ",
        "SUPPORT_NUMBER_MEXICO_1": "(ஆங்கிலம்): <bdi>001 800 748 5669</bdi> ",
        "SUPPORT_NUMBER_MEXICO_2": "(ஸ்பானிஷ்): <bdi>001 855 631 6952</bdi>",
        "SUPPORT_NAME_MOLDOVA": "மோல்டோவா",
        "SUPPORT_NUMBER_MOLDOVA": "<bdi>617 681 6306</bdi>",
        "SUPPORT_NAME_NETHERLANDS": "நெதர்லாந்து",
        "SUPPORT_NUMBER_NETHERLANDS": "<bdi>0800 023 1389</bdi>",
        "SUPPORT_NAME_NEW_ZEALAND": "நியூசிலாந்து",
        "SUPPORT_NUMBER_NEW_ZEALAND": "<bdi>0800 110 178</bdi>",
        "SUPPORT_NAME_NORWAY": "நார்வே",
        "SUPPORT_NUMBER_NORWAY": "<bdi>800 62 051</bdi>",
        "SUPPORT_NAME_PAKISTAN": "பாகிஸ்தான்",
        "SUPPORT_NUMBER_PAKISTAN": "<bdi>00 800 0100</bdi>, பின்னர் <bdi>866 237 9767</bdi>",
        "SUPPORT_NAME_PANAMA": "பனாமா",
        "SUPPORT_NUMBER_PANAMA": "<bdi>001 800 201 3095</bdi>",
        "SUPPORT_NAME_PERU": "பெரு",
        "SUPPORT_NUMBER_PERU": "<bdi>0800 5 0974</bdi>",
        "SUPPORT_NAME_PHILIPPINES": "பிலிப்பைன்ஸ்",
        "SUPPORT_NUMBER_PHILIPPINES": "<bdi>1 800 1116 0651</bdi>",
        "SUPPORT_NAME_POLAND": "போலாந்து",
        "SUPPORT_NUMBER_POLAND": "<bdi>00800 331 1262</bdi>",
        "SUPPORT_NAME_PORTUGAL": "போர்சுகல்",
        "SUPPORT_NUMBER_PORTUGAL": "<bdi>800 206 172</bdi>",
        "SUPPORT_NAME_PUERTO_RICO": "பியுர்டோ ரிக்கோ (அமெரிக்க மாகாணம்)",
        "SUPPORT_NUMBER_PUERTO_RICO": "<bdi>1 800 748 5669</bdi>",
        "SUPPORT_NAME_ROMANIA": "ரோமானியா",
        "SUPPORT_NUMBER_ROMANIA": "<bdi>0800 894492</bdi>",
        "SUPPORT_NAME_RUSSIA": "ரஷியா",
        "SUPPORT_NUMBER_RUSSIA_1": "(முதன்மை -இலவச எண்): <bdi>8 10 800 249 13011</bdi>",
        "SUPPORT_NUMBER_RUSSIA_2": "(மாஸ்கோ உள்ளே): <bdi>363-2400</bdi> <br> பின்னர் <bdi>866 310 3707</bdi>",
        "SUPPORT_NUMBER_RUSSIA_3": "(மாஸ்கோ -வெளியே): <bdi>8^(495) 363-2400</bdi> <br> பின்னர் <bdi>866 310 3707</bdi>",
        "SUPPORT_NUMBER_RUSSIA_4": "(செயின்ட் பீட்டர்ஸ்பார்க் உள்ளே): <bdi>363-2400</bdi> <br> பின்னர் <bdi>866 310 3707</bdi>",
        "SUPPORT_NUMBER_RUSSIA_5": "(செயின்ட் பீட்டர்ஸ்பார்க் வெளியே): <bdi>8^(495) 363-2400</bdi> <br> பின்னர் <bdi>866 310 3707</bdi>",
        "SUPPORT_NAME_SAUDI_ARABIA": "சவுதி அரேபியா",
        "SUPPORT_NUMBER_SAUDI_ARABIA": "<bdi>+1 617 681 6306</bdi>",
        "SUPPORT_NAME_SERBIA": "செர்பியா",
        "SUPPORT_NUMBER_SERBIA": "<bdi>+1 617 973 1739</bdi>",
        "SUPPORT_NAME_SINGAPORE": "சிங்கப்பூர்",
        "SUPPORT_NUMBER_SINGAPORE": "<bdi>800 616 30 03</bdi>",
        "SUPPORT_NAME_SLOVAKIA": "ஸ்லோவாகியா",
        "SUPPORT_NUMBER_SLOVAKIA": "<bdi>0800 0044 65</bdi>",
        "SUPPORT_NAME_SLOVENIA": "சுலோவீனியா",
        "SUPPORT_NUMBER_SLOVENIA": "<bdi>+1 617 681 6306</bdi>",
        "SUPPORT_NAME_SOUTH_AFRICA": "தென் ஆப்ரிகா",
        "SUPPORT_NUMBER_SOUTH_AFRICA": "<bdi>0800 99 5853</bdi>",
        "SUPPORT_NAME_SOUTH_KOREA": "தென் கொரியா",
        "SUPPORT_NUMBER_SOUTH_KOREA": "<bdi>00308 33 00 08</bdi>",
        "SUPPORT_NAME_SPAIN": "ஸ்பெயின்",
        "SUPPORT_NUMBER_SPAIN": "<bdi>900 90 2541</bdi>",
        "SUPPORT_NAME_SWEDEN": "ஸ்வீடன்",
        "SUPPORT_NUMBER_SWEDEN": "<bdi>020 120 99 69</bdi>",
        "SUPPORT_NAME_SWITZERLAND": "சுவிட்சர்லாந்து",
        "SUPPORT_NUMBER_SWITZERLAND_1": "(ஆங்கிலம்): <bdi>0800 199 325</bdi>",
        "SUPPORT_NUMBER_SWITZERLAND_2": "(பிரெஞ்சு): <bdi>0800 891 183</bdi>",
        "SUPPORT_NUMBER_SWITZERLAND_3": "(ஜெர்மன்): <bdi>0800 891 025</bdi>",
        "SUPPORT_NAME_TAIWAN": "தைவான்",
        "SUPPORT_NUMBER_TAIWAN": "<bdi>00801 33 33 42</bdi>",
        "SUPPORT_NAME_THAILAND": "தாய்லாந்து",
        "SUPPORT_NUMBER_THAILAND": "<bdi>1 800 33 140 353</bdi>",
        "SUPPORT_NAME_TUNISIA": "துனிஷியா",
        "SUPPORT_NUMBER_TUNISIA": "<bdi>+1 617 681 6306</bdi>",
        "SUPPORT_NAME_TURKEY": "துருக்கி",
        "SUPPORT_NUMBER_TURKEY": "<bdi>00 800 151 1335</bdi>",
        "SUPPORT_NAME_UKRAINE": "உக்ரைன்",
        "SUPPORT_NUMBER_UKRAINE": "<bdi>0^00 11</bdi>, பின்னர் <bdi>866 245 4931</bdi>",
        "SUPPORT_NAME_UAE": "யுனைடட் அராப் எமிரேட்ஸ்",
        "SUPPORT_NUMBER_UAE": "<bdi>8000-021</bdi>, பின்னர் <bdi>866 310 3707</bdi>",
        "SUPPORT_NAME_UK": "யுனைடட் கிங்டம்",
        "SUPPORT_NUMBER_UK": "<bdi>0800 015 0408</bdi>",
        "SUPPORT_NAME_US": "யுனைடட் ஸ்டேட்ஸ்",
        "SUPPORT_NUMBER_US_1": "(முதன்மை): <bdi>1 800 748 5669</bdi>",
        "SUPPORT_NUMBER_US_2": "(பாக் அப்): <bdi>1 877 748 5669</bdi>",
        "SUPPORT_NAME_VENEZUELA": "வெனின்சுலா",
        "SUPPORT_NUMBER_VENEZUELA_1": "(ஆங்கிலம்): <bdi>0 800 552 6288</bdi> <br> பின்னர் <bdi>866 310 3707</bdi> ",
        "SUPPORT_NUMBER_VENEZUELA_2": "(ஸ்பானிஷ்): <bdi>0 800 100 3063</bdi> ",
        "USER_NAME": "பயனர்பெயர்:",
        "SUBJECT_ROLE": "நோயாளிக் குறியீடு: {{{ getParticipantCode }}}",
        "SITE_ROLE": "தள பயனர்",
        "TEMPORARY_PASSWORD_MESSAGE": "புதிய பயனருக்கு தற்காலிகமான கடவுச்சொல்லை வழங்கவும். அவர்கள் உள்நுழைவு செய்தபிறகு புதிய கடவுச்சொல்லை உருவாக்குமாறு கேட்டுக் கொள்ளப்படுவார்கள்.",
        "SHARED_PASSWORD_MESSAGE": "புதிய பயனரின் கடவுச்சொல் StudyWorks -இல் இருந்து எடுக்கப்படவேண்டும்.",
        "TEMP_PASSWORD": "தற்காலிக கடவுச்சொல்: ",
        "ROLES": "பங்கு:",
        "LANGUAGE": "மொழி:",
        "FULL_NAME": "முழுப்பெயர்:",
        "CONFIRM_TEMP_PASS": "தற்காலிக கடவுச்சொல்லை உறுதிசெய்க:",
        "PASSWORD_MISMATCH": "கடவுச்சொல்லுடன் கடவுச்சொல் உறுதிசெய்தல் பொருந்தவில்லை",
        "PASSWORD_INVALID_CHARACTERS": "தயவுசெய்து எண்களை மட்டுமே பயன்படுத்தவும்",
        "USER_NAME_INVALID_CHARACTERS": "தயவுசெய்து சிறப்பு எழுத்துக்குறிகளை பயன்படுத்தவேண்டாம்",
        "USER_NAME_MORE_THAN_25": "தயவுசெய்து 25 எழுத்துக்குறிகள் அல்லது அதற்கும் குறைவாகப் பயன்படுத்தவும்",
        "PRIVACY_POLICY_VERSION_LABEL": "பதிப்பு: ",
        "PRIVACY_POLICY_VERSION": "1.6.0",
        "PRIVACY_POLICY_LAST_UPDATED_LABEL": "கடைசியாக புதுப்பித்தது: ",
        "PRIVACY_POLICY_LAST_UPDATED": "21 ஜன 2014",
        "PRIVACY_POLICY_TEXT_LABEL": "தனியுரிமை பற்றி: ",
        "PRIVACY_POLICY_TEXT": "நீங்கள் நிறுவவுள்ள மென்பொருளை ERT வழங்குகிறது. ERT ஆனது, உங்கள் ஆய்விடத்தின் அனுமதி இல்லாமல் நீங்கள் யார் என்பதை எவருமே அறிய மாட்டார்கள் என்பதை உறுதிசெய்வதற்காக உங்கள் மருத்துவக சோதனை ஆய்விடத்துடன் பணிபுரிகிறது. உங்கள் ஆய்விடத்தின் வழியாக மறுஆய்வுக்கான ஏற்பாடுகளைச் செய்வதன் மூலம் உங்கள் பதிவுகளைப் பார்க்க உங்களிற்கு உரிமையளிக்கப்படுகிறது.",
        "SUBJECT_REPORT_AFF": "என்னால் இயன்றவரை எல்லாக் கேள்விகளுக்கும் பதிலளித்திருக்கிறேன் என்பதை நான் தெரிவித்துக்கொள்கிறேன்.",
        "SUBJECT_INITIALS_LABEL": "நோயாளியின் சுருக்கொப்பம்:",
        "SUBJECT": "நோயாளி",
        "SET_TIMEZONE": "நேர மண்டலத்தை அமை",
        "SET_TIMEZONE_MESSAGE": "உங்கள் நேர மண்டலத்தைத் தேர்ந்தெடுக்கவும்:",
        "SET_TIMEZONE_BUTTON": "அமை",
        "TIME_ZONE_CONFIRM_HEADER": "நேர மண்டல மாற்ற உறுதி",
        "TIME_ZONE_CONFIRM": "நீங்கள் நிச்சயம் நேர மண்டலத்தை மாற்ற விரும்புகிறீர்களா? மாற்றத்தைச் செயல்படுத்துவதற்காக, இந்தப் பயன்பாடு மீள்துவக்கம் செய்யும்.",
        "TIME_ZONE_EUROPE_KALININGRAD": "ஐரோப்பா/காலினின்கிராடு",
        "TIME_ZONE_EUROPE_MOSCOW": "ஐரோப்பா/மாஸ்கோ",
        "TIME_ZONE_ASIA_KARACHI": "ஆசியா/கராச்சி",
        "TIME_ZONE_ASIA_YEKATERINBURG": "ஆசியா/இக்காட்டரின்பெர்க்",
        "TIME_ZONE_ASIA_NOVOSIBIRSK": "ஆசியா/நோவோசிபிர்ஸ்க்",
        "TIME_ZONE_ASIA_KRASNOYARSK": "ஆசியா/க்ராஸ்நோயார்க்",
        "TIME_ZONE_ASIA_IRKUTSK": "ஆசியா/இர்குஸ்க்",
        "TIME_ZONE_ASIA_YAKUTSK": "ஆசியா/யாகுஸ்க்",
        "TIME_ZONE_ASIA_VLADIVOSTOK": "ஆசியா/வ்லாடிவோஸ்டாக்",
        "TIME_ZONE_ASIA_KAMCHATKA": "ஆசியா/காம்சட்கா",
        "AF-ZA": "ஆஃப்ரிக்கான்ஸ்",
        "AR-EG": "அரபிக்",
        "BE-BY": "பெலாருஸியன்",
        "BG-BG": "பல்கேரியன்",
        "BN-IN": "பெங்காலி",
        "BS-BA": "போஸ்னியன்",
        "CA-ES": "கேட்டலன்",
        "CS-CZ": "செக்",
        "DA-DK": "டானிஷ்",
        "DE-DE": "ஜெர்மன் (ஜெர்மனி)",
        "DE-AT": "ஜெர்மன் (ஆஸ்திரியா)",
        "EL-GR": "கிரேக்கம்",
        "EN-GB": "ஆங்கிலம் (யுகே)",
        "EN-US": "ஆங்கிலம் (யுஎஸ்)",
        "ES-ES": "ஸ்பேனிஷ் (ஸ்பெயின்)",
        "ES-US": "ஸ்பேனிஷ் (யுஎஸ்)",
        "ES-PY": "ஸ்பேனிஷ் (யூனிவர்சல்)",
        "ET-EE": "எஸ்டோனியன்",
        "FI-FI": "ஃபீனிஷ்",
        "FR-CA": "பிரெஞ்சு (கனடா)",
        "FR-FR": "பிரெஞ்சு (பிரான்ஸ்)",
        "GD-IE": "கியாலிக்",
        "GU-IN": "குஜராத்தி",
        "HE-IL": "ஹீப்ரூ",
        "HI-IN": "ஹிந்தி",
        "HR-HR": "குரோஷியன்",
        "HU-HU": "ஹங்கேரியன்",
        "IT-IT": "இத்தாலியன்",
        "JA-JP": "ஜப்பானீஸ்",
        "KA-GE": "ஜார்ஜியன்",
        "KN-IN": "கன்னடா",
        "KO-KR": "கொரியன்",
        "LV-LV": "லாத்வியன்",
        "LT-LT": "லித்துவேனியன்",
        "ML-IN": "மலையாளம்",
        "MR-IN": "மராத்தி",
        "MS-MY": "மலாய்",
        "NB-NO": "நார்வேஜியன்",
        "NL-BE": "டச்சு (பெல்ஜியம்)",
        "NL-NL": "டச்சு (நெதர்லாந்து)",
        "PA-IN": "பஞ்சாபி",
        "PL-PL": "போலீஷ்",
        "PT-BR": "போர்ச்சுகீசு (பிரேசில்)",
        "PT-PT": "போர்ச்சுகீசு (போர்ச்சுக்கல்)",
        "RO-RO": "ரோமானியன்",
        "RU-RU": "ரஷ்யன்",
        "SL-SL": "ஸ்லோவேனியன்",
        "SK-SK": "ஸ்லோவாக்",
        "SR-RS": "செர்பியன் (லத்தீன்)",
        "SR-SP": "செர்பியன் (சிரிலிக்)",
        "ST-ZA": "சோத்தோ",
        "SV-SE": "ஸ்வீடிஷ்",
        "TA-IN": "தமிழ்",
        "TE-IN": "தெலுங்கு",
        "TH-TH": "தாய்",
        "TL-PH": "தாகாலாக்",
        "TN-ZA": "ஸ்வானா",
        "TR-TR": "டர்க்கிஷ்",
        "UK-UA": "உக்ரேனியன்",
        "UR-IN": "உருது",
        "VI-VN": "வியட்னாமீஸ்",
        "XH-ZA": "ஸோஸா",
        "ZH-CN": "சைனீஸ் (சீனா)",
        "ZH-TW": "சைனீஸ் (தைவான்)",
        "ZU-ZU": "ஸுலு",
        "NO_RESULTS_FOUND": "முடிவுகள் ஏதும் கிடைக்கப்பெறவில்லை.",
        "USER": "பயனர்",
        "SYNC": "ஒத்திசைவு",
        "TIME_LBL": "நேரம்:",
        "SET_TIME": "நேரத்தை அமை",
		"NEW_USER": "புதிய பயனர் நாட்குறிப்பைச் சேர்",
        "NEW_USER_CREATED": "புதிய பயனர் உருவாக்கப்பட்டார்",
        "TIME_ZONE_SET_CONFIRM": "நிச்சயமாக இந்த நேர மண்டலத்தை அமைக்க விரும்புகிறீர்களா: <bdi>{{{ selectedTimeZone }}}</bdi>? <br/> மாற்றத்தைச் செயல்படுத்த இந்தப் பயன்பாடு மீள்துவக்கம் செய்யும்.",
        "TIME_ZONE_SET_CONFIRM_NOCHANGE": "நிச்சயமாக இந்த நேர மண்டலத்தை அமைக்க விரும்புகிறீர்களா: <bdi>{{{ selectedTimeZone }}}</bdi>?",
        "TIME_ZONE_SET_HEADER": "நேர மண்டல அமைப்பு உறுதிசெய்தல்",
        "TIME_ZONE_ERROR_HEADER": "நேர மண்டலப் பிழை",
        "TIME_ZONE_ERROR_MSG": "நேர மண்டல பட்டியலைப் பெறும்போது பிழை ஏற்பட்டுள்ளது. கூடுதல் உதவிக்குத் தயவுசெய்து ERT ஆதரவு மையத்தைத் தொடர்பு கொள்ளுங்கள்.",
        "TIME_ZONE_SET_ERROR_MSG": "நேர மண்டலத்தை நிர்ணயிக்கும்போது பிழை ஏற்பட்டுள்ளது. கூடுதல் உதவிக்குத் தயவுசெய்து ERT ஆதரவு மையத்தைத் தொடர்பு கொள்ளுங்கள்.",
        "TIME_CONFIRMATION_INSTRUCTIONS": "சாதனம் உங்களது உள்ளூர் நேரத்தை உறுதிசெய்ய வேண்டும். நம்பகமான மூலத்திலிருந்து உங்கள் தேதி மற்றும் நேரத்தை உள்ளிடவும்.",
        "LOW_BATTERY": "எச்சரிக்கை: பேட்டரி ஆற்றல் குறைவாக உள்ளது. ரீசார்ஜ் செய்வதற்குத் தயவுசெய்து சாதனத்தைச் சொருகுங்கள்.",
        "CRITICAL_BATTERY": "எச்சரிக்கை: பேட்டரி ஆற்றல் மிகவும் குறைவாக உள்ளது. சாதனத்திற்கு மீண்டும் சார்ஜ் ஏற்ற, செருகவும், அல்லது அதன் இயக்கம் நிறுத்தப்படும்.",
        "SITE_ADMINISTRATOR": "தள நிர்வாகி",
        "TIME_CONFIRMATION_HEADER": "தேதி/நேரத்தை உறுதிப்படுத்தவும்",
        "TIMESLIP_ERROR": "உங்கள் சாதனத்தில் உள்ள நேரம் அல்லது தேதி தவறானதாக உள்ளது. இணைய இணைப்பு உள்ள இருப்பிடத்துக்குச் சென்று மீண்டும் முயற்சிக்கவும். உங்களுக்குத் தொடர்ந்து சிக்கல் ஏற்பட்டால், ERT வாடிக்கையாளர் பராமரிப்பைத் தொடர்புகொள்ளவும்.",
        "P_AFFIDAVIT_HEADER": "<div><strong>தளம்: {{{ getSiteCodeForSubject }}}</strong><br /><strong>நோயாளி ID {{{ getParticipantCodeForSubject }}}</strong></div>",
        "RESTART_NOTIFICATION_HEADER": "மறுதொடக்கம் செய்ய வேண்டும்",
        "RESTART_NOTIFICATION_MSG": "நேர மண்டலம் மாற்றப்பட்டுவிட்டது. பயன்பாடு இன்னும் {{{ timeZoneChangeRestartCountdown }}} நொடிகளில் மறுதொடக்கம் செய்யும்.",
        "RESTART_NOW": "மீண்டும் தொடங்கு",
        "SECONDS": "நொடிகள்",
        "MINUTES": "நிமிடங்கள்",
        "SELECT_LANGUAGE": "தயவுசெய்து ஆய்வுக்குட்படுநர் விரும்பும் மொழி ஒன்றைத் தேர்வுசெய்யுங்கள்.",
        "ACCEPT": "ஏற்கிறேன்",
        "DECLINE": "மறுக்கிறேன்",
        "EULA": "இறுதிப் பயனர் உரிமம்",
        "EULA_TEXT": "<p><strong><span class=\"text-underline\">முக்கியம்</span>:  நீங்கள் இந்த ஒப்பந்தத்தைப் படித்து முடிக்கும் வரை, ஏற்கிறேன் என்ற பொத்தானைக் கிளிக் செய்ய வேண்டாம்.  ஏற்கிறேன் என்ற பொத்தானைக் கிளிச் செய்வதன் மூலம், இந்த ஒப்பந்தத்தின் விதிமுறைகள் அனைத்தையும் ஏற்கிறீர்கள்.  இந்த ஒப்பந்தத்தின் விதிமுறைகள் அனைத்தையும் நீங்கள் ஏற்கவில்லை என்றால், (1) \"ஏற்கிறேன் என்ற\" பொத்தானைக் கிளிக் செய்ய வேண்டாம், (2) \"மறுக்கிறேன் என்ற\" பொத்தானைக் கிளிக் செய்து, நிறுவலையும் உரிமம் அளித்தல் செயலையும் இடைநிறுத்தவும்.</strong></p><p>மருத்துவச் சோதனை ஒப்பந்தத்தில் உங்கள் பங்கேற்பாளருடன் தொடர்பாக இச்சாதனத்தில் (\"மென்பொருள்]\")உள்ளமைத்துள்ள eResearchTechnology, இன்ங். மென்பொருளைப் பயன்படுத்த, eResearchTechnology, இன்ங். (\"உரிமம் அளித்தவர்\"), தனிப்பட்டதல்லாத, மாற்ற இயலாத உரிமையை உங்களுக்கு வழங்கும்: <strong>{{{ clinicalTrial }}}</strong>.  eResearchTechnology, இன்ங். மென்பொருளை வழங்கப்பட்ட காப்புரிமைகள் மற்றும் பிற நிலுவையிலுள்ள காப்புறுமைகளால் பாதுகாக்கப்படுகிறது.  இந்த ஒப்பந்தம் உங்களுக்கு எந்தவொரு மென்பொருளிலும் (அல்லது அவற்றின் நகல்கள் எதிலும்) உடைமையுரிமைகள் எதையும் அளிக்காது, ஆனால் இந்த ஒப்பந்தத்தின் விதிமுறைகளுக்கு இணங்க மென்பொருளைப் பயன்படுத்துவதற்கு மட்டும் ஒரு உரிமத்தை அளிக்கும்.  மென்பொருளுக்கான தலைப்பு மற்றும் அதன் அனைத்துப் பாகங்கள் மற்றும் அவற்றில் அடக்கப்பட்டுள்ள உரிமையுடைமை மற்றும் அறிவுசார் சொத்து உரிமைகள் அனைத்தும் எல்லாச் சமயங்களிலும் உரிமம் அளிப்பவருக்கு உரியவையாகவே இருக்கும்.</p><p>நீங்கள் நேரடியாக அல்லது மறைமுகமாக, (i) மென்பொருளின் வடிவமைப்புத் தகவலைப் பெற, பாகங்களாகப் பிரிக்க அல்லது கலைக்க மாட்டேன் என்று; (ii)மென்பொருளை நகலெடுக்க, விநியோகிக்க, உற்பத்தி செய்ய, ஏற்றவாறு மாற்றியமைக்க, அதையொத்து வருவித்த பணிகளை உருவாக்க, படியெடுக்க, மொழிபெயர்க்க, வழிகாட்ட அல்லது வேறுவகையில் மாற்றியமைக்க மாட்டேன் என்று; அல்லது (iii) ஏதேனும் பதிப்புரிமை, வணிக இரகசியம் அல்லது மென்பொருள் மீது அல்லது அதில் உள்ள பிற சட்ட அறிவிப்புகளை அகற்றவோ அல்லது மாற்றவோ மாட்டேன் என்று ஏற்கிறீர்கள்.  மென்பொருளின் அங்கீகரிக்கப்படாத பயன்பாட்டைத் தடுக்கின்ற குறியீடு மென்பொருளில் இருக்கலாம் என்பதை நீங்கள் ஒப்புக்கொண்டு, ஏற்கிறீர்கள்.</p><br><p>முந்தைய அனைத்தையும் நீங்கள் ஏற்றுக்கொண்டால், தயவுசெய்து - <strong>ஏற்கிறேன்</strong> -என்பதைத் தேர்ந்தெடுங்கள் - \"ஏற்கிறேன்\" என்பதைக் கிளிக் செய்வது, உரிம விதிமுறைகளை நீங்கள் ஏற்கிறீர்கள் என்று குறிப்பிடும்.</p><p>நீங்கள் முந்தைய அனைத்தையும் ஏற்காவிட்டால் அல்லது ஏற்றுக்கொள்ள அங்கீகரிக்காவிட்டால், - <strong>மறுக்கிறேன்</strong> - என்பதைத் தேர்ந்தெடுங்கள், இச்சந்தர்ப்பத்தில், மென்பொருளுக்கான அணுகல் முடக்கப்படும்.  அங்கீகரிக்கப்பட்டால், நீங்கள் மற்றொரு நேரத்தில் ஏற்றுக்கொள்ளக் கூடும்.</p>",
        "HAND_DEVICE_SITE_TITLE": "சாதனத்தை ஆய்விடப் பயனரிடம் வழங்கவும்",
        "HAND_DEVICE_SITE_BODY": "தயவுசெய்து சாதனத்தை ஆய்விடப் பயனரிடம் வழங்கவும்.",
        "SQ-AL": "அல்பேனியன்",
        "IMAGE_FOLDER": "{{{ imageFolder }}}",
        "MODAL_OK_TEXT": "சரி",
        "BROWSER_LOAD_ERROR": "பக்கம் இல்லை. தயவுசெய்து, உங்கள் இணையம் இணைக்கப்பட்டுள்ளதா என்று சரிபார்த்து, மீண்டும் முயற்சிக்கவும்.",
		"NONEXISTENT_USER" : "யனர் காணவில்லை.",
		"NO_USER_OF_ROLE" : "அந்தப் பணியுள்ள பயனர் எவரும் இல்லை.",
		"START_VISIT_OUTSIDE_WINDOW_MSG": "உள்ளமைக்கப்பட்ட நேர அவகாசத்திற்கு வெளியேயான {{{ getVisitName }}}- உள்ளிடுங்கள். {{{ startDate }}} - {{{ endDate }}}",
		"START_VISIT_HARD_STOP_MSG" : "உள்ளமைக்கப்பட்ட நேர அவகாசத்திற்கு வெளியில் {{{ getVisitName }}} ஐ உள்ளிட முடியாது. {{{ startDate }}} - {{{ endDate }}}",
		"YES" : "ஆம்",
		"NO" : "இல்லை"
    },
    "dates": {
        "setDateButtonLabel": "சரி",
        "setTimeButtonLabel": "சரி",
        "setDurationButtonLabel": "காலஅளவை அமை",
        "calTodayButtonLabel": "இன்றைய நாளிற்குத் தாவு",
        "titleDateDialogLabel": "தேதியை அமை",
        "titleTimeDialogLabel": "நேரத்தை அமை",
        "daysOfWeek": [
            "ஞாயிறு",
            "திங்கள்",
            "செவ்வாய்",
            "புதன்",
            "வியாழன்",
            "வெள்ளி",
            "சனி"
        ],
        "daysOfWeekShort": [
            "ஞா",
            "தி",
            "செ",
            "பு",
            "வி",
            "வெ",
            "ச"
        ],
        "monthsOfYear": [
            "ஜனவரி",
            "பிப்ரவரி",
            "மார்ச்",
            "ஏப்ரல்",
            "மே",
            "ஜூன்",
            "ஜூலை",
            "ஆகஸ்ட்",
            "செப்டம்பர்",
            "அக்டோபர்",
            "நவம்பர்",
            "டிசம்பர்"
        ],
        "monthsOfYearShort": [
            "ஜன",
            "பிப்",
            "மார்ச்",
            "ஏப்",
            "மே",
            "ஜூன்",
            "ஜூலை",
            "ஆகஸ்",
            "செப்",
            "அக்டோ",
            "நவம்",
            "டிசம்"
        ],
        "durationLabel": [
            "நாட்கள்",
            "மணிநேரங்கள்",
            "நிமிடங்கள்",
            "நொடிகள்"
        ],
        "durationDays": [
            "நாள்",
            "நாட்கள்"
        ],
        "tooltip": "தேதி தெரிந்தெடுப்பியைத் திற",
        "nextMonth": "அடுத்த மாதம்",
        "prevMonth": "முந்தைய மாதம்",
        "clearButton": "அழி",
        "meridiem": [
            "AM",
            "PM"
        ]
    }
}
