{
    "namespace" : "BPID",
    "language" : "fr",
    "locale" : "CA",
    "direction" : "ltr",
    "resources" : {
        "DISPLAY_NAME" : "BPI-SF",

        "BPID_BPID010_Q0_TEXT"  : "Au cours de notre vie, la plupart d’entre nous ressentent des douleurs un jour ou l’autre (maux de tête, rage de dents). Avez-vous ressenti d’autres douleurs que ce type de douleurs « familières » aujourd’hui ?",
        "BPID_BPID010_Q0_TITLE" : "",
        "BPID_BPID010_Q0_W0_A0" : "Oui",
        "BPID_BPID010_Q0_W0_A1" : "Non",

        "BPID_BPID020_Q0_TEXT"  : "Sélectionnez sur ce schéma les zones où se trouve votre douleur.",
        "BPID_BPID020_Q0_TITLE" : "",
        "BPI020_Q2_1" : " ",
        "BPI020_Q1_2": "Face",
        "BPI020_Q1_3": "Gauche",
        "BPI020_Q1_4": "Droite",
        "BPI020_Q1_5": "Dos",
        "BPI020_Q1_6": "Gauche",
        "BPI020_Q1_7": "Droite",
        "BPI020_Q2_A1" : "Pas de douleur",

        "BPID_BPID030_Q0_TEXT": "Sélectionnez les zones où se trouve votre douleur.",
        "BPID_BPID030_Q0_TITLE": "",
        "BPI030_Q1_2": "Face",
        "BPI030_Q1_3": "Gauche",
        "BPI030_Q1_4": "Droite",

        "BPID_BPID045_Q0_TEXT": "Sélectionnez les zones où se trouve votre douleur.",
        "BPID_BPID045_Q0_TITLE": "",
        "BPI045_Q1_2": "Face",
        "BPI045_Q1_3": "Gauche",
        "BPI045_Q1_4": "Droite",

        "BPID_BPID050_Q0_TEXT": "Sélectionnez les zones où se trouve votre douleur.",
        "BPID_BPID050_Q0_TITLE": "",
        "BPI050_Q1_2": "Dos",
        "BPI050_Q1_3": "Gauche",
        "BPI050_Q1_4": "Droite",

        "BPID_BPID065_Q0_TEXT": "Sélectionnez les zones où se trouve votre douleur.",
        "BPID_BPID065_Q0_TITLE": "",
        "BPI065_Q1_2": "Dos",
        "BPI065_Q1_3": "Gauche",
        "BPI065_Q1_4": "Droite",

        "BPID_BPID100_Q0_TEXT": "Indiquez sur ce schéma l’endroit où vous ressentez la douleur <u>la plus intense</u>.",
        "BPID_BPID100_Q0_TITLE": "",
        "BPI100_Q1_2": "Face",
        "BPI100_Q1_3": "Gauche",
        "BPI100_Q1_4": "Droite",
        "BPI100_Q1_5": "Dos",
        "BPI100_Q1_6": "Gauche",
        "BPI100_Q1_7": "Droite",

        "BPID_BPID110_Q0_TEXT": "Indiquez l’endroit où vous ressentez la douleur <u>la plus intense</u>.",
        "BPID_BPID110_Q0_TITLE": "",
        "BPI110_Q1_2": "Face",
        "BPI110_Q1_3": "Gauche",
        "BPI110_Q1_4": "Droite",

        "BPID_BPID125_Q0_TEXT": "Indiquez l’endroit où vous ressentez la douleur <u>la plus intense</u>.",
        "BPID_BPID125_Q0_TITLE": "",
        "BPI125_Q1_2": "Face",
        "BPI125_Q1_3": "Gauche",
        "BPI125_Q1_4": "Droite",

        "BPID_BPID130_Q0_TEXT": "Indiquez l’endroit où vous ressentez la douleur <u>la plus intense</u>.",
        "BPID_BPID130_Q0_TITLE": "",
        "BPI130_Q1_2": "Dos",
        "BPI130_Q1_3": "Gauche",
        "BPI130_Q1_4": "Droite",

        "BPID_BPID145_Q0_TEXT": "Indiquez l’endroit où vous ressentez la douleur <u>la plus intense</u>.",
        "BPID_BPID145_Q0_TITLE": "",
        "BPI145_Q1_2": "Dos",
        "BPI145_Q1_3": "Gauche",
        "BPI145_Q1_4": "Droite",

        "BPID_BPID200_Q0_TEXT": "Vous avez indiqué plus d’un endroit sur ce schéma.<br/><br/>Veuillez revenir en arrière et indiquer seulement l’endroit où vous ressentez la douleur <u>la plus intense</u>.",
        "BPID_BPID200_Q0_TITLE": "",

        "BPID_BPID210_Q0_TEXT": "L’endroit que vous avez sélectionné comme celui où vous ressentez la douleur la plus intense n’était pas sélectionné dans le premier schéma indiquant les endroits où vous ressentez la douleur.<br/><br/>Êtes-vous sûr(e) que l’endroit sélectionné pour la douleur la plus intense est correct ?",
        "BPID_BPID210_Q0_TITLE": "",
        "BPID_BPID210_Q0_W0_A0": "Non, revenir en arrière pour corriger la réponse",
        "BPID_BPID210_Q0_W0_A1": "Oui",

        "BPID_BPID300_Q0_TEXT": "SVP, sélectionnez le chiffre qui décrit le mieux la douleur <u>LA PLUS INTENSE</u> que vous ayez ressentie pendant les dernières 24 heures.",
        "BPID_BPID300_Q0_TITLE": "",
        "BPID_BPID300_Q0_W0_LeftMarker": "Pas de douleur",
        "BPID_BPID300_Q0_W0_RightMarker": "Douleur la plus horrible que vous puissiez imaginer",
        "BPID_BPID300_Q0_W0_A0": "0",
        "BPID_BPID300_Q0_W0_A1": "1",
        "BPID_BPID300_Q0_W0_A2": "2",
        "BPID_BPID300_Q0_W0_A3": "3",
        "BPID_BPID300_Q0_W0_A4": "4",
        "BPID_BPID300_Q0_W0_A5": "5",
        "BPID_BPID300_Q0_W0_A6": "6",
        "BPID_BPID300_Q0_W0_A7": "7",
        "BPID_BPID300_Q0_W0_A8": "8",
        "BPID_BPID300_Q0_W0_A9": "9",
        "BPID_BPID300_Q0_W0_A10": "10",

        "BPID_BPID310_Q0_TEXT": "SVP, sélectionnez  le chiffre qui décrit le mieux la douleur <u>LA PLUS FAIBLE</u> que vous ayez ressentie pendant les dernières 24 heures.",
        "BPID_BPID310_Q0_TITLE": "",
        "BPID_BPID310_Q0_W0_LeftMarker": "Pas de douleur",
        "BPID_BPID310_Q0_W0_RightMarker": "Douleur la plus horrible que vous puissiez imaginer",
        "BPID_BPID310_Q0_W0_A0": "0",
        "BPID_BPID310_Q0_W0_A1": "1",
        "BPID_BPID310_Q0_W0_A2": "2",
        "BPID_BPID310_Q0_W0_A3": "3",
        "BPID_BPID310_Q0_W0_A4": "4",
        "BPID_BPID310_Q0_W0_A5": "5",
        "BPID_BPID310_Q0_W0_A6": "6",
        "BPID_BPID310_Q0_W0_A7": "7",
        "BPID_BPID310_Q0_W0_A8": "8",
        "BPID_BPID310_Q0_W0_A9": "9",
        "BPID_BPID310_Q0_W0_A10": "10",

        "BPID_BPID320_Q0_TEXT": "SVP, sélectionnez le chiffre qui décrit le mieux la douleur <u>EN GÉNÉRAL</u>.",
        "BPID_BPID320_Q0_TITLE": "",
        "BPID_BPID320_Q0_W0_LeftMarker": "Pas de douleur",
        "BPID_BPID320_Q0_W0_RightMarker": "Douleur la plus horrible que vous puissiez imaginer",
        "BPID_BPID320_Q0_W0_A0": "0",
        "BPID_BPID320_Q0_W0_A1": "1",
        "BPID_BPID320_Q0_W0_A2": "2",
        "BPID_BPID320_Q0_W0_A3": "3",
        "BPID_BPID320_Q0_W0_A4": "4",
        "BPID_BPID320_Q0_W0_A5": "5",
        "BPID_BPID320_Q0_W0_A6": "6",
        "BPID_BPID320_Q0_W0_A7": "7",
        "BPID_BPID320_Q0_W0_A8": "8",
        "BPID_BPID320_Q0_W0_A9": "9",
        "BPID_BPID320_Q0_W0_A10": "10",

        "BPID_BPID330_Q0_TEXT": "SVP, sélectionnez le chiffre qui décrit le mieux la douleur <u>EN CE MOMENT</u>.",
        "BPID_BPID330_Q0_TITLE": "",
        "BPID_BPID330_Q0_W0_LeftMarker": "Pas de douleur",
        "BPID_BPID330_Q0_W0_RightMarker": "Douleur la plus horrible que vous puissiez imaginer",
        "BPID_BPID330_Q0_W0_A0": "0",
        "BPID_BPID330_Q0_W0_A1": "1",
        "BPID_BPID330_Q0_W0_A2": "2",
        "BPID_BPID330_Q0_W0_A3": "3",
        "BPID_BPID330_Q0_W0_A4": "4",
        "BPID_BPID330_Q0_W0_A5": "5",
        "BPID_BPID330_Q0_W0_A6": "6",
        "BPID_BPID330_Q0_W0_A7": "7",
        "BPID_BPID330_Q0_W0_A8": "8",
        "BPID_BPID330_Q0_W0_A9": "9",
        "BPID_BPID330_Q0_W0_A10": "10",

        "BPID_BPID340_Q0_TEXT": "Pendant les dernières 24 heures, quel soulagement les traitements ou les médicaments que vous prenez vous ont-ils apporté ? Pouvez-vous sélectionner le pourcentage d’<u>AMÉLIORATION</u> obtenue.",
        "BPID_BPID340_Q0_TITLE": "",
        "BPID_BPID340_Q0_W0_LeftMarker": "Aucune amélioration",
        "BPID_BPID340_Q0_W0_RightMarker": "Amélioration complète",
        "BPID_BPID340_Q0_W0_A0": "0%",
        "BPID_BPID340_Q0_W0_A1": "10%",
        "BPID_BPID340_Q0_W0_A2": "20%",
        "BPID_BPID340_Q0_W0_A3": "30%",
        "BPID_BPID340_Q0_W0_A4": "40%",
        "BPID_BPID340_Q0_W0_A5": "50%",
        "BPID_BPID340_Q0_W0_A6": "60%",
        "BPID_BPID340_Q0_W0_A7": "70%",
        "BPID_BPID340_Q0_W0_A8": "80%",
        "BPID_BPID340_Q0_W0_A9": "90%",
        "BPID_BPID340_Q0_W0_A10": "100%",

        "BPID_BPID350_Q0_TEXT": "Sélectionnez le chiffre qui décrit le mieux comment, pendant les dernières 24 heures, la douleur a gêné votre <u>ACTIVITÉ GÉNÉRALE</u>",
        "BPID_BPID350_Q0_TITLE": "",
        "BPID_BPID350_Q0_W0_LeftMarker": "Ne gêne pas",
        "BPID_BPID350_Q0_W0_RightMarker": "Gêne complètement",
        "BPID_BPID350_Q0_W0_A0": "0",
        "BPID_BPID350_Q0_W0_A1": "1",
        "BPID_BPID350_Q0_W0_A2": "2",
        "BPID_BPID350_Q0_W0_A3": "3",
        "BPID_BPID350_Q0_W0_A4": "4",
        "BPID_BPID350_Q0_W0_A5": "5",
        "BPID_BPID350_Q0_W0_A6": "6",
        "BPID_BPID350_Q0_W0_A7": "7",
        "BPID_BPID350_Q0_W0_A8": "8",
        "BPID_BPID350_Q0_W0_A9": "9",
        "BPID_BPID350_Q0_W0_A10": "10",

        "BPID_BPID360_Q0_TEXT": "Sélectionnez le chiffre qui décrit le mieux comment, pendant les dernières 24 heures, la douleur a gêné votre <u>HUMEUR</u>",
        "BPID_BPID360_Q0_TITLE": "",
        "BPID_BPID360_Q0_W0_LeftMarker": "Ne gêne pas",
        "BPID_BPID360_Q0_W0_RightMarker": "Gêne complètement",
        "BPID_BPID360_Q0_W0_A0": "0",
        "BPID_BPID360_Q0_W0_A1": "1",
        "BPID_BPID360_Q0_W0_A2": "2",
        "BPID_BPID360_Q0_W0_A3": "3",
        "BPID_BPID360_Q0_W0_A4": "4",
        "BPID_BPID360_Q0_W0_A5": "5",
        "BPID_BPID360_Q0_W0_A6": "6",
        "BPID_BPID360_Q0_W0_A7": "7",
        "BPID_BPID360_Q0_W0_A8": "8",
        "BPID_BPID360_Q0_W0_A9": "9",
        "BPID_BPID360_Q0_W0_A10": "10",

        "BPID_BPID370_Q0_TEXT": "Sélectionnez le chiffre qui décrit le mieux comment, pendant les dernières 24 heures, la douleur a gêné votre <u>CAPACITÉ À MARCHER</u>",
        "BPID_BPID370_Q0_TITLE": "",
        "BPID_BPID370_Q0_W0_LeftMarker": "Ne gêne pas",
        "BPID_BPID370_Q0_W0_RightMarker": "Gêne complètement",
        "BPID_BPID370_Q0_W0_A0": "0",
        "BPID_BPID370_Q0_W0_A1": "1",
        "BPID_BPID370_Q0_W0_A2": "2",
        "BPID_BPID370_Q0_W0_A3": "3",
        "BPID_BPID370_Q0_W0_A4": "4",
        "BPID_BPID370_Q0_W0_A5": "5",
        "BPID_BPID370_Q0_W0_A6": "6",
        "BPID_BPID370_Q0_W0_A7": "7",
        "BPID_BPID370_Q0_W0_A8": "8",
        "BPID_BPID370_Q0_W0_A9": "9",
        "BPID_BPID370_Q0_W0_A10": "10",

        "BPID_BPID380_Q0_TEXT": "Sélectionnez le chiffre qui décrit le mieux comment, pendant les dernières 24 heures, la douleur a gêné votre <u>TRAVAIL HABITUEL</u> <u>(y compris à l’extérieur de la maison et les travaux domestiques)</u>",
        "BPID_BPID380_Q0_TITLE": "",
        "BPID_BPID380_Q0_W0_LeftMarker": "Ne gêne pas",
        "BPID_BPID380_Q0_W0_RightMarker": "Gêne complètement",
        "BPID_BPID380_Q0_W0_A0": "0",
        "BPID_BPID380_Q0_W0_A1": "1",
        "BPID_BPID380_Q0_W0_A2": "2",
        "BPID_BPID380_Q0_W0_A3": "3",
        "BPID_BPID380_Q0_W0_A4": "4",
        "BPID_BPID380_Q0_W0_A5": "5",
        "BPID_BPID380_Q0_W0_A6": "6",
        "BPID_BPID380_Q0_W0_A7": "7",
        "BPID_BPID380_Q0_W0_A8": "8",
        "BPID_BPID380_Q0_W0_A9": "9",
        "BPID_BPID380_Q0_W0_A10": "10",

        "BPID_BPID390_Q0_TEXT": "Sélectionnez le chiffre qui décrit le mieux comment, pendant les dernières 24 heures, la douleur a gêné vos <u>RELATIONS AVEC LES AUTRES</u>",
        "BPID_BPID390_Q0_TITLE": "",
        "BPID_BPID390_Q0_W0_LeftMarker": "Ne gêne pas",
        "BPID_BPID390_Q0_W0_RightMarker": "Gêne complètement",
        "BPID_BPID390_Q0_W0_A0": "0",
        "BPID_BPID390_Q0_W0_A1": "1",
        "BPID_BPID390_Q0_W0_A2": "2",
        "BPID_BPID390_Q0_W0_A3": "3",
        "BPID_BPID390_Q0_W0_A4": "4",
        "BPID_BPID390_Q0_W0_A5": "5",
        "BPID_BPID390_Q0_W0_A6": "6",
        "BPID_BPID390_Q0_W0_A7": "7",
        "BPID_BPID390_Q0_W0_A8": "8",
        "BPID_BPID390_Q0_W0_A9": "9",
        "BPID_BPID390_Q0_W0_A10": "10",

        "BPID_BPID400_Q0_TEXT": "Sélectionnez le chiffre qui décrit le mieux comment, pendant les dernières 24 heures, la douleur a gêné votre <u>SOMMEIL</u>",
        "BPID_BPID400_Q0_TITLE": "",
        "BPID_BPID400_Q0_W0_LeftMarker": "Ne gêne pas",
        "BPID_BPID400_Q0_W0_RightMarker": "Gêne complètement",
        "BPID_BPID400_Q0_W0_A0": "0",
        "BPID_BPID400_Q0_W0_A1": "1",
        "BPID_BPID400_Q0_W0_A2": "2",
        "BPID_BPID400_Q0_W0_A3": "3",
        "BPID_BPID400_Q0_W0_A4": "4",
        "BPID_BPID400_Q0_W0_A5": "5",
        "BPID_BPID400_Q0_W0_A6": "6",
        "BPID_BPID400_Q0_W0_A7": "7",
        "BPID_BPID400_Q0_W0_A8": "8",
        "BPID_BPID400_Q0_W0_A9": "9",
        "BPID_BPID400_Q0_W0_A10": "10",

        "BPID_BPID410_Q0_TEXT": "Sélectionnez le chiffre qui décrit le mieux comment, pendant les dernières 24 heures, la douleur a gêné votre <u>GOÛT DE VIVRE</u>",
        "BPID_BPID410_Q0_TITLE": "",
        "BPID_BPID410_Q0_W0_LeftMarker": "Ne gêne pas",
        "BPID_BPID410_Q0_W0_RightMarker": "Gêne complètement",
        "BPID_BPID410_Q0_W0_A0": "0",
        "BPID_BPID410_Q0_W0_A1": "1",
        "BPID_BPID410_Q0_W0_A2": "2",
        "BPID_BPID410_Q0_W0_A3": "3",
        "BPID_BPID410_Q0_W0_A4": "4",
        "BPID_BPID410_Q0_W0_A5": "5",
        "BPID_BPID410_Q0_W0_A6": "6",
        "BPID_BPID410_Q0_W0_A7": "7",
        "BPID_BPID410_Q0_W0_A8": "8",
        "BPID_BPID410_Q0_W0_A9": "9",
        "BPID_BPID410_Q0_W0_A10": "10",

        "BPID_BPID420_Q0_TEXT": "Copyright 1991 Charles S. Cleeland, PhD<br/>Pain Research Group<br/>Tous droits réservés",
        "BPID_BPID420_Q0_TITLE": ""

    }
}
