{
    "tags": {
        "allowUnknownTags": true,
        "dictionaries": ["jsdoc","closure"]
    },
    "source": {
        "include": ["app/core/widgets", "app/core/widgets/VAS/Vas.js"],
        "exclude": [
            "app/core/widgets/input",
            "app/core/widgets/review-screen",
            "app/core/widgets/validation-functions",
            "app/core/widgets/VAS/CommonProperties",
            "app/core/widgets/VAS/EQ5D",
            "app/core/widgets/VAS/BaseVas.js",
            "app/core/widgets/VAS/HorizontalVAS.js",
            "app/core/widgets/VAS/VerticalVAS.js",
            "app/core/widgets/BaseSpinner.js",
            "app/core/widgets/ConfirmationTextBox.js",
            "app/core/widgets/DateTimeWidgetBase.js",
            "app/core/widgets/MatrixBase.js",
            "app/core/widgets/ModalWidgetBase.js",
            "app/core/widgets/MultipleChoiceBase.js",
            "app/core/widgets/WidgetBase.js",
            "app/core/widgets/BaseSpinner.js",
            "app/core/widgets/RoleSelectWidget.js",
            "app/core/widgets/StaticLanguageField.js",
            "app/core/widgets/TempPasswordTextBox.js",
            "app/core/widgets/SelectWidgetBase.js",
            "app/core/widgets/SelectTimeZone.js",
            "app/core/widgets/PatientIDTextBox.js",
            "app/core/widgets/PasswordMessageWidget.js",
            "app/core/widgets/HiddenField.js",
            "app/core/widgets/AddUserTextBox.js",
            "app/core/widgets/PatientLangListRadioButton.js",
            "app/core/widgets/LanguageSelectWidget.js",
            "app/core/widgets/SecretQuestionList.js",
            "app/core/widgets/SecretAnswerTextBox.js",
            "app/core/widgets/StaticField.js",
            "app/core/widgets/StaticRoleField.js",
            "app/core/widgets/TextBoxWidgetBase.js",
            "app/core/widgets/TimeSpinner.js",
            "app/core/widgets/DateTimeSpinner.js" ]
    },
    "plugins": ["jsdoc-plugin"],
    "templates": {
        "cleverLinks": false,
        "monospaceLinks": false
    },
    "opts": {
        "destination": "doc/html/widgets",
        "recurse": true
    }
}
