{
    "namespace" : "STUDY",
    "language"  : "en",
    "locale"    : "GB",
    "direction" : "ltr",
    "resources" : {
        "PASSWORD_RULES"            : "EN-Your password must be 4 - 20 characters long.",
        "TAKE_PILL"                 : "EN-Take pill",
        "PILL_IMAGE"                : "{{{ imageFolder }}}takePill.svg",
        "TEST_INDICATOR"            : "EN-Ditto"
    }
}
