{
    "namespace" : "ICONS",
    "language"  : "da",
    "locale"    : "DK",
    "direction" : "ltr",
    "resources" : {
        "GEAR"      : "gear",
        "LOGIN"     : "arrow-r",
        "LOGOUT"    : "arrow-l",
        "BACK"      : "arrow-l",
        "NEXT"      : "arrow-r",
        "OK"        : "check",
        "CANCEL"    : "minus",
        "ADD"       : "plus"
    }
}