{
    "namespace" : "STUDY",
    "language"  : "en",
    "locale"    : "US",
    "direction" : "ltr",
    "resources" : {
        "PASSWORD_RULES"            : "Your password must be 4 - 20 characters long.",
        "TAKE_PILL"                 : "Take pill",
        "PILL_IMAGE"                : "{{{ imageFolder }}}takePill.svg",
        "TEST_INDICATOR"            : "Ditto",
        "VISIT_1" : "Visit 1",
        "VISIT_2" : "Visit 2",
        "VISIT_3" : "Visit 3",
        "VISIT_4" : "Visit 4",
        "KITCHEN_SINK_VISIT" : "Kitchen Sink Visit",
        "VISIT_6" : "Visit 6 NoOrder",
        "VISIT_7" : "Visit 7 Container",
        "VISIT_8" : "Visit 8",
        "VISIT_9" : "Visit 9",
        "VISIT_10" : "Visit 10",
        "VISIT_11" : "Visit 11",
        "VISIT_12" : "Visit 12",
        "VISIT_13" : "Visit 13",
        "VISIT_14" : "Visit 14",
        "VISIT_15" : "Visit 15",
        "VISIT_16" : "Visit 16",
        "VISIT_17" : "Visit 17",
        "VISIT_18" : "Visit 18",
        "VISIT_19" : "Visit 19",
        "VISIT_20" : "Visit 20",
        "VISIT_21" : "Visit 21",
        "VISIT_22" : "Visit 22",
        "VISIT_23" : "Visit 23",
        "VISIT_24" : "Visit 24",
        "VISIT_25" : "Visit 25",
        "VISIT_26" : "Visit 26",
        "VISIT_27" : "Visit 27",
        "VISIT_28" : "Visit 28",
        "VISIT_29" : "Visit 29",
        "VISIT_DEMO" : "Visits Workflow Demo",
        "VISIT_CUSTOM_CONFIG" : "Custom Config Visit",
        "SCREENING" : "Screening",
        "TREATMENT" : "Treatment",
        "RANDOMIZATION" : "Randomization",
        "FOLLOWUP" : "Follow-up",
        "TERMINATION" : "Termination",
        "CREATE_PERMANENT_PASSWORD": "Enter your new password. Your password must contain a minimum of 4 digits and a maximum of 8 digits.",
        "PHASE": "Phase:",
        "SUBJECT_NUMBER" : "Subject Number:",
        "SITE_CODE": "Site Code:",
        "KRPT": "KRPT:",
        "IOS_NOTIFICATION_HEADER" : "Notification",
        "IOS_NOTIFICATION_MSG" : " It is time for your next action in ERT ",
        "START_VISIT_OUTSIDE_WINDOW_TITLE": "Start Visit",
        "START_VISIT_OUTSIDE_WINDOW_MSG": "Enter {{{ getVisitName }}} outside the configured time window:<br /> {{{ startDate }}} - {{{ endDate }}}?",
        "START_VISIT_HARD_STOP_MSG": "You are unable to enter {{{ getVisitName }}} outside the configured time window:<br /> {{{ startDate }}} - {{{ endDate }}}!"
    }
}
