{
    "namespace" : "BPID",
    "language" : "de",
    "locale" : "DE",
    "direction" : "ltr",
    "resources" : {
        "DISPLAY_NAME" : "BPI-SF",

        "BPID_BPID010_Q0_TEXT"  : "Im Laufe des Lebens haben die meisten von uns von Zeit zu Zeit Schmerzen (z. B. leichte Kopfschmerzen, Zahnschmerzen, durch Verstauchungen). Hatten Sie in den letzten 24 Stunden andere als diese typischen Alltagsschmerzen?",
        "BPID_BPID010_Q0_TITLE" : "",
        "BPID_BPID010_Q0_W0_A0" : "Ja",
        "BPID_BPID010_Q0_W0_A1" : "Nein",

        "BPID_BPID020_Q0_TEXT"  : "Wählen Sie bitte in der nachstehenden Zeichnung die Stellen aus, wo Sie Schmerzen haben.",
        "BPID_BPID020_Q0_TITLE" : "",
        "BPI020_Q2_1" : " ",
        "BPI020_Q1_2": "Vorderansicht",
        "BPI020_Q1_3": "Links",
        "BPI020_Q1_4": "Rechts",
        "BPI020_Q1_5": "Rückansicht",
        "BPI020_Q1_6": "Links",
        "BPI020_Q1_7": "Rechts",
        "BPI020_Q2_A1" : "Keine Schmerzen",

        "BPID_BPID030_Q0_TEXT": "Wählen Sie die Stellen aus, wo Sie Schmerzen haben",
        "BPID_BPID030_Q0_TITLE": "",
        "BPI030_Q1_2": "Vorderansicht",
        "BPI030_Q1_3": "Links",
        "BPI030_Q1_4": "Rechts",

        "BPID_BPID045_Q0_TEXT": "Wählen Sie die Stellen aus, wo Sie Schmerzen haben",
        "BPID_BPID045_Q0_TITLE": "",
        "BPI045_Q1_2": "Vorderansicht",
        "BPI045_Q1_3": "Links",
        "BPI045_Q1_4": "Rechts",

        "BPID_BPID050_Q0_TEXT": "Wählen Sie die Stellen aus, wo Sie Schmerzen haben",
        "BPID_BPID050_Q0_TITLE": "",
        "BPI050_Q1_2": "Rückansicht",
        "BPI050_Q1_3": "Links",
        "BPI050_Q1_4": "Rechts",

        "BPID_BPID065_Q0_TEXT": "Wählen Sie die Stellen aus, wo Sie Schmerzen haben",
        "BPID_BPID065_Q0_TITLE": "",
        "BPI065_Q1_2": "Rückansicht",
        "BPI065_Q1_3": "Links",
        "BPI065_Q1_4": "Rechts",

        "BPID_BPID100_Q0_TEXT": "Markieren Sie in der nachstehenden Zeichnung die Stelle mit den <u>meisten</u> Schmerzen.",
        "BPID_BPID100_Q0_TITLE": "",
        "BPI100_Q1_2": "Vorderansicht",
        "BPI100_Q1_3": "Links",
        "BPI100_Q1_4": "Rechts",
        "BPI100_Q1_5": "Rückansicht",
        "BPI100_Q1_6": "Links",
        "BPI100_Q1_7": "Rechts",

        "BPID_BPID110_Q0_TEXT": "Markieren Sie die Stelle mit den <u>meisten</u> Schmerzen.",
        "BPID_BPID110_Q0_TITLE": "",
        "BPI110_Q1_2": "Vorderansicht",
        "BPI110_Q1_3": "Links",
        "BPI110_Q1_4": "Rechts",

        "BPID_BPID125_Q0_TEXT": "Markieren Sie die Stelle mit den <u>meisten</u> Schmerzen.",
        "BPID_BPID125_Q0_TITLE": "",
        "BPI125_Q1_2": "Vorderansicht",
        "BPI125_Q1_3": "Links",
        "BPI125_Q1_4": "Rechts",

        "BPID_BPID130_Q0_TEXT": "Markieren Sie die Stelle mit den <u>meisten</u> Schmerzen.",
        "BPID_BPID130_Q0_TITLE": "",
        "BPI130_Q1_2": "Rückansicht",
        "BPI130_Q1_3": "Links",
        "BPI130_Q1_4": "Rechts",

        "BPID_BPID145_Q0_TEXT": "Markieren Sie die Stelle mit den <u>meisten</u> Schmerzen.",
        "BPID_BPID145_Q0_TITLE": "",
        "BPI145_Q1_2": "Rückansicht",
        "BPI145_Q1_3": "Links",
        "BPI145_Q1_4": "Rechts",

        "BPID_BPID200_Q0_TEXT": "Sie haben mehr als eine Stelle in dieser Zeichnung markiert.<br/><br/>Bitte gehen Sie zurück und markieren Sie die eine Stelle mit den <u>meisten</u> Schmerzen.",
        "BPID_BPID200_Q0_TITLE": "",

        "BPID_BPID210_Q0_TEXT": "Die Stelle, die Sie als diejenige mit den meisten Schmerzen ausgewählt haben, wurde in der ersten Zeichnung nicht ausgewählt, wo Stellen angezeigt sind, an denen Sie Schmerzen haben.<br/><br/>Sind Sie sicher, dass die Stelle mit den meisten Schmerzen, die Sie ausgewählt haben, korrekt ist?",
        "BPID_BPID210_Q0_TITLE": "",
        "BPID_BPID210_Q0_W0_A0": "Nein. Zurückgehen und Eingabe korrigieren",
        "BPID_BPID210_Q0_W0_A1": "Ja",

        "BPID_BPID300_Q0_TEXT": "Bitte wählen Sie die Zahl aus, die Ihre <u>STÄRKSTEN</u> Schmerzen in den letzten 24 Stunden am besten beschreibt.",
        "BPID_BPID300_Q0_TITLE": "",
        "BPID_BPID300_Q0_W0_LeftMarker": "Keine Schmerzen",
        "BPID_BPID300_Q0_W0_RightMarker": "Schlimmsten vorstellbare Schmerzen",
        "BPID_BPID300_Q0_W0_A0": "0",
        "BPID_BPID300_Q0_W0_A1": "1",
        "BPID_BPID300_Q0_W0_A2": "2",
        "BPID_BPID300_Q0_W0_A3": "3",
        "BPID_BPID300_Q0_W0_A4": "4",
        "BPID_BPID300_Q0_W0_A5": "5",
        "BPID_BPID300_Q0_W0_A6": "6",
        "BPID_BPID300_Q0_W0_A7": "7",
        "BPID_BPID300_Q0_W0_A8": "8",
        "BPID_BPID300_Q0_W0_A9": "9",
        "BPID_BPID300_Q0_W0_A10": "10",

        "BPID_BPID310_Q0_TEXT": "Bitte wählen Sie die Zahl aus, die Ihre <u>GERINGSTEN</u> Schmerzen in den letzten 24 Stunden am besten beschreibt.",
        "BPID_BPID310_Q0_TITLE": "",
        "BPID_BPID310_Q0_W0_LeftMarker": "Keine Schmerzen",
        "BPID_BPID310_Q0_W0_RightMarker": "Schlimmsten vorstellbare Schmerzen",
        "BPID_BPID310_Q0_W0_A0": "0",
        "BPID_BPID310_Q0_W0_A1": "1",
        "BPID_BPID310_Q0_W0_A2": "2",
        "BPID_BPID310_Q0_W0_A3": "3",
        "BPID_BPID310_Q0_W0_A4": "4",
        "BPID_BPID310_Q0_W0_A5": "5",
        "BPID_BPID310_Q0_W0_A6": "6",
        "BPID_BPID310_Q0_W0_A7": "7",
        "BPID_BPID310_Q0_W0_A8": "8",
        "BPID_BPID310_Q0_W0_A9": "9",
        "BPID_BPID310_Q0_W0_A10": "10",

        "BPID_BPID320_Q0_TEXT": "Bitte wählen Sie die Zahl aus, die Ihre <u>DURCHSCHNITTLICHEN</u> Schmerzen am besten beschreibt.",
        "BPID_BPID320_Q0_TITLE": "",
        "BPID_BPID320_Q0_W0_LeftMarker": "Keine Schmerzen",
        "BPID_BPID320_Q0_W0_RightMarker": "Schlimmsten vorstellbare Schmerzen",
        "BPID_BPID320_Q0_W0_A0": "0",
        "BPID_BPID320_Q0_W0_A1": "1",
        "BPID_BPID320_Q0_W0_A2": "2",
        "BPID_BPID320_Q0_W0_A3": "3",
        "BPID_BPID320_Q0_W0_A4": "4",
        "BPID_BPID320_Q0_W0_A5": "5",
        "BPID_BPID320_Q0_W0_A6": "6",
        "BPID_BPID320_Q0_W0_A7": "7",
        "BPID_BPID320_Q0_W0_A8": "8",
        "BPID_BPID320_Q0_W0_A9": "9",
        "BPID_BPID320_Q0_W0_A10": "10",

        "BPID_BPID330_Q0_TEXT": "Bitte wählen Sie die Zahl aus, die Ihre <u>AKTUELLEN</u> Schmerzen am besten beschreibt.",
        "BPID_BPID330_Q0_TITLE": "",
        "BPID_BPID330_Q0_W0_LeftMarker": "Keine Schmerzen",
        "BPID_BPID330_Q0_W0_RightMarker": "Schlimmsten vorstellbare Schmerzen",
        "BPID_BPID330_Q0_W0_A0": "0",
        "BPID_BPID330_Q0_W0_A1": "1",
        "BPID_BPID330_Q0_W0_A2": "2",
        "BPID_BPID330_Q0_W0_A3": "3",
        "BPID_BPID330_Q0_W0_A4": "4",
        "BPID_BPID330_Q0_W0_A5": "5",
        "BPID_BPID330_Q0_W0_A6": "6",
        "BPID_BPID330_Q0_W0_A7": "7",
        "BPID_BPID330_Q0_W0_A8": "8",
        "BPID_BPID330_Q0_W0_A9": "9",
        "BPID_BPID330_Q0_W0_A10": "10",

        "BPID_BPID340_Q0_TEXT": "Wie viel Linderung haben Sie in den letzten 24 Stunden durch Schmerzbehandlung oder Medikamente erfahren? Bitte wählen Sie die Prozentzahl aus, die den Grad Ihrer <u>SCHMERZLINDERUNG</u> beschreibt.",
        "BPID_BPID340_Q0_TITLE": "",
        "BPID_BPID340_Q0_W0_LeftMarker": "Keine Linderung",
        "BPID_BPID340_Q0_W0_RightMarker": "Vollständige Linderung",
        "BPID_BPID340_Q0_W0_A0": "0%",
        "BPID_BPID340_Q0_W0_A1": "10%",
        "BPID_BPID340_Q0_W0_A2": "20%",
        "BPID_BPID340_Q0_W0_A3": "30%",
        "BPID_BPID340_Q0_W0_A4": "40%",
        "BPID_BPID340_Q0_W0_A5": "50%",
        "BPID_BPID340_Q0_W0_A6": "60%",
        "BPID_BPID340_Q0_W0_A7": "70%",
        "BPID_BPID340_Q0_W0_A8": "80%",
        "BPID_BPID340_Q0_W0_A9": "90%",
        "BPID_BPID340_Q0_W0_A10": "100%",

        "BPID_BPID350_Q0_TEXT": "Wählen Sie die Zahl aus, die angibt, wie stark Ihre Schmerzen Ihre <u>ALLGEMEINE AKTIVITÄT</u> in den letzten 24 Stunden beeinträchtigt haben.",
        "BPID_BPID350_Q0_TITLE": "",
        "BPID_BPID350_Q0_W0_LeftMarker": "Keine Beeinträchtigung",
        "BPID_BPID350_Q0_W0_RightMarker": "Vollständige Beeinträchtigung",
        "BPID_BPID350_Q0_W0_A0": "0",
        "BPID_BPID350_Q0_W0_A1": "1",
        "BPID_BPID350_Q0_W0_A2": "2",
        "BPID_BPID350_Q0_W0_A3": "3",
        "BPID_BPID350_Q0_W0_A4": "4",
        "BPID_BPID350_Q0_W0_A5": "5",
        "BPID_BPID350_Q0_W0_A6": "6",
        "BPID_BPID350_Q0_W0_A7": "7",
        "BPID_BPID350_Q0_W0_A8": "8",
        "BPID_BPID350_Q0_W0_A9": "9",
        "BPID_BPID350_Q0_W0_A10": "10",

        "BPID_BPID360_Q0_TEXT": "Wählen Sie die Zahl aus, die angibt, wie stark Ihre Schmerzen Ihre <u>STIMMUNG</u>  in den letzten 24 Stunden beeinträchtigt haben.",
        "BPID_BPID360_Q0_TITLE": "",
        "BPID_BPID360_Q0_W0_LeftMarker": "Keine Beeinträchtigung",
        "BPID_BPID360_Q0_W0_RightMarker": "Vollständige Beeinträchtigung",
        "BPID_BPID360_Q0_W0_A0": "0",
        "BPID_BPID360_Q0_W0_A1": "1",
        "BPID_BPID360_Q0_W0_A2": "2",
        "BPID_BPID360_Q0_W0_A3": "3",
        "BPID_BPID360_Q0_W0_A4": "4",
        "BPID_BPID360_Q0_W0_A5": "5",
        "BPID_BPID360_Q0_W0_A6": "6",
        "BPID_BPID360_Q0_W0_A7": "7",
        "BPID_BPID360_Q0_W0_A8": "8",
        "BPID_BPID360_Q0_W0_A9": "9",
        "BPID_BPID360_Q0_W0_A10": "10",

        "BPID_BPID370_Q0_TEXT": "Wählen Sie die Zahl aus, die angibt, wie stark Ihre Schmerzen Ihr <u>GEHVERMÖGEN</u> in den letzten 24 Stunden beeinträchtigt haben.",
        "BPID_BPID370_Q0_TITLE": "",
        "BPID_BPID370_Q0_W0_LeftMarker": "Keine Beeinträchtigung",
        "BPID_BPID370_Q0_W0_RightMarker": "Vollständige Beeinträchtigung",
        "BPID_BPID370_Q0_W0_A0": "0",
        "BPID_BPID370_Q0_W0_A1": "1",
        "BPID_BPID370_Q0_W0_A2": "2",
        "BPID_BPID370_Q0_W0_A3": "3",
        "BPID_BPID370_Q0_W0_A4": "4",
        "BPID_BPID370_Q0_W0_A5": "5",
        "BPID_BPID370_Q0_W0_A6": "6",
        "BPID_BPID370_Q0_W0_A7": "7",
        "BPID_BPID370_Q0_W0_A8": "8",
        "BPID_BPID370_Q0_W0_A9": "9",
        "BPID_BPID370_Q0_W0_A10": "10",

        "BPID_BPID380_Q0_TEXT": "Wählen Sie die Zahl aus, die angibt, wie stark Ihre Schmerzen Ihre <u>NORMALE ARBEIT (sowohl außerhalb des Hauses als auch Hausarbeit)</u> in den letzten 24 Stunden beeinträchtigt haben.",
        "BPID_BPID380_Q0_TITLE": "",
        "BPID_BPID380_Q0_W0_LeftMarker": "Keine Beeinträchtigung",
        "BPID_BPID380_Q0_W0_RightMarker": "Vollständige Beeinträchtigung",
        "BPID_BPID380_Q0_W0_A0": "0",
        "BPID_BPID380_Q0_W0_A1": "1",
        "BPID_BPID380_Q0_W0_A2": "2",
        "BPID_BPID380_Q0_W0_A3": "3",
        "BPID_BPID380_Q0_W0_A4": "4",
        "BPID_BPID380_Q0_W0_A5": "5",
        "BPID_BPID380_Q0_W0_A6": "6",
        "BPID_BPID380_Q0_W0_A7": "7",
        "BPID_BPID380_Q0_W0_A8": "8",
        "BPID_BPID380_Q0_W0_A9": "9",
        "BPID_BPID380_Q0_W0_A10": "10",

        "BPID_BPID390_Q0_TEXT": "Wählen Sie die Zahl aus, die angibt, wie stark Ihre Schmerzen Ihre <u>BEZIEHUNGEN ZU ANDEREN MENSCHEN</u> in den letzten 24 Stunden beeinträchtigt haben.",
        "BPID_BPID390_Q0_TITLE": "",
        "BPID_BPID390_Q0_W0_LeftMarker": "Keine Beeinträchtigung",
        "BPID_BPID390_Q0_W0_RightMarker": "Vollständige Beeinträchtigung",
        "BPID_BPID390_Q0_W0_A0": "0",
        "BPID_BPID390_Q0_W0_A1": "1",
        "BPID_BPID390_Q0_W0_A2": "2",
        "BPID_BPID390_Q0_W0_A3": "3",
        "BPID_BPID390_Q0_W0_A4": "4",
        "BPID_BPID390_Q0_W0_A5": "5",
        "BPID_BPID390_Q0_W0_A6": "6",
        "BPID_BPID390_Q0_W0_A7": "7",
        "BPID_BPID390_Q0_W0_A8": "8",
        "BPID_BPID390_Q0_W0_A9": "9",
        "BPID_BPID390_Q0_W0_A10": "10",

        "BPID_BPID400_Q0_TEXT": "Wählen Sie die Zahl aus, die angibt, wie stark Ihre Schmerzen Ihren <u>SCHLAF</u> in den letzten 24 Stunden beeinträchtigt haben.",
        "BPID_BPID400_Q0_TITLE": "",
        "BPID_BPID400_Q0_W0_LeftMarker": "Keine Beeinträchtigung",
        "BPID_BPID400_Q0_W0_RightMarker": "Vollständige Beeinträchtigung",
        "BPID_BPID400_Q0_W0_A0": "0",
        "BPID_BPID400_Q0_W0_A1": "1",
        "BPID_BPID400_Q0_W0_A2": "2",
        "BPID_BPID400_Q0_W0_A3": "3",
        "BPID_BPID400_Q0_W0_A4": "4",
        "BPID_BPID400_Q0_W0_A5": "5",
        "BPID_BPID400_Q0_W0_A6": "6",
        "BPID_BPID400_Q0_W0_A7": "7",
        "BPID_BPID400_Q0_W0_A8": "8",
        "BPID_BPID400_Q0_W0_A9": "9",
        "BPID_BPID400_Q0_W0_A10": "10",

        "BPID_BPID410_Q0_TEXT": "Wählen Sie die Zahl aus, die angibt, wie stark Ihre Schmerzen Ihre <u>LEBENSFREUDE/ LEBENSQUALITÄT</u> in den letzten 24 Stunden beeinträchtigt haben.",
        "BPID_BPID410_Q0_TITLE": "",
        "BPID_BPID410_Q0_W0_LeftMarker": "Keine Beeinträchtigung",
        "BPID_BPID410_Q0_W0_RightMarker": "Vollständige Beeinträchtigung",
        "BPID_BPID410_Q0_W0_A0": "0",
        "BPID_BPID410_Q0_W0_A1": "1",
        "BPID_BPID410_Q0_W0_A2": "2",
        "BPID_BPID410_Q0_W0_A3": "3",
        "BPID_BPID410_Q0_W0_A4": "4",
        "BPID_BPID410_Q0_W0_A5": "5",
        "BPID_BPID410_Q0_W0_A6": "6",
        "BPID_BPID410_Q0_W0_A7": "7",
        "BPID_BPID410_Q0_W0_A8": "8",
        "BPID_BPID410_Q0_W0_A9": "9",
        "BPID_BPID410_Q0_W0_A10": "10",

        "BPID_BPID420_Q0_TEXT": "Copyright 1991 Charles S. Cleeland, PhD<br/>Pain Research Group<br/>Alle Rechte vorbehalten",
        "BPID_BPID420_Q0_TITLE": ""

    }
}
